Division,WeightClassKg,Place,Name,Team,BodyweightKg,Best3SquatKg,Best3BenchKg,Best3DeadliftKg,TotalKg,Equipment,Event,Sex,BirthDate
Boys,51.71,1,Enrique Davila,San Saba,51.71,133.81,68.04,145.15,347,Single-ply,SBD,M,
Boys,55.79,1,Miguel Gallegos,Dublin,55.16,138.35,95.25,165.56,399.16,Single-ply,SBD,M,
Boys,55.79,2,Peyton Parnell,Waco Midway,55.25,127.01,77.11,145.15,349.27,Single-ply,SBD,M,
Boys,55.79,3,Tucker Ensinger,Bastrop,54.98,124.74,68.04,120.2,312.98,Single-ply,SBD,M,
Boys,59.87,1,Alex Vargas,Rogers,57.61,147.42,95.25,138.35,381.02,Single-ply,SBD,M,
Boys,59.87,2,Arnoldo Moreno,Dublin,57.7,147.42,77.11,156.49,381.02,Single-ply,SBD,M,
Boys,59.87,3,Adan Huron,San Saba,59.87,138.35,79.38,158.76,376.48,Single-ply,SBD,M,
Boys,59.87,4,Gabe Watkins,China Spring,57.61,136.08,63.5,136.08,335.66,Single-ply,SBD,M,
Boys,59.87,5,Franco Franco,San Saba,,124.74,68.04,133.81,326.59,Single-ply,SBD,M,
Boys,67.13,1,Sergio Watkins,China Spring,66.32,222.26,142.88,210.92,576.06,Single-ply,SBD,M,
Boys,67.13,2,Christian Watkins,Rogers,65.68,181.44,95.25,174.63,451.32,Single-ply,SBD,M,
Boys,67.13,3,Gerald Fountain,Belton,65.77,151.95,111.13,185.97,449.06,Single-ply,SBD,M,
Boys,67.13,4,Miguel Ochoa,Taylor,65.77,156.49,102.06,170.1,428.64,Single-ply,SBD,M,
Boys,67.13,5,Tyler Lawson,Georgetown,61.96,122.47,81.65,170.1,374.21,Single-ply,SBD,M,
Boys,67.13,6,Landon Marsh,Georgetown,64.41,145.15,95.25,131.54,371.95,Single-ply,SBD,M,
Boys,74.84,1,Bryan Garza,China Spring,73.21,210.92,140.61,185.97,537.51,Single-ply,SBD,M,
Boys,74.84,2,Tyrese Francis,Copperas Cove,74.75,215.46,108.86,188.24,512.56,Single-ply,SBD,M,
Boys,74.84,3,Luis Ramírez,San Saba,74.12,185.97,102.06,185.97,474,Single-ply,SBD,M,
Boys,74.84,4,Greg Davis,Taylor,74.84,154.22,127.01,158.76,439.98,Single-ply,SBD,M,
Boys,74.84,5,Seth Maughs,Georgetown,73.75,142.88,79.38,158.76,381.02,Single-ply,SBD,M,
Boys,74.84,6,Kaden Patrick,Waco Midway,71.85,124.74,65.77,147.42,337.93,Single-ply,SBD,M,
Boys,74.84,7,Jackson Selby,Waco Midway,73.39,99.79,90.72,111.13,301.64,Single-ply,SBD,M,
Boys,74.84,8,Joseph Dovey,Georgetown,68.86,99.79,56.7,108.86,265.35,Single-ply,SBD,M,
Boys,74.84,DQ,Hudson Tuma,Georgetown,70.58,113.4,,,,Single-ply,SBD,M,
Boys,74.84,DQ,Cedric Lewis,Killeen Ellison,72.76,,,,,Single-ply,SBD,M,
Boys,82.1,1,Josiah Kilgo,Belton,81.69,217.72,145.15,251.74,614.62,Single-ply,SBD,M,
Boys,82.1,2,Emmanuel Abdallah,China Spring,81.92,222.26,158.76,233.6,614.62,Single-ply,SBD,M,
Boys,82.1,3,Kj Peoples,China Spring,76.11,222.26,147.42,215.46,585.13,Single-ply,SBD,M,
Boys,82.1,4,Tim Apodoca,Belton,81.37,219.99,140.61,208.65,569.26,Single-ply,SBD,M,
Boys,82.1,5,John Hill,Rogers,76.84,213.19,120.2,213.19,546.58,Single-ply,SBD,M,
Boys,82.1,6,Kendal Parker,Copperas Cove,81.56,174.63,120.2,201.85,496.68,Single-ply,SBD,M,
Boys,82.1,7,Luis Ordoñez,Dublin,77.84,165.56,115.67,192.78,474,Single-ply,SBD,M,
Boys,82.1,8,Codey Ball,Taylor,75.39,183.7,127.01,149.69,460.4,Single-ply,SBD,M,
Boys,82.1,9,Rodney Rodgers,Waco Midway,81.28,158.76,113.4,185.97,458.13,Single-ply,SBD,M,
Boys,89.81,1,Rene Aguirre,Taylor,89.27,258.55,156.49,231.33,646.37,Single-ply,SBD,M,
Boys,89.81,2,Alan Hernandez,Georgetown,88.27,231.33,163.29,217.72,612.35,Single-ply,SBD,M,
Boys,89.81,3,Brandon Ortega,Copperas Cove,83.82,219.99,147.42,204.12,571.53,Single-ply,SBD,M,
Boys,89.81,4,Santos Lacewell,Killeen Ellison,85.09,213.19,129.27,222.26,564.72,Single-ply,SBD,M,
Boys,89.81,5,Jonah Myers,Belton,89.54,217.72,136.08,199.58,553.38,Single-ply,SBD,M,
Boys,89.81,6,Dawson Exline,China Spring,89.81,210.92,136.08,195.04,542.04,Single-ply,SBD,M,
Boys,89.81,7,Jesse Coward,Taylor,83.14,192.78,124.74,161.03,478.54,Single-ply,SBD,M,
Boys,89.81,8,Jaden Taylor,Taylor,89.09,165.56,122.47,183.7,471.74,Single-ply,SBD,M,
Boys,89.81,9,Ethan Bennett,Waco Midway,84.19,124.74,72.57,113.4,310.71,Single-ply,SBD,M,
Boys,89.81,DQ,JJ Smith,Killeen Ellison,87.82,201.85,,,,Single-ply,SBD,M,
Boys,89.81,DQ,Logan Gaskey,Bastrop,88.72,206.38,,,,Single-ply,SBD,M,
Boys,89.81,DQ,Stone Sears,San Saba,84.28,,,,,Single-ply,SBD,M,
Boys,99.79,1,Ezekiel Sherridan,Killeen Ellison,98.61,244.94,122.47,235.87,603.28,Single-ply,SBD,M,
Boys,99.79,2,Mason Liles,Thorndale,99.7,231.33,124.74,217.72,573.79,Single-ply,SBD,M,
Boys,99.79,3,Colby Franks,McGregor,94.89,240.4,122.47,192.78,555.65,Single-ply,SBD,M,
Boys,99.79,4,Bernie Ortega,Dublin,,197.31,129.27,204.12,530.7,Single-ply,SBD,M,
Boys,99.79,5,Oliver Jenkins,McGregor,97.16,185.97,142.88,199.58,528.44,Single-ply,SBD,M,
Boys,99.79,6,Blake Barrett,China Spring,97.16,204.12,108.86,188.24,501.22,Single-ply,SBD,M,
Boys,99.79,7,Seth Chavana,Taylor,92.9,165.56,92.99,183.7,442.25,Single-ply,SBD,M,
Boys,99.79,8,Alexander Diaz,Georgetown,94.53,124.74,70.31,151.95,347,Single-ply,SBD,M,
Boys,99.79,DQ,James Williams,Killeen Ellison,92.08,251.74,111.13,,,Single-ply,SBD,M,
Boys,99.79,DQ,Roston Razo,Taylor,90.63,206.38,104.33,,,Single-ply,SBD,M,
Boys,109.77,1,Esau Ortiz,Taylor,101.06,226.8,145.15,206.38,578.33,Single-ply,SBD,M,
Boys,109.77,2,Daniel Herrera,San Saba,107.59,242.67,129.27,192.78,564.72,Single-ply,SBD,M,
Boys,109.77,3,Ridic Meraz,Thorndale,109.5,217.72,124.74,208.65,551.11,Single-ply,SBD,M,
Boys,109.77,4,Michael Stanley,Dublin,105.14,210.92,142.88,188.24,542.04,Single-ply,SBD,M,
Boys,109.77,DQ,Amir Soliman,Killeen Ellison,106.78,235.87,,,,Single-ply,SBD,M,
Boys,124.74,1,Josh Jett,Georgetown,121.56,249.48,149.69,235.87,635.03,Single-ply,SBD,M,
Boys,124.74,2,Zach Montgomery,Waco Midway,122.65,233.6,124.74,233.6,591.94,Single-ply,SBD,M,
Boys,124.74,3,Victor Juarez,Dublin,122.2,208.65,127.01,219.99,555.65,Single-ply,SBD,M,
Boys,124.74,4,Devin Saucedo,Taylor,122.74,201.85,117.93,163.29,483.08,Single-ply,SBD,M,
Boys,124.74,DQ,Daylan Littlejohn,Killeen Ellison,123.1,,,,,Single-ply,SBD,M,
Boys,124.74,DQ,Cristian Ramirez,San Saba,119.75,,,,,Single-ply,SBD,M,
Boys,124.74+,1,Noe Ibarra,Georgetown,160.12,288.03,179.17,235.87,703.07,Single-ply,SBD,M,
Boys,124.74+,2,Everitt Rodgers,Killeen Ellison,142.25,263.08,192.78,244.94,700.8,Single-ply,SBD,M,
Boys,124.74+,3,Eron Ortiz,Georgetown,163.2,288.03,161.03,235.87,684.92,Single-ply,SBD,M,
Boys,124.74+,4,Dan Llanez,Copperas Cove,155.22,263.08,129.27,272.16,664.51,Single-ply,SBD,M,
Boys,124.74+,5,Tommie Holman,Copperas Cove,141.34,240.4,163.29,226.8,630.49,Single-ply,SBD,M,
Boys,124.74+,6,Hayden Hopkins,China Spring,128.55,226.8,136.08,213.19,576.06,Single-ply,SBD,M,
Boys,124.74+,7,Shawn Vega,Taylor,153.68,226.8,122.47,185.97,535.24,Single-ply,SBD,M,
