Division,WeightClassKg,Place,Name,Team,BodyweightKg,Best3SquatKg,Best3BenchKg,Best3DeadliftKg,TotalKg,Equipment,Event,Sex
Boys,55.79,1,Brett Butler,Mabank,51.94,136.08,77.11,124.74,337.93,Single-ply,SBD,M
Boys,51.71,2,Suon Paul,Kaufman,46.9,117.93,58.97,129.27,306.17,Single-ply,SBD,M
Boys,51.71,3,Ralph Bustos,Kaufman,50.53,117.93,70.31,113.4,301.64,Single-ply,SBD,M
Boys,51.71,4,Rey Rodriguez,North Forney,49.44,88.45,43.09,92.99,224.53,Single-ply,SBD,M
Boys,51.71,5,Jacob Lopez,Ferris,51.07,88.45,43.09,92.99,224.53,Single-ply,SBD,M
Boys,55.79,1,Jage Smith,Kaufman,55.34,158.76,77.11,172.37,408.23,Single-ply,SBD,M
Boys,55.79,2,Makenzie Austin,Crandall,55.7,133.81,58.97,140.61,333.39,Single-ply,SBD,M
Boys,55.79,3,Tyler Davis,Kaufman,54.43,131.54,61.23,129.27,322.05,Single-ply,SBD,M
Boys,55.79,4,Trevor Dykema,Crandall,55.25,117.93,70.31,124.74,312.98,Single-ply,SBD,M
Boys,59.87,5,Anthony Arreola,Ferris,56.02,117.93,52.16,113.4,283.5,Single-ply,SBD,M
Boys,59.87,1,Aj Durham,Kemp,57.06,172.37,104.33,163.29,439.98,Single-ply,SBD,M
Boys,67.13,2,James West,Crandall,60.06,147.42,95.25,149.69,392.36,Single-ply,SBD,M
Boys,59.87,3,Cesar Franco,Ferris,58.33,158.76,70.31,149.69,378.75,Single-ply,SBD,M
Boys,67.13,4,Artutro Ledezma,Mabank,59.96,136.08,83.91,136.08,356.07,Single-ply,SBD,M
Boys,59.87,5,Omar Galan,North Forney,58.06,111.13,68.04,124.74,303.91,Single-ply,SBD,M
Boys,67.13,1,Colin Robinson,Kaufman,66.68,185.97,90.72,174.63,451.32,Single-ply,SBD,M
Boys,67.13,2,Clay Lane,Kaufman,61.42,145.15,97.52,163.29,405.97,Single-ply,SBD,M
Boys,67.13,3,Jason Bryant,Crandall,65.59,133.81,99.79,167.83,401.43,Single-ply,SBD,M
Boys,67.13,4,Juan Hernández #9,Ferris,66.22,149.69,95.25,147.42,392.36,Single-ply,SBD,M
Boys,67.13,5,Justin Winters,Kaufman,65.77,147.42,90.72,151.95,390.09,Single-ply,SBD,M
Boys,67.13,6,Anthony Offord,Crandall,66.68,136.08,77.11,170.1,383.29,Single-ply,SBD,M
Boys,67.13,DQ,Wayne Wernicke,Kemp,65.86,122.47,63.5,,,Single-ply,SBD,M
Boys,67.13,DQ,Daniel Kresnik,North Forney,62.41,97.52,,,,Single-ply,SBD,M
Boys,74.84,1,Justin Lawler,Kemp,73.57,208.65,124.74,217.72,551.11,Single-ply,SBD,M
Boys,74.84,2,Dillon Collard,Crandall,70.67,174.63,117.93,204.12,496.68,Single-ply,SBD,M
Boys,74.84,3,JR Pena,Ferris,73.48,183.7,106.59,192.78,483.08,Single-ply,SBD,M
Boys,82.1,1,Johnny Kilgore,Kemp,76.48,222.26,136.08,217.72,576.06,Single-ply,SBD,M
Boys,82.1,2,Lapone Finley,North Forney,81.19,190.51,97.52,217.72,505.76,Single-ply,SBD,M
Boys,82.1,3,Marcus Gentry,Ferris,79.74,161.03,117.93,181.44,460.4,Single-ply,SBD,M
Boys,82.1,4,Clayton Lane,Mabank,77.02,172.37,111.13,172.37,455.86,Single-ply,SBD,M
Boys,82.1,5,Jose Juarez #3,Kaufman,81.47,161.03,95.25,170.1,426.38,Single-ply,SBD,M
Boys,82.1,6,Ben Dillon,Kemp,81.28,149.69,95.25,165.56,410.5,Single-ply,SBD,M
Boys,82.1,DQ,Collin Gaton,Mabank,80.65,113.4,,,,Single-ply,SBD,M
Boys,89.81,1,Cameron Cantrell,Mabank,89.09,195.04,140.61,192.78,528.44,Single-ply,SBD,M
Boys,89.81,2,Eduardo Garcia #6,Ferris,88.09,201.85,102.06,181.44,485.34,Single-ply,SBD,M
Boys,99.79,3,Kevin Davis,Kaufman,89.99,188.24,97.52,170.1,455.86,Single-ply,SBD,M
Boys,89.81,4,Cody Davis,Kaufman,86,176.9,97.52,176.9,451.32,Single-ply,SBD,M
Boys,89.81,DQ,Santiago Dominguez,Mabank,86.36,142.88,,,,Single-ply,SBD,M
Boys,99.79,1,Terry Jackson,North Forney,98.34,226.8,120.2,204.12,551.11,Single-ply,SBD,M
Boys,99.79,2,Devon Burris,Crandall,96.52,195.04,149.69,201.85,546.58,Single-ply,SBD,M
Boys,99.79,3,Jon Jennings,Kemp,92.62,206.38,129.27,192.78,528.44,Single-ply,SBD,M
Boys,99.79,4,John Velez,Mabank,98.52,215.46,122.47,165.56,503.49,Single-ply,SBD,M
Boys,99.79,5,Drayton Munden,Mabank,96.25,183.7,129.27,174.63,487.61,Single-ply,SBD,M
Boys,99.79,6,Martin Guerrero,Ferris,94.08,181.44,111.13,185.97,478.54,Single-ply,SBD,M
Boys,99.79,7,Garrett York,Crandall,99.61,167.83,129.27,172.37,469.47,Single-ply,SBD,M
Boys,124.74,1,James Forrest,Kemp,109.86,240.4,167.83,215.46,623.69,Single-ply,SBD,M
Boys,109.77,2,Dillion Morrison,Crandall,104.87,226.8,170.1,215.46,612.35,Single-ply,SBD,M
Boys,109.77,3,Cori Broun,Mabank,105.96,204.12,170.1,183.7,557.92,Single-ply,SBD,M
Boys,124.74,1,Cody Parker,Kemp,117.48,283.5,181.44,222.26,687.19,Single-ply,SBD,M
Boys,124.74,2,Matthew Guerra,Ferris,116.48,249.48,136.08,179.17,564.72,Single-ply,SBD,M
Boys,124.74,3,Roy Chaney,Ferris,121.47,233.6,117.93,195.04,546.58,Single-ply,SBD,M
Boys,124.74,4,Justin Tennison,Crandall,118.98,185.97,122.47,188.24,496.68,Single-ply,SBD,M
Boys,124.74,5,Trevor Adams,North Forney,123.83,188.24,95.25,167.83,451.32,Single-ply,SBD,M
Boys,124.74,6,Collin Martian,Mabank,113.22,149.69,106.59,136.08,392.36,Single-ply,SBD,M
Boys,124.74+,1,Guner Hudson,North Forney,134.35,233.6,124.74,231.33,589.67,Single-ply,SBD,M
Boys,124.74+,2,Phabien Wren,Kaufman,137.35,219.99,136.08,192.78,548.85,Single-ply,SBD,M
Boys,124.74+,3,Josue Vargus,Ferris,144.15,254.01,99.79,170.1,523.9,Single-ply,SBD,M
Boys,124.74+,4,Andre McKissack,Crandall,126.55,158.76,113.4,195.04,467.2,Single-ply,SBD,M
Boys,124.74+,5,Justin Pinson,Mabank,137.26,183.7,102.06,174.63,460.4,Single-ply,SBD,M
