Name,Division,Team,WeightClassKg,BodyweightKg,Squat1Kg,Squat2Kg,Squat3Kg,Best3SquatKg,Bench1Kg,Bench2Kg,Bench3Kg,Best3BenchKg,Deadlift1Kg,Deadlift2Kg,Deadlift3Kg,Best3DeadliftKg,TotalKg,Event,Equipment,Sex,Place
Henry Jackson,5A,Warren Central,52,,-147.42,-147.42,147.42,147.42,68.04,72.57,-77.11,72.57,158.76,-174.63,-174.63,158.76,378.75,SBD,Single-ply,M,1
Lorenzo Clark,5A,Vicksburg,52,51.37,106.59,115.67,-131.54,115.67,77.11,-81.65,-81.65,77.11,136.08,142.88,-145.15,142.88,335.66,SBD,Single-ply,M,2
Kevin Gandy,5A,Wayne County,52,,111.13,-122.47,-122.47,111.13,61.23,70.31,72.57,72.57,124.74,136.08,-154.22,136.08,319.78,SBD,Single-ply,M,3
Chris Harris,5A,Wayne County,56,,136.08,158.76,172.37,172.37,90.72,99.79,-104.33,99.79,158.76,170.1,181.44,181.44,453.59,SBD,Single-ply,M,1
Micheal Ross,5A,Vicksburg,56,55.57,-158.76,158.76,-181.44,158.76,102.06,-104.33,-104.33,102.06,-167.83,167.83,-174.63,167.83,428.64,SBD,Single-ply,M,2
Jay Barlow,5A,Warren Central,56,55.79,-129.27,-129.27,129.27,129.27,77.11,79.38,-81.65,79.38,176.9,-179.17,-179.17,176.9,385.55,SBD,Single-ply,M,3
Marcus Rice,5A,South Panola,56,,-117.93,120.2,-122.47,120.2,92.99,-102.06,-102.06,92.99,136.08,-147.42,-147.42,136.08,349.27,SBD,Single-ply,M,4
Courtney Lynch,5A,Meridian,56,55.68,-142.88,142.88,-158.76,142.88,68.04,-72.57,-72.57,68.04,-174.63,-174.63,-174.63,,210.92,SBD,Single-ply,M,5
Kevin Hill,5A,Wayne County,60,,-154.22,154.22,174.63,174.63,77.11,83.91,88.45,88.45,170.1,183.7,199.58,199.58,462.66,SBD,Single-ply,M,1
James Judge,5A,Warren Central,60,,136.08,-142.88,145.15,145.15,90.72,95.25,99.79,99.79,190.51,204.12,-219.99,204.12,449.06,SBD,Single-ply,M,2
Von Mixon,5A,Vicksburg,60,,158.76,174.63,-183.7,174.63,81.65,86.18,-90.72,86.18,170.1,176.9,-183.7,176.9,437.72,SBD,Single-ply,M,3
Reggie Davis,5A,Wayne County,60,,136.08,147.42,158.76,158.76,81.65,88.45,92.99,92.99,158.76,172.37,-188.24,172.37,424.11,SBD,Single-ply,M,4
David Hayes,5A,Harrison Central,60,57.27,97.52,102.06,-108.86,102.06,102.06,106.59,108.86,108.86,145.15,154.22,161.03,161.03,371.95,SBD,Single-ply,M,5
Randall Saxton,5A,Madison Central,67.5,64.86,185.97,195.04,204.12,204.12,90.72,95.25,-97.52,95.25,215.46,226.8,-238.14,226.8,526.17,SBD,Single-ply,M,1
Shawn Dubose,5A,Northwest Rankin,67.5,66.22,163.29,-174.63,174.63,174.63,102.06,-106.59,-106.59,102.06,183.7,195.04,210.92,210.92,487.61,SBD,Single-ply,M,2
Damien Woods,5A,Olive Branch,67.5,67.25,158.76,170.1,-181.44,170.1,99.79,-108.86,113.4,113.4,158.76,181.44,204.12,204.12,487.61,SBD,Single-ply,M,3
Dominque Naylor,5A,Meridian,67.5,66.11,-174.63,174.63,-188.24,174.63,92.99,-95.25,-95.25,92.99,-199.58,-199.58,199.58,199.58,467.2,SBD,Single-ply,M,4
Darrell Williams,5A,Vicksburg,67.5,64.98,-183.7,-192.78,-192.78,,,,,,,,,,,SBD,Single-ply,M,DQ
Anthony Sanders,5A,Vicksburg,67.5,66.45,-158.76,-158.76,-158.76,,,,,,,,,,,SBD,Single-ply,M,DQ
Jordan Stewart,5A,Tupelo,75,73.71,208.65,226.8,238.14,238.14,111.13,117.93,122.47,122.47,215.46,-235.87,235.87,235.87,596.47,SBD,Single-ply,M,1
Chase Dudley,5A,Madison Central,75,74.84,183.7,195.04,201.85,201.85,92.99,97.52,-99.79,97.52,213.19,224.53,-226.8,224.53,523.9,SBD,Single-ply,M,2
Lance Gandy,5A,Wayne County,75,,181.44,195.04,204.12,204.12,99.79,104.33,-108.86,104.33,204.12,215.46,-226.8,215.46,523.9,SBD,Single-ply,M,3
Chris Nolan,5A,Olive Branch,75,,172.37,188.24,197.31,197.31,124.74,-136.08,-136.08,124.74,170.1,185.97,-215.46,185.97,508.02,SBD,Single-ply,M,4
Corlando McChristain,5A,Grenada,75,73.71,-158.76,170.1,-176.9,170.1,90.72,97.52,-102.06,97.52,165.56,185.97,-199.58,185.97,453.59,SBD,Single-ply,M,5
David Fielder,5A,Meridian,75,69.85,-188.24,188.24,197.31,197.31,-117.93,-117.93,-117.93,,,,,,,SBD,Single-ply,M,DQ
Darrel Davis,5A,Wayne County,82.5,,204.12,215.46,-226.8,215.46,115.67,122.47,127.01,127.01,195.04,210.92,215.46,215.46,557.92,SBD,Single-ply,M,2
TaMarco White,5A,Madison Central,82.5,,206.38,219.99,229.06,229.06,108.86,113.4,117.93,117.93,233.6,242.67,251.74,251.74,598.74,SBD,Single-ply,M,1
Fernando Martin,5A,Olive Branch,82.5,80.29,181.44,-204.12,215.46,215.46,106.59,115.67,122.47,122.47,192.78,208.65,217.72,217.72,555.65,SBD,Single-ply,M,3
Brandon Jones,5A,Warren Central,82.5,79.15,165.56,-179.17,-185.97,165.56,-111.13,-111.13,111.13,111.13,204.12,-217.72,-226.8,204.12,480.81,SBD,Single-ply,M,4
Nick Ryan,5A,Madison Central,90,87.32,238.14,260.82,-278.96,260.82,-142.88,-142.88,142.88,142.88,238.14,254.01,272.16,272.16,675.85,SBD,Single-ply,M,1
Brodie Jones,5A,Wayne County,90,89.58,226.8,238.14,-244.94,238.14,127.01,136.08,140.61,140.61,226.8,238.14,244.94,244.94,623.69,SBD,Single-ply,M,2
Tavares Hatchett,5A,Vicksburg,90,89.24,192.78,204.12,-217.72,204.12,120.2,-124.74,-124.74,120.2,-272.16,272.16,274.42,274.42,598.74,SBD,Single-ply,M,3
Julian Hill,5A,Madison Central,90,89.36,217.72,226.8,-240.4,226.8,127.01,-133.81,133.81,133.81,217.72,238.14,-247.21,238.14,598.74,SBD,Single-ply,M,4
Eddie Ledger,5A,Grenada,90,85.96,-213.19,213.19,-231.33,213.19,108.86,113.4,122.47,122.47,208.65,226.8,-235.87,226.8,562.45,SBD,Single-ply,M,5
Omar Jackson,5A,Warren Central,90,,190.51,-206.38,-208.65,190.51,-106.59,106.59,-111.13,106.59,-238.14,-242.67,-242.67,,297.1,SBD,Single-ply,M,6
John Brown,5A,Madison Central,100,,244.94,272.16,-290.3,272.16,131.54,142.88,145.15,145.15,265.35,285.76,-301.64,285.76,703.07,SBD,Single-ply,M,1
Terrance Collins,5A,Vicksburg,100,96.39,256.28,272.16,-281.23,272.16,145.15,149.69,-154.22,149.69,272.16,-283.5,-285.76,272.16,694,SBD,Single-ply,M,2
Cornell Blakely,5A,Wayne County,100,97.86,215.46,-238.14,238.14,238.14,127.01,136.08,-140.61,136.08,238.14,-260.82,,238.14,612.35,SBD,Single-ply,M,3
Ken Harris,5A,Columbus,100,98.88,192.78,226.8,-238.14,226.8,111.13,131.54,136.08,136.08,188.24,217.72,226.8,226.8,589.67,SBD,Single-ply,M,4
Larry Wade,5A,Southaven,100,95.25,-190.51,190.51,-204.12,190.51,145.15,149.69,-156.49,149.69,204.12,215.46,-231.33,215.46,555.65,SBD,Single-ply,M,5
Israel Calvit,5A,Natchez,100,,-215.46,-215.46,-215.46,,,,,,,,,,,SBD,Single-ply,M,DQ
Chris Epps,5A,Northwest Rankin,125+,149.46,181.44,195.04,-217.72,195.04,-104.33,108.86,122.47,122.47,158.76,-183.7,190.51,190.51,508.02,SBD,Single-ply,M,5
Greg Moore,5A,Wayne County,110,104.55,244.94,260.82,272.16,272.16,136.08,142.88,147.42,147.42,-249.48,249.48,-297.1,249.48,669.05,SBD,Single-ply,M,1
Sylvester Brown,5A,Madison Central,110,,242.67,263.08,-276.69,263.08,120.2,124.74,129.27,129.27,231.33,254.01,-263.08,254.01,646.37,SBD,Single-ply,M,2
Jonathan Strickland,5A,Northwest Rankin,110,103.87,-247.21,-247.21,247.21,247.21,129.27,-136.08,-136.08,129.27,249.48,-258.55,-269.89,249.48,625.96,SBD,Single-ply,M,3
Tim Brown,5A,Vicksburg,110,102.74,213.19,-238.14,238.14,238.14,136.08,-140.61,140.61,140.61,226.8,-244.94,-244.94,226.8,605.55,SBD,Single-ply,M,4
Kevin Sanders,5A,Greenville,110,100.58,229.06,-233.6,-238.14,229.06,-127.01,-127.01,-127.01,,,,,,,SBD,Single-ply,M,DQ
Parys Harrelson,5A,Madison Central,125,,210.92,226.8,238.14,238.14,127.01,136.08,140.61,140.61,233.6,263.08,276.69,276.69,655.44,SBD,Single-ply,M,1
Willie Evans,5A,Wayne County,125,113.62,249.48,-260.82,260.82,260.82,120.2,-127.01,127.01,127.01,238.14,256.28,267.62,267.62,655.44,SBD,Single-ply,M,2
John Jackson,5A,Grenada,125,114.53,-226.8,235.87,247.21,247.21,136.08,142.88,-149.69,142.88,226.8,247.21,-258.55,247.21,637.3,SBD,Single-ply,M,3
Covaris Grant,5A,Columbus,125,121.56,231.33,267.62,272.16,272.16,120.2,129.27,-138.35,129.27,226.8,-249.48,-258.55,226.8,628.23,SBD,Single-ply,M,4
Justin Mardis,5A,Meridian,125,114.76,219.99,-233.6,-235.87,219.99,127.01,-133.81,-133.81,127.01,226.8,-231.33,-231.33,226.8,573.79,SBD,Single-ply,M,5
Tea Conner,5A,Columbus,125,119.75,-210.92,-233.6,-233.6,,,,,,,,,,,SBD,Single-ply,M,DQ
Chris Spencer,5A,Madison Central,125+,127.91,-297.1,297.1,328.85,328.85,147.42,151.95,-158.76,151.95,251.74,265.35,278.96,278.96,759.77,SBD,Single-ply,M,1
Fred Morris,5A,Greenville,125+,134.26,281.23,303.91,328.85,328.85,136.08,-142.88,-142.88,136.08,244.94,-265.35,-265.35,244.94,709.87,SBD,Single-ply,M,2
Hollis Hoskins,5A,South Panola,125+,126.1,233.6,244.94,260.82,260.82,174.63,185.97,-188.24,185.97,226.8,242.67,-263.08,242.67,689.46,SBD,Single-ply,M,3
Dontae Hairston,5A,Columbus,125+,131.09,-213.19,244.94,254.01,254.01,127.01,-138.35,-140.61,127.01,238.14,-272.16,-272.16,238.14,619.15,SBD,Single-ply,M,4
Quincy Page,4A,Aberdeen,52,50.92,104.33,115.67,122.47,122.47,56.7,61.23,65.77,65.77,120.2,133.81,-149.69,133.81,322.05,SBD,Single-ply,M,3
Luke Nichols,4A,Aberdeen,56,52.39,97.52,104.33,-111.13,104.33,58.97,65.77,68.04,68.04,111.13,122.47,129.27,129.27,301.64,SBD,Single-ply,M,4
Richard Hawthorne,4A,St. Martin,52,51.26,102.06,113.4,122.47,122.47,68.04,-74.84,-74.84,68.04,145.15,154.22,167.83,167.83,358.34,SBD,Single-ply,M,1
Marvin Brooks,4A,T. L. Weston,52,49.9,111.13,115.67,-120.2,115.67,70.31,74.84,77.11,77.11,124.74,142.88,-165.56,142.88,335.66,SBD,Single-ply,M,2
Mikey Groom,4A,Florence,52,51.03,-72.57,77.11,86.18,86.18,58.97,-68.04,70.31,70.31,99.79,-127.01,127.01,127.01,283.5,SBD,Single-ply,M,4
John Poisso,4A,Quitman,52,,83.91,95.25,-102.06,95.25,56.7,-63.5,65.77,65.77,95.25,122.47,-127.01,122.47,283.5,SBD,Single-ply,M,5
Jeffrey Jasper,4A,Quitman,52,51.03,74.84,86.18,-90.72,86.18,49.9,54.43,-56.7,54.43,113.4,-142.88,-142.88,113.4,254.01,SBD,Single-ply,M,6
Deaushay Watts,4A,West Point,56,55.79,129.27,145.15,149.69,149.69,61.23,68.04,70.31,70.31,149.69,-161.03,161.03,161.03,381.02,SBD,Single-ply,M,1
Willie Clay,4A,West Point,56,,117.93,129.27,133.81,133.81,49.9,56.7,58.97,58.97,140.61,151.95,161.03,161.03,353.8,SBD,Single-ply,M,2
Matt Mollett,4A,Quitman,56,,-117.93,117.93,131.54,131.54,58.97,65.77,-70.31,65.77,120.2,131.54,-149.69,131.54,328.85,SBD,Single-ply,M,3
John Pates,4A,Northeast Jones,56,,-104.33,-104.33,104.33,104.33,61.23,65.77,-70.31,65.77,124.74,-129.27,-129.27,124.74,294.84,SBD,Single-ply,M,5
Aaren Rose,4A,Quitman,60,,158.76,167.83,174.63,174.63,90.72,99.79,-102.06,99.79,181.44,199.58,-206.38,199.58,474,SBD,Single-ply,M,1
Hernadizes Price,4A,Quitman,60,,145.15,154.22,-165.56,154.22,77.11,83.91,88.45,88.45,185.97,204.12,-213.19,204.12,446.79,SBD,Single-ply,M,2
Argondezzi Ward,4A,Aberdeen,60,,147.42,167.83,-183.7,167.83,77.11,86.18,90.72,90.72,161.03,183.7,-197.31,183.7,442.25,SBD,Single-ply,M,3
Quentin McMillian,4A,West Point,60,59.87,140.61,154.22,163.29,163.29,58.97,-65.77,65.77,65.77,190.51,197.31,-199.58,197.31,426.38,SBD,Single-ply,M,4
B.J. Wells,4A,Pearl,60,,133.81,142.88,-151.95,142.88,-77.11,79.38,-81.65,79.38,167.83,-174.63,-185.97,167.83,390.09,SBD,Single-ply,M,5
Chad Guthrie,4A,Northeast Jones,60,59.08,-145.15,-145.15,145.15,145.15,-81.65,-81.65,-81.65,,,,,,,SBD,Single-ply,M,DQ
Vance McLendon,4A,Quitman,67.5,,174.63,185.97,-190.51,185.97,86.18,92.99,97.52,97.52,208.65,231.33,249.48,249.48,532.97,SBD,Single-ply,M,1
Daniel Davis,4A,Northeast Jones,67.5,,-199.58,199.58,-215.46,199.58,97.52,-102.06,-102.06,97.52,199.58,213.19,-219.99,213.19,510.29,SBD,Single-ply,M,2
Damarcus Pulliam,4A,West Point,67.5,66.9,172.37,190.51,201.85,201.85,97.52,-108.86,-108.86,97.52,192.78,208.65,-219.99,208.65,508.02,SBD,Single-ply,M,3
Matthew Landry,4A,St. Martin,67.5,67.47,158.76,174.63,183.7,183.7,86.18,97.52,-102.06,97.52,204.12,215.46,-229.06,215.46,496.68,SBD,Single-ply,M,4
Damian Guy,4A,Hernando,67.5,65.77,183.7,-192.78,-192.78,183.7,-106.59,-111.13,111.13,111.13,192.78,-210.92,-210.92,192.78,487.61,SBD,Single-ply,M,5
Nevin Mitchell,4A,Oxford,75,73.03,183.7,199.58,210.92,210.92,122.47,127.01,136.08,136.08,204.12,226.8,-238.14,226.8,573.79,SBD,Single-ply,M,1
Greg Henderson,4A,West Point,75,69.85,185.97,199.58,-210.92,199.58,104.33,108.86,113.4,113.4,199.58,-217.72,-219.99,199.58,512.56,SBD,Single-ply,M,2
CL Gardner,4A,Mendenhall,75,72.46,149.69,170.1,176.9,176.9,97.52,-113.4,-113.4,97.52,192.78,-213.19,-213.19,192.78,467.2,SBD,Single-ply,M,3
Lawrence Jackson,4A,Pearl,75,72.23,201.85,-206.38,-208.65,201.85,99.79,-104.33,-104.33,99.79,-229.06,-231.33,-231.33,,,SBD,Single-ply,M,DQ
Courtney Haralson,4A,Quitman,82.5,,213.19,-231.33,238.14,238.14,120.2,129.27,-136.08,129.27,238.14,272.16,-294.84,272.16,639.57,SBD,Single-ply,M,1
Francisco Lao,4A,Aberdeen,82.5,81.65,188.24,208.65,-226.8,208.65,102.06,115.67,-120.2,115.67,215.46,231.33,240.4,240.4,564.72,SBD,Single-ply,M,2
Orthel Edwards,4A,Hernando,82.5,78.93,-183.7,-183.7,183.7,183.7,108.86,115.67,117.93,117.93,190.51,204.12,208.65,208.65,510.29,SBD,Single-ply,M,3
Keith McBride,4A,Northeast Jones,82.5,78.24,-183.7,188.24,201.85,201.85,-106.59,106.59,108.86,108.86,174.63,-185.97,-204.12,174.63,485.34,SBD,Single-ply,M,4
Justin Roberts,4A,Florence,82.5,82.21,158.76,-167.83,-167.83,158.76,115.67,-120.2,-120.2,115.67,181.44,-213.19,-238.14,181.44,455.86,SBD,Single-ply,M,5
Alexander Ross,4A,Northeast Jones,90,87.77,240.4,-254.01,-254.01,240.4,106.59,111.13,-113.4,111.13,249.48,263.08,267.62,267.62,619.15,SBD,Single-ply,M,1
Edward Lockett,4A,Aberdeen,90,89.13,206.38,233.6,242.67,242.67,113.4,-131.54,131.54,131.54,215.46,235.87,244.94,244.94,619.15,SBD,Single-ply,M,2
Willie Pickens,4A,Quitman,90,,-222.26,235.87,-263.08,235.87,131.54,140.61,142.88,142.88,-224.53,-235.87,238.14,238.14,616.89,SBD,Single-ply,M,3
Louis Vaughn,4A,West Point,90,89.58,-199.58,204.12,213.19,213.19,108.86,111.13,-115.67,111.13,204.12,217.72,-224.53,217.72,542.04,SBD,Single-ply,M,4
Greg Hollinger,4A,Oxford,90,,176.9,192.78,-204.12,192.78,102.06,106.59,-108.86,106.59,204.12,226.8,-231.33,226.8,526.17,SBD,Single-ply,M,5
Chaise Seymour,4A,St. Martin,90,,170.1,183.7,195.04,195.04,104.33,111.13,115.67,115.67,204.12,215.46,-224.53,215.46,526.17,SBD,Single-ply,M,6
John Werner,4A,Tishomingo,100,93.89,249.48,265.35,-276.69,265.35,133.81,138.35,-142.88,138.35,226.8,235.87,242.67,242.67,646.37,SBD,Single-ply,M,1
Jermario Ward,4A,Aberdeen,100,94.46,231.33,256.28,-272.16,256.28,104.33,113.4,-122.47,113.4,-231.33,249.48,256.28,256.28,625.96,SBD,Single-ply,M,2
Josh Hobock,4A,Terry,100,99.68,204.12,217.72,226.8,226.8,-136.08,136.08,-142.88,136.08,249.48,-258.55,-265.35,249.48,612.35,SBD,Single-ply,M,3
James Wilkins,4A,Northeast Jones,100,98.43,231.33,-240.4,240.4,240.4,120.2,124.74,-129.27,124.74,208.65,217.72,-226.8,217.72,582.87,SBD,Single-ply,M,4
Eugene Hamilton,4A,Quitman,100,,208.65,-226.8,-240.4,208.65,111.13,115.67,117.93,117.93,204.12,219.99,-231.33,219.99,546.58,SBD,Single-ply,M,5
Nathaniel Adams,4A,Crystal Springs,110,106.14,224.53,-226.8,240.4,240.4,145.15,147.42,-151.95,147.42,242.67,-251.74,-251.74,242.67,630.49,SBD,Single-ply,M,1
Jonathan James,4A,Aberdeen,110,107.27,244.94,272.16,-285.76,272.16,97.52,106.59,-111.13,106.59,215.46,233.6,242.67,242.67,621.42,SBD,Single-ply,M,2
Corey Brooks,4A,West Point,110,101.49,-208.65,-208.65,208.65,208.65,108.86,115.67,120.2,120.2,226.8,238.14,244.94,244.94,573.79,SBD,Single-ply,M,3
Andrea Booker,4A,Oxford,110,109.66,215.46,233.6,-240.4,233.6,113.4,145.15,,145.15,65.77,,,65.77,444.52,SBD,Single-ply,M,4
Jamar Richardson,4A,West Point,125,121.56,-285.76,294.84,-317.51,294.84,131.54,136.08,145.15,145.15,235.87,256.28,-265.35,256.28,696.26,SBD,Single-ply,M,1
Willie Gillard,4A,West Point,125,115.44,226.8,251.74,258.55,258.55,136.08,-145.15,147.42,147.42,217.72,235.87,-242.67,235.87,641.83,SBD,Single-ply,M,2
James Skinner,4A,St. Martin,125,124.28,222.26,238.14,251.74,251.74,131.54,138.35,-142.88,138.35,224.53,240.4,-254.01,240.4,630.49,SBD,Single-ply,M,3
Josh Ladner,4A,Hancock,125,116.8,206.38,226.8,-231.33,226.8,156.49,-167.83,-167.83,156.49,217.72,231.33,-238.14,231.33,614.62,SBD,Single-ply,M,4
Torey McKenzie,4A,Pearl,125,116.69,-215.46,215.46,-233.6,215.46,-111.13,-111.13,-111.13,,,,,,,SBD,Single-ply,M,DQ
Johnny Wadley,4A,Hernando,125+,158.76,-226.8,238.14,249.48,249.48,158.76,167.83,-172.37,167.83,238.14,249.48,256.28,256.28,673.58,SBD,Single-ply,M,1
Mario McMahon,4A,Hernando,125+,130.86,238.14,244.94,-249.48,244.94,133.81,-138.35,138.35,138.35,238.14,247.21,-251.74,247.21,630.49,SBD,Single-ply,M,2
Clearence McClellan,4A,R.H. Watkins,125+,130.63,247.21,-260.82,-265.35,247.21,-111.13,120.2,129.27,129.27,242.67,-256.28,-256.28,242.67,619.15,SBD,Single-ply,M,3
Anthony Dampier,4A,Mendenhall,125+,142.88,222.26,231.33,-244.94,231.33,127.01,-147.42,-147.42,127.01,224.53,231.33,240.4,240.4,598.74,SBD,Single-ply,M,4
Andrew Johnson,4A,Aberdeen,125+,136.08,197.31,215.46,229.06,229.06,113.4,122.47,131.54,131.54,208.65,226.8,235.87,235.87,596.47,SBD,Single-ply,M,5
Wesley Phillips,1A-2A,Coffeeville,52,,115.67,127.01,133.81,133.81,56.7,68.04,74.84,74.84,151.95,158.76,167.83,167.83,376.48,SBD,Single-ply,M,1
Jesse Hill,1A-2A,St. John,52,,131.54,145.15,151.95,151.95,52.16,61.23,-63.5,61.23,138.35,154.22,163.29,163.29,376.48,SBD,Single-ply,M,2
Montez Horton,1A-2A,Coffeeville,52,,102.06,113.4,120.2,120.2,43.09,47.63,52.16,52.16,124.74,131.54,136.08,136.08,308.44,SBD,Single-ply,M,3
Chris Odell,1A-2A,Scott Central,52,50.69,81.65,86.18,-95.25,86.18,79.38,-83.91,-83.91,79.38,120.2,129.27,-140.61,129.27,294.84,SBD,Single-ply,M,4
Adam Bourne,1A-2A,Sumerall,52,51.48,90.72,-99.79,99.79,99.79,56.7,-61.23,-61.23,56.7,106.59,113.4,-117.93,113.4,269.89,SBD,Single-ply,M,5
Chad Sullivan,1A-2A,St. John,56,,133.81,147.42,-149.69,147.42,63.5,72.57,77.11,77.11,138.35,149.69,154.22,154.22,378.75,SBD,Single-ply,M,1
Andre Gordon,1A-2A,Coldwater,56,,124.74,,,124.74,72.57,79.38,-86.18,79.38,136.08,147.42,-158.76,147.42,351.53,SBD,Single-ply,M,2
Verico Lewis,1A-2A,Bogue Chitto,56,,90.72,113.4,122.47,122.47,61.23,70.31,79.38,79.38,129.27,147.42,-158.76,147.42,349.27,SBD,Single-ply,M,3
Patrick Biglane,1A-2A,Cathedral,56,,104.33,115.67,120.2,120.2,74.84,79.38,81.65,81.65,136.08,145.15,-151.95,145.15,347,SBD,Single-ply,M,4
Mario Moore,1A-2A,Coffeeville,56,,115.67,124.74,131.54,131.54,54.43,61.23,-65.77,61.23,136.08,142.88,-154.22,142.88,335.66,SBD,Single-ply,M,5
Chris Gunn,1A-2A,Coffeeville,60,,145.15,158.76,-167.83,158.76,72.57,81.65,86.18,86.18,142.88,154.22,161.03,161.03,405.97,SBD,Single-ply,M,1
Chris Price,1A-2A,Sebastopol,60,,122.47,133.81,-138.35,133.81,74.84,77.11,-79.38,77.11,174.63,181.44,-195.04,181.44,392.36,SBD,Single-ply,M,2
McHandy Bobbitt,1A-2A,Scott Central,60,58.06,124.74,-136.08,136.08,136.08,81.65,-86.18,-86.18,81.65,154.22,163.29,-167.83,163.29,381.02,SBD,Single-ply,M,3
Chris Symmes,1A-2A,St. John,60,57.15,127.01,-138.35,-138.35,127.01,63.5,72.57,-74.84,72.57,120.2,131.54,138.35,138.35,337.93,SBD,Single-ply,M,4
Trevor Stokes,1A-2A,Nanih Waiya,60,57.27,90.72,-102.06,102.06,102.06,63.5,68.04,74.84,74.84,140.61,149.69,158.76,158.76,335.66,SBD,Single-ply,M,5
Jayme Bennett,1A-2A,Belmont,60,56.7,104.33,113.4,-122.47,113.4,58.97,-72.57,-72.57,58.97,113.4,127.01,-140.61,127.01,299.37,SBD,Single-ply,M,6
Earl Bradford,1A-2A,Scott Central,67.5,66,165.56,-185.97,-199.58,165.56,120.2,127.01,131.54,131.54,204.12,226.8,-251.74,226.8,523.9,SBD,Single-ply,M,1
Donavan Howard,1A-2A,East Marion,67.5,65.32,-142.88,145.15,147.42,147.42,97.52,-99.79,99.79,99.79,172.37,181.44,185.97,185.97,433.18,SBD,Single-ply,M,2
Ronnie Smith,1A-2A,East Marion,67.5,65.77,140.61,145.15,-149.69,145.15,108.86,113.4,-115.67,113.4,172.37,-176.9,-176.9,172.37,430.91,SBD,Single-ply,M,3
Kearoe Nolan,1A-2A,Coldwater,67.5,66.34,149.69,158.76,-165.56,158.76,83.91,88.45,-92.99,88.45,149.69,163.29,174.63,174.63,421.84,SBD,Single-ply,M,4
Jason Eaves,1A-2A,Nanih Waiya,67.5,65.54,142.88,151.95,-158.76,151.95,83.91,86.18,-90.72,86.18,158.76,174.63,-183.7,174.63,412.77,SBD,Single-ply,M,5
Tony Fuller,1A-2A,Eupora,67.5,67.13,120.2,131.54,-142.88,131.54,77.11,88.45,-92.99,88.45,172.37,183.7,-190.51,183.7,403.7,SBD,Single-ply,M,6
Lamont Kimble,1A-2A,Coffeeville,75,73.48,204.12,215.46,-226.8,215.46,95.25,102.06,106.59,106.59,258.55,276.69,-285.76,276.69,598.74,SBD,Single-ply,M,1
Cecil Johnson,1A-2A,Nanih Waiya,75,72.12,165.56,192.78,199.58,199.58,104.33,108.86,-111.13,108.86,204.12,226.8,-235.87,226.8,535.24,SBD,Single-ply,M,2
Josh Hahn,1A-2A,St. John,75,,181.44,192.78,199.58,199.58,86.18,99.79,104.33,104.33,183.7,197.31,204.12,204.12,508.02,SBD,Single-ply,M,3
James Washington,1A-2A,Scott Central,75,68.49,151.95,158.76,-181.44,158.76,-113.4,113.4,-124.74,113.4,199.58,-210.92,-222.26,199.58,471.74,SBD,Single-ply,M,4
Brandon Lang,1A-2A,Edinburg,75,72.8,142.88,154.22,-167.83,154.22,83.91,102.06,-108.86,102.06,149.69,163.29,-167.83,163.29,419.57,SBD,Single-ply,M,5
Jon Nichols,1A-2A,Scott Central,75,69.74,142.88,158.76,174.63,174.63,-102.06,-102.06,-102.06,,,,,,,SBD,Single-ply,M,DQ
Carlo Exson,1A-2A,Coffeeville,82.5,82.1,217.72,235.87,244.94,244.94,83.91,90.72,95.25,95.25,-263.08,263.08,299.37,299.37,639.57,SBD,Single-ply,M,1
Reid Stone,1A-2A,St. John,82.5,81.19,213.19,226.8,-235.87,226.8,108.86,120.2,-124.74,120.2,197.31,210.92,217.72,217.72,564.72,SBD,Single-ply,M,2
Kentrel Brooks,1A-2A,Eupora,82.5,82.1,181.44,195.04,-204.12,195.04,108.86,117.93,-124.74,117.93,213.19,229.06,-254.01,229.06,542.04,SBD,Single-ply,M,3
Anthony Dillon,1A-2A,East Marion,82.5,80.85,167.83,176.9,-181.44,176.9,122.47,124.74,-127.01,124.74,-190.51,-195.04,195.04,195.04,496.68,SBD,Single-ply,M,4
Cedric Gray,1A-2A,Scott Central,82.5,82.33,151.95,158.76,-170.1,158.76,95.25,-99.79,99.79,99.79,204.12,213.19,226.8,226.8,485.34,SBD,Single-ply,M,5
Jard Tinnon,1A-2A,Coffeeville,90,84.48,210.92,226.8,-235.87,226.8,86.18,92.99,97.52,97.52,235.87,-242.67,254.01,254.01,578.33,SBD,Single-ply,M,1
Thad Rhodes,1A-2A,St. John,90,,197.31,210.92,219.99,219.99,97.52,104.33,106.59,106.59,224.53,238.14,249.48,249.48,576.06,SBD,Single-ply,M,2
Clevester McKee,1A-2A,Scott Central,90,85.96,174.63,185.97,-197.31,185.97,113.4,117.93,-122.47,117.93,219.99,240.4,249.48,249.48,553.38,SBD,Single-ply,M,3
Lance Barrett,1A-2A,Sebastopol,90,88,-154.22,154.22,165.56,165.56,113.4,-122.47,-122.47,113.4,226.8,-249.48,,226.8,505.76,SBD,Single-ply,M,4
Chris Wooten,1A-2A,Coldwater,90,86.18,174.63,-183.7,183.7,183.7,92.99,97.52,102.06,102.06,195.04,208.65,-222.26,208.65,494.42,SBD,Single-ply,M,5
Roger Morrow,1A-2A,Belmont,90,88.9,172.37,-190.51,-190.51,172.37,90.72,104.33,108.86,108.86,176.9,-190.51,195.04,195.04,476.27,SBD,Single-ply,M,6
Ortegus Coffey,1A-2A,Eupora,90,84.59,149.69,163.29,-174.63,163.29,90.72,99.79,104.33,104.33,176.9,192.78,-199.58,192.78,460.4,SBD,Single-ply,M,7
Garrett Ryle,1A-2A,St. John,100,,219.99,233.6,-240.4,233.6,95.25,-104.33,104.33,104.33,229.06,242.67,254.01,254.01,591.94,SBD,Single-ply,M,1
Matthew Odom,1A-2A,Scott Central,100,91.63,199.58,-215.46,215.46,215.46,142.88,147.42,-154.22,147.42,215.46,219.99,229.06,229.06,591.94,SBD,Single-ply,M,2
Melvin Mitchell,1A-2A,Coffeeville,100,,204.12,215.46,222.26,222.26,83.91,90.72,97.52,97.52,199.58,-213.19,-213.19,199.58,519.36,SBD,Single-ply,M,3
Marneco Pratt,1A-2A,Eupora,100,95.48,149.69,165.56,174.63,174.63,88.45,92.99,-97.52,92.99,176.9,-188.24,190.51,190.51,458.13,SBD,Single-ply,M,4
Narkes Pratt,1A-2A,Eupora,100,93.67,-149.69,154.22,165.56,165.56,88.45,95.25,97.52,97.52,188.24,-215.46,-215.46,188.24,451.32,SBD,Single-ply,M,5
Marquious Poole,1A-2A,Newton,100,98.88,-204.12,-215.46,,,,,,,,,,,,SBD,Single-ply,M,DQ
Chad Davis,1A-2A,Coldwater,110,107.61,204.12,226.8,231.33,231.33,113.4,124.74,-131.54,124.74,195.04,213.19,-222.26,213.19,569.26,SBD,Single-ply,M,1
Kirby Sandridge,1A-2A,Coldwater,110,100.36,199.58,217.72,226.8,226.8,108.86,120.2,-122.47,120.2,195.04,213.19,-222.26,213.19,560.19,SBD,Single-ply,M,2
Phillip Drungole,1A-2A,Eupora,110,106.48,185.97,197.31,-204.12,197.31,115.67,127.01,-131.54,127.01,208.65,-226.8,-226.8,208.65,532.97,SBD,Single-ply,M,3
Kenielle Washington,1A-2A,Scott Central,110,102.51,165.56,183.7,188.24,188.24,102.06,106.59,-113.4,106.59,195.04,226.8,-238.14,226.8,521.63,SBD,Single-ply,M,4
Casey McCaffery,1A-2A,Bogue Chitto,110,102.97,142.88,-158.76,-163.29,142.88,86.18,88.45,,88.45,142.88,,,142.88,374.21,SBD,Single-ply,M,5
Micheal Wright,1A-2A,Newton,110,101.15,-192.78,-199.58,-199.58,,,,,,,,,,,SBD,Single-ply,M,DQ
Lamar Collins,1A-2A,East Marion,125,118.05,204.12,-217.72,217.72,217.72,-151.95,151.95,-156.49,151.95,215.46,-238.14,240.4,240.4,610.08,SBD,Single-ply,M,1
Andrew Adams,1A-2A,St. John,125,119.75,213.19,226.8,-233.6,226.8,115.67,124.74,129.27,129.27,210.92,224.53,-233.6,224.53,580.6,SBD,Single-ply,M,2
Jody Baker,1A-2A,Coffeeville,125,116.12,204.12,-217.72,-217.72,204.12,86.18,92.99,-99.79,92.99,215.46,226.8,238.14,238.14,535.24,SBD,Single-ply,M,3
Reggie Mallory,1A-2A,Coldwater,125,120.66,204.12,-217.72,-217.72,204.12,86.18,97.52,-102.06,97.52,195.04,-213.19,-213.19,195.04,496.68,SBD,Single-ply,M,4
Carlos Lane,1A-2A,Eupora,125,111.13,183.7,201.85,-206.38,201.85,88.45,95.25,99.79,99.79,-172.37,190.51,-199.58,190.51,492.15,SBD,Single-ply,M,5
Justin Edwards,1A-2A,Sebastopol,125,121.56,161.03,170.1,-181.44,170.1,102.06,-106.59,-106.59,102.06,-206.38,206.38,215.46,215.46,487.61,SBD,Single-ply,M,6
Lane Hensarling,1A-2A,St. John,125+,148.78,-281.23,288.03,303.91,303.91,120.2,131.54,-136.08,131.54,256.28,272.16,-281.23,272.16,707.6,SBD,Single-ply,M,1
Justin Waddle,1A-2A,Belmont,125+,127.46,244.94,276.69,294.84,294.84,127.01,-136.08,136.08,136.08,222.26,249.48,-281.23,249.48,680.39,SBD,Single-ply,M,2
Ernie Johnston,1A-2A,Bogue Chitto,125+,135.62,-181.44,181.44,-188.24,181.44,127.01,129.27,-131.54,129.27,210.92,226.8,231.33,231.33,542.04,SBD,Single-ply,M,3
Marino Moore,1A-2A,Coffeeville,125+,150.71,204.12,217.72,226.8,226.8,83.91,88.45,95.25,95.25,208.65,217.72,-231.33,217.72,539.77,SBD,Single-ply,M,4
Trey Powell,1A-2A,Baldwyn,125+,136.42,145.15,-163.29,172.37,172.37,117.93,-138.35,-138.35,117.93,204.12,210.92,215.46,215.46,505.76,SBD,Single-ply,M,5
Anthony Stevenson,1A-2A,Bogue Chitto,125+,137.89,-142.88,149.69,-167.83,149.69,83.91,-92.99,-92.99,83.91,192.78,-204.12,-204.12,192.78,426.38,SBD,Single-ply,M,6
Antonio Turner,3A,Wilkinson County,52,,99.79,117.93,124.74,124.74,-65.77,68.04,72.57,72.57,142.88,154.22,161.03,161.03,358.34,SBD,Single-ply,M,1
Jayson Kimbrough,3A,West Lauderdale,52,49.78,117.93,-129.27,-129.27,117.93,61.23,-65.77,-65.77,61.23,129.27,136.08,140.61,140.61,319.78,SBD,Single-ply,M,2
Terrance Gatson,3A,McClain,52,51.82,92.99,102.06,113.4,113.4,61.23,65.77,-68.04,65.77,120.2,-140.61,140.61,140.61,319.78,SBD,Single-ply,M,3
Seth Lee,3A,Nettleton,52,51.03,90.72,104.33,-113.4,104.33,70.31,-74.84,-74.84,70.31,129.27,140.61,-147.42,140.61,315.25,SBD,Single-ply,M,4
Cordell Boclair,3A,Charleston,52,,-104.33,-111.13,115.67,115.67,58.97,65.77,-70.31,65.77,120.2,-131.54,-136.08,120.2,301.64,SBD,Single-ply,M,5
Jarvis Hill,3A,Senatobia,52,,79.38,-90.72,90.72,90.72,72.57,-77.11,-77.11,72.57,104.33,120.2,-136.08,120.2,283.5,SBD,Single-ply,M,6
Shawn Ivy,3A,Houston,56,52.5,108.86,117.93,124.74,124.74,70.31,-72.57,72.57,72.57,167.83,-172.37,-183.7,167.83,365.14,SBD,Single-ply,M,1
Mike Brown,3A,Wilkinson County,56,55.22,-99.79,108.86,122.47,122.47,72.57,81.65,-86.18,81.65,142.88,154.22,-158.76,154.22,358.34,SBD,Single-ply,M,2
Jason Lopez,3A,Forest,56,,108.86,115.67,122.47,122.47,70.31,-74.84,74.84,74.84,138.35,151.95,158.76,158.76,356.07,SBD,Single-ply,M,3
Reggie Austin,3A,Senatobia,56,55.57,-108.86,108.86,-127.01,108.86,83.91,88.45,-90.72,88.45,136.08,-154.22,-154.22,136.08,333.39,SBD,Single-ply,M,4
Jack Tate,3A,Ripley,56,54.88,-122.47,122.47,-127.01,122.47,-58.97,58.97,-63.5,58.97,147.42,-154.22,-156.49,147.42,328.85,SBD,Single-ply,M,5
Jonathan Palmer,3A,Port Gibson,56,55.79,-102.06,102.06,113.4,113.4,70.31,-79.38,-79.38,70.31,-142.88,-142.88,-142.88,,,SBD,Single-ply,M,DQ
Anthony Price,3A,McClain,60,,149.69,-163.29,167.83,167.83,95.25,102.06,106.59,106.59,181.44,197.31,-210.92,197.31,471.74,SBD,Single-ply,M,1
Joe Morrow,3A,Amory,60,57.95,147.42,-156.49,-156.49,147.42,115.67,-120.2,-120.2,115.67,-167.83,181.44,195.04,195.04,458.13,SBD,Single-ply,M,2
Delvin Hunter,3A,Wilkinson County,60,58.97,145.15,158.76,170.1,170.1,-86.18,86.18,92.99,92.99,183.7,-204.12,-204.12,183.7,446.79,SBD,Single-ply,M,3
Dexter Hannon,3A,Franklin County,60,58.97,113.4,-122.47,122.47,122.47,65.77,-70.31,-70.31,65.77,174.63,185.97,-195.04,185.97,374.21,SBD,Single-ply,M,4
Stephen Stanford,3A,Ripley,60,59.99,-86.18,90.72,-97.52,90.72,-65.77,-68.04,68.04,68.04,108.86,115.67,-117.93,115.67,274.42,SBD,Single-ply,M,5
Jimmy Jackson,3A,Wilkinson County,67.5,66.56,174.63,192.78,-201.85,192.78,95.25,104.33,108.86,108.86,183.7,-195.04,-195.04,183.7,485.34,SBD,Single-ply,M,1
Eric Wright,3A,Pontotoc,67.5,,176.9,-185.97,-185.97,176.9,88.45,-92.99,-92.99,88.45,195.04,206.38,210.92,210.92,476.27,SBD,Single-ply,M,2
Zerric Camel,3A,Velma Jackson,67.5,65.88,165.56,-167.83,-167.83,165.56,102.06,-106.59,-106.59,102.06,165.56,183.7,206.38,206.38,474,SBD,Single-ply,M,3
Brandon Wall,3A,North Pike,67.5,64.86,-147.42,158.76,-181.44,158.76,92.99,99.79,-104.33,99.79,204.12,208.65,-219.99,208.65,467.2,SBD,Single-ply,M,4
Fred Lark,3A,Independence,67.5,61.35,129.27,136.08,149.69,149.69,88.45,97.52,99.79,99.79,142.88,181.44,190.51,190.51,439.98,SBD,Single-ply,M,5
Cole Vance,3A,Ripley,67.5,62.82,117.93,-129.27,129.27,129.27,-92.99,-92.99,-92.99,,,,,,,SBD,Single-ply,M,DQ
Lane Bass,3A,Pontotoc,75,73.82,229.06,-238.14,-238.14,229.06,102.06,-106.59,106.59,106.59,242.67,254.01,-272.16,254.01,589.67,SBD,Single-ply,M,1
Lemoine Robinson,3A,Hazelhurst,75,,-174.63,181.44,-190.51,181.44,129.27,136.08,-142.88,136.08,190.51,199.58,206.38,206.38,523.9,SBD,Single-ply,M,2
Jerry Bowie,3A,Forest,75,,-165.56,174.63,185.97,185.97,108.86,-124.74,127.01,127.01,188.24,199.58,210.92,210.92,523.9,SBD,Single-ply,M,3
Glenn Carter,3A,Wilkinson County,75,73.03,-174.63,183.7,-195.04,183.7,88.45,95.25,-99.79,95.25,199.58,-219.99,-219.99,199.58,478.54,SBD,Single-ply,M,4
Clay Caffey,3A,Senatobia,75,73.14,142.88,154.22,-163.29,154.22,90.72,-92.99,-95.25,90.72,174.63,185.97,-204.12,185.97,430.91,SBD,Single-ply,M,5
Steven Davis,3A,Independence,75,73.94,117.93,127.01,138.35,138.35,77.11,88.45,-92.99,88.45,-158.76,158.76,-181.44,158.76,385.55,SBD,Single-ply,M,6
Andrew Moffett,3A,Pass Christian,82.5,,-170.1,170.1,181.44,181.44,136.08,142.88,,142.88,215.46,222.26,,222.26,546.58,SBD,Single-ply,M,1
Quentin Turner,3A,Port Gibson,82.5,80.85,147.42,154.22,-161.03,154.22,106.59,-111.13,-111.13,106.59,238.14,-254.01,,238.14,498.95,SBD,Single-ply,M,2
Chris Kennedy,3A,Pontotoc,82.5,78.36,176.9,-185.97,185.97,185.97,99.79,104.33,-106.59,104.33,204.12,-219.99,-219.99,204.12,494.42,SBD,Single-ply,M,3
London Senter,3A,Pontotoc,82.5,76.54,172.37,183.7,188.24,188.24,95.25,-102.06,-102.06,95.25,199.58,-210.92,-210.92,199.58,483.08,SBD,Single-ply,M,4
Bruce Lewis,3A,Ripley,82.5,,-174.63,-179.17,-183.7,,,,,,,,,,,SBD,Single-ply,M,DQ
David Williams,3A,Hazelhurst,82.5,80.4,-147.42,-147.42,-147.42,,,,,,,,,,,SBD,Single-ply,M,DQ
Gerald Anthony,3A,Wilkinson County,90,87.54,204.12,215.46,-222.26,215.46,113.4,122.47,-131.54,122.47,238.14,254.01,272.16,272.16,610.08,SBD,Single-ply,M,1
Kendal Crum,3A,Pontotoc,90,85.16,210.92,224.53,-233.6,224.53,106.59,111.13,113.4,113.4,204.12,219.99,-226.8,219.99,557.92,SBD,Single-ply,M,2
Keyon Tate,3A,McClain,90,87.2,-174.63,174.63,-185.97,174.63,99.79,-106.59,108.86,108.86,204.12,-226.8,-226.8,204.12,487.61,SBD,Single-ply,M,3
DeShaun Grant,3A,Charleston,90,87.32,145.15,154.22,163.29,163.29,90.72,95.25,-99.79,95.25,215.46,-226.8,-226.8,215.46,474,SBD,Single-ply,M,4
Brian Bilbro,3A,Senatobia,90,86.3,149.69,-163.29,-167.83,149.69,102.06,106.59,-111.13,106.59,-188.24,197.31,204.12,204.12,460.4,SBD,Single-ply,M,5
Brandon Dewease,3A,West Lauderdale,90,88.68,-226.8,-233.6,-233.6,,,,,,,,,,,SBD,Single-ply,M,DQ
Jason McBride,3A,Pontotoc,100,97.52,-222.26,231.33,251.74,251.74,113.4,120.2,122.47,122.47,215.46,235.87,244.94,244.94,619.15,SBD,Single-ply,M,1
Mark Frederick,3A,Wilkinson County,100,92.08,215.46,222.26,233.6,233.6,-106.59,106.59,113.4,113.4,238.14,249.48,-272.16,249.48,596.47,SBD,Single-ply,M,2
Terrell Wright,3A,Senatobia,100,92.53,199.58,-217.72,217.72,217.72,104.33,113.4,-117.93,113.4,199.58,-226.8,-226.8,199.58,530.7,SBD,Single-ply,M,3
Clinton Thomas,3A,Ripley,100,90.04,-176.9,185.97,-195.04,185.97,-113.4,120.2,-127.01,120.2,204.12,-238.14,-238.14,204.12,510.29,SBD,Single-ply,M,4
Thomas McCaplin,3A,Port Gibson,100,97.52,147.42,-154.22,-158.76,147.42,120.2,-127.01,-127.01,120.2,-226.8,238.14,-254.01,238.14,505.76,SBD,Single-ply,M,5
David Moore #10,3A,Forest,100,96.05,165.56,176.9,-190.51,176.9,104.33,108.86,-111.13,108.86,217.72,-235.87,-235.87,217.72,503.49,SBD,Single-ply,M,6
Jared Parten,3A,West Lauderdale,110,108.41,192.78,-215.46,215.46,215.46,115.67,-127.01,127.01,127.01,215.46,238.14,-256.28,238.14,580.6,SBD,Single-ply,M,1
Jeremy Burge,3A,Forrest AHS,110,109.2,183.7,192.78,201.85,201.85,-149.69,149.69,-154.22,149.69,183.7,229.06,-242.67,229.06,580.6,SBD,Single-ply,M,2
Justin Brewer,3A,Water Valley,110,,183.7,195.04,-208.65,195.04,127.01,-131.54,-131.54,127.01,195.04,204.12,-208.65,204.12,526.17,SBD,Single-ply,M,3
Russ McDonald,3A,North Pontotoc,110,109.09,-174.63,174.63,183.7,183.7,117.93,-120.2,-120.2,117.93,210.92,222.26,-226.8,222.26,523.9,SBD,Single-ply,M,4
Britton Turner,3A,Wilkinson County,110,106.03,-174.63,-174.63,-174.63,,,,,,,,,,,SBD,Single-ply,M,DQ
Justin Wilbanks,3A,Pontotoc,125,110.79,235.87,247.21,254.01,254.01,122.47,127.01,-131.54,127.01,229.06,244.94,-254.01,244.94,625.96,SBD,Single-ply,M,1
Wilbert Speed,3A,Port Gibson,125,116.69,183.7,197.31,-204.12,197.31,151.95,158.76,-165.56,158.76,226.8,-249.48,-249.48,226.8,582.87,SBD,Single-ply,M,2
Jeramy Ray,3A,Pontotoc,125,112.04,219.99,-231.33,-231.33,219.99,113.4,-117.93,117.93,117.93,217.72,229.06,-254.01,229.06,566.99,SBD,Single-ply,M,3
Chris Hill,3A,McClain,125,116.46,-199.58,199.58,-222.26,199.58,120.2,124.74,129.27,129.27,-215.46,-219.99,219.99,219.99,548.85,SBD,Single-ply,M,4
Clyde Brumfield,3A,North Pike,125,113.85,174.63,-181.44,-188.24,174.63,133.81,149.69,-165.56,149.69,222.26,-231.33,,222.26,546.58,SBD,Single-ply,M,5
David Eskew,3A,Nettleton,125,111.81,181.44,195.04,208.65,208.65,115.67,-120.2,-120.2,115.67,-219.99,-233.6,-247.21,,,SBD,Single-ply,M,DQ
Micheal Cherry,3A,Pontotoc,125+,135.62,242.67,256.28,276.69,276.69,127.01,131.54,136.08,136.08,-229.06,229.06,258.55,258.55,671.32,SBD,Single-ply,M,1
Termaine Johnson,3A,Wilkinson County,125+,138.8,215.46,226.8,-238.14,226.8,-113.4,113.4,122.47,122.47,238.14,244.94,-272.16,244.94,594.21,SBD,Single-ply,M,2
Timothy Herndon,3A,McClain,125+,129.27,-181.44,181.44,-195.04,181.44,-77.11,77.11,-81.65,77.11,210.92,-226.8,,210.92,469.47,SBD,Single-ply,M,3
Paul Bailey,3A,Pontotoc,125+,130.63,-222.26,-222.26,-222.26,,,,,,,,,,,SBD,Single-ply,M,DQ
Major Davis,3A,Charleston,125+,136.98,-215.46,-215.46,-215.46,,,,,,,,,,,SBD,Single-ply,M,DQ
