Division,WeightClassKg,Place,Name,Team,BodyweightKg,Best3SquatKg,Best3BenchKg,Best3DeadliftKg,TotalKg,Equipment,Event,Sex
Boys,51.71,1,Brian Villarreal,Geronimo Navarro,46.08,102.06,65.77,136.08,303.91,Single-ply,SBD,M
Boys,51.71,2,Adrian Garcia,Dripping Springs,51.17,102.06,72.57,117.93,292.57,Single-ply,SBD,M
Boys,51.71,3,Mikey Gomez,Kyle Lehman,51.71,83.91,63.5,117.93,265.35,Single-ply,SBD,M
Boys,51.71,4,Ty Henderson,Lockhart,48.99,77.11,54.43,102.06,233.6,Single-ply,SBD,M
Boys,51.71,5,Trevor Ricks,Dripping Springs,48.53,97.52,52.16,79.38,229.06,Single-ply,SBD,M
Boys,55.79,1,Alex Mata,Lockhart,55.61,111.13,61.23,142.88,315.25,Single-ply,SBD,M
Boys,55.79,2,Zack Reid,Dripping Springs,54.16,111.13,68.04,133.81,312.98,Single-ply,SBD,M
Boys,55.79,DQ,Robert Alford,Kyle Lehman,54.88,,,,,Single-ply,SBD,M
Boys,59.87,1,Jarrett Buford,Port Lavaca Calhoun,58.51,179.17,115.67,181.44,476.27,Single-ply,SBD,M
Boys,59.87,2,Mauro Garcia,Port Lavaca Calhoun,59.42,165.56,97.52,195.04,458.13,Single-ply,SBD,M
Boys,59.87,3,José Pérez,Port Lavaca Calhoun,59.69,131.54,92.99,151.95,376.48,Single-ply,SBD,M
Boys,59.87,4,Justin Lara,Buda Hays,58.15,154.22,61.23,158.76,374.21,Single-ply,SBD,M
Boys,59.87,5,Sam Muniz,San Marcos,59.42,117.93,72.57,161.03,351.53,Single-ply,SBD,M
Boys,59.87,6,Leo Calderon,San Marcos,58.88,120.2,90.72,127.01,337.93,Single-ply,SBD,M
Boys,59.87,DQ,Jayden Martinez,Kyle Lehman,59.87,113.4,,,,Single-ply,SBD,M
Boys,59.87,DQ,Mark Zapata,Buda Hays,59.15,,,,,Single-ply,SBD,M
Boys,67.13,1,Jade Haney,Port Lavaca Calhoun,65.77,197.31,108.86,222.26,528.44,Single-ply,SBD,M
Boys,67.13,2,Brian Lopez,Geronimo Navarro,64.95,165.56,108.86,167.83,442.25,Single-ply,SBD,M
Boys,67.13,3,Hugo Perez,Lockhart,65.68,133.81,79.38,165.56,378.75,Single-ply,SBD,M
Boys,67.13,4,Zach Remmington,Dripping Springs,67.13,124.74,102.06,145.15,371.95,Single-ply,SBD,M
Boys,67.13,5,Austin Rodriguez,Buda Hays,66.77,117.93,95.25,147.42,360.61,Single-ply,SBD,M
Boys,67.13,6,Celestino Hernandez,Del Valle,64.95,142.88,79.38,136.08,358.34,Single-ply,SBD,M
Boys,67.13,7,Blake Cavendar,Dripping Springs,61.69,127.01,90.72,136.08,353.8,Single-ply,SBD,M
Boys,67.13,8,Joseph Lopez,Kyle Lehman,67.13,111.13,90.72,142.88,344.73,Single-ply,SBD,M
Boys,67.13,9,Yeremi Hykel,Buda Hays,66.22,106.59,86.18,131.54,324.32,Single-ply,SBD,M
Boys,67.13,10,Kyler Spriggs,Marion,64.05,83.91,52.16,79.38,215.46,Single-ply,SBD,M
Boys,67.13,DQ,Daniel Martinez,Port Lavaca Calhoun,65.05,167.83,92.99,,,Single-ply,SBD,M
Boys,67.13,DQ,Austin Smith,College Station A&M Cons,62.6,106.59,,,,Single-ply,SBD,M
Boys,67.13,DQ,Jace Williams,Buda Hays,64.77,106.59,99.79,,,Single-ply,SBD,M
Boys,74.84,1,Reggie Davis,College Station A&M Cons,69.85,195.04,136.08,206.38,537.51,Single-ply,SBD,M
Boys,74.84,2,David Taylor,College Station A&M Cons,69.04,210.92,115.67,204.12,530.7,Single-ply,SBD,M
Boys,74.84,3,JC Garcia,Port Lavaca Calhoun,72.67,172.37,106.59,195.04,474,Single-ply,SBD,M
Boys,82.1,4,Daniel Taylor,College Station A&M Cons,75.02,195.04,115.67,158.76,469.47,Single-ply,SBD,M
Boys,74.84,5,Jonathan Sylvester,College Station A&M Cons,74.03,174.63,97.52,181.44,453.59,Single-ply,SBD,M
Boys,74.84,6,Ever Calderon,Buda Hays,70.76,158.76,102.06,188.24,449.06,Single-ply,SBD,M
Boys,74.84,7,Manny Salazar,San Marcos,71.94,161.03,102.06,181.44,444.52,Single-ply,SBD,M
Boys,74.84,8,Brandon Tompkins,Port Lavaca Calhoun,71.03,165.56,106.59,170.1,442.25,Single-ply,SBD,M
Boys,74.84,9,Joseph Alvarez,Kyle Lehman,71.21,156.49,90.72,165.56,412.77,Single-ply,SBD,M
Boys,74.84,10,Brennan Morgan,Dripping Springs,74.12,147.42,92.99,163.29,403.7,Single-ply,SBD,M
Boys,74.84,11,Sam Ramirez,College Station A&M Cons,70.85,138.35,86.18,149.69,374.21,Single-ply,SBD,M
Boys,74.84,12,Greg Rivera,Lockhart,73.94,124.74,88.45,142.88,356.07,Single-ply,SBD,M
Boys,74.84,13,Luke Jackson,Buda Hays,70.76,127.01,83.91,136.08,347,Single-ply,SBD,M
Boys,74.84,14,Jon Daigle,Marion,69.85,111.13,74.84,124.74,310.71,Single-ply,SBD,M
Boys,74.84,15,Kenton Spriggs,Marion,71.94,102.06,70.31,111.13,283.5,Single-ply,SBD,M
Boys,74.84,DQ,Edward DeLeon,Port Lavaca Calhoun,73.75,188.24,115.67,,,Single-ply,SBD,M
Boys,74.84,DQ,Marc Pickett,Kyle Lehman,72.76,,,,,Single-ply,SBD,M
Boys,74.84,DQ,Eric Garza,Kyle Lehman,74.12,,,,,Single-ply,SBD,M
Boys,82.1,1,Rhil Dougherty,Dripping Springs,81.01,226.8,142.88,249.48,619.15,Single-ply,SBD,M
Boys,82.1,2,Jacob Palmares,Buda Hays,82.1,208.65,115.67,217.72,542.04,Single-ply,SBD,M
Boys,82.1,3,Will Grear,Del Valle,77.02,195.04,136.08,195.04,526.17,Single-ply,SBD,M
Boys,82.1,4,Jay Leal,Geronimo Navarro,78.02,185.97,102.06,204.12,492.15,Single-ply,SBD,M
Boys,82.1,5,Eutiquio Mondragon,Kyle Lehman,76.84,170.1,115.67,167.83,453.59,Single-ply,SBD,M
Boys,82.1,6,Marcos Johnson,Lockhart,81.28,161.03,99.79,179.17,439.98,Single-ply,SBD,M
Boys,82.1,7,Wyatt Koepp,Marion,82.01,142.88,113.4,174.63,430.91,Single-ply,SBD,M
Boys,82.1,8,Jared Leal,Geronimo Navarro,81.37,163.29,92.99,170.1,426.38,Single-ply,SBD,M
Boys,82.1,9,Kacey Santos,Kyle Lehman,78.02,158.76,90.72,167.83,417.3,Single-ply,SBD,M
Boys,82.1,10,Gunner Brown,Lockhart,76.93,124.74,97.52,188.24,410.5,Single-ply,SBD,M
Boys,82.1,11,Will Hartwick,Lockhart,76.66,142.88,92.99,167.83,403.7,Single-ply,SBD,M
Boys,82.1,12,Jeremy Schilab,Kyle Lehman,79.2,161.03,88.45,151.95,401.43,Single-ply,SBD,M
Boys,82.1,13,Angel Cruz,Lockhart,78.02,136.08,70.31,183.7,390.09,Single-ply,SBD,M
Boys,82.1,14,James Ball,Del Valle,78.2,142.88,92.99,154.22,390.09,Single-ply,SBD,M
Boys,82.1,15,Joseph Terry,San Marcos,80.56,131.54,95.25,163.29,390.09,Single-ply,SBD,M
Boys,89.81,16,Camden Thompson,Marion,82.28,129.27,115.67,133.81,378.75,Single-ply,SBD,M
Boys,82.1,17,Ty Bateman,Marion,80.92,115.67,115.67,142.88,374.21,Single-ply,SBD,M
Boys,82.1,18,Victor Martinez,San Marcos,79.56,138.35,81.65,147.42,367.41,Single-ply,SBD,M
Boys,82.1,19,Daniel Rangel,Del Valle,79.92,131.54,86.18,136.08,353.8,Single-ply,SBD,M
Boys,82.1,20,Nick Vasquez,Del Valle,75.84,120.2,74.84,136.08,331.12,Single-ply,SBD,M
Boys,82.1,DQ,Kyle Miller #7,Lockhart,76.75,147.42,83.91,,,Single-ply,SBD,M
Boys,82.1,DQ,Quavon Stevens,Del Valle,76.66,165.56,113.4,,,Single-ply,SBD,M
Boys,89.81,1,Nick Graner,Dripping Springs,89.54,174.63,120.2,210.92,505.76,Single-ply,SBD,M
Boys,89.81,2,Justin Hatfield,Geronimo Navarro,88.72,183.7,117.93,201.85,503.49,Single-ply,SBD,M
Boys,89.81,3,Shawn Schmidt,Geronimo Navarro,84.82,163.29,104.33,172.37,439.98,Single-ply,SBD,M
Boys,89.81,4,Lorenzo Washington,Marion,89.18,138.35,106.59,156.49,401.43,Single-ply,SBD,M
Boys,89.81,5,Daryl Ontiveros,San Marcos,86.64,147.42,92.99,158.76,399.16,Single-ply,SBD,M
Boys,89.81,6,Dejohn Reeves,Kyle Lehman,83.01,120.2,83.91,192.78,396.89,Single-ply,SBD,M
Boys,89.81,7,Jonis Nava,San Marcos,87.82,156.49,72.57,163.29,392.36,Single-ply,SBD,M
Boys,89.81,8,Ryan Bechtel,Marion,89.36,127.01,72.57,136.08,335.66,Single-ply,SBD,M
Boys,89.81,DQ,Moises Bustamante,Kyle Lehman,88.63,,,,,Single-ply,SBD,M
Boys,89.81,DQ,Preston Ellison,Buda Hays,89.81,158.76,,,,Single-ply,SBD,M
Boys,99.79,1,Elias Villalobos,San Marcos,97.43,224.53,133.81,260.82,619.15,Single-ply,SBD,M
Boys,99.79,2,Conner Roe,Geronimo Navarro,98.34,229.06,149.69,226.8,605.55,Single-ply,SBD,M
Boys,99.79,3,Zach Smith,Dripping Springs,95.35,224.53,133.81,222.26,580.6,Single-ply,SBD,M
Boys,99.79,4,Nick Hykel,Buda Hays,98.16,195.04,149.69,222.26,566.99,Single-ply,SBD,M
Boys,99.79,5,Ryan Buehler,Dripping Springs,91.17,197.31,149.69,176.9,523.9,Single-ply,SBD,M
Boys,99.79,6,Derric Robinson,Port Lavaca Calhoun,95.71,181.44,115.67,208.65,505.76,Single-ply,SBD,M
Boys,99.79,7,Justin Torres,Lockhart,91.17,183.7,108.86,185.97,478.54,Single-ply,SBD,M
Boys,99.79,8,Seth Crummley,Dripping Springs,98.16,158.76,106.59,176.9,442.25,Single-ply,SBD,M
Boys,99.79,9,Josh Duran,Marion,99.79,163.29,97.52,181.44,442.25,Single-ply,SBD,M
Boys,99.79,10,Cody Richter,Kyle Lehman,96.8,165.56,106.59,165.56,437.72,Single-ply,SBD,M
Boys,99.79,11,Daniel Perez,Kyle Lehman,96.71,158.76,102.06,149.69,410.5,Single-ply,SBD,M
Boys,99.79,12,Noe Gomez,Geronimo Navarro,91.44,145.15,102.06,147.42,394.63,Single-ply,SBD,M
Boys,99.79,13,Luis Monroe,College Station A&M Cons,90.99,147.42,95.25,145.15,387.82,Single-ply,SBD,M
Boys,99.79,14,Marshall Crabb,Geronimo Navarro,97.52,122.47,90.72,147.42,360.61,Single-ply,SBD,M
Boys,99.79,15,Eric Richardson #2,Kyle Lehman,95.53,158.76,65.77,113.4,337.93,Single-ply,SBD,M
Boys,99.79,16,Carlos Vasquez,Kyle Lehman,97.52,106.59,68.04,90.72,265.35,Single-ply,SBD,M
Boys,99.79,DQ,Colby Ardrey,Buda Hays,94.71,176.9,,,,Single-ply,SBD,M
Boys,109.77,1,Lane Springs,Geronimo Navarro,102.06,213.19,120.2,183.7,517.1,Single-ply,SBD,M
Boys,109.77,2,Ryan Bevan,College Station A&M Cons,106.14,147.42,79.38,170.1,396.89,Single-ply,SBD,M
Boys,109.77,3,Brian Prickett,Kyle Lehman,106.41,133.81,83.91,170.1,387.82,Single-ply,SBD,M
Boys,109.77,4,Jacob Esparza,Marion,102.24,92.99,70.31,142.88,306.17,Single-ply,SBD,M
Boys,124.74,1,Jesse Benevides Munoz,San Marcos,122.11,274.42,151.95,256.28,682.66,Single-ply,SBD,M
Boys,124.74,2,Jeremy Rodriguez,Geronimo Navarro,110.86,238.14,154.22,188.24,580.6,Single-ply,SBD,M
Boys,124.74,3,Marcus Ruiz,Kyle Lehman,120.2,224.53,133.81,188.24,546.58,Single-ply,SBD,M
Boys,124.74,4,Blake Wilkinson,College Station A&M Cons,120.56,190.51,124.74,190.51,505.76,Single-ply,SBD,M
Boys,124.74,5,Josh Urrutia,San Marcos,120.93,192.78,108.86,197.31,498.95,Single-ply,SBD,M
Boys,124.74,6,Enrique Guerrola,Buda Hays,114.94,172.37,111.13,172.37,455.86,Single-ply,SBD,M
Boys,124.74,7,Seth Seale,Buda Hays,114.85,154.22,133.81,161.03,449.06,Single-ply,SBD,M
Boys,124.74,8,Cesar Salazar,Marion,119.84,158.76,117.93,161.03,437.72,Single-ply,SBD,M
Boys,124.74,9,Zach Andrews,Kyle Lehman,112.31,142.88,108.86,149.69,401.43,Single-ply,SBD,M
Boys,124.74,10,Christian Gutierrez,Marion,123.56,156.49,102.06,142.88,401.43,Single-ply,SBD,M
Boys,124.74,11,AJ Bosquez,San Marcos,120.75,142.88,77.11,142.88,362.87,Single-ply,SBD,M
Boys,124.74,DQ,Arturo Romero,Port Lavaca Calhoun,124.1,249.48,,,,Single-ply,SBD,M
Boys,124.74,DQ,Brandon Dean,Kyle Lehman,112.04,117.93,,,,Single-ply,SBD,M
Boys,124.74,DQ,Martin Ruiz,Del Valle,110.68,147.42,,,,Single-ply,SBD,M
Boys,124.74+,1,Bobby Limon,Port Lavaca Calhoun,142.61,260.82,165.56,226.8,653.17,Single-ply,SBD,M
Boys,124.74+,2,Julian Silguero,Kyle Lehman,138.8,249.48,154.22,204.12,607.81,Single-ply,SBD,M
Boys,124.74+,DQ,Anthony Herrera,Del Valle,145.06,183.7,111.13,,,Single-ply,SBD,M
Boys,,NS,Taureg Sneed,Kyle Lehman,,,,,,Single-ply,SBD,M
