Place,Sex,Name,CyrillicName,BodyweightKg,Country,Squat1Kg,Squat2Kg,Squat3Kg,Best3SquatKg,Squat4Kg,Bench1Kg,Bench2Kg,Bench3Kg,Best3BenchKg,Bench4Kg,Deadlift1Kg,Deadlift2Kg,Deadlift3Kg,Best3DeadliftKg,Deadlift4Kg,TotalKg,WeightClassKg,Event,Equipment,Tested,Division,Age,BirthDate
1,F,Yuliya Degtyareva,Юлия Дегтярева,47.9,Russia,107.5,110,112.5,112.5,,60,62.5,-65,62.5,,145,150,-152.5,150,,325,48,SBD,Raw,Yes,Open,28,1990-09-08
2,F,Liliya Kinzhagulova,Лилия Кинжагулова,45.9,Russia,-85,90,95,95,,57.5,60,-62.5,60,,-115,120,125,125,,280,48,SBD,Raw,Yes,Open,45,1973-07-03
3,F,Mariya Lopukhova,Мария Лопухова,47.8,Russia,75,80,-85,80,,35,40,42.5,42.5,,85,90,-95,90,,212.5,48,SBD,Raw,Yes,Open,21,1997-12-07
1,F,Irina Zemtsova,Ирина Земцова,50.9,Russia,100,-102.5,-102.5,100,,52.5,-57.5,,52.5,,127.5,135,140,140,,292.5,52,SBD,Raw,Yes,Open,37,1981-12-28
2,F,Vera Poloynikova,Вера Полойникова,51.2,Russia,90,-95,-95,90,,-47.5,47.5,50,50,,100,-107.5,107.5,107.5,,247.5,52,SBD,Raw,Yes,Open,32,1986-05-20
1,F,Margarita Kubankina,Маргарита Кубанкина,55,Russia,-82.5,82.5,87.5,87.5,,-42.5,42.5,45,45,,75,90,-110,90,,222.5,56,SBD,Raw,Yes,Juniors 20-23,23,1995-10-24
1,F,Irina Korneeva,Ирина Корнеева,55.9,Russia,95,-100,100,100,,60,65,70,70,,115,-120,,115,,285,56,SBD,Raw,Yes,Open,31,1987-11-02
2,F,Elena Abapolnikova,Елена Абапольникова,54.9,Russia,85,95,-100,95,,45,-55,-55,45,,-110,-110,110,110,,250,56,SBD,Raw,Yes,Open,24,1995-03-30
3,F,Karina Kushnerchuk,Карина Кушнерчук,55.6,Russia,-82.5,82.5,85,85,,42.5,-45,-45,42.5,,100,-110,115,115,,242.5,56,SBD,Raw,Yes,Open,26,1993-02-26
4,F,Olga Sitenkova,Ольга Ситенкова,55,Russia,-60,60,-65,60,,30,-35,,30,,-60,-60,60,60,,150,56,SBD,Raw,Yes,Open,36,1983-03-31
1,F,Aleksandra Golban,Александра Голбан,59.4,Russia,85,90,95,95,,45,50,52.5,52.5,,145,150,155,155,,302.5,60,SBD,Raw,Yes,Open,19,1999-08-08
2,F,Valeriya Ushkova,Валерия Ушкова,59,Russia,95,100,-105,100,,50,-55,-55,50,,125,130,-135,130,,280,60,SBD,Raw,Yes,Open,26,1992-10-07
3,F,Olga Rysina,Ольга Рысина,59.3,Russia,80,85,-90,85,,-40,45,-50,45,,100,-107.5,112.5,112.5,,242.5,60,SBD,Raw,Yes,Open,37,1981-04-27
4,F,Yuliya Reveguk,Юлия Ревегук,59.3,Russia,77.5,82.5,85,85,,40,45,-47.5,45,,95,105,110,110,,240,60,SBD,Raw,Yes,Open,33,1985-05-27
5,F,Olga Pantina,Ольга Пантина,57.4,Russia,-90,90,-100,90,,50,-55,-55,50,,90,-95,95,95,,235,60,SBD,Raw,Yes,Open,31,1987-07-18
DQ,F,Emiliya Gorelovskaya,Эмилия Гореловская,59,Russia,-100,110,112.5,112.5,,45,50,52.5,52.5,,-90,-90,-90,,,,60,SBD,Raw,Yes,Open,27,1991-06-12
1,F,Ekaterina Krupskaya,Екатерина Крупская,62,Russia,-95,100,105,105,,57.5,62.5,65,65,,145,150,155,155,,325,67.5,SBD,Raw,Yes,Open,20,1999-02-20
2,F,Valeriya Shubina,Валерия Шубина,66.9,Russia,-115,115,-120,115,,45,50,-55,50,,120,-130,130,130,,295,67.5,SBD,Raw,Yes,Open,25,1993-10-12
3,F,Olga Ushakova,Ольга Ушакова,66.9,Russia,-102.5,102.5,107.5,107.5,,57.5,60,62.5,62.5,,105,110,115,115,,285,67.5,SBD,Raw,Yes,Open,45,1974-03-22
4,F,Natalya Pyrkova,Наталья Пыркова,66.3,Russia,75,82.5,90,90,,-55,60,62.5,62.5,,95,110,117.5,117.5,,270,67.5,SBD,Raw,Yes,Open,33,1985-10-20
5,F,Polina Grishina,Полина Гришина,61.9,Russia,-60,62.5,-67.5,62.5,,32.5,35,-40,35,,-80,85,95,95,,192.5,67.5,SBD,Raw,Yes,Open,31,1988-04-19
1,F,Tatyana Ogneva,Татьяна Огнева,72.9,Russia,72.5,82.5,92.5,92.5,,60,67.5,-75,67.5,,85,95,100,100,,260,75,SBD,Raw,Yes,Open,32,1986-12-18
2,F,Kseniya Ruzaykina,Ксения Рузайкина,67.7,Russia,85,-92.5,92.5,92.5,,47.5,-50,-50,47.5,,80,85,87.5,87.5,,227.5,75,SBD,Raw,Yes,Open,28,1990-06-26
3,F,Anastasiya Klyuchevskaya-Kabanova,Анастасия Ключевская-Кабанова,74,Russia,-70,-70,70,70,,35,40,-42.5,40,,80,85,90,90,,200,75,SBD,Raw,Yes,Open,36,1982-06-17
DQ,F,Natalya Cherkasova,Наталья Черкасова,69.2,Russia,-117.5,-117.5,-120,,,,,,,,,,,,,,75,SBD,Raw,Yes,Masters 40-44,42,1976-05-30
1,F,Elena Polonetskaya,Елена Полонецкая,81.3,Russia,105,115,-120,115,,65,67.5,-70,67.5,,120,127.5,-130,127.5,,310,82.5,SBD,Raw,Yes,Open,29,1989-08-19
2,F,Olga Karkishchenko,Ольга Каркищенко,81.4,Russia,105,-115,115,115,,65,-70,70,70,,105,115,-120,115,,300,82.5,SBD,Raw,Yes,Open,36,1983-04-06
1,F,Elena Ilina,Елена Ильина,86.7,Russia,-105,105,110,110,,52.5,-55,-55,52.5,,120,125,-130,125,,287.5,90,SBD,Raw,Yes,Open,32,1987-04-06
1,M,Maksim Bakhtin,Максим Бахтин,66,Russia,120,127.5,-130,127.5,,72.5,-77.5,77.5,77.5,,130,140,152.5,152.5,,357.5,67.5,SBD,Raw,Yes,Teen 16-17,16,2002-09-20
2,M,Vitaliy Dormidontov,Виталий Дормидонтов,61.1,Russia,-120,120,-130,120,,-67.5,67.5,72.5,72.5,,150,157.5,-165,157.5,,350,67.5,SBD,Raw,Yes,Teen 18-19,18,2000-12-03
1,M,Ilya Tereshchenko,Илья Терещенко,69.5,Russia,115,122.5,-127.5,122.5,,75,80,-82.5,80,,150,-160,-160,150,,352.5,75,SBD,Raw,Yes,Teen 16-17,16,2003-02-06
1,M,Andrey Ganichkin,Андрей Ганичкин,74.6,Russia,200,-205,,200,,140,150,-152.5,150,,250,257.5,-262.5,257.5,,607.5,75,SBD,Raw,Yes,Open,34,1984-08-09
2,M,Dmitriy Sidorkin,Дмитрий Сидоркин,71,Russia,200,210,-215,210,,142.5,145,150,150,,220,-240,-245,220,,580,75,SBD,Raw,Yes,Open,26,1993-02-04
3,M,Evgeniy Karpov,Евгений Карпов,72.2,Russia,-185,185,-190,185,,135,142.5,145,145,,190,202.5,210,210,,540,75,SBD,Raw,Yes,Open,39,1979-10-26
4,M,Evgeniy Lebedikov,Евгений Лебедиков,73.5,Russia,-200,200,210,210,,105,110,-115,110,,220,-230,-230,220,,540,75,SBD,Raw,Yes,Open,26,1992-12-19
DQ,M,Aleksandr Situkhin,Александр Ситухин,73.6,Russia,-165,-170,-170,,,,,,,,,,,,,,75,SBD,Raw,Yes,Open,28,1991-03-22
1,M,Artem Bodrov,Артем Бодров,81.3,Russia,180,-195,-195,180,,145,150,155,155,-157.5,220,235,-245,235,,570,82.5,SBD,Raw,Yes,Juniors 20-23,20,1999-02-07
1,M,Oleg Ryabinnikov,Олег Рябинников,75.7,Russia,222.5,230,-235,230,,122.5,-130,130,130,,240,252.5,-257.5,252.5,,612.5,82.5,SBD,Raw,Yes,Open,40,1978-05-30
2,M,Vladimir Prokoshev,Владимир Прокошев,81.2,Russia,205,215,225,225,,125,130,-135,130,,230,240,250,250,,605,82.5,SBD,Raw,Yes,Open,31,1988-04-02
3,M,Igor Pashkov,Игорь Пашков,82.4,Russia,185,192.5,197.5,197.5,,140,145,-150,145,,245,,,245,,587.5,82.5,SBD,Raw,Yes,Open,32,1986-06-10
4,M,Vladimir Kostin,Владимир Костин,81.6,Russia,110,130,-140,130,,-80,80,90,90,,150,170,180,180,,400,82.5,SBD,Raw,Yes,Open,26,1992-07-04
DQ,M,Aleksandr Prusov,Александр Прусов,77,Russia,-160,-160,-160,,,,,,,,,,,,,,82.5,SBD,Raw,Yes,Open,33,1985-08-13
DQ,M,Nazim Guseynov,Назим Гусейнов,81.4,Russia,-130,-140,-150,,,,,,,,,,,,,,82.5,SBD,Raw,Yes,Open,37,1981-06-12
1,M,Aleksandr Churzin,Александр Чурзин,88.3,Russia,-165,165,170,170,,125,130,-132.5,130,,190,200,210,210,,510,90,SBD,Raw,Yes,Juniors 20-23,23,1995-08-22
1,M,Evgeniy Vladimirov,Евгений Владимиров,88.7,Russia,-245,-245,245,245,,140,150,155,155,,240,250,255,255,,655,90,SBD,Raw,Yes,Open,54,1964-08-22
2,M,Maksim Osipov,Максим Осипов,89.9,Russia,210,-220,-220,210,,135,142.5,-145,142.5,,230,-240,-240,230,,582.5,90,SBD,Raw,Yes,Open,29,1989-06-18
3,M,Ivan Kurchin,Иван Курчин,84.3,Russia,190,200,210,210,,130,-140,-140,130,,-240,-240,240,240,,580,90,SBD,Raw,Yes,Open,29,1989-06-30
4,M,Dmitriy Suprunov,Дмитрий Супрунов,88.2,Russia,190,197.5,-202.5,197.5,,145,-150,-150,145,,220,230,-235,230,,572.5,90,SBD,Raw,Yes,Open,29,1989-06-08
1,M,Andrey Borisov,Андрей Борисов,88.9,Russia,-125,125,132.5,132.5,,102.5,-107.5,-107.5,102.5,,160,165,170,170,,405,90,SBD,Raw,Yes,Masters 40-44,44,1974-06-12
1,M,Arsen Akopyan,Арсен Акопян,89.1,Russia,170,180,-190,180,,120,130,-135,130,,210,215,-217.5,215,,525,90,SBD,Raw,Yes,Masters 45-49,48,1970-06-23
1,M,Evgeniy Vladimirov,Евгений Владимиров,88.7,Russia,-245,-245,245,245,,140,150,155,155,,240,250,255,255,,655,90,SBD,Raw,Yes,Masters 50-54,54,1964-08-22
1,M,Vladimir Pleshkov,Владимир Плешков,84.5,Russia,-135,135,145,145,,110,117.5,-120,117.5,,150,162.5,170,170,,432.5,90,SBD,Raw,Yes,Masters 70-74,74,1944-08-29
1,M,Andrey Simkin,Андрей Симкин,95.3,Russia,210,225,-232.5,225,,140,150,-155,150,,210,225,240,240,,615,100,SBD,Raw,Yes,Open,35,1983-05-27
2,M,Aleksey Lobachyov,Алексей Лобачёв,93.6,Russia,150,160,170,170,,122.5,127.5,-135,127.5,,190,202.5,210,210,,507.5,100,SBD,Raw,Yes,Open,35,1984-03-01
3,M,Dmitriy Kastov,Дмитрий Кастов,99.5,Russia,175,-185,-190,175,,105,112.5,117.5,117.5,,190,205,-215,205,,497.5,100,SBD,Raw,Yes,Open,27,1992-01-29
4,M,Maksim Polyakov,Максим Поляков,97.7,Russia,-160,160,167.5,167.5,,90,95,100,100,,172.5,-180,,172.5,,440,100,SBD,Raw,Yes,Open,32,1986-06-30
1,M,Roman Klimov,Роман Климов,107.7,Russia,225,-240,240,240,,150,155,-160,155,,267.5,282.5,-290,282.5,,677.5,110,SBD,Raw,Yes,Open,37,1981-12-24
2,M,Mikhail Vasilevskiy,Михаил Василевский,107.7,Russia,202.5,215,225,225,,135,142.5,-150,142.5,,210,-225,225,225,,592.5,110,SBD,Raw,Yes,Open,28,1991-01-21
3,M,Igor Gorshkov,Игорь Горшков,105.8,Russia,120,130,-135,130,,-100,100,-115,100,,130,140,150,150,,380,110,SBD,Raw,Yes,Open,35,1983-10-27
1,M,Ion Parshikov,Ион Паршиков,117,Russia,250,260,-265,260,,160,170,-175,170,,-250,255,-260,255,,685,125,SBD,Raw,Yes,Juniors 20-23,23,1995-10-14
1,M,Sergey Oleynikov,Сергей Олейников,117.5,Russia,210,220,227.5,227.5,,190,-200,-200,190,,250,265,272.5,272.5,,690,125,SBD,Raw,Yes,Open,37,1981-10-01
2,M,Ion Parshikov,Ион Паршиков,117,Russia,250,260,-265,260,,160,170,-175,170,,-250,255,-260,255,,685,125,SBD,Raw,Yes,Open,23,1995-10-14
3,M,Sergey Frolov,Сергей Фролов,111.9,Russia,220,235,-250,235,,-180,180,-190,180,,220,-235,-245,220,,635,125,SBD,Raw,Yes,Open,33,1986-03-21
4,M,Daniil Sinyakov,Даниил Синяков,122.3,Russia,180,190,200,200,,-152.5,162.5,-167.5,162.5,,200,-220,220,220,,582.5,125,SBD,Raw,Yes,Open,24,1994-09-06
1,M,Vadim Khmelev,Вадим Хмелев,136,Russia,-165,165,175,175,,145,150,155,155,,-170,175,182.5,182.5,,512.5,140,SBD,Raw,Yes,Masters 40-44,43,1975-07-21
1,F,Oksana Kuznetsova,Оксана Кузнецова,55.9,Russia,85,95,105,105,,60,-72.5,72.5,72.5,,110,120,130,130,,307.5,56,SBD,Raw,No,Open,28,1990-07-07
1,F,Elena Bondarchuk,Елена Бондарчук,59.8,Russia,107.5,-117.5,117.5,117.5,,65,70,72.5,72.5,,132.5,145,-150,145,,335,60,SBD,Raw,No,Open,38,1980-06-18
DQ,F,Anastasiya Marchenko,Анастасія Марченко,73.8,Russia,-190,-190,-190,,,,,,,,,,,,,,75,SBD,Raw,No,Open,31,1988-01-13
1,M,Mikhail Titov,Михаил Титов,56,Russia,170,175,-180,175,,125,132.5,-140,132.5,,195,207.5,-217.5,207.5,,515,56,SBD,Raw,No,Juniors 20-23,20,1999-04-15
1,M,Dalgat Gadzhiakhmedov,Далгат Гаджиахмедов,73.5,Russia,170,182.5,190,190,,130,137.5,-145,137.5,,230,-237.5,-237.5,230,,557.5,75,SBD,Raw,No,Open,31,1987-06-18
2,M,Aleksey Lyovushkin,Алексей Лёвушкин,72.6,Russia,160,-170,-170,160,,115,-120,120,120,,200,210,215,215,,495,75,SBD,Raw,No,Open,28,1990-07-16
3,M,Andrey Karpovich,Андрей Карпович,71.1,Russia,90,-97.5,105,105,,90,95,100,100,,-150,-165,165,165,,370,75,SBD,Raw,No,Open,36,1982-11-10
1,M,Parvinder Singh,,74.6,India,170,-190,-190,170,,90,100,105,105,,-170,180,210,210,,485,75,SBD,Raw,No,Masters 40-44,42,1976-12-06
1,M,Georgiy Kovalevskiy,Георгий Ковалевский,80.9,Russia,215,-222.5,222.5,222.5,,140,145,147.5,147.5,,245,250,-255,250,,620,82.5,SBD,Raw,No,Juniors 20-23,21,1997-10-28
2,M,Ruslan Kosse,,81.9,Spain,205,220,-225,220,,-125,-125,125,125,,-255,-255,255,255,,600,82.5,SBD,Raw,No,Juniors 20-23,22,1997-03-03
3,M,Ashish,,82.5,India,120,-140,140,140,,160,167.5,172.5,172.5,,220,235,242.5,242.5,,555,82.5,SBD,Raw,No,Juniors 20-23,21,1997-11-22
1,M,Pavel Zubkov,Павел Зубков,82.4,Russia,220,-235,237.5,237.5,,145,152.5,-160,152.5,,-290,300,310,310,,700,82.5,SBD,Raw,No,Open,33,1985-12-22
2,M,Georgiy Kovalevskiy,Георгий Ковалевский,80.9,Russia,215,-222.5,222.5,222.5,,140,145,147.5,147.5,,245,250,-255,250,,620,82.5,SBD,Raw,No,Open,21,1997-10-28
3,M,Ruslan Kosse,,81.9,Spain,205,220,-225,220,,-125,-125,125,125,,-255,-255,255,255,,600,82.5,SBD,Raw,No,Open,22,1997-03-03
4,M,Kirill Sitdikov,Кирилл Ситдиков,81.5,Russia,-190,195,-200,195,,135,145,150,150,,200,210,225,225,,570,82.5,SBD,Raw,No,Open,25,1993-10-31
5,M,Ashish,,82.5,India,120,-140,140,140,,160,167.5,172.5,172.5,,220,235,242.5,242.5,,555,82.5,SBD,Raw,No,Open,21,1997-11-22
6,M,Raul Karaev,Раул Караев,80.7,Russia,170,185,200,200,,120,130,-145,130,,190,205,220,220,,550,82.5,SBD,Raw,No,Open,24,1994-10-03
7,M,Nikolay Popesku,Николай Попеску,80.8,Russia,160,-170,170,170,,130,135,140,140,,200,-212.5,220,220,,530,82.5,SBD,Raw,No,Open,33,1985-09-24
8,M,Stanislav Vorobyov,Станислав Воробьёв,80.9,Russia,155,170,180,180,,125,135,140,140,,180,190,-200,190,,510,82.5,SBD,Raw,No,Open,24,1994-04-28
9,M,Arun Kumar,,78.3,India,150,-165,-165,150,,-150,155,160,160,,-170,170,-180,170,,480,82.5,SBD,Raw,No,Open,36,1982-12-14
1,M,Vitaliy Dyga,Виталий Дыга,89,Russia,-270,270,280,280,,180,187.5,192.5,192.5,,295,-300,-300,295,,767.5,90,SBD,Raw,No,Open,29,1989-05-11
DQ,M,Magomed Matsuev,Магомед Мацуев,88.6,Russia,265,-270,-270,265,,185,190,195,195,,-300,-300,-300,,,,90,SBD,Raw,No,Open,31,1988-01-27
1,M,Vladimir Pleshkov,Владимир Плешков,84.5,Russia,-135,135,145,145,,110,117.5,-120,117.5,,150,162.5,170,170,,432.5,90,SBD,Raw,No,Masters 70-74,74,1944-08-29
1,M,Vladimir Levkin,Владимир Левкин,99.8,Russia,240,250,-260,250,,175,185,192.5,192.5,,275,-285,,275,,717.5,100,SBD,Raw,No,Juniors 20-23,20,1998-10-26
2,M,Aleksandr Smirnov,Александр Смирнов,93.4,Russia,180,192.5,205,205,,130,140,147.5,147.5,,200,215,225,225,,577.5,100,SBD,Raw,No,Juniors 20-23,23,1996-02-04
1,M,Boris Ilin,Борис Ильин,99.5,Russia,200,210,220,220,,175,185,190,190,,250,270,-275,270,,680,100,SBD,Raw,No,Open,24,1994-09-15
DQ,M,Mikhail Tikhomirov,Михаил Тихомиров,99.4,Russia,225,240,-252.5,240,,135,145,-155,145,,-230,-230,-230,,,,100,SBD,Raw,No,Masters 45-49,45,1974-03-03
1,M,Sergey Akhlestin,Сергей Ахлестин,108.1,Russia,315,330,335,335,,190,200,205,205,,-350,350,-375,350,,890,110,SBD,Raw,No,Open,29,1989-09-15
2,M,Yuriy Chervanev,Юрий Черванев,103,Russia,160,170,-175,170,,140,145,-147.5,145,,180,-190,-190,180,,495,110,SBD,Raw,No,Open,34,1985-04-14
1,M,Nikolay Petrichenko,Николай Петриченко,106.8,Russia,140,150,160,160,,-105,110,-115,110,,160,170,190,190,,460,110,SBD,Raw,No,Masters 40-44,41,1978-01-12
1,M,Ivan Popov,Иван Попов,116.5,Russia,180,200,-210,200,,140,-150,150,150,,200,220,235,235,,585,125,SBD,Raw,No,Teen 16-17,16,2002-12-10
1,M,Aleksey Fedorenko,Алексей Федоренко,121,Russia,-225,225,-240,225,,-200,200,-210,200,,280,295,-307.5,295,,720,125,SBD,Raw,No,Juniors 20-23,22,1996-06-02
1,M,Denis Degtyar,Денис Дегтярь,110.5,Russia,270,290,306,306,,160,170,180,180,,270,300,325,325,-341,811,125,SBD,Raw,No,Open,37,1981-06-24
2,M,Arun,,125,India,150,165,175,175,,130,135,140,140,,210,225,232.5,232.5,,547.5,125,SBD,Raw,No,Open,25,1993-08-28
DQ,M,Mandeep Singh,,117.1,India,-100,-100,-100,,,100,110,-120,110,,110,130,150,150,,,125,SBD,Raw,No,Open,32,1986-10-10
1,F,Kristina Nikiforova,Кристина Никифорова,56,Russia,100,-105,-105,100,,45,-47.5,-47.5,45,,-95,-95,95,95,,240,56,SBD,Wraps,Yes,Teen 16-17,16,2002-12-24
DQ,F,Natalya Konchakova,Наталья Кончакова,54,Russia,147.5,-157.5,157.5,157.5,,-70,70,-72.5,70,,-165,-165,-165,,,,56,SBD,Wraps,Yes,Open,41,1977-08-14
DQ,F,Anastasiya Gorshkova,Анастасия Горшкова,52.4,Russia,-125,130,-137.5,130,,-50,-50,-50,,,,,,,,,56,SBD,Wraps,Yes,Open,31,1988-01-29
1,F,Kristina Dobrya,Кристина Добря,62.6,Russia,110,120,-125,120,,60,65,-70,65,,135,145,150,150,,335,67.5,SBD,Wraps,Yes,Open,29,1989-04-20
1,F,Olga Klimas,Ольга Климась,74.5,Russia,142.5,-147.5,-152.5,142.5,,52.5,57.5,-60,57.5,,155,165,-175,165,,365,75,SBD,Wraps,Yes,Open,43,1975-09-24
1,M,Anton Medvednikov,Антон Медведников,72,Russia,175,185,-190,185,,125,130,135,135,,180,190,195,195,,515,75,SBD,Wraps,Yes,Open,31,1988-01-24
1,M,Vladislav Melnikov,Владислав Мельников,81.9,Russia,150,-160,-160,150,,60,67.5,72.5,72.5,,-150,150,160,160,,382.5,82.5,SBD,Wraps,Yes,Teen 16-17,17,2002-01-30
1,M,Andrey Mikhaylov,Андрей Михайлов,89.9,Russia,170,190,-200,190,,140,150,,150,,190,210,-215,210,,550,90,SBD,Wraps,Yes,Open,35,1983-07-18
2,M,Oleg Makushin,Олег Макушин,87.3,Russia,160,170,175,175,,105,107.5,110,110,,165,175,180,180,,465,90,SBD,Wraps,Yes,Open,27,1991-07-09
DQ,M,Andrey Ivanov,Андрей Иванов,89.9,Russia,-220,,,,,,,,,,,,,,,,90,SBD,Wraps,Yes,Open,48,1971-01-14
1,M,Kirill Molyukov,Кирилл Молюков,96.3,Russia,190,200,205,205,,135,140,145,145,,170,180,-185,180,,530,100,SBD,Wraps,Yes,Juniors 20-23,22,1997-04-08
1,M,Pavel Spiridonov,Павел Спиридонов,98.2,Russia,235,-245,-245,235,,150,160,162.5,162.5,,230,-237.5,-237.5,230,,627.5,100,SBD,Wraps,Yes,Open,35,1983-10-22
2,M,Kirill Volkov,Кирилл Волков,98.1,Russia,180,200,215,215,,130,-140,-145,130,,200,215,225,225,,570,100,SBD,Wraps,Yes,Open,25,1993-07-17
1,M,Andrey Andreev,Андрей Андреев,98.6,Russia,205,215,225,225,,160,170,180,180,,205,220,-222.5,220,,625,100,SBD,Wraps,Yes,Masters 40-44,40,1979-03-08
1,M,Nikolay Zabelin,Николай Забелин,108.2,Russia,220,230,-235,230,,157.5,162.5,-165,162.5,,240,250,-255,250,,642.5,110,SBD,Wraps,Yes,Open,33,1985-05-23
1,M,Arbi Israilov,Арби Исраилов,109,Russia,-200,200,217.5,217.5,,105,115,120,120,,195,210,-217.5,210,,547.5,110,SBD,Wraps,Yes,Masters 50-54,50,1968-07-20
1,M,Vsevolod Kovshar,Всеволод Ковшарь,115.5,Russia,260,270,280,280,,155,165,-172.5,165,,260,270,-280,270,,715,125,SBD,Wraps,Yes,Juniors 20-23,23,1995-12-06
1,M,Viktor Golubev,Виктор Голубев,117.5,Russia,135,-145,150,150,,100,-107.5,,100,,140,150,-160,150,,400,125,SBD,Wraps,Yes,Open,31,1988-04-14
1,F,Tatyana Budkina,Татьяна Будкина,59.9,Russia,-120,-120,120,120,,-75,-75,75,75,,140,150,-160,150,,345,60,SBD,Wraps,No,Masters 40-44,40,1979-04-02
1,F,Tatyana Mazar,Татьяна Мазар,66.7,Russia,190,200,210,210,,105,110,115,115,,180,190,200,200,,525,67.5,SBD,Wraps,No,Open,23,1996-01-23
1,F,Viktoriya Epikhina,Виктория Епихина,71.8,Russia,-180,-180,190,190,,-102.5,-107.5,107.5,107.5,,195,205,212.5,212.5,,510,75,SBD,Wraps,No,Open,28,1991-04-18
1,M,Timur Vaapov,Тимур Ваапов,72.7,Russia,205,215,-220,215,,-105,105,-110,105,,180,195,-205,195,,515,75,SBD,Wraps,No,Juniors 20-23,21,1997-11-29
1,M,Aleksandr Somov,Александр Сомов,79.7,Russia,180,190,200,200,,130,140,-145,140,,180,190,200,200,,540,82.5,SBD,Wraps,No,Juniors 20-23,23,1995-05-26
1,M,Maksim Grekov,Максим Греков,80.4,Russia,240,-255,255,255,,150,160,170,170,,-250,250,-270,250,,675,82.5,SBD,Wraps,No,Open,33,1985-09-09
2,M,Vitaliy Nabatchikov,Виталий Набатчиков,82.4,Russia,240,-250,250,250,,140,147.5,,147.5,,235,242.5,247.5,247.5,,645,82.5,SBD,Wraps,No,Open,24,1994-06-07
3,M,Vladimir Fomin,Владимир Фомин,81.4,Russia,-240,240,-250,240,,-140,150,-170,150,,-230,230,250,250,,640,82.5,SBD,Wraps,No,Open,29,1989-06-01
4,M,Ruslan Zinnatov,Руслан Зиннатов,81.3,Russia,-220,220,-230,220,,130,-135,135,135,,190,200,210,210,,565,82.5,SBD,Wraps,No,Open,32,1986-12-21
1,M,Nikolay Altunin,Николай Алтунин,77,Russia,215,230,-240,230,,145,-150,-152.5,145,,240,250,,250,,625,82.5,SBD,Wraps,No,Masters 40-44,41,1977-07-24
1,M,Ramazan Shikhgasanov,Рамазан Шихгасанов,90,Russia,340,355,360,360,,220,-227.5,-227.5,220,,300,-310,-310,300,,880,90,SBD,Wraps,No,Open,24,1995-02-23
2,M,Nikolay Zamp,Николай Замп,88.7,Russia,230,-240,250,250,,140,145,-150,145,,240,250,-257.5,250,,645,90,SBD,Wraps,No,Open,29,1990-03-02
3,M,Vladislav Mukhin,Владислав Мухин,84.9,Russia,230,-250,-260,230,,145,152.5,155,155,,-220,230,240,240,,625,90,SBD,Wraps,No,Open,36,1983-03-01
4,M,Filipp Butyrev,Филипп Бутырев,89.9,Russia,200,220,230,230,,150,155,-160,155,,205,215,-227.5,215,,600,90,SBD,Wraps,No,Open,24,1995-01-14
DQ,M,Dmitriy Pavlov,Дмитрий Павлов,88.7,Russia,-295,-300,-305,,,,,,,,,,,,,,90,SBD,Wraps,No,Open,27,1991-11-15
1,M,Roman Davydenkov,Роман Давыденков,98.2,Russia,215,230,-245,230,,140,150,-160,150,,215,225,240,240,,620,100,SBD,Wraps,No,Juniors 20-23,22,1996-06-17
1,M,Andrey Bulgar,Андрей Булгарь,100,Russia,270,280,290,290,,165,175,-180,175,,325,335,-340,335,,800,100,SBD,Wraps,No,Open,30,1988-06-27
2,M,Ivan Kazachkov,Иван Казачков,99.4,Russia,-300,300,-320,300,,175,-185,-185,175,,-300,300,-310,300,,775,100,SBD,Wraps,No,Open,30,1989-04-01
3,M,Aleksey Sokolov,Алексей Соколов,99.9,Russia,265,282.5,-292.5,282.5,,140,-145,-145,140,,245,265,-272.5,265,,687.5,100,SBD,Wraps,No,Open,28,1990-10-13
4,M,Andrey Salov,Андрей Салов,93.5,Russia,-220,227.5,-235,227.5,,130,135,-137.5,135,,230,237.5,240,240,,602.5,100,SBD,Wraps,No,Open,34,1984-08-30
5,M,Dmitriy Pashchenko,Дмитрий Пащенко,95.4,Russia,190,200,220,220,,140,-150,150,150,,230,-245,-250,230,,600,100,SBD,Wraps,No,Open,24,1995-04-17
1,M,Aleksandr Kharlamov,Александр Харламов,97.9,Russia,210,225,-230,225,,140,150,-155,150,,220,230,245,245,,620,100,SBD,Wraps,No,Masters 40-44,41,1977-06-02
2,M,Viktor Suvernev,Виктор Сувернев,98.7,Russia,220,235,-245,235,,120,125,-127.5,125,,210,225,-235,225,,585,100,SBD,Wraps,No,Masters 40-44,42,1977-02-25
1,M,Pavel Kriulenko,Павел Криуленко,108.2,Russia,270,-280,280,280,-285,170,-180,-180,170,,-280,280,-285,280,,730,110,SBD,Wraps,No,Juniors 20-23,21,1997-11-20
1,M,Aleksandr Sedykh,Александр Седых,109.3,Russia,335,-350,350,350,-360,-180,190,200,200,,220,240,250,250,,800,110,SBD,Wraps,No,Open,28,1990-05-24
2,M,Igor Mezenov,Игорь Мезенов,107,Russia,-250,-270,270,270,,170,190,-197.5,190,,260,280,295,295,,755,110,SBD,Wraps,No,Open,31,1988-02-23
3,M,Anton Dyachkov,Антон Дьячков,107.5,Russia,250,270,280,280,,-180,180,190,190,,250,260,-270,260,,730,110,SBD,Wraps,No,Open,41,1977-12-21
4,M,Konstantin Zadkov,Константин Задков,108.9,Russia,-265,265,-280,265,,175,-182.5,-182.5,175,,-240,240,-255,240,,680,110,SBD,Wraps,No,Open,36,1982-06-16
1,M,Anton Dyachkov,Антон Дьячков,107.5,Russia,250,270,280,280,,-180,180,190,190,,250,260,-270,260,,730,110,SBD,Wraps,No,Masters 40-44,41,1977-12-21
DQ,M,Andrey Zolotarenok,Андрей Золотаренок,107.7,Russia,-260,-260,-260,,,,,,,,,,,,,,110,SBD,Wraps,No,Masters 40-44,40,1978-11-23
1,M,Arbi Israilov,Арби Исраилов,109,Russia,-200,200,217.5,217.5,,105,115,120,120,,195,210,-217.5,210,,547.5,110,SBD,Wraps,No,Masters 50-54,50,1968-07-20
1,M,Ruslan Bandurovskiy,Руслан Бандуровский,115,Russia,260,275,285,285,,160,175,-180,175,,260,-280,-280,260,,720,125,SBD,Wraps,No,Open,36,1982-07-29
DQ,M,Ilya Grikin,Илья Грикин,122,Russia,-290,-290,-290,,,,,,,,,,,,,,125,SBD,Wraps,No,Open,27,1992-04-08
1,M,Ruslan Petrushkin,Руслан Петрушкин,152.7,Russia,285,300,305,305,,195,205,-210,205,,255,270,285,285,,795,140+,SBD,Wraps,No,Open,34,1984-08-24
DQ,M,Roman Durnov,Роман Дурнов,74.2,Russia,-240,-240,-240,,,,,,,,,,,,,,75,SBD,Single-ply,Yes,Open,32,1986-09-23
DD,M,Kostas Telidis,Костас Телидис,79.6,Russia,-290,-300,300,300,-315,245,-255,255,255,-260,247.5,262.5,-275,262.5,,,82.5,SBD,Single-ply,Yes,Open,30,1989-04-18
DQ,M,Viktor Yashin,Виктор Яшин,80.2,Russia,-230,230,-242.5,230,,-142.5,-142.5,-145,,,,,,,,,82.5,SBD,Single-ply,Yes,Open,29,1989-10-29
1,M,Nikolay Pankov,Николай Панков,102,Russia,240,260,-280,260,,-180,180,-190,180,,150,170,200,200,,640,110,SBD,Single-ply,Yes,Juniors 20-23,22,1996-07-17
1,M,Vladimir Belyakhin,Владимир Беляхин,66.9,Russia,290,302.5,310,310,-315,-215,215,225,225,-227.5,210,215,-225,215,,750,67.5,SBD,Single-ply,No,Open,29,1989-05-19
2,M,Mikhail Voskresenskiy,Михаил Воскресенский,66.5,Russia,265,-275,275,275,,160,167.5,-172.5,167.5,,250,260,,260,,702.5,67.5,SBD,Single-ply,No,Open,35,1983-09-01
1,M,Kostas Telidis,Костас Телидис,79.6,Russia,-290,-300,300,300,-315,245,-255,255,255,-260,247.5,262.5,-275,262.5,,817.5,82.5,SBD,Single-ply,No,Open,30,1989-04-18
2,M,Egor Filatov,Егор Филатов,80.5,Russia,-230,230,237.5,237.5,,-190,190,-197.5,190,,230,240,,240,,667.5,82.5,SBD,Single-ply,No,Open,25,1993-04-22
1,M,Singh Baldev,,92.2,India,-240,-240,240,240,,145,-155,160,160,,230,250,-265,250,,650,100,SBD,Single-ply,No,Open,29,1989-08-11
DQ,M,Aditya Barthwal,,94,India,-287.5,-287.5,-287.5,,,,,,,,,,,,,,100,SBD,Single-ply,No,Open,25,1993-07-01
1,M,Valentin Andreev,Валентин Андреев,90.5,Russia,-215,-215,215,215,,95,100,-105,100,,-220,230,247.5,247.5,,562.5,100,SBD,Single-ply,No,Masters 70-74,70,1948-05-06
1,M,Anastasios Mauromichalis,,108.7,Greece,-330,340,-350,340,,-180,-190,190,190,,312.5,-322.5,-322.5,312.5,,842.5,110,SBD,Single-ply,No,Open,25,1994-01-22
1,M,Pantelis Sapounakis,,115.2,Greece,-360,-360,370,370,,-285,285,-295,285,,315,325,-345,325,,980,125,SBD,Single-ply,No,Open,38,1980-10-23
DQ,M,Athanasios Liouras,,121.1,Greece,-340,-340,-340,,,200,215,,215,,350,-367.5,-367.5,350,,,125,SBD,Single-ply,No,Open,36,1982-09-07
1,M,Aleksandr Situkhin,Александр Ситухин,73.6,Russia,,,,,,125,-130,-130,125,,225,235,-240,235,,360,75,BD,Raw,Yes,Open,28,1991-03-22
1,M,Ashish,,81.2,India,,,,,,115,-160,165,165,,210,230,240,240,,405,82.5,BD,Raw,Yes,Juniors 20-23,21,1997-11-22
1,M,Anton Khristoforov,Антон Христофоров,81,Russia,,,,,,115,-117.5,117.5,117.5,,230,-235,-235,230,,347.5,82.5,BD,Raw,Yes,Open,26,1992-05-24
DQ,M,Igor Sidorov,Игорь Сидоров,88.8,Russia,,,,,,150,157.5,-162.5,157.5,,-230,-230,-230,,,,90,BD,Raw,Yes,Open,32,1987-01-08
1,M,Vasiliy Leonenko,Василий Леоненко,87.8,Russia,,,,,,130,,,130,,225,235,-240,235,,365,90,BD,Raw,Yes,Masters 50-54,52,1967-04-06
1,M,Roman Safronov,Роман Сафронов,97,Russia,,,,,,132.5,137.5,142.5,142.5,,227.5,-252.5,-252.5,227.5,,370,100,BD,Raw,Yes,Open,29,1989-08-04
1,M,Ion Parshikov,Ион Паршиков,117,Russia,,,,,,160,170,-175,170,,-250,255,-260,255,,425,125,BD,Raw,Yes,Juniors 20-23,23,1995-10-14
1,M,Ion Parshikov,Ион Паршиков,117,Russia,,,,,,160,170,-175,170,,-250,255,-260,255,,425,125,BD,Raw,Yes,Open,23,1995-10-14
2,M,Arun,,119.1,India,,,,,,112.5,140,-150,140,,210,225,-235,225,,365,125,BD,Raw,Yes,Open,25,1993-08-28
1,F,Tatyana Budkina,Татьяна Будкина,59.9,Russia,,,,,,-75,-75,75,75,,140,150,-160,150,,225,60,BD,Raw,No,Masters 40-44,40,1979-04-02
1,F,Anastasiya Marchenko,Анастасія Марченко,73.8,Russia,,,,,,100,-105,-105,100,,190,-200,-200,190,,290,75,BD,Raw,No,Open,31,1988-01-13
2,F,Elena Pimenova,Елена Пименова,74.8,Russia,,,,,,-85,85,-90,85,,160,-170,-170,160,,245,75,BD,Raw,No,Open,34,1984-08-13
1,M,Parvinder Singh,,74.6,India,,,,,,90,100,105,105,,-170,180,210,210,,315,75,BD,Raw,No,Masters 40-44,42,1976-12-06
1,M,Vladimir Kistanov,Владимир Кистанов,81.7,Russia,,,,,,170,177.5,-182.5,177.5,,270,290,-310,290,,467.5,82.5,BD,Raw,No,Open,28,1991-04-15
2,M,Arun Kumar,,78.3,India,,,,,,-150,155,160,160,,-170,170,-180,170,,330,82.5,BD,Raw,No,Open,36,1982-12-14
1,M,Aleksey Zavadskiy,Алексей Завадский,89.9,Belarus,,,,,,175,180,-190,180,,280,295,-305,295,,475,90,BD,Raw,No,Open,28,1990-08-30
1,M,Boris Ilin,Борис Ильин,99.5,Russia,,,,,,175,185,190,190,,250,270,-275,270,,460,100,BD,Raw,No,Open,24,1994-09-15
DQ,M,Yuriy Grigorev,Юрий Григорьев,99,Russia,,,,,,190,-195,-195,190,,-260,-270,-270,,,,100,BD,Raw,No,Open,37,1982-02-09
1,M,Nikita Shugin,Никита Шугин,106.6,Russia,,,,,,180,-187.5,-187.5,180,,260,275,,275,,455,110,BD,Raw,No,Open,27,1991-09-06
1,M,Ilya Grikin,Илья Грикин,122,Russia,,,,,,190,200,-202.5,200,,275,292.5,300,300,,500,125,BD,Raw,No,Open,27,1992-04-08
2,M,Bharat Chaudhary,,115.7,India,,,,,,-160,170,-180,170,,-190,210,220,220,,390,125,BD,Raw,No,Open,27,1991-10-23
1,M,Anastasios Mauromichalis,,108.7,Greece,,,,,,-180,-190,190,190,,312.5,-322.5,-322.5,312.5,,502.5,110,BD,Raw,No,Open,25,1994-01-22
1,M,Pantelis Sapounakis,,115.2,Greece,,,,,,-285,285,-295,285,,315,325,-345,325,,610,125,BD,Raw,No,Open,38,1980-10-23
2,M,Athanasios Liouras,,121.1,Greece,,,,,,200,215,,215,,350,-367.5,-367.5,350,,565,125,BD,Raw,No,Open,36,1982-09-07
DQ,F,Darya Vereshchagina,Дарья Верещагина,42.9,Russia,-75,-75,-75,,,,,,,,,,,,,,44,S,Raw,Yes,Open,26,1993-02-03
1,F,Kristina Nikiforova,Кристина Никифорова,56,Russia,100,-105,-105,100,,,,,,,,,,,,100,56,S,Raw,Yes,Teen 16-17,16,2002-12-24
1,F,Olga Andrianova,Ольга Андрианова,53,Russia,-95,-100,105,105,,,,,,,,,,,,105,56,S,Raw,Yes,Open,33,1986-02-02
2,F,Viktoriya Kravchenko,Виктория Кравченко,54.5,Russia,-85,90,-92.5,90,,,,,,,,,,,,90,56,S,Raw,Yes,Open,29,1989-09-21
1,F,Emiliya Gorelovskaya,Эмилия Гореловская,59,Russia,-100,110,112.5,112.5,,,,,,,,,,,,112.5,60,S,Raw,Yes,Open,27,1991-06-12
1,F,Aleksandra Polivenok,Александра Поливенок,64.7,Belarus,67.5,-72.5,-75,67.5,,,,,,,,,,,,67.5,67.5,S,Raw,Yes,Teen 16-17,16,2002-07-21
1,F,Anna Shmeleva,Анна Шмелева,64.4,Russia,95,102.5,-105,102.5,,,,,,,,,,,,102.5,67.5,S,Raw,Yes,Juniors 20-23,22,1996-10-17
1,F,Anna Shmeleva,Анна Шмелева,64.4,Russia,95,102.5,-105,102.5,,,,,,,,,,,,102.5,67.5,S,Raw,Yes,Open,22,1996-10-17
1,F,Elena Polonetskaya,Елена Полонецкая,81.3,Russia,105,115,-120,115,,,,,,,,,,,,115,82.5,S,Raw,Yes,Open,29,1989-08-19
2,F,Olga Karkishchenko,Ольга Каркищенко,81.4,Russia,105,-115,115,115,,,,,,,,,,,,115,82.5,S,Raw,Yes,Open,36,1983-04-06
1,M,Shafeek Saleem,,54.4,India,-100,-100,100,100,,,,,,,,,,,,100,56,S,Raw,Yes,Open,25,1994-03-09
1,M,Vladimir Pleshkov,Владимир Плешков,84.5,Russia,-135,135,145,145,,,,,,,,,,,,145,90,S,Raw,Yes,Masters 70-74,74,1944-08-29
1,M,Andrey Simkin,Андрей Симкин,95.3,Russia,210,225,-232.5,225,,,,,,,,,,,,225,100,S,Raw,Yes,Open,35,1983-05-27
1,M,Parvinder Singh,,74.6,India,170,-190,-190,170,,,,,,,,,,,,170,75,S,Raw,No,Masters 40-44,42,1976-12-06
1,M,Mikhail Tikhomirov,Михаил Тихомиров,99.4,Russia,225,240,-252.5,240,,,,,,,,,,,,240,100,S,Raw,No,Masters 45-49,45,1974-03-03
1,M,Vera Salakhova,Вера Салахова,57.2,Russia,100,-110,-112.5,100,,,,,,,,,,,,100,60,S,Wraps,Yes,Open,38,1980-12-24
1,M,Arbi Israilov,Арби Исраилов,109,Russia,-200,200,217.5,217.5,,,,,,,,,,,,217.5,110,S,Wraps,Yes,Masters 50-54,50,1968-07-20
1,M,Anton Dyachkov,Антон Дьячков,107.5,Russia,250,270,280,280,,,,,,,,,,,,280,110,S,Wraps,No,Masters 40-44,41,1977-12-21
1,M,Aleksandr Bereznikov,Александр Березников,116.3,Russia,200,225,235,235,,,,,,,,,,,,235,125,S,Wraps,No,Masters 55-59,55,1964-01-26
DD,M,Kostas Telidis,Костас Телидис,79.6,Russia,-290,-300,300,300,-315,,,,,,,,,,,,82.5,S,Single-ply,Yes,Open,30,1989-04-18
1,M,Vladimir Belyakhin,Владимир Беляхин,66.9,Russia,290,302.5,310,310,-315,,,,,,,,,,,310,67.5,S,Single-ply,No,Open,29,1989-05-19
1,M,Anastasios Mauromichalis,,108.7,Greece,-330,340,-350,340,,,,,,,,,,,,340,110,S,Single-ply,No,Open,25,1994-01-22
1,M,Pantelis Sapounakis,,115.2,Greece,-360,-360,370,370,,,,,,,,,,,,370,125,S,Single-ply,No,Open,38,1980-10-23
1,F,Anna Subbotina,Анна Субботина,43.9,Russia,,,,,,-35,35,37.5,37.5,,,,,,,37.5,44,B,Raw,Yes,Open,32,1986-07-15
1,F,Evgeniya Balyasina,Евгения Балясина,47.9,Russia,,,,,,65,-70,-70,65,,,,,,,65,48,B,Raw,Yes,Open,29,1989-05-21
1,F,Evgeniya Zakharenko,Евгения Захаренко,51.1,Russia,,,,,,45,50,-52.5,50,,,,,,,50,52,B,Raw,Yes,Open,25,1993-09-15
1,F,Aleksandra Vedeneeva,Александра Веденеева,55.9,Russia,,,,,,75,-82.5,82.5,82.5,,,,,,,82.5,56,B,Raw,Yes,Open,34,1985-02-25
2,F,Inessa Kontar,Инесса Контарь,54.3,Russia,,,,,,-57.5,60,62.5,62.5,,,,,,,62.5,56,B,Raw,Yes,Open,39,1980-01-25
3,F,Olga Sergeeva,Ольга Сергеева,55,Russia,,,,,,62.5,-65,-65,62.5,,,,,,,62.5,56,B,Raw,Yes,Open,25,1993-09-16
4,F,Irina Syanova,Ирина Сьянова,55.4,Russia,,,,,,-47.5,47.5,-50,47.5,,,,,,,47.5,56,B,Raw,Yes,Open,34,1984-06-09
1,F,Tatyana Krotova,Татьяна Кротова,59.4,Russia,,,,,,75,77.5,80,80,,,,,,,80,60,B,Raw,Yes,Open,33,1986-04-10
2,F,Anastasiya Strashnova,Анастасия Страшнова,59.3,Russia,,,,,,55,57.5,-60,57.5,,,,,,,57.5,60,B,Raw,Yes,Open,28,1990-12-13
DQ,F,Evgeniya Alekseeva,Евгения Алексеева,60,Russia,,,,,,-65,-65,-65,,,,,,,,,60,B,Raw,Yes,Open,32,1986-09-08
DQ,F,Vera Sapozhnikova,Вера Сапожникова,58.1,Russia,,,,,,-55,-60,-60,,,,,,,,,60,B,Raw,Yes,Masters 45-49,46,1972-10-01
1,F,Elina Rikman,Элина Рикман,63.6,Russia,,,,,,80,85,-90,85,,,,,,,85,67.5,B,Raw,Yes,Open,19,1999-07-03
2,F,Anna Filippova,Анна Филиппова,63.9,Russia,,,,,,62.5,-65,65,65,,,,,,,65,67.5,B,Raw,Yes,Open,39,1979-10-05
3,F,Yuliya Sukhinina,Юлия Сухинина,64,Russia,,,,,,47.5,50,-52.5,50,,,,,,,50,67.5,B,Raw,Yes,Open,32,1986-09-10
1,F,Nataliya Shapovalova,Наталия Шаповалова,73,Russia,,,,,,52.5,-55,-55,52.5,,,,,,,52.5,75,B,Raw,Yes,Juniors 20-23,22,1996-09-26
1,F,Marina Nyuktieva,Марина Нюктиева,71.1,Russia,,,,,,-50,50,52.5,52.5,,,,,,,52.5,75,B,Raw,Yes,Open,31,1988-01-02
1,F,Nadezhda Matvienko,Надежда Матвиенко,72.6,Russia,,,,,,-95,100,-105,100,,,,,,,100,75,B,Raw,Yes,Masters 50-54,54,1964-07-27
1,F,Olga Ionova,Ольга Ионова,78.5,Russia,,,,,,57.5,60,-62.5,60,,,,,,,60,82.5,B,Raw,Yes,Teen 13-15,14,2004-08-26
1,F,Kristina Prokofeva,Кристина Прокофьева,79.3,Russia,,,,,,40,45,50,50,,,,,,,50,82.5,B,Raw,Yes,Open,30,1988-11-28
1,M,Aleksey Kolisnichenko,Алексей Колисниченко,51.3,Russia,,,,,,112.5,-115,115,115,,,,,,,115,52,B,Raw,Yes,Open,24,1994-07-14
1,M,Magomed Kasumov,Магомед Касумов,54.3,Russia,,,,,,87.5,-90,-90,87.5,,,,,,,87.5,56,B,Raw,Yes,Teen 16-17,17,2001-12-13
2,M,Egor Ponomarev,Егор Пономарев,54.6,Russia,,,,,,-55,57.5,62.5,62.5,,,,,,,62.5,56,B,Raw,Yes,Teen 13-15,15,2004-04-19
1,M,Shafeek Saleem,,55,India,,,,,,-65,70,-75,70,,,,,,,70,56,B,Raw,Yes,Open,25,1994-03-09
1,M,Gleb Kosatikov,Глеб Косатиков,59.2,Russia,,,,,,95,-100,-100,95,,,,,,,95,60,B,Raw,Yes,Teen 16-17,17,2001-11-29
2,M,Ivan Shcherbakov,Иван Щербаков,58.5,Russia,,,,,,72.5,77.5,80,80,,,,,,,80,60,B,Raw,Yes,Teen 16-17,16,2002-09-26
1,M,Evgeniy Zhgulev,Евгений Жгулев,59,Russia,,,,,,130,-140,-140,130,,,,,,,130,60,B,Raw,Yes,Juniors 20-23,21,1997-09-29
1,M,Yanis Kalaychev,Янис Калайчев,59.5,Russia,,,,,,145,155,160,160,-162.5,,,,,,160,60,B,Raw,Yes,Open,33,1985-07-23
1,M,Yuriy Murzin,Юрий Мурзин,62.4,Russia,,,,,,120,-125,,120,,,,,,,120,67.5,B,Raw,Yes,Teen 18-19,18,2000-06-15
1,M,Artem Khusainov,Артем Хусаинов,67.5,Russia,,,,,,135,140,-145,140,,,,,,,140,67.5,B,Raw,Yes,Juniors 20-23,21,1997-06-18
1,M,Sergey Pronichkin,Сергей Проничкин,62.7,Russia,,,,,,125,-130,-130,125,,,,,,,125,67.5,B,Raw,Yes,Open,29,1989-08-15
2,M,Vyacheslav Lykov,Вячеслав Лыков,67.3,Russia,,,,,,117.5,-125,-125,117.5,,,,,,,117.5,67.5,B,Raw,Yes,Open,25,1994-01-28
1,M,Ivan Kiryushkin,Иван Кирюшкин,72.5,Russia,,,,,,-82.5,82.5,-95,82.5,,,,,,,82.5,75,B,Raw,Yes,Teen 16-17,17,2001-09-03
1,M,Evgeniy Drobchenko,Евгений Дробченко,74.2,Russia,,,,,,135,145,-150,145,,,,,,,145,75,B,Raw,Yes,Open,37,1981-10-05
2,M,Nikolay Belikov,Николай Беликов,73.2,Russia,,,,,,140,-145,-145,140,,,,,,,140,75,B,Raw,Yes,Open,29,1989-05-19
3,M,Anton Romanov,Антон Романов,73.9,Russia,,,,,,-135,135,140,140,,,,,,,140,75,B,Raw,Yes,Open,32,1986-05-20
4,M,Kirill Talaev,Кирилл Талаев,72.5,Russia,,,,,,135,-142.5,-142.5,135,,,,,,,135,75,B,Raw,Yes,Open,29,1989-08-31
5,M,Sergey Yanchenko,Сергей Янченко,73.1,Russia,,,,,,127.5,132.5,-135,132.5,,,,,,,132.5,75,B,Raw,Yes,Open,26,1993-02-26
6,M,Pavel Petkov,Павел Петков,71.1,Russia,,,,,,125,-130,-135,125,,,,,,,125,75,B,Raw,Yes,Open,28,1990-09-11
7,M,Dmitriy Vakhovskiy,Дмитрий Ваховский,74.4,Russia,,,,,,110,-117.5,-117.5,110,,,,,,,110,75,B,Raw,Yes,Open,24,1994-08-05
1,M,Denis Farutin,Денис Фарутин,72,Russia,,,,,,142.5,-147.5,-147.5,142.5,,,,,,,142.5,75,B,Raw,Yes,Masters 40-44,42,1977-01-24
1,M,Oleg Vinokurov,Олег Винокуров,74.2,Russia,,,,,,-112.5,-112.5,112.5,112.5,,,,,,,112.5,75,B,Raw,Yes,Masters 50-54,52,1966-05-10
1,M,Daniil Vasilev,Даниил Васильев,81.1,Russia,,,,,,167.5,171,175,175,-178,,,,,,175,82.5,B,Raw,Yes,Teen 18-19,19,1999-08-13
1,M,Ashish,,81.2,India,,,,,,115,-160,165,165,,,,,,,165,82.5,B,Raw,Yes,Juniors 20-23,21,1997-11-22
2,M,Aleksandr Korolev,Александр Королев,80.2,Russia,,,,,,145,-155,-155,145,,,,,,,145,82.5,B,Raw,Yes,Juniors 20-23,22,1996-06-23
1,M,Parviz Odinaev,Парвиз Одинаев,80.9,Tajikistan,,,,,,200,205,210,210,,,,,,,210,82.5,B,Raw,Yes,Open,36,1982-12-02
2,M,Arun Kumar,,78.3,India,,,,,,140,-160,160,160,,,,,,,160,82.5,B,Raw,Yes,Open,36,1982-12-14
3,M,Aleksandr Prusov,Александр Прусов,77,Russia,,,,,,-115,115,-120,115,,,,,,,115,82.5,B,Raw,Yes,Open,33,1985-08-13
4,M,Ivan Nosov,Иван Носов,77.9,Russia,,,,,,100,110,115,115,,,,,,,115,82.5,B,Raw,Yes,Open,34,1984-06-20
DQ,M,Maksim Koveshnikov,Максим Ковешников,81.8,Russia,,,,,,-110,-110,-110,,,,,,,,,82.5,B,Raw,Yes,Open,37,1981-12-04
1,M,Viktor Fadeev,Виктор Фадеев,81.6,Russia,,,,,,110,125,-127.5,125,,,,,,,125,82.5,B,Raw,Yes,Masters 40-44,43,1975-08-06
1,M,Vladimir Klimenko,Владимир Клименко,81.7,Russia,,,,,,105,110,-115,110,,,,,,,110,82.5,B,Raw,Yes,Masters 70-74,74,1945-03-12
1,M,Viktor Fedotov,Виктор Федотов,89.4,Russia,,,,,,125,132.5,,132.5,,,,,,,132.5,90,B,Raw,Yes,Teen 16-17,17,2002-01-21
1,M,Vladislav Podlipnyak,Владислав Подлипняк,88.2,Russia,,,,,,145,152.5,155,155,,,,,,,155,90,B,Raw,Yes,Juniors 20-23,20,1998-08-26
2,M,Vyacheslav Burmistrov,Вячеслав Бурмистров,88.3,Russia,,,,,,142.5,152.5,-155,152.5,,,,,,,152.5,90,B,Raw,Yes,Juniors 20-23,23,1995-07-14
3,M,Sergey Vanyushechkin,Сергей Ванюшечкин,88.5,Russia,,,,,,147.5,-152.5,-152.5,147.5,,,,,,,147.5,90,B,Raw,Yes,Juniors 20-23,22,1996-10-21
1,M,Stanislav Frolov,Станислав Фролов,88.2,Russia,,,,,,165,170,-175,170,,,,,,,170,90,B,Raw,Yes,Open,27,1991-09-15
2,M,Aleksandr Balyasnikov,Александр Балясников,89.8,Russia,,,,,,-170,-170,170,170,,,,,,,170,90,B,Raw,Yes,Open,25,1993-07-20
3,M,Vasiliy Zharkov,Василий Жарков,89.4,Russia,,,,,,160,167.5,-175,167.5,,,,,,,167.5,90,B,Raw,Yes,Open,39,1979-05-01
4,M,Vladimir Ponomarev,Владимир Пономарев,89.1,Russia,,,,,,145,-152.5,152.5,152.5,,,,,,,152.5,90,B,Raw,Yes,Open,37,1981-08-03
5,M,Evgeniy Sidorov,Евгений Сидоров,87.5,Russia,,,,,,120,127.5,-132.5,127.5,,,,,,,127.5,90,B,Raw,Yes,Open,37,1981-10-28
6,M,Vitaliy Fedin,Виталий Федин,88.2,Russia,,,,,,122.5,-127.5,-127.5,122.5,,,,,,,122.5,90,B,Raw,Yes,Open,31,1987-11-30
DQ,M,Vitaliy Zyk,Виталий Зык,88.6,Russia,,,,,,-127.5,-127.5,-127.5,,,,,,,,,90,B,Raw,Yes,Open,33,1986-04-17
1,M,Vasiliy Leonenko,Василий Леоненко,87.8,Russia,,,,,,130,,,130,,,,,,,130,90,B,Raw,Yes,Masters 50-54,52,1967-04-06
1,M,Vladimir Lashin,Владимир Лашин,89.3,Russia,,,,,,125,132.5,-137.5,132.5,,,,,,,132.5,90,B,Raw,Yes,Masters 55-59,59,1960-03-28
2,M,Sergey Yanov,Сергей Янов,88.3,Belarus,,,,,,100,102.5,-105,102.5,,,,,,,102.5,90,B,Raw,Yes,Masters 55-59,55,1964-01-28
1,M,Vladimir Pleshkov,Владимир Плешков,84.5,Russia,,,,,,110,117.5,-120,117.5,,,,,,,117.5,90,B,Raw,Yes,Masters 70-74,74,1944-08-29
1,M,Sergey Bushin,Сергей Бушин,96.8,Russia,,,,,,157.5,162.5,-167.5,162.5,,,,,,,162.5,100,B,Raw,Yes,Teen 18-19,19,2000-02-09
2,M,Daniil Sharafutdinov,Даниил Шарафутдинов,92.2,Russia,,,,,,90,100,-110,100,,,,,,,100,100,B,Raw,Yes,Teen 16-17,16,2002-05-28
1,M,Georgiy Sasania,Георгий Сасаниа,97.1,Russia,,,,,,210,-215,-215,210,,,,,,,210,100,B,Raw,Yes,Open,26,1993-02-14
2,M,Parviz Zafarzod,Парвиз Зафарзод,98.9,Tajikistan,,,,,,-190,190,192.5,192.5,,,,,,,192.5,100,B,Raw,Yes,Open,24,1994-05-18
3,M,Sergey Shalimov,Сергей Шалимов,97.5,Russia,,,,,,190,-215,-215,190,,,,,,,190,100,B,Raw,Yes,Open,27,1991-12-02
4,M,German Plotnikov,Герман Плотников,98.1,Russia,,,,,,172.5,175,-177.5,175,,,,,,,175,100,B,Raw,Yes,Open,42,1976-05-08
5,M,Aleksandr Lyugzaev,Александр Люгзаев,98.3,Russia,,,,,,155,162.5,-165,162.5,,,,,,,162.5,100,B,Raw,Yes,Open,36,1982-10-25
DQ,M,Sergey Povstanyuk,Сергей Повстанюк,98,Russia,,,,,,-157.5,-157.5,-157.5,,,,,,,,,100,B,Raw,Yes,Open,33,1985-07-24
DQ,M,Nikolay Kozlov,Николай Козлов,98.5,Russia,,,,,,-140,-140,-140,,,,,,,,,100,B,Raw,Yes,Open,33,1985-06-29
1,M,Andrey Grigorev,Андрей Григорьев,99.6,Russia,,,,,,182.5,187.5,190,190,-196,,,,,,190,100,B,Raw,Yes,Masters 40-44,44,1975-03-05
2,M,German Plotnikov,Герман Плотников,98.1,Russia,,,,,,172.5,175,-177.5,175,,,,,,,175,100,B,Raw,Yes,Masters 40-44,42,1976-05-08
1,M,Aleksandr Dymov,Александр Дымов,94.5,Russia,,,,,,160,170,180,180,,,,,,,180,100,B,Raw,Yes,Masters 45-49,45,1973-08-13
2,M,Aleksey Mikhaylov,Алексей Михайлов,94.8,Russia,,,,,,115,-120,125,125,,,,,,,125,100,B,Raw,Yes,Masters 45-49,48,1971-03-04
1,M,Igor Usachev,Игорь Усачев,94.5,Russia,,,,,,130,140,145,145,,,,,,,145,100,B,Raw,Yes,Masters 50-54,53,1965-06-06
1,M,Valeriy Akentyev,Валерий Акентьев,98.8,Russia,,,,,,130,135,140,140,-145,,,,,,140,100,B,Raw,Yes,Masters 60-64,61,1958-03-13
1,M,Vladislav Makushka,Владислав Макушка,108.9,Ukraine,,,,,,200,-210,-210,200,,,,,,,200,110,B,Raw,Yes,Open,23,1995-06-15
2,M,Mikhail Zhiganov,Михаил Жиганов,101.8,Russia,,,,,,175,185,192.5,192.5,,,,,,,192.5,110,B,Raw,Yes,Open,37,1981-06-07
3,M,Andrey Petrov,Андрей Петров,107.6,Russia,,,,,,185,192.5,-195,192.5,,,,,,,192.5,110,B,Raw,Yes,Open,37,1981-09-30
4,M,Evgeniy Grishin,Евгений Гришин,107.8,Russia,,,,,,170,-175,-175,170,,,,,,,170,110,B,Raw,Yes,Open,31,1987-07-05
5,M,Dmitriy Kasatkin,Дмитрий Касаткин,106.1,Russia,,,,,,160,167.5,-172.5,167.5,,,,,,,167.5,110,B,Raw,Yes,Open,37,1981-10-30
6,M,Kirill Aksenov,Кирилл Аксенов,107.1,Russia,,,,,,160,-167.5,-167.5,160,,,,,,,160,110,B,Raw,Yes,Open,24,1994-05-24
7,M,Aleksandr Sverdlov,Александр Свердлов,103.3,Russia,,,,,,-100,100,117.5,117.5,,,,,,,117.5,110,B,Raw,Yes,Open,25,1994-02-11
1,M,Dmitriy Lavrov,Дмитрий Лавров,101.9,Russia,,,,,,160,165,-167.5,165,,,,,,,165,110,B,Raw,Yes,Masters 40-44,42,1977-04-17
1,M,Dmitriy Tolstov,Дмитрий Толстов,106,Russia,,,,,,-150,150,-152.5,150,,,,,,,150,110,B,Raw,Yes,Masters 45-49,45,1973-10-26
1,M,Igor Kurotchenko,Игорь Куротченко,108.8,Russia,,,,,,130,140,,140,,,,,,,140,110,B,Raw,Yes,Masters 55-59,57,1962-03-20
1,M,Bharat Chaudhary,,115.7,India,,,,,,160,172.5,177.5,177.5,,,,,,,177.5,125,B,Raw,Yes,Open,27,1991-10-23
1,M,Aleksandr Feoktistov,Александр Феоктистов,115.2,Russia,,,,,,165,-177.5,177.5,177.5,,,,,,,177.5,125,B,Raw,Yes,Masters 40-44,42,1976-05-27
1,M,Denis Ogloblin,Денис Оглоблин,122.1,Russia,,,,,,170,-175,-175,170,,,,,,,170,125,B,Raw,Yes,Masters 50-54,52,1967-01-01
1,M,Sergey Lazarev,Сергей Лазарев,148,Russia,,,,,,135,140,,140,,,,,,,140,140+,B,Raw,Yes,Masters 55-59,59,1960-04-04
1,F,Natalya Samarina,Наталья Самарина,66.5,Russia,,,,,,135,-143,-143,135,,,,,,,135,67.5,B,Raw,No,Open,34,1984-06-27
2,F,Alena Milokhova,Алена Милохова,67,Russia,,,,,,-90,90,-92.5,90,,,,,,,90,67.5,B,Raw,No,Open,28,1991-01-30
1,F,Alevtina Ivanova,Алевтина Иванова,67,Russia,,,,,,102.5,110,117.5,117.5,,,,,,,117.5,67.5,B,Raw,No,Masters 45-49,47,1971-10-03
1,M,Igor Yurlov,Игорь Юрлов,61.9,Russia,,,,,,112.5,-117.5,-117.5,112.5,,,,,,,112.5,67.5,B,Raw,No,Juniors 20-23,22,1996-11-16
DQ,M,Aleksandr Shibaev,Александр Шибаев,72.5,Russia,,,,,,-160,-160,,,,,,,,,,75,B,Raw,No,Open,28,1991-01-14
1,M,Parvinder Singh,,74.6,India,,,,,,90,100,105,105,,,,,,,105,75,B,Raw,No,Masters 40-44,42,1976-12-06
1,M,Artur Andreev,Артур Андреев,80,Russia,,,,,,160,-165,-165,160,,,,,,,160,82.5,B,Raw,No,Juniors 20-23,23,1995-05-30
2,M,Andrey Ageev,Андрей Агеев,82.3,Russia,,,,,,-140,-140,140,140,,,,,,,140,82.5,B,Raw,No,Juniors 20-23,23,1995-05-23
1,M,Ilya Pankratov,Илья Панкратов,82.4,Russia,,,,,,215,-222.5,-222.5,215,,,,,,,215,82.5,B,Raw,No,Open,32,1986-12-09
2,M,Ashish,,82.5,India,,,,,,160,167.5,172.5,172.5,,,,,,,172.5,82.5,B,Raw,No,Open,21,1997-11-22
3,M,Ilya Sushiy,Илья Суший,81.5,Russia,,,,,,157.5,165,170,170,,,,,,,170,82.5,B,Raw,No,Open,34,1984-08-20
4,M,Rustam Bagitov,Рустам Багитов,77.3,Russia,,,,,,-160,160,-165,160,,,,,,,160,82.5,B,Raw,No,Open,34,1985-01-18
5,M,Grigoriy Khanukaev,Григорий Ханукаев,75.9,Russia,,,,,,-142.5,142.5,152.5,152.5,,,,,,,152.5,82.5,B,Raw,No,Open,24,1995-01-16
6,M,Elvin Babaev,Эльвин Бабаев,81.1,Russia,,,,,,130,142.5,145,145,,,,,,,145,82.5,B,Raw,No,Open,33,1985-10-08
7,M,Mikhail Solovev,Михаил Соловьев,78.8,Russia,,,,,,-110,130,-142.5,130,,,,,,,130,82.5,B,Raw,No,Open,29,1989-06-03
1,M,Anton Simanchuk,Антон Симанчук,89.2,Russia,,,,,,147.5,-152.5,-152.5,147.5,,,,,,,147.5,90,B,Raw,No,Teen 18-19,19,1999-09-20
1,M,Murad Magomedov,Мурад Магомедов,89.7,Russia,,,,,,202.5,207.5,210,210,,,,,,,210,90,B,Raw,No,Open,29,1989-09-17
2,M,Roman Ksenofontov,Роман Ксенофонтов,88.5,Russia,,,,,,170,-180,-180,170,,,,,,,170,90,B,Raw,No,Open,30,1989-01-24
3,M,Anton Morkin,Антон Моркин,84.4,Russia,,,,,,-110,-115,115,115,,,,,,,115,90,B,Raw,No,Open,39,1979-10-30
DQ,M,Nikita Kashkin,Никита Кашкин,88.9,Russia,,,,,,-170,-170,,,,,,,,,,90,B,Raw,No,Open,24,1995-02-21
1,M,Karen Arutyunyan,Карен Арутюнян,89.6,Russia,,,,,,155,160,-162.5,160,,,,,,,160,90,B,Raw,No,Masters 40-44,43,1976-01-03
1,M,Sergey Bazanov,Сергей Базанов,88.2,Russia,,,,,,175,177.5,-180,177.5,,,,,,,177.5,90,B,Raw,No,Masters 55-59,56,1962-06-22
1,M,Vladimir Pleshkov,Владимир Плешков,84.5,Russia,,,,,,110,117.5,-120,117.5,,,,,,,117.5,90,B,Raw,No,Masters 70-74,74,1944-08-29
1,M,Anatoliy Gorislov,Анатолий Горислов,88.7,Russia,,,,,,110,-115,115,115,,,,,,,115,90,B,Raw,No,Masters 75-79,79,1939-11-14
1,M,Oleg Krylov,Олег Крылов,96.4,Russia,,,,,,160,165,170,170,,,,,,,170,100,B,Raw,No,Juniors 20-23,22,1996-04-27
1,M,Kirill Yurshin,Кирилл Юршин,98.7,Russia,,,,,,207.5,217.5,-220,217.5,,,,,,,217.5,100,B,Raw,No,Open,30,1988-07-28
2,M,Pavel Danilov,Павел Данилов,93.2,Russia,,,,,,180,190,195,195,,,,,,,195,100,B,Raw,No,Open,30,1988-08-14
3,M,Sergey Mikhaylov,Сергей Михайлов,97.3,Belarus,,,,,,185,192.5,195,195,,,,,,,195,100,B,Raw,No,Open,25,1994-03-11
4,M,Yuriy Grigorev,Юрий Григорьев,99,Russia,,,,,,190,-195,-195,190,,,,,,,190,100,B,Raw,No,Open,37,1982-02-09
5,M,Boris Ilin,Борис Ильин,99.5,Russia,,,,,,190,-195,-195,190,,,,,,,190,100,B,Raw,No,Open,24,1994-09-15
6,M,Oleg Smirnov,Олег Смирнов,98,Russia,,,,,,160,170,-175,170,,,,,,,170,100,B,Raw,No,Open,33,1986-01-22
7,M,Roman Borzin,Роман Борзин,95.1,Russia,,,,,,-150,-150,160,160,,,,,,,160,100,B,Raw,No,Open,42,1976-07-21
DQ,M,Valeriy Zhikulin,Валерий Жикулин,99.3,Russia,,,,,,-175,-175,,,,,,,,,,100,B,Raw,No,Open,35,1983-06-20
1,M,Aleksandr Melyanovskiy,Александр Мельяновский,97.6,Russia,,,,,,170,180,182.5,182.5,,,,,,,182.5,100,B,Raw,No,Masters 40-44,41,1978-04-05
DQ,M,Sergey Bugakov,Сергей Бугаков,93,Russia,,,,,,-180,-180,-180,,,,,,,,,100,B,Raw,No,Masters 40-44,43,1975-12-31
DQ,M,Igor Sergeev,Игорь Сергеев,98.8,Russia,,,,,,-210,-210,-210,,,,,,,,,100,B,Raw,No,Masters 50-54,53,1966-01-01
1,M,Aleksey Markelov,Алексей Маркелов,109.6,Russia,,,,,,-230,237.5,-247.5,237.5,,,,,,,237.5,110,B,Raw,No,Open,34,1984-06-12
2,M,Artur Arakelyan,Артур Аракелян,109.7,Russia,,,,,,210,220,-225,220,,,,,,,220,110,B,Raw,No,Open,31,1987-08-08
3,M,Kirill Prostyakov,Кирилл Простяков,107.7,Russia,,,,,,-170,170,180,180,,,,,,,180,110,B,Raw,No,Open,33,1985-06-24
4,M,Singh Manvinder,,103.4,India,,,,,,-70,70,80,80,,,,,,,80,110,B,Raw,No,Open,26,1993-03-07
DQ,M,Denis Sermin,Денис Сермин,108.9,Russia,,,,,,-185,-190,-190,,,,,,,,,110,B,Raw,No,Open,29,1989-04-20
1,M,Nodar Tsutskiridze,Нодар Цуцкиридзе,104,Russia,,,,,,175,-190,190,190,,,,,,,190,110,B,Raw,No,Masters 40-44,42,1976-09-14
2,M,Anton Dyachkov,Антон Дьячков,107.5,Russia,,,,,,-180,180,190,190,,,,,,,190,110,B,Raw,No,Masters 40-44,41,1977-12-21
DQ,M,Artyom Golovin,Артём Головин,104.3,Russia,,,,,,-202.5,-202.5,-202.5,,,,,,,,,110,B,Raw,No,Masters 40-44,41,1977-08-15
1,M,Aleksandr Kuznetsov,Александр Кузнецов,119.5,Russia,,,,,,215,-230,-230,215,,,,,,,215,125,B,Raw,No,Open,39,1979-06-20
2,M,Aleksandr Vagin,Александр Вагин,119.7,Russia,,,,,,165,-175,-175,165,,,,,,,165,125,B,Raw,No,Open,32,1986-04-25
DQ,M,Andrey Kovalev,Андрей Ковалев,110.3,Russia,,,,,,-192.5,-192.5,-192.5,,,,,,,,,125,B,Raw,No,Open,26,1992-09-14
DQ,M,Anton Begalko,Антон Бегалко,122.8,Russia,,,,,,-290,-290,-290,,,,,,,,,125,B,Raw,No,Open,32,1986-11-06
1,M,Viktor Vasilev,Виктор Васильев,114.9,Russia,,,,,,153,,,153,,,,,,,153,125,B,Raw,No,Masters 65-69,65,1954-02-09
1,M,Vitaliy Mordvinov,Виталий Мордвинов,132.5,Russia,,,,,,-240,250,260,260,,,,,,,260,140,B,Raw,No,Open,31,1987-04-24
2,M,Bogdan Kozak,Богдан Козак,137.5,Russia,,,,,,255,-265,,255,,,,,,,255,140,B,Raw,No,Open,35,1984-04-05
3,M,Andrey Nazentsev,Андрей Назенцев,133.8,Russia,,,,,,230,-242.5,-242.5,230,,,,,,,230,140,B,Raw,No,Open,35,1983-11-22
1,M,Andrey Vysotskiy,Андрей Высоцкий,135.5,Russia,,,,,,235,-242.5,-242.5,235,,,,,,,235,140,B,Raw,No,Masters 40-44,41,1977-11-19
DQ,F,Irina Zenina,Ирина Зенина,51.7,Russia,,,,,,-80,-80,-80,,,,,,,,,52,B,Single-ply,Yes,Teen 16-17,17,2001-05-19
DQ,F,Irina Zenina,Ирина Зенина,51.7,Russia,,,,,,-80,-80,-80,,,,,,,,,52,B,Single-ply,Yes,Open,17,2001-05-19
1,F,Arina Podgornova,Арина Подгорнова,64.3,Russia,,,,,,-75,-77.5,77.5,77.5,,,,,,,77.5,67.5,B,Single-ply,Yes,Teen 16-17,17,2002-03-11
DD,M,Kostas Telidis,Костас Телидис,79.6,Russia,,,,,,245,-255,255,255,-260,,,,,,,82.5,B,Single-ply,Yes,Open,30,1989-04-18
1,M,Aleksandr Rogatenko,Александр Рогатенко,82,Russia,,,,,,185,-200,-215,185,,,,,,,185,82.5,B,Single-ply,Yes,Open,36,1982-05-07
2,M,Arun Kumar,,78.3,India,,,,,,170,,,170,,,,,,,170,82.5,B,Single-ply,Yes,Open,36,1982-12-14
1,M,Maksim Shebukhov,Максим Шебухов,88.1,Russia,,,,,,200,-220,220,220,,,,,,,220,90,B,Single-ply,Yes,Juniors 20-23,23,1995-07-13
1,M,Vladimir Konchakov,Владимир Кончаков,89,Russia,,,,,,250,260,272.5,272.5,,,,,,,272.5,90,B,Single-ply,Yes,Open,45,1973-05-25
1,M,Andrey Ignatov,Андрей Игнатов,98.4,Russia,,,,,,-255,-255,255,255,,,,,,,255,100,B,Single-ply,Yes,Open,27,1992-02-22
DQ,M,Mikhail Litovskiy,Михаил Литовский,100.5,Russia,,,,,,-195,-200,-200,,,,,,,,,110,B,Single-ply,Yes,Open,26,1993-01-16
1,F,Olga Vershinina,Ольга Вершинина,50.7,Russia,,,,,,80,-87.5,-87.5,80,,,,,,,80,52,B,Single-ply,No,Open,25,1993-07-18
1,M,Vladimir Belyakhin,Владимир Беляхин,66.9,Russia,,,,,,-215,215,225,225,-227.5,,,,,,225,67.5,B,Single-ply,No,Open,29,1989-05-19
1,M,Sergey Leshkov,Сергей Лешков,74.9,Russia,,,,,,-165,165,185,185,,,,,,,185,75,B,Single-ply,No,Open,27,1991-07-14
1,M,Denis Akimov,Денис Акимов,81.5,Russia,,,,,,-185,185,-195,185,,,,,,,185,82.5,B,Single-ply,No,Open,30,1988-07-28
DQ,M,Pavel Silushin,Павел Силушин,85.4,Russia,,,,,,-240,-240,,,,,,,,,,90,B,Single-ply,No,Open,29,1989-09-17
1,M,Aleksandr Olkhovskiy,Александр Ольховский,106.3,Russia,,,,,,260,270,277.5,277.5,,,,,,,277.5,110,B,Single-ply,No,Open,40,1978-12-25
2,M,Anastasios Mauromichalis,,108.7,Greece,,,,,,-180,-190,190,190,,,,,,,190,110,B,Single-ply,No,Open,25,1994-01-22
1,M,Pantelis Sapounakis,,115.2,Greece,,,,,,-285,285,-295,285,,,,,,,285,125,B,Single-ply,No,Open,38,1980-10-23
2,M,Ivan Avramenko,Иван Авраменко,115.7,Russia,,,,,,-255,-255,255,255,,,,,,,255,125,B,Single-ply,No,Open,31,1988-03-24
3,M,Balviner Singh,,114.3,India,,,,,,120,,,120,,,,,,,120,125,B,Single-ply,No,Open,29,1989-08-11
1,M,Valeriy Akentyev,Валерий Акентьев,98.8,Russia,,,,,,190,195,-200,195,,,,,,,195,100,B,Multi-ply,Yes,Masters 60-64,61,1958-03-13
1,M,Maksim Raspopov,Максим Распопов,74.3,Russia,,,,,,-115,115,125,125,,,,,,,125,75,B,Multi-ply,No,Open,26,1992-07-11
1,M,Pantelis Sapounakis,,115.2,Greece,,,,,,300,-320,,300,,,,,,,300,125,B,Multi-ply,No,Open,38,1980-10-23
DQ,F,Elena Yakovleva,Елена Яковлева,60.7,Russia,,,,,,-85,-85,-85,,,,,,,,,67.5,B,Multi-ply,Yes,Open,35,1983-12-04
1,M,Evgeniy Kuklin,Евгений Куклин,66.9,Russia,,,,,,150,-170,-170,150,,,,,,,150,67.5,B,Multi-ply,Yes,Open,37,1981-12-16
1,M,Kirill Talaev,Кирилл Талаев,72.5,Russia,,,,,,200,-212.5,212.5,212.5,,,,,,,212.5,75,B,Multi-ply,Yes,Open,29,1989-08-31
2,M,Denis Kuklin,Денис Куклин,72,Russia,,,,,,175,190,200,200,,,,,,,200,75,B,Multi-ply,Yes,Open,29,1989-09-06
3,M,Nikolay Belikov,Николай Беликов,73.2,Russia,,,,,,195,-205,-212.5,195,,,,,,,195,75,B,Multi-ply,Yes,Open,29,1989-05-19
4,M,Aleksandr Kudryashov,Александр Кудряшов,73.4,Russia,,,,,,175,-185,185,185,,,,,,,185,75,B,Multi-ply,Yes,Open,36,1982-11-28
1,M,Sergey Sidorovskiy,Сергей Сидоровский,74.6,Russia,,,,,,-185,185,-195,185,,,,,,,185,75,B,Multi-ply,Yes,Masters 45-49,47,1971-05-12
2,M,Rinat Khuzin,Ринат Хузин,75,Russia,,,,,,-170,170,-197.5,170,,,,,,,170,75,B,Multi-ply,Yes,Masters 45-49,49,1969-06-14
1,M,Oleg Vinokurov,Олег Винокуров,74.2,Russia,,,,,,-150,150,155,155,-160,,,,,,155,75,B,Multi-ply,Yes,Masters 50-54,52,1966-05-10
DD,M,Kostas Telidis,Костас Телидис,79.6,Russia,,,,,,252.5,267.5,280,280,,,,,,,,82.5,B,Multi-ply,Yes,Open,30,1989-04-18
1,M,Denis Chetyrkin,Денис Четыркин,82.4,Russia,,,,,,-205,210,-230,210,,,,,,,210,82.5,B,Multi-ply,Yes,Open,32,1986-05-10
DQ,M,Dmitriy Borodikhin,Дмитрий Бородихин,80.7,Russia,,,,,,-215,-215,-230,,,,,,,,,82.5,B,Multi-ply,Yes,Open,31,1987-10-24
1,M,Vasiliy Leonenko,Василий Леоненко,87.8,Russia,,,,,,230,-247.5,-247.5,230,,,,,,,230,90,B,Multi-ply,Yes,Open,52,1967-04-06
2,M,Roman Skobkarev,Роман Скобкарев,87.8,Russia,,,,,,202.5,210,-217.5,210,,,,,,,210,90,B,Multi-ply,Yes,Open,32,1986-09-25
1,M,Vasiliy Leonenko,Василий Леоненко,87.8,Russia,,,,,,230,-247.5,-247.5,230,,,,,,,230,90,B,Multi-ply,Yes,Masters 50-54,52,1967-04-06
1,M,Kirill Sukharev,Кирилл Сухарев,98,Russia,,,,,,255,267.5,-280,267.5,,,,,,,267.5,100,B,Multi-ply,Yes,Open,25,1993-12-21
2,M,Vitaliy Atmeneev,Виталий Атменеев,98.2,Russia,,,,,,255,-267.5,267.5,267.5,,,,,,,267.5,100,B,Multi-ply,Yes,Open,32,1986-11-06
3,M,Vitaliy Lutsuk,Виталий Луцук,94,Russia,,,,,,240,-250,-255,240,,,,,,,240,100,B,Multi-ply,Yes,Open,28,1991-03-20
4,M,Nikita Yaremenko,Никита Яременко,95.9,Russia,,,,,,-220,220,-232.5,220,,,,,,,220,100,B,Multi-ply,Yes,Open,27,1991-12-02
1,M,Valeriy Akentyev,Валерий Акентьев,98.8,Russia,,,,,,220,232.5,-235,232.5,,,,,,,232.5,100,B,Multi-ply,Yes,Masters 60-64,61,1958-03-13
1,M,Andrey Sukharev,Андрей Сухарев,103,Russia,,,,,,292.5,-305,307.5,307.5,,,,,,,307.5,110,B,Multi-ply,Yes,Open,44,1974-07-22
2,M,Dmitriy Gorodzhiy,Дмитрий Городжий,108.4,Russia,,,,,,282.5,295,-310,295,,,,,,,295,110,B,Multi-ply,Yes,Open,25,1993-06-09
3,M,Mikhail Yarlykov,Михаил Ярлыков,105,Russia,,,,,,200,215,-225,215,,,,,,,215,110,B,Multi-ply,Yes,Open,30,1989-02-22
1,M,Andrey Sukharev,Андрей Сухарев,103,Russia,,,,,,292.5,-305,307.5,307.5,,,,,,,307.5,110,B,Multi-ply,Yes,Masters 40-44,44,1974-07-22
2,M,Roman Belyaev,Роман Беляев,108,Russia,,,,,,215,220,225,225,,,,,,,225,110,B,Multi-ply,Yes,Masters 40-44,43,1976-01-22
1,M,Viktor Pavlov,Виктор Павлов,117.6,Russia,,,,,,330,-355,-355,330,,,,,,,330,125,B,Multi-ply,Yes,Open,30,1988-04-25
1,M,Dmitriy Demidov,Дмитрий Демидов,127,Russia,,,,,,275,285,292.5,292.5,,,,,,,292.5,140,B,Multi-ply,Yes,Juniors 20-23,20,1998-10-04
1,M,Dmitriy Demidov,Дмитрий Демидов,127,Russia,,,,,,275,285,292.5,292.5,,,,,,,292.5,140,B,Multi-ply,Yes,Open,20,1998-10-04
1,M,Sergey Lazarev,Сергей Лазарев,148.3,Russia,,,,,,195,207.5,,207.5,,,,,,,207.5,140+,B,Multi-ply,Yes,Masters 55-59,59,1960-04-04
1,F,Elena Prokopova,Елена Прокопова,67.1,Russia,,,,,,150,160,-170,160,,,,,,,160,67.5,B,Multi-ply,No,Masters 50-54,53,1966-03-07
1,M,Andrey Balandin,Андрей Баландин,59.8,Russia,,,,,,140,150,-195,150,,,,,,,150,60,B,Multi-ply,No,Teen 18-19,19,1999-11-11
1,M,Evgeniy Kuklin,Евгений Куклин,66.9,Russia,,,,,,150,-170,-170,150,,,,,,,150,67.5,B,Multi-ply,No,Open,37,1981-12-16
1,M,Anton Krasilnikov,Антон Красильников,74.8,Russia,,,,,,250,265,280,280,,,,,,,280,75,B,Multi-ply,No,Open,31,1987-06-03
2,M,Denis Kuklin,Денис Куклин,72,Russia,,,,,,175,190,200,200,,,,,,,200,75,B,Multi-ply,No,Open,29,1989-09-06
1,M,Aleksey Volkov,Алексей Волков,79.7,Russia,,,,,,240,-255,-260,240,,,,,,,240,82.5,B,Multi-ply,No,Open,33,1985-05-03
2,M,Konstantin Zhigulin,Константин Жигулин,78.95,Russia,,,,,,220,-250,-272.5,220,,,,,,,220,82.5,B,Multi-ply,No,Open,31,1987-10-03
1,M,Ruslan Ilyushin,Руслан Илюшин,89.9,Russia,,,,,,-292.5,292.5,-315,292.5,,,,,,,292.5,90,B,Multi-ply,No,Open,28,1991-02-25
2,M,Igor Dronov,Игорь Дронов,86.2,Russia,,,,,,210,222.5,-235,222.5,,,,,,,222.5,90,B,Multi-ply,No,Open,26,1993-03-20
3,M,Konstantin Reshetnik,Константин Решетник,89.3,Russia,,,,,,-220,220,-230,220,,,,,,,220,90,B,Multi-ply,No,Open,32,1987-03-10
4,M,Gulati Arjun,,89.9,India,,,,,,175,-190,190,190,,,,,,,190,90,B,Multi-ply,No,Open,32,1986-04-21
1,M,Oleg Saydentsal,Олег Сайденцаль,100,Russia,,,,,,327.5,335,340,340,,,,,,,340,100,B,Multi-ply,No,Open,44,1975-03-14
2,M,Valeriy Bespalikov,Валерий Беспаликов,99.2,Russia,,,,,,-300,300,-312.5,300,,,,,,,300,100,B,Multi-ply,No,Open,38,1981-04-07
DQ,M,Oleg Seleznev,Олег Селезнев,95,Russia,,,,,,-270,-270,-300,,,,,,,,,100,B,Multi-ply,No,Open,27,1992-02-27
1,M,Oleg Saydentsal,Олег Сайденцаль,100,Russia,,,,,,327.5,335,340,340,,,,,,,340,100,B,Multi-ply,No,Masters 40-44,44,1975-03-14
2,M,Sergey Volkov,Сергей Волков,99.8,Russia,,,,,,-237.5,237.5,-250,237.5,,,,,,,237.5,100,B,Multi-ply,No,Masters 45-49,45,1973-06-01
1,M,Somnath Pattnaik,,105.4,India,,,,,,130,-140,-140,130,,,,,,,130,110,B,Multi-ply,No,Open,27,1991-06-05
DQ,M,Eduard Dmitriev,Эдуард Дмитриев,106.6,Russia,,,,,,-315,-332.5,-332.5,,,,,,,,,110,B,Multi-ply,No,Open,46,1972-05-26
DQ,M,Denis Puzyrev,Денис Пузырев,108.4,Russia,,,,,,-250,-255,-255,,,,,,,,,110,B,Multi-ply,No,Open,45,1974-03-31
1,M,Dmitriy Vasilenko,Дмитрий Василенко,109,Russia,,,,,,310,332.5,-345,332.5,,,,,,,332.5,110,B,Multi-ply,No,Masters 40-44,43,1975-06-03
DQ,M,Eduard Dmitriev,Эдуард Дмитриев,106.6,Russia,,,,,,-315,-332.5,-332.5,,,,,,,,,110,B,Multi-ply,No,Masters 45-49,46,1972-05-26
DQ,M,Denis Puzyrev,Денис Пузырев,108.4,Russia,,,,,,-250,-255,-255,,,,,,,,,110,B,Multi-ply,No,Masters 45-49,45,1974-03-31
1,M,Anton Egorov,Антон Егоров,107,Russia,,,,,,220,230,-250,230,,,,,,,230,110,B,Multi-ply,No,Masters 50-54,50,1969-02-22
1,M,Arseniy Suchkov,Арсений Сучков,117.8,Russia,,,,,,-257.5,257.5,267.5,267.5,,,,,,,267.5,125,B,Multi-ply,No,Juniors 20-23,20,1999-03-16
1,M,Nikolay Emelyanov,Николай Емельянов,123.8,Russia,,,,,,-380,380,-400,380,,,,,,,380,125,B,Multi-ply,No,Open,39,1979-08-30
2,M,Oleg Shlepin,Олег Шлепин,118.1,Russia,,,,,,280,290,300,300,,,,,,,300,125,B,Multi-ply,No,Open,43,1975-07-08
1,M,Oleg Shlepin,Олег Шлепин,118.1,Russia,,,,,,280,290,300,300,,,,,,,300,125,B,Multi-ply,No,Masters 40-44,43,1975-07-08
1,M,Roman Zalutskiy,Роман Залуцкий,128.1,Russia,,,,,,350,362.5,370,370,,,,,,,370,140,B,Multi-ply,No,Masters 40-44,40,1979-01-31
1,M,Igor Sergeev,Игорь Сергеев,98.8,Russia,,,,,,300,320,330,330,,,,,,,330,100,B,Multi-ply,No,Open,53,1966-01-01
DQ,M,Aleksey Melnikov,Алексей Мельников,98.1,Russia,,,,,,-360,-360,,,,,,,,,,100,B,Multi-ply,No,Open,31,1987-10-22
1,F,Galina Sokova,Галина Сокова,42.2,Russia,,,,,,42.5,47.5,50,50,,,,,,,50,44,B,Raw,No,Juniors 20-23,20,1998-07-21
1,F,Anna Mylnikova,Анна Мыльникова,44.65,Russia,,,,,,55,60,-65,60,,,,,,,60,48,B,Raw,No,Open,30,1989-03-15
1,F,Natalya Puchkova,Наталья Пучкова,66.3,Russia,,,,,,62.5,67.5,72.5,72.5,,,,,,,72.5,67.5,B,Raw,No,Open,34,1985-03-25
1,M,Sergey Ivanov,Сергей Иванов,48,Russia,,,,,,30,37.5,40,40,,,,,,,40,52,B,Raw,No,Juniors 20-23,21,1998-02-05
1,M,Vladimir Shishikin,Владимир Шишикин,51.6,Russia,,,,,,45,47.5,-50,47.5,,,,,,,47.5,52,B,Raw,No,Juniors 20-23,20,1999-03-24
1,M,Igor Suroveshchkin,Игорь Суровещкин,60,Russia,,,,,,47.5,-50,50,50,,,,,,,50,60,B,Raw,No,Juniors 20-23,20,1998-10-31
1,M,Nikita Konstantinov,Никита Константинов,77,Russia,,,,,,90,97.5,-100,97.5,,,,,,,97.5,82.5,B,Raw,No,Juniors 20-23,22,1996-12-14
1,M,Nikolay Petrokovich,Николай Петрокович,79.3,Russia,,,,,,110,-115,,110,,,,,,,110,82.5,B,Raw,No,Open,39,1979-08-17
1,M,Konstantin Penko,Константин Пенько,83.2,Russia,,,,,,102.5,-107.5,107.5,107.5,,,,,,,107.5,90,B,Raw,No,Masters 55-59,56,1962-05-10
1,M,Konstantin Makarenko,Константин Макаренко,99.6,Russia,,,,,,115,120,122.5,122.5,,,,,,,122.5,100,B,Raw,No,Open,46,1973-02-03
1,F,Angelina Glushchuk,Ангелина Глущук,43.8,Russia,,,,,,,,,,,30,37.5,45,45,,45,44,D,Raw,Yes,Teen 13-15,15,2004-03-24
1,F,Yuliya Degtyareva,Юлия Дегтярева,47.9,Russia,,,,,,,,,,,145,150,-152.5,150,,150,48,D,Raw,Yes,Open,28,1990-09-08
2,F,Evgeniya Balyasina,Евгения Балясина,47.9,Russia,,,,,,,,,,,125,-127.5,127.5,127.5,,127.5,48,D,Raw,Yes,Open,29,1989-05-21
1,F,Irina Zemtsova,Ирина Земцова,50.9,Russia,,,,,,,,,,,127.5,135,140,140,,140,52,D,Raw,Yes,Open,37,1981-12-28
2,F,Anna Starostina,Анна Старостина,51.5,Russia,,,,,,,,,,,105,110,112.5,112.5,,112.5,52,D,Raw,Yes,Open,32,1986-07-11
3,F,Ekaterina Nevedomskaya,Екатерина Неведомская,51.5,Russia,,,,,,,,,,,100,110,-117.5,110,,110,52,D,Raw,Yes,Open,28,1990-05-23
1,F,Natalya Konchakova,Наталья Кончакова,54,Russia,,,,,,,,,,,-160,160,170,170,,170,56,D,Raw,Yes,Open,41,1977-08-14
2,F,Olga Andrianova,Ольга Андрианова,53,Russia,,,,,,,,,,,117.5,-122.5,,117.5,,117.5,56,D,Raw,Yes,Open,33,1986-02-02
3,F,Elena Trushina,Елена Трушина,54.3,Russia,,,,,,,,,,,115,-120,-120,115,,115,56,D,Raw,Yes,Open,35,1984-01-17
4,F,Mariya Vorobeva,Мария Воробьева,55.8,Russia,,,,,,,,,,,105,110,112.5,112.5,,112.5,56,D,Raw,Yes,Open,32,1987-03-03
1,F,Aleksandra Golban,Александра Голбан,59.4,Russia,,,,,,,,,,,145,150,155,155,,155,60,D,Raw,Yes,Teen 18-19,19,1999-08-08
1,F,Mariya Nikitochkina,Мария Никиточкина,58.6,Russia,,,,,,,,,,,90,97.5,105,105,,105,60,D,Raw,Yes,Open,29,1989-05-25
1,F,Vera Sapozhnikova,Вера Сапожникова,58.1,Russia,,,,,,,,,,,117.5,125,127.5,127.5,,127.5,60,D,Raw,Yes,Masters 45-49,46,1972-10-01
1,F,Tatyana Galenko,Татьяна Галенко,64.5,Russia,,,,,,,,,,,115,-122.5,122.5,122.5,,122.5,67.5,D,Raw,Yes,Teen 16-17,17,2001-05-19
1,F,Ekaterina Krupskaya,Екатерина Крупская,62,Russia,,,,,,,,,,,145,150,155,155,,155,67.5,D,Raw,Yes,Juniors 20-23,20,1999-02-20
1,F,Polina Grishina,Полина Гришина,61.9,Russia,,,,,,,,,,,-80,85,95,95,,95,67.5,D,Raw,Yes,Open,31,1988-04-19
2,F,Darya Durneva,Дарья Дурнева,65.5,Russia,,,,,,,,,,,92.5,-100,-100,92.5,,92.5,67.5,D,Raw,Yes,Open,25,1993-11-19
1,F,Nataliya Shapovalova,Наталия Шаповалова,73,Russia,,,,,,,,,,,-110,110,115,115,,115,75,D,Raw,Yes,Juniors 20-23,22,1996-09-26
1,F,Albina Kamaletdinova,Альбина Камалетдинова,73.7,Russia,,,,,,,,,,,90,-100,100,100,,100,75,D,Raw,Yes,Masters 50-54,50,1969-01-24
1,M,Shafeek Saleem,,55,India,,,,,,,,,,,135,140,145,145,,145,56,D,Raw,Yes,Open,25,1994-03-09
1,M,Marufi Toychibaev,Маруфи Тойчибаев,66.5,Kyrgyzstan,,,,,,,,,,,150,157.5,-170,157.5,,157.5,67.5,D,Raw,Yes,Juniors 20-23,22,1996-09-29
1,M,Aleksandr Buychenko,Александр Буйченко,67.2,Ukraine,,,,,,,,,,,225,235.5,,235.5,,235.5,67.5,D,Raw,Yes,Open,37,1982-01-14
1,M,Andrey Chernov,Андрей Чернов,74.5,Russia,,,,,,,,,,,240,-250,260,260,,260,75,D,Raw,Yes,Open,37,1981-12-06
2,M,Vyacheslav Rozensheyn,Вячеслав Розеншейн,74.3,Russia,,,,,,,,,,,202.5,210,-215,210,,210,75,D,Raw,Yes,Open,33,1985-06-26
3,M,Sergey Rachenkov,Сергей Раченков,68.2,Russia,,,,,,,,,,,-190,190,202.5,202.5,,202.5,75,D,Raw,Yes,Open,30,1988-09-22
4,M,Roman Chernyshov,Роман Чернышов,73.8,Ukraine,,,,,,,,,,,-200,200,-210,200,,200,75,D,Raw,Yes,Open,34,1985-01-17
5,M,Pavel Koshelev,Павел Кошелев,73.6,Russia,,,,,,,,,,,170,182.5,-190,182.5,,182.5,75,D,Raw,Yes,Open,32,1986-11-11
DQ,M,Vartan Paloyan,Вартан Палоян,73.8,Russia,,,,,,,,,,,-280,-280,-300,,,,75,D,Raw,Yes,Open,29,1989-06-11
1,M,Vadim Kurochkin,Вадим Курочкин,80.1,Russia,,,,,,,,,,,155,165,-172.5,165,,165,82.5,D,Raw,Yes,Juniors 20-23,21,1997-07-29
1,M,Vasiliy Olar,Василий Оларь,77.2,Moldova,,,,,,,,,,,225,235,-245,235,,235,82.5,D,Raw,Yes,Open,25,1994-01-13
2,M,Aleksandr Rogatenko,Александр Рогатенко,82,Russia,,,,,,,,,,,232.5,-255,-255,232.5,,232.5,82.5,D,Raw,Yes,Open,36,1982-05-07
3,M,Anton Khristoforov,Антон Христофоров,81,Russia,,,,,,,,,,,230,-235,-235,230,,230,82.5,D,Raw,Yes,Open,26,1992-05-24
1,M,Viktor Skokin,Виктор Скокин,77.9,Russia,,,,,,,,,,,210,225,-230,225,,225,82.5,D,Raw,Yes,Masters 60-64,61,1957-06-20
2,M,Viktor Ovsyanyy,Виктор Овсяный,79.7,Russia,,,,,,,,,,,160,165,170,170,,170,82.5,D,Raw,Yes,Masters 60-64,61,1958-04-19
1,M,Viktor Fedotov,Виктор Федотов,89.4,Russia,,,,,,,,,,,-190,202.5,,202.5,,202.5,90,D,Raw,Yes,Teen 16-17,17,2002-01-21
1,M,Yuriy Avinov,Юрий Авинов,86.7,Russia,,,,,,,,,,,145,155,-165,155,,155,90,D,Raw,Yes,Masters 45-49,45,1973-12-24
1,M,Vasiliy Leonenko,Василий Леоненко,87.8,Russia,,,,,,,,,,,225,235,-240,235,,235,90,D,Raw,Yes,Masters 50-54,52,1967-04-06
1,M,Anatoliy Akshentsev,Анатолий Акшенцев,86.5,Russia,,,,,,,,,,,-230,230,245,245,-255,245,90,D,Raw,Yes,Masters 60-64,62,1956-09-05
1,M,Vladimir Pleshkov,Владимир Плешков,84.5,Russia,,,,,,,,,,,150,162.5,170,170,,170,90,D,Raw,Yes,Masters 70-74,74,1944-08-29
1,M,Zaur Matiev,Заур Матиев,96.5,Russia,,,,,,,,,,,290,300,305,305,,305,100,D,Raw,Yes,Open,32,1986-11-26
1,M,Aleksey Kovalenko,Алексей Коваленко,99,Russia,,,,,,,,,,,170,185,195,195,,195,100,D,Raw,Yes,Masters 45-49,47,1972-01-07
1,M,Igor Usachev,Игорь Усачев,94.5,Russia,,,,,,,,,,,190,205,212.5,212.5,,212.5,100,D,Raw,Yes,Masters 50-54,53,1965-06-06
1,M,Valeriy Akentyev,Валерий Акентьев,98.8,Russia,,,,,,,,,,,180,190,200,200,,200,100,D,Raw,Yes,Masters 60-64,61,1958-03-13
1,M,Dmitriy Shchetkin,Дмитрий Щеткин,109.9,Russia,,,,,,,,,,,260,-275,-275,260,,260,110,D,Raw,Yes,Open,36,1982-08-23
2,M,Aleksey Prudnikov,Алексей Прудников,109.5,Russia,,,,,,,,,,,235,-247.5,247.5,247.5,,247.5,110,D,Raw,Yes,Open,36,1982-12-24
3,M,Sergey Molotkov,Сергей Молотков,108.2,Russia,,,,,,,,,,,225,-230,-230,225,,225,110,D,Raw,Yes,Open,28,1990-06-18
4,M,Chechel Sergey,Чечель Сергей,102.9,Russia,,,,,,,,,,,200,215,-225,215,,215,110,D,Raw,Yes,Open,29,1989-09-07
1,M,Arbi Israilov,Арби Исраилов,109,Russia,,,,,,,,,,,195,210,-217.5,210,,210,110,D,Raw,Yes,Masters 50-54,50,1968-07-20
1,M,Ion Parshikov,Ион Паршиков,117,Russia,,,,,,,,,,,-250,255,-260,255,,255,125,D,Raw,Yes,Juniors 20-23,23,1995-10-14
1,M,Ion Parshikov,Ион Паршиков,117,Russia,,,,,,,,,,,-250,255,-260,255,,255,125,D,Raw,Yes,Open,23,1995-10-14
2,M,Valeriy Bezborodov,Валерий Безбородов,118.2,Russia,,,,,,,,,,,235,250,-255,250,,250,125,D,Raw,Yes,Open,43,1976-01-27
1,M,Valeriy Bezborodov,Валерий Безбородов,118.2,Russia,,,,,,,,,,,235,250,-255,250,,250,125,D,Raw,Yes,Masters 40-44,43,1976-01-27
2,M,Vyacheslav Batyrov,Вячеслав Батыров,121,Russia,,,,,,,,,,,240,-255,-255,240,,240,125,D,Raw,Yes,Masters 40-44,44,1975-02-08
1,M,Oleg Tarasov,Олег Тарасов,119.5,Russia,,,,,,,,,,,225,245,-260,245,,245,125,D,Raw,Yes,Masters 45-49,46,1972-06-22
1,F,Elena Pimenova,Елена Пименова,74.8,Russia,,,,,,,,,,,160,-170,-170,160,,160,75,D,Raw,No,Open,34,1984-08-13
1,F,Mariya Klintsova,Мария Клинцова,78.8,Russia,,,,,,,,,,,165,175,185,185,,185,82.5,D,Raw,No,Open,32,1987-01-31
1,M,Mikhail Titov,Михаил Титов,56,Russia,,,,,,,,,,,195,207.5,-217.5,207.5,,207.5,56,D,Raw,No,Juniors 20-23,20,1999-04-15
1,M,Dalgat Gadzhiakhmedov,Далгат Гаджиахмедов,73.5,Russia,,,,,,,,,,,-220,-227.5,227.5,227.5,,227.5,75,D,Raw,No,Open,31,1987-06-18
2,M,Nikolay Pichugin,Николай Пичугин,72.1,Russia,,,,,,,,,,,217.5,-237.5,-237.5,217.5,,217.5,75,D,Raw,No,Open,25,1993-07-30
1,M,Parvinder Singh,,74.6,India,,,,,,,,,,,-170,180,210,210,,210,75,D,Raw,No,Masters 40-44,42,1976-12-06
1,M,Vladimir Kistanov,Владимир Кистанов,81.7,Russia,,,,,,,,,,,270,290,-310,290,,290,82.5,D,Raw,No,Open,28,1991-04-15
1,M,Aleksandr Likholai,Александр Лихолай,77.3,Russia,,,,,,,,,,,105,-115,125,125,,125,82.5,D,Raw,No,Masters 80+,80,1939-02-22
1,M,Stanislav Yarukov,Станислав Яруков,90,Russia,,,,,,,,,,,310,-322.5,,310,,310,90,D,Raw,No,Open,28,1990-07-12
2,M,Aleksey Zavadskiy,Алексей Завадский,89.9,Belarus,,,,,,,,,,,280,295,-305,295,,295,90,D,Raw,No,Open,28,1990-08-30
3,M,Aleksandr Galynyak,Александр Галыняк,88.6,Russia,,,,,,,,,,,-250,260,265,265,,265,90,D,Raw,No,Open,24,1994-09-28
4,M,Nikolay Zamp,Николай Замп,88.7,Russia,,,,,,,,,,,240,250,-257.5,250,,250,90,D,Raw,No,Open,29,1990-03-02
1,M,Aleksandr Kornilenko,Александр Корниленко,88.8,Russia,,,,,,,,,,,202.5,212.5,,212.5,,212.5,90,D,Raw,No,Masters 40-44,43,1975-09-27
1,M,Georgiy Taranukhin,Георгий Таранухин,89.6,Russia,,,,,,,,,,,250,262.5,-267.5,262.5,,262.5,90,D,Raw,No,Masters 50-54,51,1968-01-19
1,M,Andrey Bulgar,Андрей Булгарь,100,Russia,,,,,,,,,,,325,335,-340,335,,335,100,D,Raw,No,Open,30,1988-06-27
2,M,Maksim Karpovich,Максим Карпович,99.8,Russia,,,,,,,,,,,315,-325,-325,315,,315,100,D,Raw,No,Open,25,1993-07-13
3,M,Vladimir Brusov,Владимир Брусов,98.3,Russia,,,,,,,,,,,270,280,-290,280,,280,100,D,Raw,No,Open,35,1983-12-17
DQ,M,Yuriy Grigorev,Юрий Григорьев,99,Russia,,,,,,,,,,,-260,-270,-270,,,,100,D,Raw,No,Open,37,1982-02-09
1,M,Ilya Ushkov,Илья Ушков,99.3,Russia,,,,,,,,,,,275,-302.5,-302.5,275,,275,100,D,Raw,No,Masters 40-44,42,1976-06-21
1,M,Ivan Kiselev,Иван Киселев,94.2,Russia,,,,,,,,,,,180,195,205,205,,205,100,D,Raw,No,Masters 55-59,57,1961-10-17
1,M,Makhmud Ulbashev,Махмуд Ульбашев,103.9,Russia,,,,,,,,,,,-285,295,305,305,,305,110,D,Raw,No,Open,31,1987-10-20
2,M,Oleg Zozulinskiy,Олег Зозулинский,107.7,Ukraine,,,,,,,,,,,-280,290,302.5,302.5,,302.5,110,D,Raw,No,Open,32,1986-07-03
DQ,M,Dmitriy Yakovlev,Дмитрий Яковлев,105.1,Russia,,,,,,,,,,,-300,-300,,,,,110,D,Raw,No,Open,34,1984-08-20
1,M,Andrey Zolotarenok,Андрей Золотаренок,106.4,Russia,,,,,,,,,,,240,-255,-255,240,,240,110,D,Raw,No,Masters 40-44,40,1978-11-23
1,M,Tamerlan Groznyy,Тамерлан Грозный,106.9,Russia,,,,,,,,,,,300,-310,-310,300,,300,110,D,Raw,No,Masters 45-49,47,1972-01-11
2,M,Valeriy Sytnikov,Валерий Сытников,109.9,Russia,,,,,,,,,,,-275,275,-300,275,,275,110,D,Raw,No,Masters 45-49,49,1970-02-28
1,M,Denis Degtyar,Денис Дегтярь,110.5,Russia,,,,,,,,,,,270,300,325,325,-341,325,125,D,Raw,No,Open,37,1981-06-24
2,M,Dmitriy Samsonov,Дмитрий Самсонов,124.8,Russia,,,,,,,,,,,270,290,-300,290,,290,125,D,Raw,No,Open,26,1993-02-11
DD,M,Kostas Telidis,Костас Телидис,79.6,Russia,,,,,,,,,,,247.5,262.5,-275,262.5,,,82.5,D,Single-ply,Yes,Open,30,1989-04-18
1,M,Stanislav Kulikov,Станислав Куликов,97.2,Russia,,,,,,,,,,,285,305,,305,,305,100,D,Single-ply,No,Open,40,1978-11-29
2,M,Aditya Barthwal,,94,India,,,,,,,,,,,220,240,-257.5,240,,240,100,D,Single-ply,No,Open,25,1993-07-01
1,M,Stanislav Kulikov,Станислав Куликов,97.2,Russia,,,,,,,,,,,285,305,,305,,305,100,D,Single-ply,No,Masters 40-44,40,1978-11-29
1,M,Andrey Sizov,Андрей Сизов,99.3,Russia,,,,,,,,,,,300,310,-320,310,,310,100,D,Single-ply,No,Masters 50-54,51,1968-01-29
1,M,Anastasios Mauromichalis,,108.7,Greece,,,,,,,,,,,312.5,-322.5,-322.5,312.5,,312.5,110,D,Single-ply,No,Open,25,1994-01-22
1,M,Athanasios Liouras,,121.1,Greece,,,,,,,,,,,350,-367.5,-367.5,350,,350,125,D,Single-ply,No,Open,36,1982-09-07
2,M,Pantelis Sapounakis,,115.2,Greece,,,,,,,,,,,315,325,-345,325,,325,125,D,Single-ply,No,Open,38,1980-10-23
1,M,Aleksandr Lugovoy,Александр Луговой,129.9,Russia,,,,,,,,,,,360,385,-400,385,,385,140,D,Single-ply,No,Open,23,1995-10-28
