Division,WeightClassKg,Place,Name,Team,BodyweightKg,Best3SquatKg,Best3BenchKg,Best3DeadliftKg,TotalKg,Equipment,Event,Sex
Boys,51.71,1,Randy Trevino,Gregory-Portland,50.53,170.1,83.91,185.97,439.98,Single-ply,SBD,M
Boys,51.71,2,LA Gonzalez,Alice,51.62,161.03,83.91,161.03,405.97,Single-ply,SBD,M
Boys,51.71,3,Pete Olivarez,Orange Grove,51.35,158.76,90.72,154.22,403.7,Single-ply,SBD,M
Boys,55.79,4,Joe Castillo,Gregory-Portland,51.94,145.15,81.65,165.56,392.36,Single-ply,SBD,M
Boys,55.79,5,Chris Marroquin,Hebbronville,51.94,124.74,83.91,158.76,367.41,Single-ply,SBD,M
Boys,51.71,DQ,Randy Soliz,Hebbronville,51.62,,,,,Single-ply,SBD,M
Boys,51.71,DQ,Brennan McGuire,Agua Dulce,51.71,106.59,63.5,,,Single-ply,SBD,M
Boys,55.79,1,Armando Arriola,Alice,55.34,124.74,88.45,136.08,349.27,Single-ply,SBD,M
Boys,55.79,2,Dylan Breland,Banquete,55.34,113.4,68.04,131.54,312.98,Single-ply,SBD,M
Boys,55.79,DQ,Aaron Martinez,Corpus Christi Calallen,55.79,154.22,99.79,,,Single-ply,SBD,M
Boys,55.79,DQ,Marcos Lara,Mathis,54.43,,,,,Single-ply,SBD,M
Boys,67.13,1,Harry Avellan-Averruz,Corpus Christi Tuloso-Midway,59.96,181.44,106.59,170.1,458.13,Single-ply,SBD,M
Boys,59.87,2,Jason Harries,Orange Grove,59.33,172.37,95.25,172.37,439.98,Single-ply,SBD,M
Boys,67.13,DQ,Jordan Cole,Aransas Pass,59.96,165.56,92.99,,,Single-ply,SBD,M
Boys,59.87,DQ,Devin Kelley,Aransas Pass,58.42,113.4,,,,Single-ply,SBD,M
Boys,59.87,DQ,Manuel Canales,Alice,59.6,,,,,Single-ply,SBD,M
Boys,59.87,DQ,Zane Sullivan,Riviera Kaufer,59.15,97.52,,,,Single-ply,SBD,M
Boys,67.13,1,Damian Cisneros,Gregory-Portland,66.22,215.46,113.4,215.46,544.31,Single-ply,SBD,M
Boys,67.13,2,Jd Savanich,Corpus Christi Calallen,66.32,199.58,111.13,204.12,514.83,Single-ply,SBD,M
Boys,67.13,3,Jacob de la Paz,Corpus Christi Calallen,62.69,204.12,97.52,206.38,508.02,Single-ply,SBD,M
Boys,67.13,4,Alex Rocha,Skidmore-Tynan,66.41,190.51,120.2,167.83,478.54,Single-ply,SBD,M
Boys,74.84,5,Alex Villapando,Alice,67.31,154.22,102.06,188.24,444.52,Single-ply,SBD,M
Boys,67.13,6,Nathan McRae,Hebbronville,66.13,154.22,77.11,185.97,417.3,Single-ply,SBD,M
Boys,67.13,7,Ernie Ramirez,Sinton,63.96,129.27,97.52,158.76,385.55,Single-ply,SBD,M
Boys,67.13,8,Damon Liendo,Orange Grove,64.23,138.35,90.72,142.88,371.95,Single-ply,SBD,M
Boys,67.13,9,Raiden Windham,Gregory-Portland,60.33,115.67,70.31,131.54,317.51,Single-ply,SBD,M
Boys,67.13,DQ,Dmitri Florez,Falfurrias,66.41,170.1,102.06,,,Single-ply,SBD,M
Boys,67.13,DQ,Joseph Canales,Alice,65.59,,,,,Single-ply,SBD,M
Boys,67.13,DQ,Aj Jiminiam,Agua Dulce,66.04,167.83,104.33,,,Single-ply,SBD,M
Boys,67.13,DQ,Gabriel Cantu,Corpus Christi Calallen,66.68,188.24,97.52,,,Single-ply,SBD,M
Boys,67.13,DQ,Thomas Aranda,Refugio,65.05,167.83,97.52,,,Single-ply,SBD,M
Boys,74.84,1,James Bain,Corpus Christi Tuloso-Midway,74.3,251.74,136.08,242.67,630.49,Single-ply,SBD,M
Boys,82.1,2,Jonathan Gonzalez,San Diego,75.02,233.6,154.22,215.46,603.28,Single-ply,SBD,M
Boys,74.84,3,Aaron Serrato,Freer,71.03,219.99,133.81,240.4,594.21,Single-ply,SBD,M
Boys,74.84,4,Christian Salazar,Corpus Christi Tuloso-Midway,71.58,231.33,136.08,222.26,589.67,Single-ply,SBD,M
Boys,74.84,5,Raymond Huerta,Falfurrias,71.67,199.58,111.13,210.92,521.63,Single-ply,SBD,M
Boys,74.84,6,Nazario Chapa,Aransas Pass,74.3,188.24,138.35,188.24,514.83,Single-ply,SBD,M
Boys,74.84,7,Ray Lindeman,Sinton,71.4,142.88,92.99,163.29,399.16,Single-ply,SBD,M
Boys,74.84,8,Austin Muns,Gregory-Portland,73.3,117.93,97.52,149.69,365.14,Single-ply,SBD,M
Boys,82.1,1,Carlos Charles,Bishop,79.92,238.14,158.76,240.4,637.3,Single-ply,SBD,M
Boys,82.1,2,Pablo Garcia,Falfurrias,80.56,235.87,136.08,240.4,612.35,Single-ply,SBD,M
Boys,82.1,3,Nico Recio,Kingsville Academy,81.37,226.8,142.88,242.67,612.35,Single-ply,SBD,M
Boys,82.1,4,Jake McDavid,Aransas Pass,81.92,217.72,136.08,249.48,603.28,Single-ply,SBD,M
Boys,82.1,5,German Uscanga,Robstown,79.47,217.72,149.69,229.06,596.47,Single-ply,SBD,M
Boys,82.1,6,Nathan Sanchez #3,Corpus Christi Calallen,79.92,231.33,117.93,235.87,585.13,Single-ply,SBD,M
Boys,82.1,7,Karl Gibson,Mathis,81.92,215.46,120.2,195.04,530.7,Single-ply,SBD,M
Boys,82.1,8,Rene Ramirez,Hebbronville,77.66,195.04,122.47,201.85,519.36,Single-ply,SBD,M
Boys,82.1,9,Anthony McGuill,Refugio,80.74,195.04,104.33,201.85,501.22,Single-ply,SBD,M
Boys,82.1,10,Jacob Garza,Hebbronville,78.47,199.58,113.4,179.17,492.15,Single-ply,SBD,M
Boys,82.1,11,Joshua Morvant,Sinton,77.56,188.24,97.52,170.1,455.86,Single-ply,SBD,M
Boys,82.1,12,Jorge Salazar,Kingsville Academy,81.92,151.95,102.06,151.95,405.97,Single-ply,SBD,M
Boys,82.1,13,Ryan De Los Santos,Robstown,78.74,142.88,81.65,151.95,376.48,Single-ply,SBD,M
Boys,82.1,DQ,Gilley Aguilar,Riviera Kaufer,80.92,,,,,Single-ply,SBD,M
Boys,82.1,DQ,Jared Garcia,Corpus Christi Calallen,75.66,222.26,136.08,,,Single-ply,SBD,M
Boys,82.1,DQ,Arnold Sauceda,Hebbronville,80.47,,,,,Single-ply,SBD,M
Boys,89.81,1,Warren Oaks,Alice,87.54,240.4,185.97,242.67,669.05,Single-ply,SBD,M
Boys,89.81,2,Danny Barrera,Hebbronville,88.09,217.72,142.88,215.46,576.06,Single-ply,SBD,M
Boys,89.81,3,Michael Munoz,Bishop,88.9,226.8,124.74,217.72,569.26,Single-ply,SBD,M
Boys,89.81,4,Miguel Ortiz,Orange Grove,88,208.65,129.27,219.99,557.92,Single-ply,SBD,M
Boys,99.79,5,Jason Paterson,Kingsville King,89.9,217.72,115.67,217.72,551.11,Single-ply,SBD,M
Boys,89.81,6,Liam McMahan,Bruni,86.09,199.58,127.01,192.78,519.36,Single-ply,SBD,M
Boys,89.81,7,Robert Avalos,Mathis,82.64,151.95,124.74,142.88,419.57,Single-ply,SBD,M
Boys,89.81,DQ,Zach Hernandez,Ben Bolt-Palito Blanco,89.27,188.24,111.13,,,Single-ply,SBD,M
Boys,99.79,1,Matthew Dickson,Corpus Christi Tuloso-Midway,93.53,256.28,163.29,260.82,680.39,Single-ply,SBD,M
Boys,99.79,2,Blade Bronstad,Corpus Christi Calallen,97.98,263.08,165.56,251.74,680.39,Single-ply,SBD,M
Boys,109.77,3,John Rivera,Alice,99.88,267.62,170.1,231.33,669.05,Single-ply,SBD,M
Boys,99.79,4,Jose Moreno,San Diego,94.98,231.33,131.54,233.6,596.47,Single-ply,SBD,M
Boys,99.79,5,Rubelin Torres,Kingsville Academy,92.17,192.78,115.67,231.33,539.77,Single-ply,SBD,M
Boys,99.79,6,Dalton Wallen,Aransas Pass,96.98,199.58,124.74,208.65,532.97,Single-ply,SBD,M
Boys,99.79,7,Daniel Vela,Falfurrias,98.79,183.7,104.33,190.51,478.54,Single-ply,SBD,M
Boys,99.79,8,Arnold Molina,Sinton,91.72,154.22,99.79,170.1,424.11,Single-ply,SBD,M
Boys,99.79,9,Antonio Cantu,Sinton,98.52,145.15,111.13,138.35,394.63,Single-ply,SBD,M
Boys,99.79,10,Eric Espinoza,Sinton,95.98,142.88,104.33,136.08,383.29,Single-ply,SBD,M
Boys,99.79,DQ,Joseph Perez,Refugio,91.81,199.58,131.54,,,Single-ply,SBD,M
Boys,109.77,1,Andres Arvizu,Alice,107.59,285.76,167.83,249.48,703.07,Single-ply,SBD,M
Boys,109.77,2,Miguel Olvera,San Diego,102.06,249.48,161.03,249.48,659.98,Single-ply,SBD,M
Boys,109.77,3,Richard Lichtenberger,Freer,109.13,235.87,117.93,204.12,557.92,Single-ply,SBD,M
Boys,109.77,4,Devin Tagle,Refugio,109.77,192.78,163.29,192.78,548.85,Single-ply,SBD,M
Boys,109.77,5,Joe Valderas,Bruni,102.78,204.12,127.01,213.19,544.31,Single-ply,SBD,M
Boys,109.77,6,Robert Vargas,Hebbronville,101.79,201.85,140.61,190.51,532.97,Single-ply,SBD,M
Boys,109.77,7,Javier Henderson,Mathis,107.5,229.06,131.54,172.37,532.97,Single-ply,SBD,M
Boys,109.77,8,Benino Torres,Sinton,105.51,204.12,113.4,210.92,528.44,Single-ply,SBD,M
Boys,109.77,9,Ruben Casas,Falfurrias,100.61,204.12,129.27,185.97,519.36,Single-ply,SBD,M
Boys,109.77,10,Oscar Cantua,Sinton,102.51,204.12,111.13,204.12,519.36,Single-ply,SBD,M
Boys,109.77,11,Richard Mascorro,Refugio,108.23,181.44,136.08,199.58,517.1,Single-ply,SBD,M
Boys,109.77,12,Jose Marquez,Hebbronville,109.77,217.72,102.06,185.97,505.76,Single-ply,SBD,M
Boys,109.77,13,Anthony Cantu,Mathis,107.86,204.12,111.13,170.1,485.34,Single-ply,SBD,M
Boys,109.77,14,Jeremy Trevino,Gregory-Portland,105.51,181.44,106.59,172.37,460.4,Single-ply,SBD,M
Boys,109.77,DQ,Andrew Pena,Robstown,107.32,222.26,,,,Single-ply,SBD,M
Boys,124.74,1,Rene Gonzalez,Mathis,113.94,265.35,172.37,215.46,653.17,Single-ply,SBD,M
Boys,124.74,2,Vince Guiterrez,Corpus Christi Tuloso-Midway,118.93,254.01,151.95,229.06,635.03,Single-ply,SBD,M
Boys,124.74,3,Isaac Salinas #1,Gregory-Portland,114.4,242.67,156.49,217.72,616.89,Single-ply,SBD,M
Boys,124.74,4,Leo Gonzalez,Robstown,116.57,249.48,149.69,217.72,616.89,Single-ply,SBD,M
Boys,124.74,5,Nicholas Zapata,Bishop,121.56,244.94,154.22,217.72,616.89,Single-ply,SBD,M
Boys,124.74,6,Jacob Rodriguez,Corpus Christi Tuloso-Midway,115.21,263.08,120.2,215.46,598.74,Single-ply,SBD,M
Boys,124.74,7,Jose Aguero,Sinton,114.21,217.72,145.15,204.12,566.99,Single-ply,SBD,M
Boys,124.74,8,Diego Fonseca,Mathis,111.49,215.46,129.27,192.78,537.51,Single-ply,SBD,M
Boys,124.74,9,Juan Gonzalez,Riviera Kaufer,113.49,176.9,92.99,190.51,460.4,Single-ply,SBD,M
Boys,124.74,DQ,Joe Castillo,Taft,111.67,188.24,145.15,,,Single-ply,SBD,M
Boys,124.74,DQ,Juan Macias,Alice,120.84,283.5,,,,Single-ply,SBD,M
Boys,124.74+,1,Jonathan Lopez,Banquete,133.63,272.16,181.44,208.65,662.24,Single-ply,SBD,M
Boys,124.74+,2,Manuel Gonzalez,Ben Bolt-Palito Blanco,132.9,204.12,165.56,192.78,562.45,Single-ply,SBD,M
Boys,124.74+,3,Jesus Cantu,Skidmore-Tynan,129.55,208.65,124.74,204.12,537.51,Single-ply,SBD,M
Boys,124.74+,4,Angel Salinas,Orange Grove,139.25,204.12,117.93,215.46,537.51,Single-ply,SBD,M
Boys,124.74+,5,Jesse James Saldivar,Alice,138.07,195.04,154.22,154.22,503.49,Single-ply,SBD,M
Boys,124.74+,6,David Ramirez,Robstown,146.6,149.69,102.06,136.08,387.82,Single-ply,SBD,M
Boys,124.74+,DQ,Alexander Acosta,Skidmore-Tynan,128.09,226.8,158.76,,,Single-ply,SBD,M
