Division,WeightClassKg,Place,Name,Team,BodyweightKg,Best3SquatKg,Best3BenchKg,Best3DeadliftKg,TotalKg,Equipment,Event,Sex
Boys,51.71,1,Angel Rico,Kennedale,51.62,151.95,74.84,158.76,385.55,Single-ply,SBD,M
Boys,51.71,2,Noah Hernandez,Lake Worth,50.98,156.49,81.65,142.88,381.02,Single-ply,SBD,M
Boys,51.71,3,Michael Williams,Decatur,50.62,120.2,79.38,124.74,324.32,Single-ply,SBD,M
Boys,51.71,4,Mark Mayes,Aubrey,48.81,79.38,49.9,97.52,226.8,Single-ply,SBD,M
Boys,51.71,DQ,Davis McAlister IV,Aubrey,51.53,83.91,68.04,,,Single-ply,SBD,M
Boys,55.79,1,Joe Cullum,Kennedale,53.89,158.76,97.52,140.61,396.89,Single-ply,SBD,M
Boys,55.79,2,Christian Charles,Ennis,54.52,122.47,79.38,147.42,349.27,Single-ply,SBD,M
Boys,55.79,3,David Ramos,Mineral Wells,55.79,124.74,63.5,136.08,324.32,Single-ply,SBD,M
Boys,55.79,4,Garrett Upshaw,Decatur,54.52,113.4,72.57,131.54,317.51,Single-ply,SBD,M
Boys,55.79,5,Camden Richards,Mineral Wells,55.43,106.59,56.7,129.27,292.57,Single-ply,SBD,M
Boys,55.79,6,Dylan Cortez,Castleberry,53.07,88.45,58.97,97.52,244.94,Single-ply,SBD,M
Boys,59.87,1,Jesus Reyes,Ennis,59.69,172.37,104.33,167.83,444.52,Single-ply,SBD,M
Boys,59.87,2,Alexis Rodriguez,Decatur,59.24,145.15,90.72,170.1,405.97,Single-ply,SBD,M
Boys,59.87,3,Jose Ramirez,Castleberry,59.51,113.4,81.65,142.88,337.93,Single-ply,SBD,M
Boys,59.87,4,Nathan Trammell,Aubrey,57.88,124.74,70.31,138.35,333.39,Single-ply,SBD,M
Boys,59.87,5,Manuel Rodriguez #2,Decatur,59.15,120.2,63.5,136.08,319.78,Single-ply,SBD,M
Boys,67.13,1,Braxton Lediaev,Kennedale,66.95,190.51,102.06,222.26,514.83,Single-ply,SBD,M
Boys,67.13,2,Angel Garza,Decatur,62.6,185.97,102.06,190.51,478.54,Single-ply,SBD,M
Boys,67.13,3,Nolan Haden,Ennis,65.14,190.51,106.59,179.17,476.27,Single-ply,SBD,M
Boys,67.13,4,Jose Reyes,Ennis,60.15,174.63,111.13,163.29,449.06,Single-ply,SBD,M
Boys,67.13,5,Luke Sciba,Aubrey,67.13,167.83,102.06,174.63,444.52,Single-ply,SBD,M
Boys,67.13,6,Jose de la Cerda,Bridgeport,64.77,167.83,92.99,176.9,437.72,Single-ply,SBD,M
Boys,67.13,7,Eddrick Hampton,Fort Worth Diamond Hill-Jarvis,64.59,165.56,83.91,181.44,430.91,Single-ply,SBD,M
Boys,67.13,8,Tyler Aguilar,Kennedale,67.04,174.63,88.45,163.29,426.38,Single-ply,SBD,M
Boys,67.13,9,Xavier Parker,Mineral Wells,60.06,151.95,99.79,165.56,417.3,Single-ply,SBD,M
Boys,67.13,10,Ethan Barboza,Castleberry,65.41,147.42,74.84,131.54,353.8,Single-ply,SBD,M
Boys,67.13,11,Landon Dorsey,Aubrey,63.05,122.47,81.65,136.08,340.19,Single-ply,SBD,M
Boys,67.13,12,Antonio Martinez,Castleberry,65.23,142.88,68.04,129.27,340.19,Single-ply,SBD,M
Boys,67.13,13,Kyle Smith,Aubrey,65.95,124.74,77.11,113.4,315.25,Single-ply,SBD,M
Boys,67.13,14,Jacob Alton,Mineral Wells,64.59,165.56,90.72,149.69,405.97,Single-ply,SBD,M
Boys,67.13,DQ,Grayson Larson,Aubrey,66.68,,,,,Single-ply,SBD,M
Boys,74.84,1,Luis Flores,Kennedale,74.75,199.58,104.33,181.44,485.34,Single-ply,SBD,M
Boys,74.84,2,Jared Singleton,Mineral Wells,73.48,197.31,102.06,181.44,480.81,Single-ply,SBD,M
Boys,74.84,3,Brendene Ramos,Castleberry,72.85,170.1,124.74,165.56,460.4,Single-ply,SBD,M
Boys,74.84,4,Anthony Ray,Ennis,73.66,154.22,111.13,183.7,449.06,Single-ply,SBD,M
Boys,74.84,5,Brody Bounds,Aubrey,68.76,151.95,90.72,170.1,412.77,Single-ply,SBD,M
Boys,74.84,6,Isac DeHaro,Castleberry,73.3,142.88,74.84,156.49,374.21,Single-ply,SBD,M
Boys,82.1,1,Isaiah Nies,Ennis,78.29,233.6,129.27,229.06,591.94,Single-ply,SBD,M
Boys,82.1,2,Jonah Maston,Mineral Wells,81.1,204.12,124.74,208.65,537.51,Single-ply,SBD,M
Boys,82.1,3,Leo Hernandez #2,Ennis,76.57,197.31,102.06,217.72,517.1,Single-ply,SBD,M
Boys,82.1,4,Diangelo Sandoval,Bridgeport,77.84,179.17,108.86,174.63,462.66,Single-ply,SBD,M
Boys,82.1,5,David Mora,Fort Worth Diamond Hill-Jarvis,81.1,131.54,122.47,165.56,419.57,Single-ply,SBD,M
Boys,89.81,1,Mark Thomas,Decatur,82.74,206.38,115.67,242.67,564.72,Single-ply,SBD,M
Boys,89.81,2,Ryan Goodwin,Mineral Wells,85.46,181.44,131.54,195.04,508.02,Single-ply,SBD,M
Boys,89.81,3,Clay Hilton,Kennedale,89.4,195.04,122.47,174.63,492.15,Single-ply,SBD,M
Boys,89.81,4,Casey White,Decatur,86.09,181.44,111.13,183.7,476.27,Single-ply,SBD,M
Boys,89.81,5,Noah Elliot,Decatur,86.82,170.1,104.33,192.78,467.2,Single-ply,SBD,M
Boys,89.81,6,Kameron Scott,Aubrey,83.37,147.42,99.79,188.24,435.45,Single-ply,SBD,M
Boys,89.81,7,Josh Salazar,Lake Worth,85.46,154.22,104.33,163.29,421.84,Single-ply,SBD,M
Boys,89.81,8,Jesus Montejano,Fort Worth Diamond Hill-Jarvis,85.82,151.95,97.52,167.83,417.3,Single-ply,SBD,M
Boys,89.81,9,Hayden Tinney,Aubrey,85,151.95,83.91,161.03,396.89,Single-ply,SBD,M
Boys,89.81,DQ,Nathan Selman,Decatur,83.55,181.44,104.33,,,Single-ply,SBD,M
Boys,99.79,1,Ricardo Pena,Kennedale,99.65,283.5,165.56,251.74,700.8,Single-ply,SBD,M
Boys,99.79,2,Matteo Carrizales,Decatur,94.53,215.46,140.61,204.12,560.19,Single-ply,SBD,M
Boys,99.79,3,Isaiah Baeza,Mineral Wells,96.07,249.48,124.74,181.44,555.65,Single-ply,SBD,M
Boys,99.79,4,Brandon Kiernan,Kennedale,94.62,208.65,136.08,206.38,551.11,Single-ply,SBD,M
Boys,99.79,5,Mikael Conn,Aubrey,94.98,217.72,124.74,183.7,526.17,Single-ply,SBD,M
Boys,99.79,6,Brandon Thammavong,Lake Worth,98.97,206.38,124.74,190.51,521.63,Single-ply,SBD,M
Boys,99.79,7,Davion Hayes,Lake Worth,93.35,206.38,104.33,208.65,519.36,Single-ply,SBD,M
Boys,99.79,8,Colby Westbrook,Decatur,91.72,197.31,104.33,210.92,512.56,Single-ply,SBD,M
Boys,99.79,9,Desmond Mendoza,Kennedale,95.44,195.04,117.93,192.78,505.76,Single-ply,SBD,M
Boys,99.79,10,Cody Newton,Aubrey,99.43,174.63,92.99,181.44,449.06,Single-ply,SBD,M
Boys,99.79,11,Kye Ranton,Aubrey,92.17,154.22,108.86,167.83,430.91,Single-ply,SBD,M
Boys,99.79,12,Ibrahim Uribe,Bridgeport,98.25,165.56,92.99,149.69,408.23,Single-ply,SBD,M
Boys,99.79,13,David Fielder,Kennedale,93.98,149.69,88.45,167.83,405.97,Single-ply,SBD,M
Boys,109.77,1,Christopher Serwanga,Kennedale,103.06,226.8,142.88,229.06,598.74,Single-ply,SBD,M
Boys,109.77,2,Ismael Banda,Castleberry,108.77,204.12,156.49,219.99,580.6,Single-ply,SBD,M
Boys,109.77,3,Justin Shipman,Castleberry,103.51,229.06,129.27,208.65,566.99,Single-ply,SBD,M
Boys,109.77,4,Brandon Hinojosa,Mineral Wells,104.87,219.99,115.67,215.46,551.11,Single-ply,SBD,M
Boys,109.77,5,Hunter Coleman,Bridgeport,109.5,208.65,140.61,199.58,548.85,Single-ply,SBD,M
Boys,109.77,6,Hayden Hudson,Kennedale,103.78,210.92,117.93,195.04,523.9,Single-ply,SBD,M
Boys,109.77,7,James White,Decatur,102.78,201.85,111.13,201.85,514.83,Single-ply,SBD,M
Boys,109.77,8,Ian James,Aubrey,104.87,172.37,92.99,183.7,449.06,Single-ply,SBD,M
Boys,109.77,9,Jacob Millican,Aubrey,105.78,170.1,102.06,158.76,430.91,Single-ply,SBD,M
Boys,109.77,10,Korbin Larman,Aubrey,106.5,124.74,74.84,142.88,342.46,Single-ply,SBD,M
Boys,109.77,DQ,Jordan Badillo,Bridgeport,107.32,170.1,111.13,,,Single-ply,SBD,M
Boys,109.77,DQ,Dylan Miranda,Kennedale,108.32,185.97,113.4,,,Single-ply,SBD,M
Boys,124.74,1,Bradley Aaron,Mineral Wells,123.1,249.48,165.56,235.87,650.91,Single-ply,SBD,M
Boys,124.74,2,Victor Garcia,Kennedale,114.31,240.4,129.27,204.12,573.79,Single-ply,SBD,M
Boys,124.74,3,Christian Adams,Ennis,120.02,206.38,136.08,188.24,530.7,Single-ply,SBD,M
Boys,124.74,4,Kobie Vasquez,Ennis,124.65,213.19,115.67,199.58,528.44,Single-ply,SBD,M
Boys,124.74,5,James Alvarez,Mesquite Horn,121.47,195.04,127.01,195.04,517.1,Single-ply,SBD,M
Boys,124.74,6,Keaton Jordan,Decatur,122.11,226.8,127.01,161.03,514.83,Single-ply,SBD,M
Boys,124.74,7,Juan Salinas,Lake Worth,122.2,204.12,115.67,170.1,489.88,Single-ply,SBD,M
Boys,124.74+,1,Caleb Jennings,Bridgeport,134.08,294.84,188.24,263.08,746.16,Single-ply,SBD,M
Boys,124.74+,2,Alexis Jimenez,Lake Worth,126.37,260.82,172.37,226.8,659.98,Single-ply,SBD,M
Boys,124.74+,3,Eric Stonechek,Bridgeport,132.54,247.21,174.63,231.33,653.17,Single-ply,SBD,M
Boys,124.74+,4,Dillon Jurcik,Ennis,128.37,251.74,145.15,226.8,623.69,Single-ply,SBD,M
Boys,124.74+,5,Kenson Vance,Decatur,130.63,226.8,170.1,226.8,623.69,Single-ply,SBD,M
Boys,124.74+,6,Zander Adams,Mineral Wells,127.1,247.21,124.74,219.99,591.94,Single-ply,SBD,M
Boys,124.74+,7,Cedric Harris,Kennedale,131.45,219.99,102.06,229.06,551.11,Single-ply,SBD,M
Boys,124.74+,8,James Mantell,Kennedale,152.86,149.69,92.99,136.08,378.75,Single-ply,SBD,M
Boys,124.74+,DQ,Wesley Sanders,Lake Worth,159.85,,,,,Single-ply,SBD,M
