Division,WeightClassKg,Place,Name,Team,BodyweightKg,Best3SquatKg,Best3BenchKg,Best3DeadliftKg,TotalKg,Equipment,Event,Sex
Boys,51.71,1,Dakota Husdson,Azle,47.63,108.86,61.23,106.59,276.69,Single-ply,SBD,M
Boys,51.71,2,Kyle Hendrix,Weatherford,51.26,92.99,65.77,99.79,258.55,Single-ply,SBD,M
Boys,55.79,1,Arnold Delgidillo,White Settlement Brewer,55.34,133.81,83.91,147.42,365.14,Single-ply,SBD,M
Boys,55.79,2,Isaac Gonzalez,Weatherford,54.43,111.13,49.9,120.2,281.23,Single-ply,SBD,M
Boys,55.79,3,Ryan Randall,Azle,53.07,97.52,54.43,99.79,251.74,Single-ply,SBD,M
Boys,59.87,1,Zach Bodine,Weatherford,59.87,138.35,92.99,147.42,378.75,Single-ply,SBD,M
Boys,59.87,2,Nick Thomas #4,Weatherford,59.87,133.81,74.84,158.76,367.41,Single-ply,SBD,M
Boys,59.87,3,Travis Ward,Weatherford,59.87,115.67,72.57,124.74,312.98,Single-ply,SBD,M
Boys,59.87,4,BJ Marchand,Azle,59.87,106.59,63.5,117.93,288.03,Single-ply,SBD,M
Boys,67.13,1,Demetrius Hutcherson,Azle,63.96,192.78,81.65,185.97,460.4,Single-ply,SBD,M
Boys,67.13,2,Chase Warren,Weatherford,63.96,145.15,90.72,163.29,399.16,Single-ply,SBD,M
Boys,67.13,DQ,Dylan Moore,Azle,65.32,,,,,Single-ply,SBD,M
Boys,74.84,1,Josh Williams,Azle,73.94,192.78,102.06,192.78,487.61,Single-ply,SBD,M
Boys,74.84,2,Chase Smith,Azle,71.21,188.24,97.52,183.7,469.47,Single-ply,SBD,M
Boys,74.84,3,Dusty Schauer,Weatherford,74.84,172.37,108.86,185.97,467.2,Single-ply,SBD,M
Boys,74.84,4,Draven Pointer,Weatherford,74.39,165.56,115.67,174.63,455.86,Single-ply,SBD,M
Boys,74.84,5,Brennan Barrs,White Settlement Brewer,74.39,124.74,86.18,165.56,376.48,Single-ply,SBD,M
Boys,74.84,6,Zach Freeberg,Weatherford,70.31,129.27,79.38,140.61,349.27,Single-ply,SBD,M
Boys,74.84,7,Carlos Villalobos,White Settlement Brewer,74.39,124.74,54.43,111.13,290.3,Single-ply,SBD,M
Boys,82.1,1,Richardo Camas,Weatherford,82.1,190.51,129.27,199.58,519.36,Single-ply,SBD,M
Boys,82.1,2,Robbie Carper,Weatherford,77.11,197.31,122.47,197.31,517.1,Single-ply,SBD,M
Boys,82.1,3,Damian Hernandez,White Settlement Brewer,81.65,181.44,122.47,192.78,496.68,Single-ply,SBD,M
Boys,82.1,4,Zach Mohr,Weatherford,77.56,174.63,111.13,192.78,478.54,Single-ply,SBD,M
Boys,82.1,5,Kevin Perotti,White Settlement Brewer,79.38,174.63,104.33,188.24,467.2,Single-ply,SBD,M
Boys,82.1,6,Sabin Joshi,Weatherford,78.93,174.63,113.4,174.63,462.66,Single-ply,SBD,M
Boys,82.1,7,Hunter Pettis,Azle,80.29,161.03,102.06,176.9,439.98,Single-ply,SBD,M
Boys,82.1,DQ,Clayton Wilkinson,Azle,79.38,,,,,Single-ply,SBD,M
Boys,82.1,DQ,Zach Petter,Azle,78.02,,,,,Single-ply,SBD,M
Boys,89.81,1,Robbie Williams,White Settlement Brewer,89.81,204.12,129.27,213.19,546.58,Single-ply,SBD,M
Boys,89.81,2,Benji Perez,White Settlement Brewer,86.64,217.72,108.86,188.24,514.83,Single-ply,SBD,M
Boys,89.81,3,Dalton Cole,Azle,87.54,188.24,111.13,174.63,474,Single-ply,SBD,M
Boys,89.81,4,Daniel Raya,White Settlement Brewer,83.91,172.37,115.67,183.7,471.74,Single-ply,SBD,M
Boys,89.81,5,Jaxon Fletcher,White Settlement Brewer,85.28,158.76,77.11,151.95,387.82,Single-ply,SBD,M
Boys,89.81,DQ,Tyler Rainwater,White Settlement Brewer,85.28,,,,,Single-ply,SBD,M
Boys,89.81,DQ,Ray Emery,Weatherford,83.01,,,,,Single-ply,SBD,M
Boys,89.81,DQ,Thomas Widder,Azle,86.64,,,,,Single-ply,SBD,M
Boys,99.79,1,Tristian Raymond,Weatherford,99.79,192.78,129.27,192.78,514.83,Single-ply,SBD,M
Boys,99.79,2,Jason Washington,Weatherford,99.34,176.9,129.27,183.7,489.88,Single-ply,SBD,M
Boys,99.79,3,Tyler Shemberger,Azle,98.88,188.24,108.86,183.7,480.81,Single-ply,SBD,M
Boys,99.79,4,Victor Munoz,Weatherford,99.34,174.63,92.99,188.24,455.86,Single-ply,SBD,M
Boys,99.79,5,Logan Molinar,White Settlement Brewer,99.79,145.15,102.06,145.15,392.36,Single-ply,SBD,M
Boys,99.79,6,Zach Bushy,White Settlement Brewer,91.17,129.27,68.04,138.35,335.66,Single-ply,SBD,M
Boys,99.79,DQ,Johnny Crow,Azle,99.79,,,,,Single-ply,SBD,M
Boys,109.77,1,Landon Todd,Azle,109.77,238.14,142.88,215.46,596.47,Single-ply,SBD,M
Boys,109.77,2,Logan Todd,Azle,109.77,238.14,138.35,215.46,591.94,Single-ply,SBD,M
Boys,109.77,3,Stephen Evans,White Settlement Brewer,103.87,233.6,131.54,197.31,562.45,Single-ply,SBD,M
Boys,109.77,4,Antonio Cansino,Weatherford,109.77,219.99,106.59,201.85,528.44,Single-ply,SBD,M
Boys,109.77,5,Trevor Harris,Weatherford,103.87,183.7,111.13,204.12,498.95,Single-ply,SBD,M
Boys,109.77,6,Kade Griffin,Azle,106.14,199.58,117.93,181.44,498.95,Single-ply,SBD,M
Boys,109.77,7,Jesse Roden,Weatherford,104.78,188.24,113.4,176.9,478.54,Single-ply,SBD,M
Boys,109.77,8,David Young,Weatherford,102.97,181.44,108.86,185.97,476.27,Single-ply,SBD,M
Boys,109.77,9,Bryce Waller,Weatherford,104.33,192.78,108.86,172.37,474,Single-ply,SBD,M
Boys,109.77,10,Fernando Monreal,White Settlement Brewer,100.7,156.49,111.13,163.29,430.91,Single-ply,SBD,M
Boys,109.77,11,Jett Reed,White Settlement Brewer,102.97,174.63,86.18,158.76,419.57,Single-ply,SBD,M
Boys,109.77,12,Ryan Shruggs,White Settlement Brewer,106.14,165.56,72.57,151.95,390.09,Single-ply,SBD,M
Boys,124.74,1,Daniel Martinez,White Settlement Brewer,118.39,226.8,147.42,235.87,610.08,Single-ply,SBD,M
Boys,124.74,2,Glynn Evans,Azle,118.84,238.14,124.74,197.31,560.19,Single-ply,SBD,M
Boys,124.74,3,Garrett Tidwell,Azle,117.48,233.6,120.2,195.04,548.85,Single-ply,SBD,M
Boys,124.74,4,Ricky Chapa,White Settlement Brewer,123.38,219.99,106.59,204.12,530.7,Single-ply,SBD,M
Boys,124.74,5,Dusty Seely,White Settlement Brewer,123.83,204.12,117.93,188.24,510.29,Single-ply,SBD,M
Boys,124.74,6,Drew Smith,Azle,111.58,195.04,120.2,192.78,508.02,Single-ply,SBD,M
Boys,124.74,7,Joseph Alfaro,White Settlement Brewer,122.92,206.38,102.06,181.44,489.88,Single-ply,SBD,M
Boys,124.74,8,Grayson Adams,Weatherford,121.11,170.1,117.93,179.17,467.2,Single-ply,SBD,M
Boys,124.74,9,Daniel Salazar,Azle,113.85,190.51,81.65,181.44,453.59,Single-ply,SBD,M
Boys,124.74+,1,Jacob Lance,Azle,132,210.92,106.59,165.56,483.08,Single-ply,SBD,M
