Division,WeightClassKg,Place,Name,Team,BodyweightKg,Best3SquatKg,Best3BenchKg,Best3DeadliftKg,TotalKg,Equipment,Event,Sex,BirthDate
Girls,44.23,1,Lexi Iglesias,Port Lavaca Calhoun,43.82,113.4,70.31,117.93,301.64,Single-ply,SBD,F,
Girls,44.23,2,Dulce De La Cruz,Floresville,41.28,108.86,49.9,106.59,265.35,Single-ply,SBD,F,
Girls,44.23,3,Gabriella Velasquez,Poteet,36.38,63.5,24.95,86.18,174.63,Single-ply,SBD,F,
Girls,47.85,1,Reagan Coy,Corpus Christi Tuloso-Midway,47.81,102.06,52.16,102.06,256.28,Single-ply,SBD,F,
Girls,47.85,2,Jazlyn Trevino,Poteet,47.81,113.4,43.09,97.52,254.01,Single-ply,SBD,F,
Girls,51.94,1,Salma Anaya-Martinez,Port Lavaca Calhoun,51.89,127.01,74.84,145.15,347,Single-ply,SBD,F,
Girls,51.94,2,Raelin Luna,Port Lavaca Calhoun,51.89,129.27,74.84,140.61,344.73,Single-ply,SBD,F,
Girls,51.94,3,Hannah Saegert,Rockport-Fulton,51.89,129.27,52.16,129.27,310.71,Single-ply,SBD,F,
Girls,51.94,4,Kamaryn Hernandez,Port Lavaca Calhoun,50.44,122.47,56.7,129.27,308.44,Single-ply,SBD,F,
Girls,51.94,5,Juliana Vasquez,Corpus Christi Tuloso-Midway,50.71,120.2,68.04,117.93,306.17,Single-ply,SBD,F,
Girls,51.94,6,Linda Urquieta,Corpus Christi Tuloso-Midway,51.89,117.93,65.77,122.47,306.17,Single-ply,SBD,F,
Girls,51.94,7,Payton Cox,Port Lavaca Calhoun,51.89,120.2,58.97,127.01,306.17,Single-ply,SBD,F,
Girls,51.94,8,Kara Smith,Port Lavaca Calhoun,51.35,115.67,56.7,127.01,299.37,Single-ply,SBD,F,
Girls,51.94,9,Abby Saegert,Rockport-Fulton,51.71,120.2,56.7,113.4,290.3,Single-ply,SBD,F,
Girls,51.94,10,Daeja Gomez,Floresville,51.89,102.06,45.36,117.93,265.35,Single-ply,SBD,F,
Girls,51.94,11,Kay D'Leal,Corpus Christi Calallen,50.94,86.18,52.16,124.74,263.08,Single-ply,SBD,F,
Girls,51.94,12,Natalie Luna,Corpus Christi Calallen,51.89,58.97,38.56,77.11,174.63,Single-ply,SBD,F,
Girls,56.02,1,Myndi Rodriguez,Corpus Christi Tuloso-Midway,55.16,161.03,88.45,129.27,378.75,Single-ply,SBD,F,
Girls,56.02,2,Emily Allen,Corpus Christi Tuloso-Midway,52.39,124.74,65.77,131.54,322.05,Single-ply,SBD,F,
Girls,56.02,3,Bianca Guzman,Corpus Christi Tuloso-Midway,55.79,127.01,68.04,124.74,319.78,Single-ply,SBD,F,
Girls,56.02,4,Angela Garcia,Floresville,55.7,99.79,54.43,127.01,281.23,Single-ply,SBD,F,
Girls,56.02,5,Samantha Suniga,Beeville Jones,55.47,102.06,52.16,120.2,274.42,Single-ply,SBD,F,
Girls,56.02,6,Delaney Jones,Refugio,54.61,72.57,38.56,108.86,219.99,Single-ply,SBD,F,
Girls,56.02,7,Brenna Sims,Refugio,52.53,74.84,45.36,95.25,215.46,Single-ply,SBD,F,
Girls,56.02,8,Naidelyn Martinez,Refugio,52.8,65.77,40.82,90.72,197.31,Single-ply,SBD,F,
Girls,56.02,DQ,Eh Nay Gay Hso,Port Lavaca Calhoun,55.79,,,,,Single-ply,SBD,F,
Girls,60.1,1,Angelica Beltran,Beeville Jones,60.06,142.88,83.91,167.83,394.63,Single-ply,SBD,F,
Girls,60.1,2,Morgan Candela,Corpus Christi Tuloso-Midway,59.6,154.22,86.18,145.15,385.55,Single-ply,SBD,F,
Girls,60.1,3,Geraldine Tafolla,Port Lavaca Calhoun,56.88,142.88,68.04,149.69,360.61,Single-ply,SBD,F,
Girls,60.1,4,Jasmine Earls,Corpus Christi Calallen,59.69,127.01,61.23,142.88,331.12,Single-ply,SBD,F,
Girls,60.1,5,Jackie McClendon,Corpus Christi Calallen,56.43,113.4,38.56,122.47,274.42,Single-ply,SBD,F,
Girls,60.1,6,Abby Duncan,Refugio,56.25,58.97,38.56,74.84,172.37,Single-ply,SBD,F,
Girls,67.36,1,Amidy Moreno,Beeville Jones,65.95,170.1,99.79,165.56,435.45,Single-ply,SBD,F,
Girls,67.36,2,Julianna Perez,Corpus Christi Tuloso-Midway,61.42,167.83,104.33,156.49,428.64,Single-ply,SBD,F,
Girls,67.36,3,Courtney Lamontagne,Corpus Christi Tuloso-Midway,66.5,165.56,90.72,167.83,424.11,Single-ply,SBD,F,
Girls,67.36,4,Destiny Villegas,Beeville Jones,67.13,131.54,88.45,136.08,356.07,Single-ply,SBD,F,
Girls,67.36,5,Valeria Ramirez,Rockport-Fulton,63.78,138.35,63.5,145.15,347,Single-ply,SBD,F,
Girls,67.36,6,Katya Garza-Rodriquez,Port Lavaca Calhoun,62.87,145.15,58.97,140.61,344.73,Single-ply,SBD,F,
Girls,67.36,7,Larisa Gonzalez,Beeville Jones,63.59,113.4,58.97,113.4,285.76,Single-ply,SBD,F,
Girls,67.36,8,Jade-Lynne Lewis,Refugio,65.41,83.91,43.09,115.67,242.67,Single-ply,SBD,F,
Girls,67.36,9,Mallory Wise,Refugio,64.41,65.77,38.56,99.79,204.12,Single-ply,SBD,F,
Girls,67.36,DQ,Emily Ramos,Poteet,61.87,,,,,Single-ply,SBD,F,
Girls,67.36,DQ,Alyssa Reyes,Poteet,66.04,117.93,,,,Single-ply,SBD,F,
Girls,67.36,DQ,Realynn Flores,Corpus Christi Tuloso-Midway,66.5,,,,,Single-ply,SBD,F,
Girls,67.36,DQ,Lori Stark,Floresville,65.32,,,,,Single-ply,SBD,F,
Girls,75.07,1,Desiree Gonzales,Beeville Jones,74.93,195.04,108.86,176.9,480.81,Single-ply,SBD,F,
Girls,75.07,2,Vivian Galindo,Port Lavaca Calhoun,74.66,145.15,68.04,145.15,358.34,Single-ply,SBD,F,
Girls,75.07,3,Yesenia Arellanno,Floresville,74.21,142.88,70.31,142.88,356.07,Single-ply,SBD,F,
Girls,75.07,4,Allison Machado,Floresville,71.3,136.08,61.23,133.81,331.12,Single-ply,SBD,F,
Girls,75.07,DQ,Alexis Valdez,Corpus Christi Tuloso-Midway,72.03,147.42,,,,Single-ply,SBD,F,
Girls,75.07,DQ,Azalea Orozco,Floresville,71.4,,,,,Single-ply,SBD,F,
Girls,75.07,DQ,Sophie Sanchez,Beeville Jones,74.48,,,,,Single-ply,SBD,F,
Girls,75.07,DQ,Brianna Abrego,Port Lavaca Calhoun,69.49,,,,,Single-ply,SBD,F,
Girls,82.33,1,Jackee Corrigan,Beeville Jones,75.98,161.03,83.91,142.88,387.82,Single-ply,SBD,F,
Girls,82.33,2,Noelia Rodas,Port Lavaca Calhoun,80.47,154.22,72.57,149.69,376.48,Single-ply,SBD,F,
Girls,82.33,3,Amani Thamer,Corpus Christi Tuloso-Midway,80.01,140.61,65.77,136.08,342.46,Single-ply,SBD,F,
Girls,82.33,4,Danielle Barrera,Floresville,80.38,129.27,56.7,138.35,324.32,Single-ply,SBD,F,
Girls,90.04,1,Kennedi Butcher,Port Lavaca Calhoun,88.9,170.1,117.93,181.44,469.47,Single-ply,SBD,F,
Girls,90.04,2,Brenna O'Neal,Corpus Christi Calallen,87.54,136.08,47.63,136.08,319.78,Single-ply,SBD,F,
Girls,90.04,3,Cheyenne Martinez,Rockport-Fulton,87.09,115.67,58.97,140.61,315.25,Single-ply,SBD,F,
Girls,100.02,1,Brittany Auzston,Beeville Jones,90.81,138.35,79.38,138.35,356.07,Single-ply,SBD,F,
Girls,117.71,1,Makaila Mills,Rockport-Fulton,106.14,147.42,65.77,129.27,342.46,Single-ply,SBD,F,
Girls,117.71,DQ,Daniella Ortega,Beeville Jones,102.1,,,,,Single-ply,SBD,F,
Girls,117.71+,1,Alayna Searcy,Port Lavaca Calhoun,128.64,222.26,111.13,167.83,501.22,Single-ply,SBD,F,
