Name,WeightClassKg,Division,Sex,AgeRange,Best3SquatKg,Best3BenchKg,Best3DeadliftKg,TotalKg,Event,Equipment,Place
Eric Kupperstein,67.5,Open,M,14-19,204.12,122.47,244.94,571.53,SBD,Single-ply,1
Saul Shocket,75,Open,M,40-999,265.35,145.15,272.16,682.66,SBD,Single-ply,1
Eric Arnold,110,Open,M,,340.19,206.38,315.25,861.83,SBD,Single-ply,1
Geo Marinos,125,Open,M,,349.27,195.04,,,SBD,Single-ply,DQ
