Name,BirthDate,Sex,Division,WeightClassKg,BodyweightKg,BirthYear,Squat1Kg,Squat2Kg,Squat3Kg,Best3SquatKg,Bench1Kg,Bench2Kg,Bench3Kg,Best3BenchKg,Deadlift1Kg,Deadlift2Kg,Deadlift3Kg,Best3DeadliftKg,TotalKg,Place,Event,Equipment
Alyssa Gratil,,F,Juniors,52,51.9,1997,87.5,95,100,100,-50,50,-52.5,50,-115,115,127.5,127.5,277.5,1,SBD,Raw
Madeline Shone,,F,Juniors,63,61.6,1997,95,97.5,100,100,-55,55,-57.5,55,107.5,112.5,-120,112.5,267.5,1,SBD,Raw
Petra Haiad,,F,Juniors,84,83.5,2000,85,87.5,90,90,55,-57.5,-57.5,55,115,120,125,125,270,2,SBD,Raw
Dana Marie Silang,,F,Juniors,84,82.3,1996,100,107.5,115,115,47.5,52.5,-55,52.5,132.5,137.5,142.5,142.5,310,1,SBD,Raw
Rachel Chen,,F,Open,52,50.6,1996,90,95,-97.5,95,37.5,40,-42.5,40,100,105,112.5,112.5,247.5,2,SBD,Raw
Jackie Ngo,,F,Open,52,51.6,1993,87.5,92.5,97.5,97.5,50,55,-57.5,55,140,145,-152.5,145,297.5,1,SBD,Raw
Erica Koo,,F,Open,57,56.9,1991,112.5,117.5,122.5,122.5,72.5,77.5,-80,77.5,120,127.5,132.5,132.5,332.5,1,SBD,Raw
Charissa Ly,,F,Open,57,56.8,1996,115,122.5,132.5,132.5,50,55,60,60,115,127.5,-137.5,127.5,320,2,SBD,Raw
Sherzan Sorab Daver,,F,Open,57,57,1996,87.5,95,100,100,-45,45,47.5,47.5,100,110,-117.5,110,257.5,3,SBD,Raw
Jessica Haddad,,F,Open,63,63,1987,120,127.5,130,130,52.5,-60,-60,52.5,130,137.5,142.5,142.5,325,1,SBD,Raw
Kirsten Ramage,,F,Open,72,69,1976,120,127.5,132.5,132.5,70,75,80,80,130,142.5,152.5,152.5,365,1,SBD,Raw
Lisa Turner,,F,Open,72,67.2,1985,95,97.5,107.5,107.5,55,57.5,60,60,130,140,145,145,312.5,2,SBD,Raw
Sophie Calland,,F,Open,72,71.3,1991,95,102.5,107.5,107.5,52.5,-57.5,57.5,57.5,127.5,135,-142.5,135,300,3,SBD,Raw
Natasha Koski,,F,Open,84+,97.8,1993,100,107.5,112.5,112.5,52.5,57.5,62.5,62.5,127.5,137.5,145,145,320,2,SBD,Raw
Mirelle Khoury Geagea,,F,Open,84+,109,1993,115,125,132.5,132.5,65,72.5,77.5,77.5,140,155,165,165,375,1,SBD,Raw
Nicholas Christodoulou,,M,Juniors,74,72.6,1998,-150,-160,160,160,92.5,100,-105,100,205,220,-237.5,220,480,1,SBD,Raw
Emilio Caliao,,M,Juniors,83,81.5,1998,200,215,225,225,145,152.5,160,160,240,260,275,275,660,1,SBD,Raw
Callum Murdoch,,M,Juniors,83,81.6,1999,175,185,195,195,130,137.5,145,145,200,210,220,220,560,2,SBD,Raw
Alexander Clisdell,,M,Juniors,83,82.6,2000,185,190,-195,190,105,115,120,120,210,220,225,225,535,3,SBD,Raw
Alexander Fomin,,M,Juniors,93,92.7,,210,222.5,-230,222.5,142.5,147.5,152.5,152.5,250,262.5,265,265,640,1,SBD,Raw
Jesse Hutabarat,,M,Juniors,93,90.2,,205,217.5,-222.5,217.5,135,140,142.5,142.5,245,260,-270,260,620,2,SBD,Raw
Josh Johnstone,,M,Juniors,93,85.7,,195,210,217.5,217.5,117.5,127.5,135,135,245,-265,-267.5,245,597.5,3,SBD,Raw
Ranier Cortez,,M,Juniors,93,91.4,,185,195,207.5,207.5,125,132.5,-137.5,132.5,200,215,-225,215,555,4,SBD,Raw
Rafael Manuel,,M,Juniors,93,89.7,,185,192.5,200,200,115,125,-130,125,215,-225,-230,215,540,5,SBD,Raw
Daniel Sparkes,,M,Juniors,105,102.3,,180,-190,190,190,125,130,-135,130,250,270,-280,270,590,1,SBD,Raw
Adrian Simadibrata,,M,Juniors,105,94.7,,160,170,180,180,-115,115,-122.5,115,200,-212.5,212.5,212.5,507.5,2,SBD,Raw
Kenan Ozdemir,,M,Juniors,105,96.6,,160,170,175,175,100,110,-112.5,110,155,165,175,175,460,3,SBD,Raw
Ali Bukhari,,M,Open,66,65.7,1997,152.5,157.5,165,165,85,92.5,95,95,210,220,225,225,485,1,SBD,Raw
Paolo Raoul Duru,,M,Open,66,65.5,1993,140,150,-160,150,87.5,-95,-95,87.5,225,240,-250,240,477.5,2,SBD,Raw
Andrew Trieu,,M,Open,66,65.9,1996,170,-185,-185,170,102.5,110,112.5,112.5,130,-132.5,-132.5,130,412.5,3,SBD,Raw
Thomas Duong,,M,Open,74,74,1994,205,215,225,225,122.5,130,135,135,225,245,255,255,615,1,SBD,Raw
Callum Murdoch,,M,Open,74,66.5,1991,120,130,-140,130,65,67.5,70,70,145,155,167.5,167.5,367.5,2,SBD,Raw
Kevin Chan,,M,Open,83,74.5,1985,135,145,-155,145,97.5,107.5,-112.5,107.5,195,210,-220,210,462.5,5,SBD,Raw
Jay Raffaut,,M,Open,83,82.3,,180,192.5,200,200,120,127.5,132.5,132.5,235,252.5,257.5,257.5,590,1,SBD,Raw
Wayne Leong,,M,Open,83,78.5,,175,185,195,195,130,137.5,142.5,142.5,210,225,235,235,572.5,2,SBD,Raw
Tony Chen,,M,Open,83,80.8,,185,195,-205,195,120,127.5,130,130,205,220,225,225,550,3,SBD,Raw
Angus McDonald,,M,Open,83,81.5,,170,182.5,-190,182.5,105,110,115,115,195,205,215,215,512.5,4,SBD,Raw
Murray Bamborth,,M,Open,83,82.3,,135,142.5,-152.5,142.5,97.5,105,-110,105,155,170,180,180,427.5,6,SBD,Raw
Thomas Wang #2,,M,Open,93,89.3,,180,190,197.5,197.5,127.5,135,140,140,180,192.5,205,205,542.5,1,SBD,Raw
Angelo Rosales,,M,Open,93,92.7,,185,200,-215,200,95,100,105,105,-210,225,-247.5,225,530,2,SBD,Raw
Jose Jurado,,M,Open,93,92.8,,165,175,185,185,100,107.5,112.5,112.5,190,215,230,230,527.5,3,SBD,Raw
Jonathan Ray,,M,Open,93,89.4,,160,170,175,175,105,110,-115,110,202.5,215,225,225,510,4,SBD,Raw
Gareth Smith,,M,Open,105,104,,230,245,257.5,257.5,167.5,175,180,180,260,275,285,285,722.5,1,SBD,Raw
Luke Brennan,,M,Open,105,102.7,,200,210,220,220,110,115,-120,115,265,280,-292.5,280,615,2,SBD,Raw
Matthew Rains,,M,Open,105,98.9,,200,212.5,220,220,127.5,132.5,-137.5,132.5,230,245,255,255,607.5,3,SBD,Raw
Chris Ross,,M,Open,105,94,,180,190,200,200,100,107.5,112.5,112.5,185,200,215,215,527.5,4,SBD,Raw
Mitchell Kajan,,M,Open,105,102.9,,180,190,200,200,150,-160,-160,150,150,160,-162.5,160,510,5,SBD,Raw
Brett Lynch,,M,Open,120,116.2,,232.5,247.5,-257.5,247.5,147.5,157.5,-167.5,157.5,232.5,252.5,265,265,670,1,SBD,Raw
Benjamin Cleveland,,M,Open,120,111.4,,200,210,220,220,145,152.5,157.5,157.5,210,220,240,240,617.5,2,SBD,Raw
Stephen Cvitkovic,,M,Open,120,116.4,,170,180,187.5,187.5,115,120,-125,120,205,215,-220,215,522.5,3,SBD,Raw
