Division,WeightClassKg,Place,Name,Team,BodyweightKg,Best3SquatKg,Best3BenchKg,Best3DeadliftKg,TotalKg,Equipment,Event,Sex,BirthDate
Boys,51.71,1,Tucker Sanders,Brownsboro,51.07,140.61,97.52,142.88,381.02,Single-ply,SBD,M,
Boys,51.71,2,Trace Woodruff,Crandall,50.89,131.54,77.11,145.15,353.8,Single-ply,SBD,M,
Boys,51.71,3,Vandon Lassiter,Paris North Lamar,50.62,136.08,74.84,127.01,337.93,Single-ply,SBD,M,
Boys,51.71,4,Jose Martinez,Quinlan Ford,49.08,120.2,61.23,136.08,317.51,Single-ply,SBD,M,
Boys,51.71,5,Ivan Yates,Wills Point,51.53,111.13,72.57,113.4,297.1,Single-ply,SBD,M,
Boys,51.71,6,Christian McBean,Fairfield,51.26,102.06,56.7,136.08,294.84,Single-ply,SBD,M,
Boys,51.71,7,Cody Ferguson,Madisonville,51.17,108.86,56.7,127.01,292.57,Single-ply,SBD,M,
Boys,51.71,8,Joe Atilano,Ferris,50.26,108.86,47.63,108.86,265.35,Single-ply,SBD,M,
Boys,51.71,9,Avery Roberts,Brownsboro,47.99,90.72,52.16,99.79,242.67,Single-ply,SBD,M,
Boys,55.79,1,Xavier Edwards,Texarkana Liberty-Eylau,54.07,190.51,117.93,165.56,474,Single-ply,SBD,M,
Boys,55.79,2,Jakovi Dabbs,Paris,54.34,170.1,90.72,188.24,449.06,Single-ply,SBD,M,
Boys,55.79,3,Alan Landazuri,Quinlan Ford,54.34,158.76,99.79,172.37,430.91,Single-ply,SBD,M,
Boys,55.79,4,Anthony Cuellar,Brownsboro,54.98,163.29,97.52,147.42,408.23,Single-ply,SBD,M,
Boys,55.79,5,Leonal Padron,Quinlan Ford,55.25,163.29,70.31,161.03,394.63,Single-ply,SBD,M,
Boys,55.79,6,Ruger Cates,Wills Point,55.79,145.15,68.04,136.08,349.27,Single-ply,SBD,M,
Boys,55.79,7,Colby Hardee,Athens,54.43,122.47,68.04,106.59,297.1,Single-ply,SBD,M,
Boys,55.79,8,Caiden Lee,Bullard,55.43,104.33,72.57,108.86,285.76,Single-ply,SBD,M,
Boys,55.79,9,Logan Jensen,Brownsboro,55.34,97.52,63.5,120.2,281.23,Single-ply,SBD,M,
Boys,55.79,DQ,Freddy Ponce,Gilmer,54.61,,,,,Single-ply,SBD,M,
Boys,59.87,1,Jesus Barrientos,Brownsboro,58.88,204.12,127.01,197.31,528.44,Single-ply,SBD,M,
Boys,59.87,2,Aaron Godwin,Mabank,59.87,188.24,108.86,185.97,483.08,Single-ply,SBD,M,
Boys,59.87,3,Tristan Larsen,Tyler Chapel Hill,59.42,183.7,95.25,192.78,471.74,Single-ply,SBD,M,
Boys,59.87,4,Jabier Bocanegra,Gilmer,59.6,179.17,102.06,174.63,455.86,Single-ply,SBD,M,
Boys,59.87,5,Kyle Crawford,Brownsboro,58.88,185.97,90.72,172.37,449.06,Single-ply,SBD,M,
Boys,59.87,6,Darwin Acosta,Quinlan Ford,59.87,172.37,90.72,165.56,428.64,Single-ply,SBD,M,
Boys,59.87,7,Luke Elrod,Paris North Lamar,59.6,145.15,90.72,167.83,403.7,Single-ply,SBD,M,
Boys,59.87,8,Jeremy Griffin,Quinlan Ford,57.88,151.95,86.18,158.76,396.89,Single-ply,SBD,M,
Boys,59.87,9,Everitt Eccles,Brownsboro,58.97,136.08,88.45,154.22,378.75,Single-ply,SBD,M,
Boys,59.87,10,Tysen Pierce,Henderson,59.78,124.74,70.31,154.22,349.27,Single-ply,SBD,M,
Boys,59.87,DQ,Deuntre Adamson,Paris,57.79,,,,,Single-ply,SBD,M,
Boys,67.13,1,D'Cameron Walker,Henderson,66.68,222.26,138.35,188.24,548.85,Single-ply,SBD,M,
Boys,67.13,2,GiTaeus Young,Paris,66.5,208.65,108.86,199.58,517.1,Single-ply,SBD,M,
Boys,67.13,3,Hayden Justice,Paris North Lamar,66.77,222.26,108.86,174.63,505.76,Single-ply,SBD,M,
Boys,67.13,4,Mickey Ray,Brownsboro,66.32,183.7,102.06,195.04,480.81,Single-ply,SBD,M,
Boys,67.13,5,Landon Fretwell,Brownsboro,66.95,188.24,97.52,185.97,471.74,Single-ply,SBD,M,
Boys,67.13,6,Daniel White,Huntington,65.59,181.44,104.33,174.63,460.4,Single-ply,SBD,M,
Boys,67.13,7,Chandler Jones,Center,63.59,185.97,95.25,165.56,446.79,Single-ply,SBD,M,
Boys,67.13,8,Juan Munoz,Quinlan Ford,61.42,172.37,90.72,170.1,433.18,Single-ply,SBD,M,
Boys,67.13,9,Justin Villatoro,Palestine,65.59,161.03,108.86,158.76,428.64,Single-ply,SBD,M,
Boys,67.13,10,Ryan Kvapil,Wills Point,65.86,165.56,97.52,163.29,426.38,Single-ply,SBD,M,
Boys,67.13,DQ,Diego Mendez,Crandall,64.59,156.49,104.33,,,Single-ply,SBD,M,
Boys,67.13,DQ,Tyler Hunt,Palestine,62.96,,,,,Single-ply,SBD,M,
Boys,74.84,1,Harley Sanders,Brownsboro,72.85,276.69,197.31,222.26,696.26,Single-ply,SBD,M,
Boys,74.84,2,Tre'von Smith,Caddo Mills,68.58,244.94,131.54,238.14,614.62,Single-ply,SBD,M,
Boys,74.84,3,Jose Acosta,Quinlan Ford,73.48,242.67,140.61,206.38,589.67,Single-ply,SBD,M,
Boys,74.84,4,YaCorus Porter,Henderson,74.39,215.46,133.81,240.4,589.67,Single-ply,SBD,M,
Boys,74.84,5,Alex Cuellar,Brownsboro,74.43,219.99,156.49,213.19,589.67,Single-ply,SBD,M,
Boys,74.84,6,Kaleb Stephenson,Brownsboro,74.3,226.8,102.06,201.85,530.7,Single-ply,SBD,M,
Boys,74.84,7,Lleyton Reed,Texarkana Liberty-Eylau,74.84,195.04,117.93,188.24,501.22,Single-ply,SBD,M,
Boys,74.84,8,Hunter Mayes,Huntington,73.57,188.24,115.67,192.78,496.68,Single-ply,SBD,M,
Boys,74.84,9,Logan McCurley,Brownsboro,70.94,190.51,115.67,181.44,487.61,Single-ply,SBD,M,
Boys,74.84,10,Max McBean,Fairfield,73.94,192.78,111.13,181.44,485.34,Single-ply,SBD,M,
Boys,74.84,11,Reggie Ellis,Paris,72.85,176.9,97.52,176.9,451.32,Single-ply,SBD,M,
Boys,74.84,DQ,John Cunyus,Henderson,74.66,170.1,,,,Single-ply,SBD,M,
Boys,82.1,1,Marcos Molina,Brownsboro,78.74,281.23,151.95,215.46,648.64,Single-ply,SBD,M,
Boys,82.1,2,Keshawn Wallace,Paris,78.93,222.26,138.35,233.6,594.21,Single-ply,SBD,M,
Boys,82.1,3,Jordan Nguyen,Mabank,80.29,233.6,124.74,222.26,580.6,Single-ply,SBD,M,
Boys,82.1,4,Patrick Brazzell,Madisonville,79.74,215.46,127.01,208.65,551.11,Single-ply,SBD,M,
Boys,82.1,5,Ahmajay Carter,Texarkana Liberty-Eylau,78.29,208.65,124.74,210.92,544.31,Single-ply,SBD,M,
Boys,82.1,6,Carson Woods,Mabank,80.2,210.92,117.93,215.46,544.31,Single-ply,SBD,M,
Boys,82.1,7,Tommy Crockett,Crandall,79.56,206.38,124.74,204.12,535.24,Single-ply,SBD,M,
Boys,82.1,8,Anthony Martinez,Wills Point,77.02,217.72,106.59,195.04,519.36,Single-ply,SBD,M,
Boys,82.1,9,Adrian Baxter,Caddo Mills,76.48,201.85,111.13,195.04,508.02,Single-ply,SBD,M,
Boys,82.1,10,Kaleb Hernandez,Brownsboro,79.65,210.92,113.4,183.7,508.02,Single-ply,SBD,M,
Boys,82.1,11,Sean Rogers,Rusk,81.56,183.7,117.93,199.58,501.22,Single-ply,SBD,M,
Boys,82.1,12,Aaron Carillo,Quinlan Ford,75.84,204.12,106.59,181.44,492.15,Single-ply,SBD,M,
Boys,89.81,1,Bryan Harwell,Waxahachie Life,89.72,272.16,151.95,278.96,703.07,Single-ply,SBD,M,
Boys,89.81,2,Christian Tristan,Brownsboro,83.82,249.48,174.63,210.92,635.03,Single-ply,SBD,M,
Boys,89.81,3,Ryan Magrill,Brownsboro,87.36,267.62,149.69,217.72,635.03,Single-ply,SBD,M,
Boys,89.81,4,Brett Harrington,Caddo Mills,88,233.6,149.69,226.8,610.08,Single-ply,SBD,M,
Boys,89.81,5,Michael Marrs,Longview Spring Hill,82.19,226.8,124.74,226.8,578.33,Single-ply,SBD,M,
Boys,89.81,6,Carron Eaton,Texarkana Liberty-Eylau,87,199.58,145.15,226.8,571.53,Single-ply,SBD,M,
Boys,89.81,7,Sean Newark,Caddo Mills,89.18,210.92,136.08,213.19,560.19,Single-ply,SBD,M,
Boys,89.81,8,Jacob Taylor,Henderson,89.36,204.12,122.47,226.8,553.38,Single-ply,SBD,M,
Boys,89.81,9,Jailen Franklin,Paris,84.91,208.65,92.99,240.4,542.04,Single-ply,SBD,M,
Boys,89.81,10,Joshua Cheatham,Texarkana Liberty-Eylau,88.27,199.58,115.67,219.99,535.24,Single-ply,SBD,M,
Boys,89.81,11,Dekylin Hoyt,Center,86.18,197.31,140.61,192.78,530.7,Single-ply,SBD,M,
Boys,89.81,12,Cameron Spurlock,Palestine,89.72,190.51,111.13,210.92,512.56,Single-ply,SBD,M,
Boys,89.81,DQ,Klayton House,Athens,88.09,226.8,158.76,,,Single-ply,SBD,M,
Boys,99.79,1,Colt Cooper,Quinlan Ford,99.06,299.37,176.9,272.16,748.43,Single-ply,SBD,M,
Boys,99.79,2,David Omosigho,Crandall,94.89,238.14,158.76,235.87,632.76,Single-ply,SBD,M,
Boys,99.79,3,Adrian Lacy,Tyler Chapel Hill,97.16,240.4,131.54,238.14,610.08,Single-ply,SBD,M,
Boys,99.79,4,Kaiden Roden,Quinlan Ford,95.53,238.14,161.03,208.65,607.81,Single-ply,SBD,M,
Boys,99.79,5,Carter Renfro,Paris North Lamar,99.43,235.87,127.01,233.6,596.47,Single-ply,SBD,M,
Boys,99.79,6,Angel Martinez,Mabank,93.8,210.92,145.15,213.19,569.26,Single-ply,SBD,M,
Boys,99.79,7,Reese Payne,Caddo Mills,94.17,210.92,106.59,219.99,537.51,Single-ply,SBD,M,
Boys,99.79,8,Alex Sinclair,Tyler All Saints Episcopal School,93.53,192.78,120.2,215.46,528.44,Single-ply,SBD,M,
Boys,99.79,9,Peyton Page,Texarkana Liberty-Eylau,97.07,215.46,120.2,192.78,528.44,Single-ply,SBD,M,
Boys,99.79,10,Trent Tennon,Paris,90.17,183.7,104.33,222.26,510.29,Single-ply,SBD,M,
Boys,99.79,11,Chandler Sikes,Paris,89.9,185.97,95.25,197.31,478.54,Single-ply,SBD,M,
Boys,99.79,DQ,Max Richardson,Tyler Chapel Hill,98.88,238.14,131.54,,,Single-ply,SBD,M,
Boys,109.77,1,Drew Williams,Fairfield,107.41,278.96,181.44,222.26,682.66,Single-ply,SBD,M,
Boys,109.77,2,Quin Dangerfield,Paris,108.05,256.28,151.95,258.55,666.78,Single-ply,SBD,M,
Boys,109.77,3,Eric Lopez,Center,107.77,263.08,165.56,195.04,623.69,Single-ply,SBD,M,
Boys,109.77,4,Cj Hicks,Palestine,104.87,231.33,161.03,226.8,619.15,Single-ply,SBD,M,
Boys,109.77,5,Nick Acker,Rusk,103.06,254.01,136.08,226.8,616.89,Single-ply,SBD,M,
Boys,109.77,6,Micheil Harrell,Madisonville,103.33,238.14,142.88,231.33,612.35,Single-ply,SBD,M,
Boys,109.77,7,Eujayvion McAlister,Henderson,107.59,256.28,140.61,204.12,601.01,Single-ply,SBD,M,
Boys,109.77,8,Maleik Riley,Texarkana Liberty-Eylau,104.96,229.06,122.47,231.33,582.87,Single-ply,SBD,M,
Boys,109.77,9,Jd Reazin,Tyler Chapel Hill,108.5,222.26,129.27,231.33,582.87,Single-ply,SBD,M,
Boys,109.77,10,Jacob Hall,Caddo Mills,106.32,235.87,136.08,208.65,580.6,Single-ply,SBD,M,
Boys,109.77,11,Jer'Tavius Brown,Madisonville,109.68,226.8,142.88,195.04,564.72,Single-ply,SBD,M,
Boys,109.77,12,Aidan Henson,Huntington,103.87,226.8,127.01,201.85,555.65,Single-ply,SBD,M,
Boys,124.74,1,Brayden Price,Tyler Chapel Hill,120.56,317.51,172.37,231.33,721.21,Single-ply,SBD,M,
Boys,124.74,2,Juan Martinez,Wills Point,119.02,294.84,147.42,265.35,707.6,Single-ply,SBD,M,
Boys,124.74,3,Bladen Collom,Gilmer,120.2,274.42,145.15,231.33,650.91,Single-ply,SBD,M,
Boys,124.74,4,Devin Fields,Henderson,121.11,260.82,156.49,226.8,644.1,Single-ply,SBD,M,
Boys,124.74,5,Satchel Swain,Paris,123.29,272.16,138.35,233.6,644.1,Single-ply,SBD,M,
Boys,124.74,6,Raul Carrasco,Mabank,120.29,265.35,140.61,231.33,637.3,Single-ply,SBD,M,
Boys,124.74,7,Jacob Kimbrough,Longview Spring Hill,112.4,226.8,127.01,217.72,571.53,Single-ply,SBD,M,
Boys,124.74,8,Dylan Case,Mabank,119.84,233.6,117.93,215.46,566.99,Single-ply,SBD,M,
Boys,124.74,9,Brandon James,Quinlan Ford,113.85,226.8,104.33,197.31,528.44,Single-ply,SBD,M,
Boys,124.74,DQ,Trey Hudson,Tyler Chapel Hill,111.67,229.06,,,,Single-ply,SBD,M,
Boys,124.74,DQ,Aj Hill,Athens,121.2,,,,,Single-ply,SBD,M,
Boys,124.74,DQ,Jacob Gonzales,Wills Point,119.84,249.48,,,,Single-ply,SBD,M,
Boys,124.74+,1,Carson Manasse,Longview Spring Hill,138.89,308.44,165.56,238.14,712.14,Single-ply,SBD,M,
Boys,124.74+,2,Chandler Noble,Fairfield,149.32,324.32,154.22,226.8,705.34,Single-ply,SBD,M,
Boys,124.74+,3,Miguel Delgado,Ferris,152.77,317.51,161.03,215.46,694,Single-ply,SBD,M,
Boys,124.74+,4,Bosque Monico,Fairfield,151.68,317.51,154.22,183.7,655.44,Single-ply,SBD,M,
Boys,124.74+,5,Andrew Culpepper,Huntington,145.69,254.01,149.69,247.21,650.91,Single-ply,SBD,M,
Boys,124.74+,6,Jamyrian Black,Palestine,130.54,258.55,167.83,204.12,630.49,Single-ply,SBD,M,
Boys,124.74+,7,Karston Williams,Carthage,161.03,249.48,145.15,235.87,630.49,Single-ply,SBD,M,
Boys,124.74+,8,Garrett Blalock,Rusk,127.64,238.14,142.88,244.94,625.96,Single-ply,SBD,M,
Boys,124.74+,9,Jason Murphy,Texarkana Liberty-Eylau,148.87,258.55,131.54,231.33,621.42,Single-ply,SBD,M,
Boys,124.74+,10,Devin Moten,Paris,135.26,238.14,145.15,235.87,619.15,Single-ply,SBD,M,
Boys,124.74+,11,Anthony Penas,Quinlan Ford,135.44,249.48,136.08,201.85,587.4,Single-ply,SBD,M,
Boys,124.74+,DQ,Anthony Barnes,Waxahachie Life,147.78,278.96,145.15,,,Single-ply,SBD,M,
