Division,WeightClassKg,Place,Name,Team,BodyweightKg,Best3SquatKg,Best3BenchKg,Best3DeadliftKg,TotalKg,Equipment,Event,Sex,BirthDate
Girls,44.23,1,Guadalupe Brianna,Prosper,43.91,95.25,49.9,90.72,235.87,Single-ply,SBD,F,
Girls,44.23,2,Tucker Nina,Wylie,43.27,86.18,54.43,90.72,231.33,Single-ply,SBD,F,
Girls,44.23,3,Hance Austyn,Azle,42.09,92.99,36.29,95.25,224.53,Single-ply,SBD,F,
Girls,44.23,4,Soltero Erika,Wylie,42.27,77.11,38.56,88.45,204.12,Single-ply,SBD,F,
Girls,44.23,5,Ayala Elizabeth,Wylie East,43.36,70.31,36.29,97.52,204.12,Single-ply,SBD,F,
Girls,44.23,6,Serrano Emily,Princeton,44.09,68.04,43.09,88.45,199.58,Single-ply,SBD,F,
Girls,44.23,7,Perez Yeraldine,Weatherford,44.09,72.57,38.56,77.11,188.24,Single-ply,SBD,F,
Girls,44.23,8,Baker Coolen,Azle,43.77,63.5,31.75,81.65,176.9,Single-ply,SBD,F,
Girls,44.23,DQ,Sparks Ginasia,Cedar Hill,42.18,,,,,Single-ply,SBD,F,
Girls,44.23,DQ,Pettis Talia,Denison,44.18,68.04,,,,Single-ply,SBD,F,
Girls,44.23,DQ,Bush Evelyn,Wylie,44,81.65,,,,Single-ply,SBD,F,
Girls,44.23,DQ,Gilmore Blayke,Frisco Independence,43.64,,,,,Single-ply,SBD,F,
Girls,47.85,1,Sparks Gianah,Cedar Hill,47.81,140.61,58.97,138.35,337.93,Single-ply,SBD,F,
Girls,47.85,2,Ocasio Melissa,Little Elm,46.63,113.4,56.7,122.47,292.57,Single-ply,SBD,F,
Girls,47.85,3,Muniz Jennifer,Sherman,46.45,113.4,52.16,113.4,278.96,Single-ply,SBD,F,
Girls,47.85,4,Weaver Emerson,Frisco Heritage,47.81,108.86,54.43,104.33,267.62,Single-ply,SBD,F,
Girls,47.85,5,Quiroga Avery,Wylie,46.54,102.06,47.63,111.13,260.82,Single-ply,SBD,F,
Girls,47.85,6,Laaziz Aya,Wylie,47.17,95.25,49.9,113.4,258.55,Single-ply,SBD,F,
Girls,47.85,7,Colucci Ashley,Denison,46.54,95.25,47.63,111.13,254.01,Single-ply,SBD,F,
Girls,47.85,8,Benton Mackenzie,Azle,47.17,95.25,49.9,90.72,235.87,Single-ply,SBD,F,
Girls,47.85,9,Simmons Miya,Royse City,47.81,95.25,29.48,108.86,233.6,Single-ply,SBD,F,
Girls,47.85,10,Novick Celeste,Frisco Wakeland,46.54,88.45,45.36,92.99,226.8,Single-ply,SBD,F,
Girls,47.85,DQ,Padilla Sofia,Saginaw,47.63,,,,,Single-ply,SBD,F,
Girls,47.85,DQ,Flores Jasmine,Carrollton Creekview,46.54,,,,,Single-ply,SBD,F,
Girls,51.94,1,Walker Natalie,Princeton,51.44,158.76,92.99,149.69,401.43,Single-ply,SBD,F,
Girls,51.94,2,Huynh Jailynn,Wylie,51.62,120.2,61.23,129.27,310.71,Single-ply,SBD,F,
Girls,51.94,3,Nela Aza,Everman,51.35,113.4,49.9,142.88,306.17,Single-ply,SBD,F,
Girls,51.94,4,Doughtery Sydney,Keller Central,51.71,122.47,61.23,122.47,306.17,Single-ply,SBD,F,
Girls,51.94,5,Calvache Samantha,Wylie,51.94,117.93,61.23,127.01,306.17,Single-ply,SBD,F,
Girls,51.94,6,Mata Carina,Sherman,51.62,131.54,54.43,111.13,297.1,Single-ply,SBD,F,
Girls,51.94,7,Duvall Sydney,Prosper,49.8,113.4,70.31,106.59,290.3,Single-ply,SBD,F,
Girls,51.94,8,Rezabek Madelynn,Azle,50.26,97.52,63.5,111.13,272.16,Single-ply,SBD,F,
Girls,51.94,9,Lamberson Emily,Little Elm,51.94,108.86,45.36,102.06,256.28,Single-ply,SBD,F,
Girls,51.94,10,Kylie Pizzurro,Prosper,50.89,102.06,47.63,97.52,247.21,Single-ply,SBD,F,
Girls,51.94,11,Taya Pope,Azle,50.62,90.72,45.36,108.86,244.94,Single-ply,SBD,F,
Girls,51.94,DQ,Nwaege Grace,Wylie,51.94,,,,,Single-ply,SBD,F,
Girls,56.02,1,Boston Kacey,Prosper,55.43,142.88,77.11,129.27,349.27,Single-ply,SBD,F,
Girls,56.02,2,Sugiharto Shelley,Wylie,54.61,140.61,77.11,129.27,347,Single-ply,SBD,F,
Girls,56.02,3,Ray Hannah,Wylie,55.7,124.74,65.77,138.35,328.85,Single-ply,SBD,F,
Girls,56.02,4,Rivera Saniah,Wylie,54.7,129.27,56.7,136.08,322.05,Single-ply,SBD,F,
Girls,56.02,5,Owens Monai,Azle,55.79,129.27,56.7,129.27,315.25,Single-ply,SBD,F,
Girls,56.02,6,Wethington Maddie,Wylie,55.7,120.2,70.31,122.47,312.98,Single-ply,SBD,F,
Girls,56.02,7,Dubose MyklMechel,Carrollton Creekview,55.7,129.27,52.16,127.01,308.44,Single-ply,SBD,F,
Girls,56.02,8,Hoffard Kristyn,Wylie East,55.52,131.54,61.23,111.13,303.91,Single-ply,SBD,F,
Girls,56.02,9,Williams Naomi,Wylie,55.7,124.74,61.23,117.93,303.91,Single-ply,SBD,F,
Girls,56.02,10,Battles Cedricia,Cedar Hill,55.97,115.67,56.7,124.74,297.1,Single-ply,SBD,F,
Girls,56.02,11,Willis Hannah,North Crowley,54.43,108.86,40.82,122.47,272.16,Single-ply,SBD,F,
Girls,56.02,DQ,Arellano Skyler,Azle,55.57,,,,,Single-ply,SBD,F,
Girls,60.1,1,Anderson Jordyn,Keller Central,59.87,149.69,83.91,151.95,385.55,Single-ply,SBD,F,
Girls,60.1,2,Hanson Tyler,Wylie,59.69,145.15,90.72,138.35,374.21,Single-ply,SBD,F,
Girls,60.1,3,Ghafoor Kaylan,Wylie,60.06,156.49,77.11,140.61,374.21,Single-ply,SBD,F,
Girls,60.1,4,Barnes Taija,Cedar Hill,59.6,151.95,61.23,140.61,353.8,Single-ply,SBD,F,
Girls,60.1,5,Moore Jenny,Frisco Heritage,59.51,142.88,65.77,127.01,335.66,Single-ply,SBD,F,
Girls,60.1,6,Ross Maliyah,Cedar Hill,59.51,142.88,56.7,129.27,328.85,Single-ply,SBD,F,
Girls,60.1,7,Mason Stefani,Frisco Lone Star,57.24,129.27,68.04,129.27,326.59,Single-ply,SBD,F,
Girls,60.1,8,Michelli Brie,Azle,58.88,131.54,58.97,127.01,317.51,Single-ply,SBD,F,
Girls,60.1,9,Sabrina Garcia,Azle,58.97,117.93,68.04,131.54,317.51,Single-ply,SBD,F,
Girls,60.1,DQ,Robinson Aishida,Cedar Hill,58.6,,,,,Single-ply,SBD,F,
Girls,60.1,DQ,Eden Yeneneh,Wylie,59.96,,,,,Single-ply,SBD,F,
Girls,60.1,DQ,Brown Mackenzie,Frisco Heritage,59.6,147.42,,,,Single-ply,SBD,F,
Girls,67.36,1,Davison Payton,Frisco Heritage,63.78,185.97,86.18,158.76,430.91,Single-ply,SBD,F,
Girls,67.36,2,Boatright Ashley,Sherman,65.86,165.56,83.91,138.35,387.82,Single-ply,SBD,F,
Girls,67.36,3,Hathaway Sydney,Wylie,63.68,142.88,88.45,131.54,362.87,Single-ply,SBD,F,
Girls,67.36,4,Tamjidi Madison,Azle,66.32,140.61,77.11,145.15,362.87,Single-ply,SBD,F,
Girls,67.36,5,Fajerson Lanie,Sherman,66.68,142.88,74.84,133.81,351.53,Single-ply,SBD,F,
Girls,67.36,6,Lester Debra,Azle,66.68,138.35,79.38,131.54,349.27,Single-ply,SBD,F,
Girls,67.36,7,Judalet Avery,Prosper,62.78,140.61,77.11,129.27,347,Single-ply,SBD,F,
Girls,67.36,8,Nguyen Shayla,Wylie,66.68,120.2,86.18,136.08,342.46,Single-ply,SBD,F,
Girls,67.36,9,Taylor Bass,Prosper,65.86,120.2,74.84,142.88,337.93,Single-ply,SBD,F,
Girls,67.36,10,Thompson Amanda,Frisco Centennial,66.5,129.27,70.31,129.27,328.85,Single-ply,SBD,F,
Girls,67.36,11,Roberts Abby,Keller Central,63.23,129.27,56.7,138.35,324.32,Single-ply,SBD,F,
Girls,67.36,12,Kornkanok Sophonsakulrat,Prosper,62.41,131.54,63.5,127.01,322.05,Single-ply,SBD,F,
Girls,67.36,13,Park Su Bin,Frisco Heritage,66.32,136.08,58.97,127.01,322.05,Single-ply,SBD,F,
Girls,67.36,DQ,Sowunmi Brianna,Wylie,66.59,124.74,,,,Single-ply,SBD,F,
Girls,75.07,1,White Nyliah,Wylie East,75.02,158.76,65.77,158.76,383.29,Single-ply,SBD,F,
Girls,75.07,2,Jones Kianna,Denison,72.21,151.95,72.57,154.22,378.75,Single-ply,SBD,F,
Girls,75.07,3,Moseri Ella,Wylie East,69.49,136.08,74.84,165.56,376.48,Single-ply,SBD,F,
Girls,75.07,4,Dolan Linsey,Denison,71.76,140.61,79.38,154.22,374.21,Single-ply,SBD,F,
Girls,75.07,5,Gardner Kamryn,Princeton,72.94,161.03,74.84,138.35,374.21,Single-ply,SBD,F,
Girls,75.07,6,Green Zaria,Cedar Hill,73.75,154.22,56.7,151.95,362.87,Single-ply,SBD,F,
Girls,75.07,7,Lincoln Cadence,Justin Northwest,74.66,142.88,63.5,149.69,356.07,Single-ply,SBD,F,
Girls,75.07,8,Hines Madison,Weatherford,71.21,154.22,74.84,113.4,342.46,Single-ply,SBD,F,
Girls,75.07,9,Salomon Reyna,Wichita Falls,73.57,142.88,65.77,131.54,340.19,Single-ply,SBD,F,
Girls,75.07,10,Gomez-Gonzalez Maria,Mesquite Horn,72.57,104.33,63.5,124.74,292.57,Single-ply,SBD,F,
Girls,75.07,DQ,Farlow Lillia,Bishop Lynch,73.03,149.69,,,,Single-ply,SBD,F,
Girls,75.07,DQ,Norton Aubrie,Azle,69.85,138.35,74.84,,,Single-ply,SBD,F,
Girls,75.07,DQ,Carr Mya,Wylie,68.76,127.01,,,,Single-ply,SBD,F,
Girls,82.33,1,Alcantar Reyna,Azle,79.2,170.1,92.99,156.49,419.57,Single-ply,SBD,F,
Girls,82.33,2,Haas Sydney,Wylie East,81.65,163.29,74.84,142.88,381.02,Single-ply,SBD,F,
Girls,82.33,3,Overton Nicole,Denton Guyer,75.21,136.08,86.18,147.42,369.68,Single-ply,SBD,F,
Girls,82.33,4,Holm Aspen,Royse City,77.11,138.35,88.45,142.88,369.68,Single-ply,SBD,F,
Girls,82.33,5,Bazan Sydney,Princeton,80.1,158.76,72.57,131.54,362.87,Single-ply,SBD,F,
Girls,82.33,6,Holz Grace,Frisco Memorial,78.11,147.42,77.11,131.54,356.07,Single-ply,SBD,F,
Girls,82.33,7,Mitchell Carmen,Wylie East,80.92,145.15,72.57,136.08,353.8,Single-ply,SBD,F,
Girls,82.33,8,Thompson Serenity,Little Elm,81.1,142.88,79.38,131.54,353.8,Single-ply,SBD,F,
Girls,82.33,9,Musa Glory,Wylie,82.01,147.42,68.04,131.54,347,Single-ply,SBD,F,
Girls,82.33,10,Ava Taylor,Frisco Memorial,79.02,149.69,68.04,127.01,344.73,Single-ply,SBD,F,
Girls,82.33,11,Kendall Nalley,Wylie,80.47,129.27,83.91,117.93,331.12,Single-ply,SBD,F,
Girls,82.33,12,Woodard Annslie,Argyle Liberty Christian School,76.66,131.54,65.77,131.54,328.85,Single-ply,SBD,F,
Girls,82.33,DQ,Foard Fairrah,Wichita Falls Rider,76.75,147.42,72.57,,,Single-ply,SBD,F,
Girls,90.04,1,Garcia Ariana,Mesquite Horn,86.64,185.97,77.11,176.9,439.98,Single-ply,SBD,F,
Girls,90.04,2,George Erynn,Cedar Hill,85.91,149.69,77.11,151.95,378.75,Single-ply,SBD,F,
Girls,90.04,3,Cansino Fatima,Weatherford,86.64,167.83,70.31,138.35,376.48,Single-ply,SBD,F,
Girls,90.04,4,Adeoye Briana,Cedar Hill,86.45,158.76,65.77,140.61,365.14,Single-ply,SBD,F,
Girls,90.04,5,Hernandez Cameron,Little Elm,87.82,147.42,83.91,131.54,362.87,Single-ply,SBD,F,
Girls,90.04,6,Sanchez Jacqueline,Carrollton Creekview,85.64,142.88,68.04,149.69,360.61,Single-ply,SBD,F,
Girls,90.04,7,Compean Violeta,Royse City,86.09,138.35,83.91,138.35,360.61,Single-ply,SBD,F,
Girls,90.04,8,Cruz Stephanie,Wylie East,83.37,138.35,74.84,133.81,347,Single-ply,SBD,F,
Girls,90.04,9,Myers Ameria,Cedar Hill,89.36,142.88,61.23,142.88,347,Single-ply,SBD,F,
Girls,90.04,10,Mooney Paige,Northwest Eaton,84.19,136.08,65.77,142.88,344.73,Single-ply,SBD,F,
Girls,90.04,11,Holmes Lila,Carrollton Creekview,84.73,124.74,74.84,124.74,324.32,Single-ply,SBD,F,
Girls,90.04,DQ,Chianese Peyton,Frisco Memorial,86.36,165.56,90.72,,,Single-ply,SBD,F,
Girls,100.02,1,Compean Maricela,Royse City,100.02,199.58,113.4,190.51,503.49,Single-ply,SBD,F,
Girls,100.02,2,Wilson Hannah,Wichita Falls Rider,99.34,204.12,95.25,147.42,446.79,Single-ply,SBD,F,
Girls,100.02,3,Ledezma Carla,Denison,97.98,181.44,92.99,158.76,433.18,Single-ply,SBD,F,
Girls,100.02,4,Nguyen Katie,Wylie,95.44,183.7,95.25,131.54,410.5,Single-ply,SBD,F,
Girls,100.02,5,Thomas Alyvia,Weatherford,95.98,165.56,83.91,142.88,392.36,Single-ply,SBD,F,
Girls,100.02,6,Webb Briana,Wylie,100.02,165.56,79.38,131.54,376.48,Single-ply,SBD,F,
Girls,100.02,7,White Rheagan,Royse City,95.07,136.08,90.72,138.35,365.14,Single-ply,SBD,F,
Girls,100.02,8,Meredith Allison,Carrollton Turner,95.62,133.81,79.38,136.08,349.27,Single-ply,SBD,F,
Girls,100.02,9,Okafor Victoria,Wylie,96.16,124.74,65.77,133.81,324.32,Single-ply,SBD,F,
Girls,100.02,DQ,Gardner Mikayla,Cedar Hill,98.07,136.08,61.23,,,Single-ply,SBD,F,
Girls,100.02,DQ,Clegg Serenity,Cedar Hill,99.7,172.37,72.57,,,Single-ply,SBD,F,
Girls,100.02,DQ,Adams Nytisa,Cedar Hill,99.7,,,,,Single-ply,SBD,F,
Girls,117.71,1,Howard Kristen,Wylie,115.12,222.26,142.88,188.24,553.38,Single-ply,SBD,F,
Girls,117.71,2,Nathan-Woods Jamari,Cedar Hill,109.32,197.31,90.72,163.29,451.32,Single-ply,SBD,F,
Girls,117.71,3,Davis Cameron,Frisco Memorial,103.51,163.29,97.52,158.76,419.57,Single-ply,SBD,F,
Girls,117.71,4,Kolarek Hallee,Little Elm,111.86,176.9,88.45,149.69,415.04,Single-ply,SBD,F,
Girls,117.71,5,Fuentes Deysy,Princeton,111.58,172.37,77.11,163.29,412.77,Single-ply,SBD,F,
Girls,117.71,6,Frank-Nwafor Frances,Wylie East,103.15,154.22,74.84,181.44,410.5,Single-ply,SBD,F,
Girls,117.71,7,James Kierra,Mansfield Summit,109.59,158.76,90.72,158.76,408.23,Single-ply,SBD,F,
Girls,117.71,8,Smith Ayjah,Prosper,115.85,149.69,92.99,149.69,392.36,Single-ply,SBD,F,
Girls,117.71,9,McCullough Kaelyn,Justin Northwest,113.49,154.22,88.45,131.54,374.21,Single-ply,SBD,F,
Girls,117.71,10,Banks-Bray India,Royse City,114.67,142.88,72.57,149.69,365.14,Single-ply,SBD,F,
Girls,117.71,11,Valdez Destiny,Wylie East,108.77,138.35,74.84,136.08,349.27,Single-ply,SBD,F,
Girls,117.71,12,Zavala Monserrat,Everman,101.79,147.42,61.23,124.74,333.39,Single-ply,SBD,F,
Girls,117.71,DQ,Watts Julianne,Cedar Hill,100.88,181.44,79.38,,,Single-ply,SBD,F,
Girls,117.71+,1,Beasley KyIria,Mansfield Legacy,157.76,229.06,81.65,188.24,498.95,Single-ply,SBD,F,
Girls,117.71+,2,Harris Cayla,Cedar Hill,120.66,201.85,88.45,161.03,451.32,Single-ply,SBD,F,
Girls,117.71+,3,Young Zoe,Frisco Heritage,125.46,185.97,88.45,156.49,430.91,Single-ply,SBD,F,
Girls,117.71+,4,Hall Trinity,Azle,136.71,192.78,95.25,142.88,430.91,Single-ply,SBD,F,
Girls,117.71+,5,Mills Madyson,Wylie East,118.84,136.08,77.11,131.54,344.73,Single-ply,SBD,F,
Girls,117.71+,6,Gabriel Semaj,Princeton,135.81,145.15,65.77,133.81,344.73,Single-ply,SBD,F,
Girls,117.71+,7,Manning Hannah,Royse City,125.01,113.4,68.04,131.54,312.98,Single-ply,SBD,F,
Girls,117.71+,8,Hubbard Peyton,Royse City,128,140.61,63.5,108.86,312.98,Single-ply,SBD,F,
Girls,117.71+,9,Reed Kaia,North Crowley,161.93,158.76,47.63,102.06,308.44,Single-ply,SBD,F,
Girls,117.71+,10,Sharp Maya,Mansfield Lake Ridge,128.46,86.18,47.63,108.86,242.67,Single-ply,SBD,F,
Girls,117.71+,11,Richardson Clinttany,Everman,126.1,74.84,20.41,106.59,201.85,Single-ply,SBD,F,
Girls,117.71+,DQ,Gonzales Jennifer,Wylie East,140.25,81.65,,,,Single-ply,SBD,F,
