Place,Sex,Division,Name,BirthYear,Country,WeightClassKg,Best3SquatKg,Best3BenchKg,Best3DeadliftKg,TotalKg,Event,Equipment
1,F,Open,Anna-Liisa Prinkkala,1955,Finland,44,125,60,147.5,332.5,SBD,Single-ply
2,F,Open,Hisako Yoshida,1951,Japan,44,132.5,60,137.5,330,SBD,Single-ply
3,F,Open,Ann Leverett,1954,USA,44,110,72.5,140,322.5,SBD,Single-ply
4,F,Open,Helen Wolsey,1961,UK,44,112.5,57.5,130,300,SBD,Single-ply
5,F,Open,Kathy Tascona,,Canada,44,100,55,132.5,287.5,SBD,Single-ply
6,F,Open,Jeanette Wust,1951,Australia,44,90,42.5,110,242.5,SBD,Single-ply
1,F,Open,Vuokko Viitasaari,1954,Finland,48,135,67.5,150,352.5,SBD,Single-ply
2,F,Open,Irma Ruler,1956,Netherlands,48,132.5,70,147.5,350,SBD,Single-ply
3,F,Open,Shirley Gutierrez,,USA,48,135,70,142.5,347.5,SBD,Single-ply
4,F,Open,Marie-France Vassart,1955,Belgium,48,127.5,60,160,347.5,SBD,Single-ply
5,F,Open,Lena Wessman,1960,Sweden,48,135,70,140,345,SBD,Single-ply
6,F,Open,Ursula Kolodzij,,West Germany,48,125,60,140,325,SBD,Single-ply
7,F,Open,Joanne Pappas,,Australia,48,110,60,142.5,312.5,SBD,Single-ply
8,F,Open,Pam Cutjar,,Australia,48,112.5,50,130,292.5,SBD,Single-ply
1,F,Open,Mary Ryan-Jeffrey,1956,USA,52,160,92.5,167.5,420,SBD,Single-ply
2,F,Open,Sisi Dolman,1946,Netherlands,52,165,67.5,177.5,410,SBD,Single-ply
3,F,Open,Sue Jordan,,Australia,52,147.5,75,160,382.5,SBD,Single-ply
4,F,Open,Dagmar Wang,1948,Austria,52,140,72.5,160,372.5,SBD,Single-ply
5,F,Open,Lesley Manester,,UK,52,120,72.5,137.5,330,SBD,Single-ply
6,F,Open,Deborah Windjack,,Canada,52,115,60,142.5,317.5,SBD,Single-ply
1,F,Open,Joy Burt,1956,Canada,56,162.5,82.5,182.5,427.5,SBD,Single-ply
2,F,Open,Marilyn Wallen,,Australia,56,150,97.5,160,407.5,SBD,Single-ply
3,F,Open,Jenny Hunter,1958,UK,56,142.5,85,175,402.5,SBD,Single-ply
4,F,Open,Sheila Ward,,USA,56,152.5,87.5,162.5,402.5,SBD,Single-ply
5,F,Open,Felicia Johnson-Almy,,USA,56,152.5,85,157.5,395,SBD,Single-ply
6,F,Open,Jackie Blasbery,1963,UK,56,145,67.5,162.5,375,SBD,Single-ply
7,F,Open,Rhonda Petersen,,Canada,56,137.5,80,150,367.5,SBD,Single-ply
8,F,Open,Nina Sarre,,Norway,56,125,62.5,162.5,350,SBD,Single-ply
1,F,Open,Vicky Steenrod,1949,USA,60,185,95,207.5,487.5,SBD,Single-ply
2,F,Open,Alice Kargl,,West Germany,60,170,92.5,210,472.5,SBD,Single-ply
3,F,Open,Kerry Boyce,,Australia,60,165,90,172.5,427.5,SBD,Single-ply
4,F,Open,Rita Bass,1946,UK,60,155,82.5,170,407.5,SBD,Single-ply
5,F,Open,Minna Rehn,,Finland,60,162.5,72.5,170,405,SBD,Single-ply
6,F,Open,Angie Rountree,,New Zealand,60,152.5,72.5,172.5,397.5,SBD,Single-ply
7,F,Open,Kazuko Ishikawa,,Japan,60,155,85,150,390,SBD,Single-ply
8,F,Open,Julie Ann Holmes,,Australia,60,150,80,160,390,SBD,Single-ply
9,F,Open,Beatrice Nilsson,,Sweden,60,145,75,167.5,387.5,SBD,Single-ply
10,F,Open,Inger Blikra,1961,Norway,60,140,75,160,375,SBD,Single-ply
1,F,Open,Debbie McElroy-Patton,,USA,67.5,185,107.5,197.5,490,SBD,Single-ply
2,F,Open,Liz Odendaal,1954,Netherlands,67.5,180,108,195,482.5,SBD,Single-ply
3,F,Open,Heidi Wittesch,1957,Australia,67.5,180,105,195,480,SBD,Single-ply
4,F,Open,Umeyo Kunihiro,1953,Japan,67.5,157.5,92.5,185,435,SBD,Single-ply
5,F,Open,Amanda Smith,1968,UK,67.5,160,85,167.5,412.5,SBD,Single-ply
6,F,Open,Joanna Nichols,,UK,67.5,147.5,60,167.5,375,SBD,Single-ply
7,F,Open,Shelly Stewart #1,,Canada,67.5,152.5,67.5,155,375,SBD,Single-ply
1,F,Open,Terry Byland-Rohal,,USA,75,182.5,92.5,202.5,477.5,SBD,Single-ply
2,F,Open,Ingrid Nelis,1964,Belgium,75,180,95,185,460,SBD,Single-ply
3,F,Open,Marleen Nelis,1964,Belgium,75,155,97.5,182.5,435,SBD,Single-ply
4,F,Open,Stefanoula Giannoulidis,,West Germany,75,165,95,175,435,SBD,Single-ply
5,F,Open,Helen Williams #1,,UK,75,165,77.5,172.5,415,SBD,Single-ply
6,F,Open,Theresa Brick,,Canada,75,157.5,80,165,402.5,SBD,Single-ply
7,F,Open,Eilen Stanton,,Australia,75,152.5,65,172.5,390,SBD,Single-ply
8,F,Open,Kirsten Vinje,,Norway,75,157.5,75,145,377.5,SBD,Single-ply
1,F,Open,Maggie Sandoval,,USA,82.5,205,112.5,205,522.5,SBD,Single-ply
2,F,Open,Dianna Panting,,Canada,82.5,182.5,105,200,487.5,SBD,Single-ply
3,F,Open,Nancy Turner,,Canada,82.5,150,97.5,175,422.5,SBD,Single-ply
4,F,Open,Tracy Spizzo,,Australia,82.5,150,90,172.5,412.5,SBD,Single-ply
DQ,F,Open,Eva Bonnaire,,West Germany,82.5,167.5,70,,,SBD,Single-ply
1,F,Open,Jacqueline Pepper,1960,UK,90,177.5,92.5,192.5,462.5,SBD,Single-ply
2,F,Open,Caroline Bonner,,UK,90,152.5,72.5,170,395,SBD,Single-ply
1,F,Open,Lorraine Costanzo,,USA,90+,257.5,127.5,237.5,622.5,SBD,Single-ply
2,F,Open,Annette Maldener,1948,West Germany,90+,202.5,92.5,195,490,SBD,Single-ply
3,F,Open,Taina Hakala-Rajala,1960,Finland,90+,175,95,190,460,SBD,Single-ply
4,F,Open,Fukuko Itoh,,Japan,90+,155,90,170,415,SBD,Single-ply
