Name,Age,Sex,Equipment,Division,BodyweightKg,WeightClassKg,Squat1Kg,Squat2Kg,Squat3Kg,Squat4Kg,Best3SquatKg,Bench1Kg,Bench2Kg,Bench3Kg,Bench4Kg,Best3BenchKg,Deadlift1Kg,Deadlift2Kg,Deadlift3Kg,Best3DeadliftKg,TotalKg,Place,Event
Jeremiah Johnson #2,41,M,Raw,MM1R,109.18,110,,,,,,220,230,232.5,,232.5,,,,,232.5,1,B
Mark Hauschildt,40,M,Raw,MOR-AD,134.99,140,,,,,,240,-260,-260,,240,,,,,240,1,B
Steve Rieger,50,M,Raw,MOR,72.39,75,,,,,,135,-145,-145,,135,,,,,135,1,B
Dwight Anderson,37,M,Raw,MOR,123.2,125,,,,,,-230,-230,,,,,,,,,DQ,B
Tom Fox #1,64,M,Raw,MM5R,74.39,75,,,,,,-87.5,90,-95,,90,,,,,90,1,B
Curt Winters,31,M,Wraps,MOR-AD,65.59,67.5,125,135,-145,,135,90,-95,95,,95,170,182.5,190,190,420,1,SBD
Patrick Thompson,25,M,Wraps,MOR-AD,81.01,82.5,215,-232.5,-232.5,,215,140,-142.5,-142.5,,140,240,-252.5,252.5,252.5,607.5,1,SBD
Brady Kness,24,M,Wraps,MOR-AD,98.38,100,-227.5,-227.5,227.5,,227.5,140,-147.5,-147.5,,140,220,-230,-230,220,587.5,1,SBD
Eric Reeder,27,M,Wraps,MOR-AD,113.81,125,237.5,250,260,,260,145,157.5,167.5,,167.5,240,255,272.5,272.5,700,1,SBD
Bret Carter,35,M,Wraps,MOR-AD,120.61,125,187.5,210,227.5,,227.5,177.5,182.5,,,182.5,227.5,242.5,250,250,660,2,SBD
Matthew Hanke,34,M,Wraps,MOR-AD,130.18,140,272.5,295,-307.5,,295,185,-202.5,-202.5,,185,272.5,295,-302.5,295,775,1,SBD
Ryan Raynier,24,M,Wraps,MOR,81.01,82.5,250,265,285,,285,-157.5,170,182.5,,182.5,265,292.5,305,305,772.5,1,SBD
David Thompson,24,M,Wraps,MOR,81.78,82.5,260,272.5,-282.5,,272.5,165,175,-180,,175,250,265,272.5,272.5,720,2,SBD
Patrick Thompson,25,M,Wraps,MOR,81.01,82.5,215,-232.5,-232.5,,215,140,-142.5,-142.5,,140,240,-252.5,252.5,252.5,607.5,3,SBD
Jeramy Ingle,29,M,Wraps,MOR,89.99,90,287.5,300,-310,,300,152.5,165,170,,170,287.5,302.5,310,310,780,1,SBD
Matt Berry,44,M,Wraps,MOR,88.59,90,257.5,272.5,-282.5,,272.5,-180,180,-195,,180,247.5,260,272.5,272.5,725,2,SBD
Matthew Bailey,33,M,Wraps,MOR,88.59,90,252.5,275,280,,280,142.5,147.5,150,,150,275,-287.5,-287.5,275,705,3,SBD
Nick Smidt,25,M,Wraps,MOR,88.41,90,177.5,182.5,190,,190,137.5,145,150,,150,210,220,225,225,565,4,SBD
Ben Grosskreuz,18,M,Wraps,MOR,88.41,90,185,-202.5,-202.5,,185,102.5,110,-117.5,,110,215,-227.5,-230,215,510,5,SBD
Nicholas Pozzani,29,M,Wraps,MOR,89.99,90,205,215,-225,,215,-175,-182.5,-182.5,,,,,,,,DQ,SBD
Aaron Nance,38,M,Wraps,MOR,98.38,100,267.5,285,-300,,285,182.5,-187.5,187.5,,187.5,292.5,310,325,325,797.5,1,SBD
Antonio Lama,21,M,Wraps,MOR,99.2,100,227.5,245,262.5,,262.5,152.5,162.5,172.5,,172.5,227.5,245,265,265,700,2,SBD
Kellen Madison,34,M,Wraps,MOR,96.39,100,235,245,257.5,,257.5,147.5,155,157.5,,157.5,260,277.5,280,280,695,3,SBD
Gildeon Kluge,24,M,Wraps,MOR,97.2,100,237.5,252.5,-265,,252.5,142.5,152.5,-160,,152.5,275,285,-295,285,690,4,SBD
Cody Jasper,27,M,Wraps,MOR,98.38,100,225,240,-257.5,,240,-165,167.5,-182.5,,167.5,257.5,270,275,275,682.5,5,SBD
Dalton Kane,25,M,Wraps,MOR,98.38,100,220,-232.5,232.5,,232.5,182.5,190,195,,195,235,242.5,-252.5,242.5,670,6,SBD
Chris Brackett,28,M,Wraps,MOR,98.02,100,185,197.5,205,,205,130,137.5,140,,140,225,237.5,245,245,590,7,SBD
Ryan Miller #1,30,M,Wraps,MOR,100,100,230,-255,-255,,230,140,145,150,,150,205,-220,-220,205,585,8,SBD
Ben Boettcher,28,M,Wraps,MOR,107,110,320,345,-365,,345,192.5,197.5,-205,,197.5,310,-322.5,-322.5,310,852.5,1,SBD
Dillon Haase,30,M,Wraps,MOR,107.59,110,250,265,275,,275,167.5,172.5,182.5,,182.5,260,272.5,285,285,742.5,2,SBD
Matt Meek,37,M,Wraps,MOR,104.6,110,285,-305,-305,,285,160,-172.5,-172.5,,160,267.5,-277.5,-277.5,267.5,712.5,3,SBD
Jesse Kaser,31,M,Wraps,MOR,107.82,110,210,217.5,-222.5,,217.5,102.5,147.5,-155,,147.5,242.5,-250,,242.5,607.5,4,SBD
Laken Fluegel,23,M,Wraps,MOR,124.19,125,320,345,352.5,,352.5,190,212.5,227.5,,227.5,285,310,-320,310,890,1,SBD
Drew Heckman,35,M,Wraps,MOR,121.61,125,302.5,330,-342.5,,330,185,200,-207.5,,200,307.5,330,347.5,347.5,877.5,2,SBD
Devin Daniels,30,M,Wraps,MOR,123.6,125,260,-277.5,-277.5,,260,185,-192.5,-200,,185,260,282.5,-290,282.5,727.5,3,SBD
Jesse Mashak,23,M,Wraps,MOR,132.4,140,330,-347.5,347.5,,347.5,195,215,227.5,,227.5,307.5,320,-332.5,320,895,1,SBD
Jon Harless,40,M,Wraps,MOR,132.99,140,275,295,320,,320,197.5,210,-220,,210,250,272.5,-295,272.5,802.5,2,SBD
Justin Graalfs,38,M,Wraps,MOR,129,140,227.5,262.5,285,,285,185,197.5,,,197.5,227.5,267.5,282.5,282.5,765,3,SBD
Bill Lee,33,M,Wraps,MOR,148.42,140+,335,350,360,,360,190,200,-205,,200,335,-350,-355,335,895,1,SBD
Devante Krueger,20,M,Wraps,MOR,145.19,140+,340,365,372.5,,372.5,177.5,192.5,200,,200,265,290,302.5,302.5,875,2,SBD
Dan O'Brien,18,M,Wraps,MOR,178.22,140+,260,-280,-282.5,,260,132.5,142.5,152.5,,152.5,222.5,240,250,250,662.5,3,SBD
Christian Fite,34,M,Multi-ply,MO,89.81,90,280,-320,-320,,280,152.5,-165,-165,,152.5,265,-285,-285,265,697.5,1,SBD
Eddie Lone Eagle,34,M,Multi-ply,MO,88.41,90,-355,-367.5,-367.5,-367.5,,,,,,,,,,,,DQ,SBD
Zach Henson,25,M,Multi-ply,MO,100,100,320,337.5,355,,355,232.5,-245,245,,245,327.5,350,-370,350,950,1,SBD
Brittany Wells,32,F,Raw,FOR,62.6,67.5,,,,,,,,,,,110,122.5,-137.5,122.5,122.5,1,D
Crystal Tate,30,F,Multi-ply,FO,107,90+,,,,,,,,,,,257.5,277.5,-295,277.5,277.5,1,D
Scott Edmiston,54,M,Raw,MM3R,126.19,140,,,,,,,,,,,250,272.5,,272.5,272.5,1,D
Drew Whitted,34,M,Multi-ply,MS,99.2,100,,,,,,,,,,,302.5,317.5,,317.5,317.5,1,D
Sara Lomelino,41,F,Wraps,FM1R,59.6,60,62.5,70,-80,,70,32.5,42.5,-47.5,,42.5,77.5,87.5,-92.5,87.5,200,1,SBD
Katie Jensen,35,F,Wraps,FSR,81.19,82.5,140,155,167.5,,167.5,85,95,102.5,,102.5,165,185,187.5,187.5,457.5,1,SBD
Brittany Rabe,19,F,Wraps,FT3R,66,67.5,135,142.5,145,,145,72.5,-77.5,-77.5,,72.5,130,137.5,147.5,147.5,365,1,SBD
Alexis Williams,19,F,Wraps,FT3R,79.02,82.5,140,152.5,160,,160,85,-87.5,-87.5,,85,152.5,170,-187.5,170,415,2,SBD
Ivy Pruisman,19,F,Wraps,FT3R,65.18,67.5,85,102.5,107.5,,107.5,32.5,40,-42.5,,40,95,110,117.5,117.5,265,3,SBD
Morgan Finch,19,F,Wraps,FT3R,74.39,75,92.5,102.5,110,,110,47.5,52.5,-55,,52.5,125,132.5,-137.5,132.5,295,4,SBD
Kelsey Purdy,19,F,Wraps,FT3R,65,67.5,-47.5,-47.5,-47.5,,,,,,,,,,,,,DQ,SBD
Jerica Ingle,20,F,Wraps,FJR,66.41,67.5,152.5,165,167.5,,167.5,60,65,-67.5,,65,152.5,162.5,170,170,402.5,1,SBD
Jennifer Gaeding,23,F,Wraps,FJR,82.42,82.5,132.5,145,152.5,,152.5,75,82.5,85,,85,177.5,190,195,195,432.5,2,SBD
Chelsea Berry,22,F,Wraps,FJR,73.21,75,125,-135,-135,,125,55,62.5,-65,,62.5,125,-132.5,132.5,132.5,320,3,SBD
Lacy Grammer,20,F,Wraps,FJR,79.79,82.5,82.5,90,95,,95,40,47.5,-50,,47.5,95,112.5,122.5,122.5,265,4,SBD
Ludy Harger,29,F,Wraps,FOR,51.21,52,92.5,102.5,-110,,102.5,32.5,52.5,57.5,60,57.5,125,-142.5,-145,125,285,1,SBD
Chloe Lansing,26,F,Wraps,FOR,59.42,60,160,170,-175,,170,75,-80,-80,,75,185,-197.5,,185,430,1,SBD
Morgan Houk,24,F,Wraps,FOR,58.79,60,110,-120,120,,120,50,-55,-55,,50,92.5,97.5,102.5,102.5,272.5,2,SBD
Athena Waldstein,27,F,Wraps,FOR,66.18,67.5,172.5,185,192.5,,192.5,87.5,92.5,97.5,,97.5,170,182.5,187.5,187.5,477.5,1,SBD
Amy Bohl,35,F,Wraps,FOR,65.59,67.5,137.5,-147.5,147.5,,147.5,75,82.5,87.5,,87.5,142.5,155,-162.5,155,390,2,SBD
Erika Runge,30,F,Wraps,FOR,66.81,67.5,115,132.5,142.5,,142.5,57.5,65,-75,,65,127.5,-152.5,-157.5,127.5,335,3,SBD
Stacey Heckman,34,F,Wraps,FOR,65.18,67.5,102.5,107.5,112.5,,112.5,50,52.5,55,,55,115,120,125,125,292.5,4,SBD
Brooke Ames,30,F,Wraps,FOR,66.18,67.5,82.5,105,-115,,105,50,57.5,-60,,57.5,112.5,122.5,-137.5,122.5,285,5,SBD
Allison Behnke,28,F,Wraps,FOR,65.59,67.5,-75,75,87.5,,87.5,42.5,47.5,-57.5,,47.5,112.5,125,142.5,142.5,277.5,6,SBD
Daloris Sylvester,25,F,Wraps,FOR,74.21,75,140,150,-157.5,,150,75,80,-87.5,,80,132.5,145,-155,145,375,1,SBD
Katie Jensen,35,F,Wraps,FOR,81.19,82.5,140,155,167.5,,167.5,85,95,102.5,,102.5,165,185,187.5,187.5,457.5,1,SBD
Jennifer Gaeding,23,F,Wraps,FOR,82.42,82.5,132.5,145,152.5,,152.5,75,82.5,85,,85,177.5,190,195,195,432.5,2,SBD
Elizabeth Nelson,39,F,Wraps,FOR,86.18,90,105,110,120,,120,55,60,-65,,60,107.5,115,120,120,300,1,SBD
Kelly Vogel,31,F,Wraps,FOR,133.58,90+,215,-235,-235,,215,102.5,115,-122.5,,115,182.5,-197.5,-197.5,182.5,512.5,1,SBD
Andrea Chase,32,F,Wraps,FOR,96.39,90+,120,127.5,135,,135,80,85,-92.5,,85,132.5,145,152.5,152.5,372.5,2,SBD
Lisa Johnson,50,F,Wraps,FM3R-AD,66,67.5,70,77.5,85,,85,-65,65,-67.5,,65,102.5,112.5,-117.5,112.5,262.5,1,SBD
Chelsea Berry,22,F,Wraps,FJR-AD,73.21,75,125,-135,-135,,125,55,62.5,-65,,62.5,125,-132.5,132.5,132.5,320,1,SBD
Connie Padera,27,F,Wraps,FOR-AD,58.2,60,-100,100,-105,,100,40,45,52.5,,52.5,107.5,-122.5,-122.5,107.5,260,1,SBD
Elizabeth Roberts,28,F,Wraps,FOR-AD,65.82,67.5,132.5,142.5,-150,,142.5,62.5,67.5,70,,70,130,140,152.5,152.5,365,1,SBD
Belinda Clary,42,F,Multi-ply,FM1,65.82,67.5,197.5,-230,-230,,197.5,97.5,-105,-105,,97.5,160,-172.5,182.5,182.5,477.5,1,SBD
Belinda Clary,42,F,Multi-ply,FO,65.82,67.5,197.5,-230,-230,,197.5,97.5,-105,-105,,97.5,160,-172.5,182.5,182.5,477.5,1,SBD
Scott Edmiston,54,M,Wraps,MM3R,126.19,140,250,272.5,282.5,,282.5,150,160,-172.5,,160,250,272.5,,272.5,715,1,SBD
Chris Lomelino,45,M,Wraps,MM2R,81.78,82.5,170,182.5,202.5,,202.5,137.5,147.5,165,,165,182.5,195,215,215,582.5,1,SBD
Kelly Peters,48,M,Wraps,MM2R,106.59,110,172.5,195,207.5,,207.5,147.5,-162.5,-162.5,,147.5,192.5,210,225,225,580,2,SBD
Bryan Alm,43,M,Wraps,MM1R,162.39,140+,-327.5,347.5,367.5,,367.5,230,-237.5,237.5,,237.5,320,-342.5,-342.5,320,925,1,SBD
Jamie Zwiers,44,M,Wraps,MM1R,106.82,110,-265,265,-275,,265,200,210,-220,,210,245,265,272.5,272.5,747.5,2,SBD
Chad Rankins,41,M,Wraps,MM1R,109.41,110,235,-247.5,247.5,,247.5,142.5,165,167.5,,167.5,235,250,-272.5,250,665,3,SBD
Todd Sammons,40,M,Wraps,MM1R,133.81,140,175,-212.5,-212.5,,175,107.5,117.5,-125,,117.5,192.5,207.5,-220,207.5,500,4,SBD
Ryan Eichenberger,38,M,Wraps,MSR,88.18,90,230,245,-252.5,,245,182.5,190,195,,195,280,287.5,-295,287.5,727.5,1,SBD
Greg Huse,36,M,Wraps,MSR,82.01,82.5,190,197.5,-207.5,,197.5,115,120,122.5,,122.5,200,207.5,212.5,212.5,532.5,2,SBD
Bryan Beanland,37,M,Wraps,MSR,98.02,100,-305,305,-320,,305,162.5,172.5,-177.5,,172.5,-305,-305,-305,,,DQ,SBD
Jay Kortemeyer,21,M,Wraps,MJR,88.41,90,140,155,167.5,,167.5,145,155,-172.5,,155,205,215,-225,215,537.5,1,SBD
Dylan Hedgecock,21,M,Wraps,MJR,79.79,82.5,-285,285,-297.5,,285,-170,-170,-170,,,,,,,,DQ,SBD
Carter Roberts,19,M,Wraps,MT3R,93.21,100,225,240,255,,255,125,132.5,-142.5,,132.5,275,280,-287.5,280,667.5,1,SBD
Questen McFarland,19,M,Wraps,MT3R,73.98,75,170,182.5,-190,,182.5,140,145,147.5,,147.5,220,-230,-230,220,550,2,SBD
Riley Shuey,19,M,Wraps,MT3R,88.18,90,167.5,192.5,210,,210,115,125,-137.5,,125,185,205,227.5,227.5,562.5,3,SBD
Ezra Prohaska,18,M,Wraps,MT3R,71.99,75,110,112.5,115,,115,77.5,82.5,85,,85,152.5,155,157.5,157.5,357.5,4,SBD
Dallas McManus,17,M,Wraps,MT2R,99.2,100,200,220,-227.5,,220,117.5,127.5,-137.5,,127.5,220,227.5,230,230,577.5,1,SBD
Matt Teske,39,M,Wraps,MSR-AD,80.78,82.5,220,-230,-230,,220,142.5,-152.5,-152.5,,142.5,247.5,260,-275,260,622.5,1,SBD
Edward Blair,22,M,Wraps,MJR-AD,97.39,100,252.5,265,275,,275,190,200,207.5,,207.5,240,252.5,-275,252.5,735,1,SBD
Paul Sorenson,23,M,Wraps,MJR-AD,117.21,125,215,230,240,,240,122.5,-132.5,-132.5,,122.5,252.5,265,-277.5,265,627.5,2,SBD
Jacob Foss,17,M,Wraps,MT2R-AD,73.62,75,182.5,-192.5,192.5,,192.5,97.5,100,-102.5,,100,182.5,197.5,-205,197.5,490,1,SBD
Dallas McManus,17,M,Wraps,MT2R-AD,99.2,100,200,220,-227.5,,220,117.5,127.5,-137.5,,127.5,220,227.5,230,230,577.5,2,SBD
Fred Clary,50,M,Multi-ply,MM3,145.78,140+,-342.5,342.5,,,342.5,195,-205,,,195,195,,,195,732.5,1,SBD
