Division,WeightClassKg,Place,Name,Team,BodyweightKg,Best3SquatKg,Best3BenchKg,Best3DeadliftKg,TotalKg,Equipment,Event,Sex
Boys,51.71,1,Randy Trevino,Gregory-Portland,50.62,149.69,81.65,154.22,385.55,Single-ply,SBD,M
Boys,51.71,2,Michael Perez,Corpus Christi Tuloso-Midway,46.18,61.23,38.56,61.23,161.03,Single-ply,SBD,M
Boys,55.79,DQ,Pete Olivarez,Orange Grove,51.89,,,,,Single-ply,SBD,M
Boys,55.79,1,Thomas Soto,Corpus Christi Calallen,55.7,192.78,108.86,208.65,510.29,Single-ply,SBD,M
Boys,59.87,2,Marcus Hernandez #1,Victoria West,56.02,179.17,88.45,192.78,460.4,Single-ply,SBD,M
Boys,59.87,3,Jacob de la Paz,Corpus Christi Calallen,56.02,165.56,79.38,174.63,419.57,Single-ply,SBD,M
Boys,55.79,4,Jared Medina,Banquete,54.61,120.2,83.91,158.76,362.87,Single-ply,SBD,M
Boys,55.79,5,Patrick Ayala,Banquete,53.34,117.93,77.11,158.76,353.8,Single-ply,SBD,M
Boys,55.79,6,Eythan Liandin,Sinton,53.8,102.06,49.9,106.59,258.55,Single-ply,SBD,M
Boys,55.79,DQ,Ariel Alfaro,Rockport-Fulton,54.34,133.81,,,,Single-ply,SBD,M
Boys,55.79,DQ,Thomas Tillman,Corpus Christi Tuloso-Midway,52.34,,,,,Single-ply,SBD,M
Boys,59.87,1,Tristan Ruiz,Corpus Christi Calallen,59.87,161.03,104.33,181.44,446.79,Single-ply,SBD,M
Boys,59.87,2,Hilario Luna,Beeville Jones,58.24,158.76,95.25,181.44,435.45,Single-ply,SBD,M
Boys,59.87,3,Chantz Mickens,Corpus Christi Calallen,59.24,138.35,83.91,163.29,385.55,Single-ply,SBD,M
Boys,59.87,4,Aaron Martinez,Corpus Christi Calallen,59.15,129.27,88.45,161.03,378.75,Single-ply,SBD,M
Boys,67.13,5,David Van,Gregory-Portland,60.1,142.88,79.38,156.49,378.75,Single-ply,SBD,M
Boys,59.87,6,Andy Torres,Gregory-Portland,58.88,122.47,70.31,122.47,315.25,Single-ply,SBD,M
Boys,59.87,7,Alex Guerrero,Gregory-Portland,59.42,97.52,56.7,108.86,263.08,Single-ply,SBD,M
Boys,59.87,DQ,John Starks,Banquete,59.51,176.9,,,,Single-ply,SBD,M
Boys,59.87,DQ,Alex Acuna,Orange Grove,57.24,,,,,Single-ply,SBD,M
Boys,67.13,1,Matt Valdez,San Diego,65.32,192.78,108.86,215.46,517.1,Single-ply,SBD,M
Boys,67.13,2,David Ledbetter,Victoria West,66.77,183.7,127.01,204.12,514.83,Single-ply,SBD,M
Boys,67.13,3,Miguel Salazar,Corpus Christi Tuloso-Midway,66.86,201.85,115.67,181.44,498.95,Single-ply,SBD,M
Boys,67.13,4,Samuel Navarro,Beeville Jones,65.05,197.31,102.06,197.31,496.68,Single-ply,SBD,M
Boys,67.13,5,John Renninger,Gregory-Portland,65.5,167.83,106.59,192.78,467.2,Single-ply,SBD,M
Boys,67.13,6,Marcus Crespin,Victoria West,64.5,167.83,97.52,190.51,455.86,Single-ply,SBD,M
Boys,67.13,7,Caleb Marek,Victoria West,66.95,183.7,92.99,176.9,453.59,Single-ply,SBD,M
Boys,67.13,8,Joshua Cruz,Bishop,64.95,165.56,99.79,167.83,433.18,Single-ply,SBD,M
Boys,67.13,9,JC Garcia,Port Lavaca Calhoun,66.22,167.83,92.99,172.37,433.18,Single-ply,SBD,M
Boys,67.13,10,Daniel Martinez,Port Lavaca Calhoun,62.6,149.69,81.65,170.1,401.43,Single-ply,SBD,M
Boys,67.13,11,Brandon Ngo,Rockport-Fulton,66.32,142.88,102.06,149.69,394.63,Single-ply,SBD,M
Boys,67.13,12,Ray Candelaria,Sinton,67.04,133.81,83.91,156.49,374.21,Single-ply,SBD,M
Boys,67.13,13,Caleb Phillips,Port Lavaca Calhoun,61.14,145.15,81.65,145.15,371.95,Single-ply,SBD,M
Boys,67.13,14,Jaime Zamora,Victoria West,62.14,124.74,86.18,147.42,358.34,Single-ply,SBD,M
Boys,67.13,15,Jonathon Hernandez,Orange Grove,61.33,111.13,74.84,140.61,326.59,Single-ply,SBD,M
Boys,67.13,16,Jake Mijares,Banquete,65.14,111.13,77.11,131.54,319.78,Single-ply,SBD,M
Boys,67.13,17,Adrian Good,Gregory-Portland,66.86,120.2,74.84,104.33,299.37,Single-ply,SBD,M
Boys,67.13,18,Fernando Arevalo,Robstown,61.51,86.18,65.77,122.47,274.42,Single-ply,SBD,M
Boys,67.13,DQ,Austin Muns,Gregory-Portland,61.05,90.72,68.04,113.4,,Single-ply,SBD,M
Boys,67.13,DQ,Armando Soliz,Orange Grove,63.23,,,,,Single-ply,SBD,M
Boys,74.84,1,Tristan Pelitire,Beeville Jones,74.66,226.8,154.22,231.33,612.35,Single-ply,SBD,M
Boys,82.1,2,Jared Garcia,Corpus Christi Calallen,75.07,204.12,113.4,231.33,548.85,Single-ply,SBD,M
Boys,74.84,3,Nathan Sanchez #3,Corpus Christi Calallen,74.57,201.85,104.33,217.72,523.9,Single-ply,SBD,M
Boys,74.84,4,Bryce Kneipe,Corpus Christi Calallen,71.49,181.44,97.52,201.85,480.81,Single-ply,SBD,M
Boys,74.84,5,Damien Hubbard-Cisneros,Gregory-Portland,69.58,192.78,104.33,176.9,474,Single-ply,SBD,M
Boys,74.84,6,Joshua Candelaria,Sinton,69.85,170.1,92.99,204.12,467.2,Single-ply,SBD,M
Boys,74.84,7,Colton Hughes,Corpus Christi Tuloso-Midway,70.67,181.44,102.06,181.44,464.93,Single-ply,SBD,M
Boys,74.84,8,Brandon Tompkins,Port Lavaca Calhoun,70.4,174.63,104.33,167.83,446.79,Single-ply,SBD,M
Boys,74.84,9,Aaron Flores,Corpus Christi Calallen,74.48,156.49,111.13,170.1,437.72,Single-ply,SBD,M
Boys,74.84,10,Cameron McIver,George West,74.57,142.88,111.13,151.95,405.97,Single-ply,SBD,M
Boys,74.84,11,Jacob Rivera,Port Lavaca Calhoun,71.58,149.69,99.79,154.22,403.7,Single-ply,SBD,M
Boys,74.84,12,Travis Dibble,Victoria West,72.76,149.69,92.99,158.76,401.43,Single-ply,SBD,M
Boys,74.84,13,John Roth,Gregory-Portland,69.49,127.01,83.91,167.83,378.75,Single-ply,SBD,M
Boys,74.84,14,Daniel Green,Gregory-Portland,71.85,124.74,79.38,147.42,351.53,Single-ply,SBD,M
Boys,74.84,15,Marco Espinosa,Sinton,67.86,102.06,72.57,127.01,301.64,Single-ply,SBD,M
Boys,74.84,16,Brandon Figueroa,Ingleside,70.76,108.86,70.31,113.4,292.57,Single-ply,SBD,M
Boys,74.84,DQ,Tristen Whitaker,Gregory-Portland,73.94,129.27,86.18,133.81,,Single-ply,SBD,M
Boys,74.84,DQ,Nolan Ladewig,Ingleside,71.12,,,,,Single-ply,SBD,M
Boys,74.84,DQ,Jarrett Bosze,Orange Grove,67.68,,,,,Single-ply,SBD,M
Boys,74.84,DQ,Daniel Nay,Port Lavaca Calhoun,69.85,174.63,,,,Single-ply,SBD,M
Boys,74.84,DQ,Joshua Morvani,Sinton,70.4,142.88,,,,Single-ply,SBD,M
Boys,74.84,DQ,Edward DeLeon,Port Lavaca Calhoun,72.03,,,,,Single-ply,SBD,M
Boys,82.1,DQ,Justin Sabezak,Corpus Christi Tuloso-Midway,75.02,,,,,Single-ply,SBD,M
Boys,74.84,DQ,Jack Roberson,Corpus Christi West Oso,68.76,,,,,Single-ply,SBD,M
Boys,74.84,DQ,Jeremiah Deever,Bishop,73.03,204.12,,,,Single-ply,SBD,M
Boys,82.1,1,Dillon Torres,Beeville Jones,78.29,204.12,138.35,244.94,587.4,Single-ply,SBD,M
Boys,82.1,2,Kevin Pena,Robstown,81.19,210.92,138.35,231.33,580.6,Single-ply,SBD,M
Boys,82.1,3,Carlos Charles,Bishop,75.66,222.26,129.27,208.65,560.19,Single-ply,SBD,M
Boys,82.1,4,Chris Hernandez,Gregory-Portland,80.83,208.65,122.47,208.65,539.77,Single-ply,SBD,M
Boys,82.1,5,James Bain,Corpus Christi Tuloso-Midway,76.75,204.12,127.01,204.12,535.24,Single-ply,SBD,M
Boys,82.1,6,German Vscanga,Robstown,79.11,181.44,108.86,190.51,480.81,Single-ply,SBD,M
Boys,82.1,7,Gilbert Jasso,Robstown,79.02,174.63,95.25,204.12,474,Single-ply,SBD,M
Boys,82.1,8,Justin Cote,Rockport-Fulton,81.65,161.03,97.52,195.04,453.59,Single-ply,SBD,M
Boys,82.1,9,Angel Casas,Corpus Christi Tuloso-Midway,80.83,172.37,102.06,167.83,442.25,Single-ply,SBD,M
Boys,89.81,10,Steven Nava,Beeville Jones,82.19,147.42,86.18,170.1,403.7,Single-ply,SBD,M
Boys,82.1,11,Javier Perez,Banquete,81.92,129.27,102.06,161.03,392.36,Single-ply,SBD,M
Boys,89.81,12,Larry Adams,Ingleside,82.28,142.88,97.52,142.88,383.29,Single-ply,SBD,M
Boys,82.1,13,Aaron Tienart,Gregory-Portland,75.48,122.47,83.91,174.63,381.02,Single-ply,SBD,M
Boys,82.1,14,Abel Rodriguez,Corpus Christi Tuloso-Midway,81.01,136.08,90.72,124.74,351.53,Single-ply,SBD,M
Boys,82.1,DQ,Steve Garza,Ingleside,79.02,,,,,Single-ply,SBD,M
Boys,82.1,DQ,Shavarius Richards,Port Lavaca Calhoun,75.21,163.29,97.52,,,Single-ply,SBD,M
Boys,99.79,1,AJ Alvarez,Bishop,90.04,297.1,165.56,235.87,698.53,Single-ply,SBD,M
Boys,89.81,2,Kameron Handy,Corpus Christi Tuloso-Midway,88.9,265.35,145.15,235.87,646.37,Single-ply,SBD,M
Boys,89.81,3,Justin Mask,Gregory-Portland,86.55,231.33,151.95,208.65,591.94,Single-ply,SBD,M
Boys,89.81,4,Jacob Flores,Beeville Jones,86.91,233.6,129.27,229.06,591.94,Single-ply,SBD,M
Boys,89.81,5,Justin Perez,Corpus Christi West Oso,85.46,219.99,124.74,226.8,571.53,Single-ply,SBD,M
Boys,89.81,6,Domingo Gonzalez,Rockport-Fulton,84.37,183.7,122.47,240.4,546.58,Single-ply,SBD,M
Boys,89.81,7,Mike DeLaGarza,Victoria West,87.91,188.24,111.13,226.8,526.17,Single-ply,SBD,M
Boys,89.81,8,Adrian Rivas,Sinton,89.45,183.7,113.4,204.12,501.22,Single-ply,SBD,M
Boys,89.81,9,Nathan Hermes,Victoria West,89.18,183.7,115.67,197.31,496.68,Single-ply,SBD,M
Boys,89.81,10,Rolando Gutierrez,Corpus Christi West Oso,87.18,158.76,120.2,181.44,460.4,Single-ply,SBD,M
Boys,89.81,11,Anthony Montoya,Gregory-Portland,85.28,185.97,90.72,167.83,444.52,Single-ply,SBD,M
Boys,89.81,12,Daniel Herrera,Banquete,85.55,172.37,99.79,172.37,444.52,Single-ply,SBD,M
Boys,89.81,13,Jose Moreno,San Diego,88.36,163.29,90.72,174.63,428.64,Single-ply,SBD,M
Boys,89.81,14,Arnold Molina,Sinton,86.55,142.88,106.59,163.29,412.77,Single-ply,SBD,M
Boys,89.81,15,John Rienhart,Gregory-Portland,86.64,149.69,86.18,147.42,383.29,Single-ply,SBD,M
Boys,89.81,DQ,Albert Guerrero,Gregory-Portland,85.28,145.15,90.72,140.61,,Single-ply,SBD,M
Boys,89.81,DQ,Dalton Sowell,Gregory-Portland,84.73,156.49,86.18,174.63,,Single-ply,SBD,M
Boys,99.79,1,Alex Tanguma,Corpus Christi Calallen,95.16,285.76,170.1,274.42,730.28,Single-ply,SBD,M
Boys,99.79,2,Devin Bisby,Gregory-Portland,98.88,244.94,154.22,258.55,657.71,Single-ply,SBD,M
Boys,99.79,3,Brendon Breland,Banquete,97.43,240.4,149.69,244.94,635.03,Single-ply,SBD,M
Boys,99.79,4,Matt Dickson,Corpus Christi Tuloso-Midway,90.81,226.8,145.15,226.8,598.74,Single-ply,SBD,M
Boys,99.79,5,Edward Silva,Robstown,93.71,208.65,104.33,219.99,532.97,Single-ply,SBD,M
Boys,99.79,6,Joey Granados,Beeville Jones,91.26,192.78,151.95,183.7,528.44,Single-ply,SBD,M
Boys,99.79,7,Brian Tran,Rockport-Fulton,98.34,183.7,122.47,213.19,519.36,Single-ply,SBD,M
Boys,99.79,8,Correy Wallace,Orange Grove,91.44,183.7,104.33,204.12,492.15,Single-ply,SBD,M
Boys,109.77,9,Lupe Salinas,Port Lavaca Calhoun,99.97,185.97,115.67,181.44,483.08,Single-ply,SBD,M
Boys,99.79,10,Joe Castillo,Corpus Christi West Oso,97.34,215.46,104.33,158.76,478.54,Single-ply,SBD,M
Boys,99.79,11,Nick Isaacks,Gregory-Portland,96.71,176.9,106.59,188.24,471.74,Single-ply,SBD,M
Boys,99.79,12,Bobby Salinas,Ingleside,96.25,176.9,106.59,185.97,469.47,Single-ply,SBD,M
Boys,99.79,13,Tristan Schmidt,Gregory-Portland,96.98,167.83,111.13,183.7,462.66,Single-ply,SBD,M
Boys,99.79,14,Thomas Campos,Gregory-Portland,92.9,165.56,102.06,181.44,449.06,Single-ply,SBD,M
Boys,99.79,15,Trey Felstead,Rockport-Fulton,99.79,163.29,111.13,161.03,435.45,Single-ply,SBD,M
Boys,99.79,16,Vince Narvaiz,Corpus Christi Tuloso-Midway,93.62,129.27,92.99,129.27,351.53,Single-ply,SBD,M
Boys,109.77,1,Reno Perez,San Diego,100.61,317.51,158.76,290.3,766.57,Single-ply,SBD,M
Boys,124.74,2,Dakota Cooksy,Corpus Christi Calallen,110,278.96,165.56,238.14,682.66,Single-ply,SBD,M
Boys,109.77,3,Alex Garcia,San Diego,102.6,276.69,142.88,233.6,653.17,Single-ply,SBD,M
Boys,124.74,4,Zak Pizzini,San Diego,109.86,224.53,163.29,217.72,605.55,Single-ply,SBD,M
Boys,109.77,5,Kasey Hosey,Robstown,102.97,158.76,113.4,222.26,494.42,Single-ply,SBD,M
Boys,109.77,6,Matt Ramirez,Victoria West,102.97,181.44,117.93,188.24,487.61,Single-ply,SBD,M
Boys,109.77,7,Jose Ramos,Gregory-Portland,104.51,181.44,102.06,151.95,435.45,Single-ply,SBD,M
Boys,109.77,8,Chris Navarro,Corpus Christi Calallen,108.32,113.4,68.04,131.54,312.98,Single-ply,SBD,M
Boys,109.77,DQ,Ramon Honorato,Rockport-Fulton,106.41,,,,,Single-ply,SBD,M
Boys,109.77,DQ,Oscar Cantua,Sinton,102.69,,,,,Single-ply,SBD,M
Boys,109.77,DQ,Michael Pena,Rockport-Fulton,106.78,,,,,Single-ply,SBD,M
Boys,109.77,DQ,Blade Bonstad,Corpus Christi Calallen,104.78,244.94,,,,Single-ply,SBD,M
Boys,109.77,DQ,Adrian Puja,Beeville Jones,109.5,188.24,102.06,,,Single-ply,SBD,M
Boys,109.77,DQ,Matthew Botello,Beeville Jones,107.32,,,,,Single-ply,SBD,M
Boys,124.74,1,Cameron Ellerbee,Beeville Jones,123.92,240.4,145.15,256.28,641.83,Single-ply,SBD,M
Boys,124.74,2,Steven Rocha,Gregory-Portland,122.56,235.87,176.9,204.12,616.89,Single-ply,SBD,M
Boys,124.74+,3,Zach Gonzales,Bishop,124.92,267.62,136.08,197.31,601.01,Single-ply,SBD,M
Boys,124.74,4,Dylan Duff,Corpus Christi Calallen,113.67,233.6,142.88,195.04,571.53,Single-ply,SBD,M
Boys,124.74,5,Forrest Unterbrink,Rockport-Fulton,119.93,204.12,120.2,226.8,551.11,Single-ply,SBD,M
Boys,124.74,6,Thomas Zaragosa,Bishop,118.93,240.4,120.2,183.7,544.31,Single-ply,SBD,M
Boys,124.74,7,Jonathan Lopez,Banquete,123.1,199.58,142.88,188.24,530.7,Single-ply,SBD,M
Boys,124.74,8,Jose Aguero,Sinton,116.03,219.99,117.93,183.7,521.63,Single-ply,SBD,M
Boys,124.74,9,Julian Hernandez,Port Lavaca Calhoun,119.11,204.12,133.81,181.44,519.36,Single-ply,SBD,M
Boys,124.74,10,Vince Gutierrez,Corpus Christi Tuloso-Midway,115.58,195.04,131.54,172.37,498.95,Single-ply,SBD,M
Boys,124.74,11,Ben Morgan,Victoria West,112.49,181.44,113.4,172.37,467.2,Single-ply,SBD,M
Boys,124.74,12,William Withers,Gregory-Portland,114.49,156.49,95.25,170.1,421.84,Single-ply,SBD,M
Boys,124.74,DQ,Zack Melton,Corpus Christi West Oso,112.13,199.58,113.4,,,Single-ply,SBD,M
Boys,124.74+,DQ,Kristopher Gebert,Orange Grove,124.96,,,,,Single-ply,SBD,M
Boys,124.74+,1,Anderson Daniels,George West,125.65,260.82,158.76,226.8,646.37,Single-ply,SBD,M
Boys,124.74+,2,Lance McDonald,Robstown,140.25,231.33,133.81,233.6,598.74,Single-ply,SBD,M
Boys,124.74+,3,Matthew Moya,Corpus Christi West Oso,150.05,210.92,145.15,215.46,571.53,Single-ply,SBD,M
Boys,124.74+,4,Danny Sanchez,Victoria West,129.91,244.94,127.01,179.17,551.11,Single-ply,SBD,M
Boys,124.74+,5,Dylan Conway,Rockport-Fulton,138.8,226.8,122.47,190.51,539.77,Single-ply,SBD,M
Boys,124.74+,6,Chase Herrig,Sinton,132.81,197.31,131.54,183.7,512.56,Single-ply,SBD,M
Boys,124.74+,DQ,Gabriel Vera,San Diego,126.1,,,,,Single-ply,SBD,M
Boys,124.74+,DQ,George Rios,Port Lavaca Calhoun,129.27,,,,,Single-ply,SBD,M
