WeightClassKg,Name,BodyweightKg,Best3SquatKg,Best3BenchKg,Best3DeadliftKg,TotalKg,Event,Equipment,Division,Place,Sex
,Eamonn Toal,88,295,195,335,825,SBD,Single-ply,M-E-Open,1,M
,M. Savage,107,320,185,345,850,SBD,Single-ply,M-E-Open,2,M
,C. Buchanan,90,277.5,170,332.5,780,SBD,Single-ply,M-E-Open,3,M
,B. Monaghan,88,270,147.5,250,667.5,SBD,Single-ply,M-E-Open,4,M
,Mike Leadbetter,120,290,182.5,320,792.5,SBD,Single-ply,M-E-Open,5,M
,J. Waters,96,275,187.5,230,692.5,SBD,Single-ply,M-E-Open,6,M
,G. Travis,59,155,100,175,430,SBD,Single-ply,M-E-Open,7,M
