Division,WeightClassKg,Place,Name,Team,BodyweightKg,Best3SquatKg,Best3BenchKg,Best3DeadliftKg,TotalKg,Equipment,Event,Sex,BirthDate
Boys,51.71,1,Ethan Peace,Waxahachie,50.8,120.2,61.23,127.01,308.44,Single-ply,SBD,M,
Boys,51.71,2,Rhett Hutchins,Whitehouse,50.8,120.2,65.77,117.93,303.91,Single-ply,SBD,M,
Boys,51.71,3,Abizai Reyes,Nacogdoches,51.62,104.33,47.63,124.74,276.69,Single-ply,SBD,M,
Boys,51.71,4,Azar Mira,Corsicana,48.44,115.67,47.63,106.59,269.89,Single-ply,SBD,M,
Boys,51.71,5,David Chavez,Mount Pleasant,50.26,104.33,52.16,108.86,265.35,Single-ply,SBD,M,
Boys,51.71,6,Austin McCain,Sulphur Springs,44,81.65,52.16,88.45,222.26,Single-ply,SBD,M,
Boys,51.71,DQ,Giovanni Lozano,North Forney,50.71,108.86,77.11,,,Single-ply,SBD,M,
Boys,51.71,NS,Crew Goodson,Lindale,,,,,,Single-ply,SBD,M,
Boys,55.79,1,Kain Gala,Hallsville,55.61,226.8,140.61,195.04,562.45,Single-ply,SBD,M,
Boys,55.79,2,Bryan Rodriquez,Greenville,54.7,192.78,102.06,183.7,478.54,Single-ply,SBD,M,
Boys,55.79,3,Jacob Gray,Longview Pine Tree,55.07,151.95,86.18,136.08,374.21,Single-ply,SBD,M,
Boys,55.79,4,J'Siah Gooden,Corsicana,55.61,120.2,72.57,136.08,328.85,Single-ply,SBD,M,
Boys,55.79,5,Curtis Gatewood,Corsicana,54.98,106.59,74.84,140.61,322.05,Single-ply,SBD,M,
Boys,55.79,6,Michael Harris,Waxahachie,55.52,124.74,61.23,133.81,319.78,Single-ply,SBD,M,
Boys,55.79,7,Elijah Patrick,North Forney,54.88,113.4,61.23,142.88,317.51,Single-ply,SBD,M,
Boys,55.79,8,Joseph Cordova,Longview Pine Tree,55.7,124.74,65.77,127.01,317.51,Single-ply,SBD,M,
Boys,55.79,9,Tristan Perry,Ennis,51.75,102.06,72.57,127.01,301.64,Single-ply,SBD,M,
Boys,55.79,10,Preston Matlock,Tyler,54.7,104.33,74.84,120.2,299.37,Single-ply,SBD,M,
Boys,59.87,1,Genbard Lumino,Midlothian,59.51,174.63,92.99,185.97,453.59,Single-ply,SBD,M,
Boys,59.87,2,Memphis Dorsey,Lindale,58.15,170.1,92.99,183.7,446.79,Single-ply,SBD,M,
Boys,59.87,3,Jaymichael Harris,Greenville,57.97,181.44,92.99,165.56,439.98,Single-ply,SBD,M,
Boys,59.87,4,Christian Charles,Ennis,57.61,142.88,104.33,183.7,430.91,Single-ply,SBD,M,
Boys,59.87,5,Caden Pickard,Longview Pine Tree,59.78,145.15,86.18,136.08,367.41,Single-ply,SBD,M,
Boys,59.87,6,Lukas Gill,Tyler Lee,59.6,140.61,86.18,136.08,362.87,Single-ply,SBD,M,
Boys,59.87,7,Braylyn Brandon,Corsicana,57.42,138.35,65.77,145.15,349.27,Single-ply,SBD,M,
Boys,59.87,8,Willie Tyler,Midlothian,57.61,117.93,74.84,154.22,347,Single-ply,SBD,M,
Boys,59.87,9,Jacob Stephens,Nacogdoches,58.42,124.74,65.77,140.61,331.12,Single-ply,SBD,M,
Boys,59.87,DQ,Cameron Flowers,Whitehouse,58.97,124.74,,,,Single-ply,SBD,M,
Boys,59.87,DQ,Jonathan Martin,Forney,58.6,149.69,95.25,,,Single-ply,SBD,M,
Boys,59.87,NS,Jayden Jones,Corsicana,,,,,,Single-ply,SBD,M,
Boys,67.13,1,Dax Lott,Waxahachie,66.68,213.19,158.76,192.78,564.72,Single-ply,SBD,M,
Boys,67.13,2,Jesse Carrillo,Sulphur Springs,66.68,208.65,131.54,204.12,544.31,Single-ply,SBD,M,
Boys,67.13,3,Alejandro Vasquez,Greenville,65.41,210.92,104.33,188.24,503.49,Single-ply,SBD,M,
Boys,67.13,4,Michael Martinez,Ennis,67.04,197.31,113.4,181.44,492.15,Single-ply,SBD,M,
Boys,67.13,5,Colton Sessums,Midlothian,66.22,181.44,102.06,188.24,471.74,Single-ply,SBD,M,
Boys,67.13,6,Tyler Pruitt,Forney,66.95,181.44,102.06,179.17,462.66,Single-ply,SBD,M,
Boys,67.13,7,Ja'Khiyron Whitaker,Nacogdoches,62.78,163.29,92.99,197.31,453.59,Single-ply,SBD,M,
Boys,67.13,8,Bryce Gregory,Tyler Lee,65.59,172.37,99.79,181.44,453.59,Single-ply,SBD,M,
Boys,67.13,9,Juan Hernandez,Sulphur Springs,64.77,183.7,81.65,185.97,451.32,Single-ply,SBD,M,
Boys,67.13,10,Deshun White,Texarkana Texas,65.14,172.37,95.25,183.7,451.32,Single-ply,SBD,M,
Boys,67.13,11,Braiden Miller,Whitehouse,65.32,154.22,86.18,161.03,401.43,Single-ply,SBD,M,
Boys,67.13,DQ,Jeremiah Sheffie,Tyler Lee,66.5,,,,,Single-ply,SBD,M,
Boys,74.84,1,Jordan McKenzie,Midlothian,73.94,249.48,145.15,222.26,616.89,Single-ply,SBD,M,
Boys,74.84,2,Jamichael Turman,Tyler Lee,73.21,233.6,140.61,229.06,603.28,Single-ply,SBD,M,
Boys,74.84,3,Deondre Brown,Corsicana,69.22,210.92,124.74,210.92,546.58,Single-ply,SBD,M,
Boys,74.84,4,Henry Waggoner,Lindale,70.03,210.92,115.67,210.92,537.51,Single-ply,SBD,M,
Boys,74.84,5,Daniel Benitez,Lindale,70.03,190.51,111.13,206.38,508.02,Single-ply,SBD,M,
Boys,74.84,6,Braylon Ratcliff,Nacogdoches,74.84,192.78,111.13,192.78,496.68,Single-ply,SBD,M,
Boys,74.84,7,Jordan Guerrero,Waxahachie,,185.97,108.86,185.97,480.81,Single-ply,SBD,M,
Boys,74.84,8,Jon Richard Washington,Forney,71.21,176.9,102.06,199.58,478.54,Single-ply,SBD,M,
Boys,74.84,9,Jeremiah Falcon,Waxahachie,72.48,183.7,102.06,192.78,478.54,Single-ply,SBD,M,
Boys,74.84,10,Aaron Mount,Forney,73.94,179.17,104.33,179.17,462.66,Single-ply,SBD,M,
Boys,74.84,11,Hayden Braswell,Corsicana,70.22,172.37,102.06,176.9,451.32,Single-ply,SBD,M,
Boys,74.84,DQ,Zane Phillips,Mount Pleasant,70.49,,,,,Single-ply,SBD,M,
Boys,82.1,1,Jayden Smith,Longview Pine Tree,81.01,285.76,151.95,244.94,682.66,Single-ply,SBD,M,
Boys,82.1,2,Anthony Perez,North Forney,80.01,244.94,154.22,240.4,639.57,Single-ply,SBD,M,
Boys,82.1,3,Ryan Carrillo,Sulphur Springs,81.56,238.14,138.35,208.65,585.13,Single-ply,SBD,M,
Boys,82.1,4,Quincy Johnson,Waxahachie,79.92,213.19,145.15,213.19,571.53,Single-ply,SBD,M,
Boys,82.1,5,Anthony Gallo,Waxahachie,77.66,217.72,122.47,204.12,544.31,Single-ply,SBD,M,
Boys,82.1,6,Qudariun McMiller,Tyler,80.83,204.12,127.01,213.19,544.31,Single-ply,SBD,M,
Boys,82.1,7,Jaret Allen,Lindale,80.38,197.31,117.93,219.99,535.24,Single-ply,SBD,M,
Boys,82.1,8,Laine Martin,Midlothian,80.29,204.12,115.67,208.65,528.44,Single-ply,SBD,M,
Boys,82.1,9,Nick Moore,Lufkin,81.47,197.31,124.74,204.12,526.17,Single-ply,SBD,M,
Boys,82.1,10,Jacob Huddleston,Jacksonville,76.57,197.31,111.13,208.65,517.1,Single-ply,SBD,M,
Boys,82.1,11,Matthew Mitchell,Sulphur Springs,78.83,208.65,108.86,190.51,508.02,Single-ply,SBD,M,
Boys,82.1,DQ,Sam Meeker,Ennis,80.38,188.24,,,,Single-ply,SBD,M,
Boys,89.81,1,Isaiah Nies,Ennis,85.73,331.12,183.7,301.64,816.47,Single-ply,SBD,M,
Boys,89.81,2,Patrick Martinez,Longview Pine Tree,88.45,308.44,165.56,267.62,741.62,Single-ply,SBD,M,
Boys,89.81,3,George Greenway,Sulphur Springs,86.18,281.23,142.88,272.16,696.26,Single-ply,SBD,M,
Boys,89.81,4,Giancarlos Belteton,Greenville,88.45,267.62,174.63,222.26,664.51,Single-ply,SBD,M,
Boys,89.81,5,Jonathen Guerrero,Waxahachie,87.63,231.33,138.35,231.33,601.01,Single-ply,SBD,M,
Boys,89.81,6,Omarr Webber,Lindale,88.54,231.33,113.4,219.99,564.72,Single-ply,SBD,M,
Boys,89.81,7,Sebastian Patterson,Huntsville,85.37,219.99,127.01,204.12,551.11,Single-ply,SBD,M,
Boys,89.81,8,Khaden Maxie,Lufkin,88.63,188.24,124.74,233.6,546.58,Single-ply,SBD,M,
Boys,89.81,9,Demitri Coles,Texarkana Texas,86,192.78,106.59,222.26,521.63,Single-ply,SBD,M,
Boys,89.81,10,Elias Elizondo,Mount Pleasant,84.55,197.31,92.99,206.38,496.68,Single-ply,SBD,M,
Boys,89.81,DQ,Caleb Bolay,Whitehouse,88,192.78,174.63,,,Single-ply,SBD,M,
Boys,89.81,DQ,Quaterian Riles,Huntsville,84.55,,,,,Single-ply,SBD,M,
Boys,99.79,1,Brayden Bulman,Whitehouse,95.35,310.71,158.76,263.08,732.55,Single-ply,SBD,M,
Boys,99.79,2,Tucker Momon,Greenville,92.99,274.42,158.76,283.5,716.68,Single-ply,SBD,M,
Boys,99.79,3,Ethan Thornton,Lindale,93.26,285.76,154.22,265.35,705.34,Single-ply,SBD,M,
Boys,99.79,4,Jt Cavender,Midlothian,97.34,240.4,158.76,249.48,648.64,Single-ply,SBD,M,
Boys,99.79,5,Shawn Cherry,Waxahachie,95.71,244.94,136.08,247.21,628.23,Single-ply,SBD,M,
Boys,99.79,6,Bryce Owens,Lufkin,99.79,217.72,145.15,249.48,612.35,Single-ply,SBD,M,
Boys,99.79,7,Colton Munoz,Longview Pine Tree,93.26,226.8,142.88,226.8,596.47,Single-ply,SBD,M,
Boys,99.79,8,Chad Maynard,Sulphur Springs,95.16,249.48,129.27,204.12,582.87,Single-ply,SBD,M,
Boys,99.79,9,Grant Gonzales,Midlothian,93.17,219.99,124.74,235.87,580.6,Single-ply,SBD,M,
Boys,99.79,10,Keshon Mayers,Huntsville,91.44,238.14,136.08,197.31,571.53,Single-ply,SBD,M,
Boys,99.79,DQ,Liam Huynh,Whitehouse,95.25,238.14,,,,Single-ply,SBD,M,
Boys,99.79,DQ,Cam Castillo,Ennis,98.97,,,,,Single-ply,SBD,M,
Boys,109.77,1,Joseph Chavez,Waxahachie,108.68,283.5,181.44,235.87,700.8,Single-ply,SBD,M,
Boys,109.77,2,Trestin Whitehead,Texarkana Texas,100.61,267.62,170.1,242.67,680.39,Single-ply,SBD,M,
Boys,109.77,3,James Nehk,Hallsville,106.5,213.19,142.88,249.48,605.55,Single-ply,SBD,M,
Boys,109.77,4,Kieron Ross,Huntsville,108.32,226.8,149.69,226.8,603.28,Single-ply,SBD,M,
Boys,109.77,5,Justin Cuellar,Waxahachie,105.87,226.8,151.95,215.46,594.21,Single-ply,SBD,M,
Boys,109.77,6,Jace Martin,Midlothian,104.24,242.67,111.13,235.87,589.67,Single-ply,SBD,M,
Boys,109.77,7,Tariq Robinson,Tyler Lee,109.13,235.87,154.22,195.04,585.13,Single-ply,SBD,M,
Boys,109.77,8,Stacey Whitaker,Nacogdoches,100.33,226.8,142.88,190.51,560.19,Single-ply,SBD,M,
Boys,109.77,DQ,Somjai Pryor,Sulphur Springs,101.24,197.31,,,,Single-ply,SBD,M,
Boys,109.77,NS,Briceon Hayes,Huntsville,,,,,,Single-ply,SBD,M,
Boys,109.77,NS,Daniel Jimenez,Greenville,,,,,,Single-ply,SBD,M,
Boys,109.77,DQ,Reid White,Ennis,108.95,,,,,Single-ply,SBD,M,
Boys,109.77,DQ,Kayson Elijah,Lufkin,108.59,,,,,Single-ply,SBD,M,
Boys,124.74,1,Marshall Hodges,Midlothian,121.56,274.42,165.56,263.08,703.07,Single-ply,SBD,M,
Boys,124.74,2,Daniel Bueno,Greenville,112.67,281.23,145.15,249.48,675.85,Single-ply,SBD,M,
Boys,124.74,3,George Lias,Mount Pleasant,112.22,294.84,140.61,238.14,673.58,Single-ply,SBD,M,
Boys,124.74,4,Denton Ross,Waxahachie,122.38,272.16,163.29,226.8,662.24,Single-ply,SBD,M,
Boys,124.74,5,Kaden Johnson,Waxahachie,115.3,258.55,176.9,222.26,657.71,Single-ply,SBD,M,
Boys,124.74,6,Alex Rodriguez,Greenville,120.47,272.16,149.69,215.46,637.3,Single-ply,SBD,M,
Boys,124.74,7,Alex Delgado,Waxahachie,114.12,238.14,149.69,231.33,619.15,Single-ply,SBD,M,
Boys,124.74,8,Aidyn Hunter,Texarkana Texas,122.83,265.35,140.61,204.12,610.08,Single-ply,SBD,M,
Boys,124.74,9,Moses Medrano,Lindale,119.84,254.01,129.27,224.53,607.81,Single-ply,SBD,M,
Boys,124.74,10,Luke Sandifer,Lindale,122.56,235.87,140.61,229.06,605.55,Single-ply,SBD,M,
Boys,124.74,11,Lance Deal,Whitehouse,112.94,219.99,149.69,226.8,596.47,Single-ply,SBD,M,
Boys,124.74,12,Brandon Childs,Texarkana Texas,117.57,238.14,124.74,208.65,571.53,Single-ply,SBD,M,
Boys,124.74,DQ,Raydon McCormack,Sulphur Springs,111.67,,,,,Single-ply,SBD,M,
Boys,124.74+,1,Matthew Davis,Lindale,194.59,392.36,172.37,260.82,825.54,Single-ply,SBD,M,
Boys,124.74+,2,Jessie Hamelinck,Lindale,132.45,324.32,181.44,254.01,759.77,Single-ply,SBD,M,
Boys,124.74+,3,Ashton Williams,Tyler,159.85,260.82,163.29,231.33,655.44,Single-ply,SBD,M,
Boys,124.74+,4,Brent Martin,Waxahachie,134.99,254.01,158.76,233.6,646.37,Single-ply,SBD,M,
Boys,124.74+,5,Nathan Simons,Corsicana,133.27,254.01,156.49,219.99,630.49,Single-ply,SBD,M,
Boys,124.74+,6,Riley Self,Lufkin,138.35,224.53,127.01,244.94,596.47,Single-ply,SBD,M,
Boys,124.74+,7,Brycelen Phillips,Longview Pine Tree,129.27,204.12,120.2,210.92,535.24,Single-ply,SBD,M,
Boys,124.74+,DQ,Elion Perea,Kaufman,139.07,272.16,,,,Single-ply,SBD,M,
Boys,124.74+,DQ,Taron Satchell,Marshall,133.45,260.82,,,,Single-ply,SBD,M,
Boys,124.74+,DQ,Xavier Perez,Ennis,143.52,267.62,154.22,,,Single-ply,SBD,M,
Boys,124.74+,DQ,Cade Crawford,Forney,144.15,317.51,170.1,,,Single-ply,SBD,M,
Boys,124.74+,DQ,Alejandro Moreno,Waxahachie,127.1,256.28,,,,Single-ply,SBD,M,
Boys,124.74+,DQ,Joshua Anderson,North Forney,129.73,,,,,Single-ply,SBD,M,
