Division,WeightClassKg,Place,Name,Team,BodyweightKg,Best3SquatKg,Best3BenchKg,Best3DeadliftKg,TotalKg,Equipment,Event,Sex,BirthDate
Girls,44.23,1,Madison Villa,Sadler S & S Cons,43.45,111.13,61.23,113.4,285.76,Single-ply,SBD,F,
Girls,44.23,2,Sagrario Labrada,Whitesboro,42.27,92.99,52.16,97.52,242.67,Single-ply,SBD,F,
Girls,44.23,3,Yese Stricklin,Leonard,41.64,95.25,54.43,90.72,240.4,Single-ply,SBD,F,
Girls,44.23,4,Lillia Pruitt,Callisburg,44.23,104.33,49.9,86.18,240.4,Single-ply,SBD,F,
Girls,44.23,5,Jessie Henry,Bowie,41.41,83.91,43.09,92.99,219.99,Single-ply,SBD,F,
Girls,44.23,6,Palmer Emily,Leonard,42.46,70.31,40.82,83.91,195.04,Single-ply,SBD,F,
Girls,44.23,7,Maria Chavez,Jacksboro,39.33,70.31,27.22,77.11,174.63,Single-ply,SBD,F,
Girls,44.23,8,Lauren Thompson,Oakridge School,43.95,61.23,27.22,86.18,174.63,Single-ply,SBD,F,
Girls,44.23,9,Arial Cork,Bells,42.86,63.5,29.48,65.77,158.76,Single-ply,SBD,F,
Girls,44.23,10,Sophia Payne,Bells,39.05,56.7,27.22,63.5,147.42,Single-ply,SBD,F,
Girls,47.85,1,Sierra Skinner,Bowie,47.4,115.67,54.43,106.59,276.69,Single-ply,SBD,F,
Girls,47.85,2,Brissa Luna,Pilot Point,46.45,104.33,54.43,106.59,265.35,Single-ply,SBD,F,
Girls,47.85,3,Taylor Barnes,Valley View,46.36,104.33,52.16,104.33,260.82,Single-ply,SBD,F,
Girls,47.85,4,Ciera McKey,Millsap,47.13,102.06,47.63,111.13,260.82,Single-ply,SBD,F,
Girls,47.85,5,Rosa Jaresh,Sadler S & S Cons,47.17,108.86,49.9,90.72,249.48,Single-ply,SBD,F,
Girls,47.85,6,Madison Vaughn,Leonard,47.13,97.52,49.9,99.79,247.21,Single-ply,SBD,F,
Girls,47.85,7,Xitlali Padilla,Bonham,47.04,99.79,40.82,99.79,240.4,Single-ply,SBD,F,
Girls,47.85,8,Christyn Phipps,Bells,47.04,97.52,49.9,90.72,238.14,Single-ply,SBD,F,
Girls,47.85,9,Whitni Scoggins,Sadler S & S Cons,45.13,90.72,45.36,86.18,222.26,Single-ply,SBD,F,
Girls,47.85,10,Katelyn Brenner,Millsap,45.77,70.31,45.36,70.31,185.97,Single-ply,SBD,F,
Girls,47.85,11,Jasper Cansler,Perrin-Whitt,46.9,68.04,31.75,74.84,174.63,Single-ply,SBD,F,
Girls,51.94,1,Martha Word,Wichita Falls City View,50.76,129.27,61.23,122.47,312.98,Single-ply,SBD,F,
Girls,51.94,2,Emma Skinner,Bowie,51.07,129.27,61.23,122.47,312.98,Single-ply,SBD,F,
Girls,51.94,3,Mary Faith Jones,Whitesboro,51.75,117.93,56.7,113.4,288.03,Single-ply,SBD,F,
Girls,51.94,4,Laisha Johnson,Alvord,50.58,117.93,58.97,108.86,285.76,Single-ply,SBD,F,
Girls,51.94,5,Maddie Moody,Oakridge School,51.66,102.06,61.23,113.4,276.69,Single-ply,SBD,F,
Girls,51.94,6,Melanie Delgado,Pilot Point,51.89,120.2,40.82,111.13,272.16,Single-ply,SBD,F,
Girls,51.94,7,Litzi Juarez,Whitesboro,49.62,99.79,52.16,111.13,263.08,Single-ply,SBD,F,
Girls,51.94,8,Allison Ortowski,Pilot Point,51.07,99.79,56.7,104.33,260.82,Single-ply,SBD,F,
Girls,51.94,9,Sara Westbrook,Leonard,49.85,102.06,49.9,104.33,256.28,Single-ply,SBD,F,
Girls,51.94,10,Hayley Morgan,Sadler S & S Cons,50.76,97.52,47.63,97.52,242.67,Single-ply,SBD,F,
Girls,51.94,11,Shayli Mitchell,Jacksboro,50.98,102.06,45.36,90.72,238.14,Single-ply,SBD,F,
Girls,51.94,12,Abby Vanbuskirk,Perrin-Whitt,48.31,74.84,36.29,102.06,213.19,Single-ply,SBD,F,
Girls,56.02,1,Jenna King,Whitesboro,55.49,140.61,56.7,138.35,335.66,Single-ply,SBD,F,
Girls,56.02,2,Olivia Ford,Wichita Falls City View,55.29,138.35,58.97,122.47,319.78,Single-ply,SBD,F,
Girls,56.02,3,Elena Garza,Leonard,55.66,122.47,63.5,113.4,299.37,Single-ply,SBD,F,
Girls,56.02,4,Kira Phillips,Whitesboro,52.66,115.67,56.7,122.47,294.84,Single-ply,SBD,F,
Girls,56.02,5,Auddra Nivens,Alvord,54.34,113.4,61.23,117.93,292.57,Single-ply,SBD,F,
Girls,56.02,6,Alectra Mask,Bells,54.75,117.93,61.23,106.59,285.76,Single-ply,SBD,F,
Girls,56.02,7,Emily Tackett,Alvord,56.02,108.86,58.97,111.13,278.96,Single-ply,SBD,F,
Girls,56.02,8,Lily Kimsey,Millsap,55.43,108.86,43.09,122.47,274.42,Single-ply,SBD,F,
Girls,56.02,9,Camryn Hickman,Collinsville,54.66,104.33,63.5,92.99,260.82,Single-ply,SBD,F,
Girls,56.02,10,Sara Henry,Bonham,55.79,97.52,63.5,99.79,260.82,Single-ply,SBD,F,
Girls,56.02,11,Ariel Waller,Tom Bean,55.11,95.25,54.43,108.86,258.55,Single-ply,SBD,F,
Girls,56.02,12,Shelby Adams,Wichita Falls City View,53.93,99.79,58.97,92.99,251.74,Single-ply,SBD,F,
Girls,60.1,1,Korina Wallace,Leonard,58.88,131.54,83.91,133.81,349.27,Single-ply,SBD,F,
Girls,60.1,2,Frith Leah,Whitesboro,58.97,145.15,68.04,136.08,349.27,Single-ply,SBD,F,
Girls,60.1,3,Dykes Kelbi,Leonard,57.2,122.47,70.31,138.35,331.12,Single-ply,SBD,F,
Girls,60.1,4,Hermayonie Dominguez,Whitesboro,58.15,127.01,56.7,133.81,317.51,Single-ply,SBD,F,
Girls,60.1,5,Hannah Griffin,Van Alstyne,58.42,117.93,54.43,122.47,294.84,Single-ply,SBD,F,
Girls,60.1,6,Jayci Malone,Alvord,58.6,113.4,63.5,117.93,294.84,Single-ply,SBD,F,
Girls,60.1,7,Kelcy Watkins,Alvord,58.69,115.67,56.7,120.2,292.57,Single-ply,SBD,F,
Girls,60.1,8,Kylie Johnson,Collinsville,57.11,113.4,70.31,104.33,288.03,Single-ply,SBD,F,
Girls,60.1,9,Sunny Smoot,Santo,57.33,104.33,56.7,120.2,281.23,Single-ply,SBD,F,
Girls,60.1,10,Madison Brenner,Millsap,59.83,106.59,54.43,104.33,265.35,Single-ply,SBD,F,
Girls,60.1,11,Makenzie Roberts,Collinsville,59.96,111.13,52.16,99.79,263.08,Single-ply,SBD,F,
Girls,60.1,12,Brissa Fernandez,Paradise,57.97,90.72,49.9,97.52,238.14,Single-ply,SBD,F,
Girls,67.36,1,Nakita Harris,Leonard,64.68,136.08,81.65,138.35,356.07,Single-ply,SBD,F,
Girls,67.36,2,Makayla Brown,Bells,64.27,136.08,63.5,140.61,340.19,Single-ply,SBD,F,
Girls,67.36,3,Talon Andrews,Collinsville,66.32,136.08,79.38,122.47,337.93,Single-ply,SBD,F,
Girls,67.36,4,Skyler Brannan,Whitesboro,63.55,136.08,72.57,124.74,333.39,Single-ply,SBD,F,
Girls,67.36,5,Paige Gallegos,Wichita Falls City View,65.09,124.74,77.11,129.27,331.12,Single-ply,SBD,F,
Girls,67.36,6,Shelby Garcia,Wichita Falls City View,64.32,131.54,72.57,122.47,326.59,Single-ply,SBD,F,
Girls,67.36,7,Abby Ferguson,Boyd,66.04,140.61,58.97,124.74,324.32,Single-ply,SBD,F,
Girls,67.36,8,Alita Whitaker,Oakridge School,65.91,120.2,56.7,136.08,312.98,Single-ply,SBD,F,
Girls,67.36,9,Desi Ortega,Valley View,65.73,124.74,58.97,124.74,308.44,Single-ply,SBD,F,
Girls,67.36,10,Ashley Aguirre,Bowie,60.83,117.93,65.77,120.2,303.91,Single-ply,SBD,F,
Girls,67.36,11,Meridythe Metzler,Bowie,66,136.08,61.23,99.79,297.1,Single-ply,SBD,F,
Girls,67.36,12,Abby Velten,Whitesboro,62.82,113.4,65.77,115.67,294.84,Single-ply,SBD,F,
Girls,67.36,13,Kirstyn Eitelman,Tioga,66.95,133.81,56.7,97.52,288.03,Single-ply,SBD,F,
Girls,67.36,DQ,Beterin Corrales,Tom Bean,63.87,108.86,56.7,,,Single-ply,SBD,F,
Girls,75.07,1,Ashleigh Butler,Leonard,71.67,138.35,90.72,149.69,378.75,Single-ply,SBD,F,
Girls,75.07,2,Kerstin Kindsfather,Bowie,70.17,147.42,81.65,147.42,376.48,Single-ply,SBD,F,
Girls,75.07,3,Lexi Roberts,Collinsville,74.8,147.42,74.84,136.08,358.34,Single-ply,SBD,F,
Girls,75.07,4,Maddy Lewis,Bells,68.76,131.54,74.84,142.88,349.27,Single-ply,SBD,F,
Girls,75.07,5,Lauren Brown,Sadler S & S Cons,74.48,136.08,61.23,147.42,344.73,Single-ply,SBD,F,
Girls,75.07,6,Jessica McAdams,Collinsville,72.21,129.27,63.5,142.88,335.66,Single-ply,SBD,F,
Girls,75.07,7,Allyssa Adams,Wichita Falls City View,71.94,136.08,65.77,117.93,319.78,Single-ply,SBD,F,
Girls,75.07,8,Kaitlyn Farringer,Wichita Falls City View,71.08,124.74,72.57,120.2,317.51,Single-ply,SBD,F,
Girls,75.07,9,McKena Jensen,Van Alstyne,73.71,129.27,54.43,131.54,315.25,Single-ply,SBD,F,
Girls,75.07,10,Morgan Clark,Tom Bean,73.71,131.54,58.97,122.47,312.98,Single-ply,SBD,F,
Girls,75.07,11,Yolanda Benitez,Pilot Point,67.54,127.01,63.5,115.67,306.17,Single-ply,SBD,F,
Girls,75.07,DQ,Mackenzie Cave,Wichita Falls City View,69.63,138.35,,,,Single-ply,SBD,F,
Girls,82.33,1,Hayden Thompson,Whitewright,79.7,151.95,90.72,142.88,385.55,Single-ply,SBD,F,
Girls,82.33,2,Keely Clark,Callisburg,81.24,154.22,86.18,145.15,385.55,Single-ply,SBD,F,
Girls,82.33,3,Hannah Holley,Petrolia,76.66,156.49,61.23,142.88,360.61,Single-ply,SBD,F,
Girls,82.33,4,Shelby Hood,Chico,79.74,145.15,70.31,133.81,349.27,Single-ply,SBD,F,
Girls,82.33,5,Katie Boyles,Bowie,77.79,136.08,77.11,131.54,344.73,Single-ply,SBD,F,
Girls,82.33,6,Jayla Dandridge,Wichita Falls City View,81.42,136.08,72.57,129.27,337.93,Single-ply,SBD,F,
Girls,82.33,7,Maddie Lopez,Archer City,79.79,124.74,70.31,136.08,331.12,Single-ply,SBD,F,
Girls,82.33,8,Emma Howard,Wichita Falls City View,80.47,136.08,63.5,124.74,324.32,Single-ply,SBD,F,
Girls,82.33,9,Rebecca Burney,Millsap,77.47,136.08,52.16,127.01,315.25,Single-ply,SBD,F,
Girls,82.33,10,Zoe Puckett,Millsap,79.47,117.93,56.7,124.74,299.37,Single-ply,SBD,F,
Girls,82.33,DQ,Daijah Gilbert,Peaster,81.96,131.54,,,,Single-ply,SBD,F,
Girls,82.33,DQ,Alaina Hatfield,Electra,81.06,,,,,Single-ply,SBD,F,
Girls,90.04,1,Olivia Trevino,Collinsville,87.68,172.37,88.45,151.95,412.77,Single-ply,SBD,F,
Girls,90.04,2,Jessica Thomas,Van Alstyne,84.01,158.76,79.38,140.61,378.75,Single-ply,SBD,F,
Girls,90.04,3,Jordan Passanisi,Bonham,84.23,149.69,92.99,136.08,378.75,Single-ply,SBD,F,
Girls,90.04,4,Melanie Byrd,Boyd,85.32,151.95,58.97,161.03,371.95,Single-ply,SBD,F,
Girls,90.04,5,Christiana James,Alvord,82.51,129.27,86.18,145.15,360.61,Single-ply,SBD,F,
Girls,90.04,6,Kayley Rohrbough,Callisburg,87.82,147.42,68.04,145.15,360.61,Single-ply,SBD,F,
Girls,90.04,7,Cagen Burkard,Bonham,88.45,149.69,95.25,108.86,353.8,Single-ply,SBD,F,
Girls,90.04,8,Callie Lamb,Bells,82.55,136.08,74.84,136.08,347,Single-ply,SBD,F,
Girls,90.04,9,Janessa Crawford,Van Alstyne,85.28,138.35,61.23,147.42,347,Single-ply,SBD,F,
Girls,90.04,10,Hanna Wahl,Wichita Falls City View,87,124.74,65.77,117.93,308.44,Single-ply,SBD,F,
Girls,90.04,DQ,Alex Holt,Boyd,86.5,136.08,49.9,,,Single-ply,SBD,F,
Girls,100.02,1,Jacie Doyle,Leonard,98.93,163.29,108.86,158.76,430.91,Single-ply,SBD,F,
Girls,100.02,2,Chelsea Price,Bowie,94.62,181.44,102.06,145.15,428.64,Single-ply,SBD,F,
Girls,100.02,3,Kendra Haskett,Whitewright,94.62,174.63,102.06,131.54,408.23,Single-ply,SBD,F,
Girls,100.02,4,Haley Walker,Sadler S & S Cons,94.66,170.1,77.11,145.15,392.36,Single-ply,SBD,F,
Girls,100.02,5,Erica Tinsley,Wichita Falls City View,96.93,151.95,77.11,156.49,385.55,Single-ply,SBD,F,
Girls,100.02,6,Tori McCoy,Sadler S & S Cons,99.79,154.22,79.38,127.01,360.61,Single-ply,SBD,F,
Girls,100.02,7,Zoie Stratton,Whitewright,94.17,140.61,83.91,120.2,344.73,Single-ply,SBD,F,
Girls,100.02,8,Malia Martinez,Petrolia,96.71,140.61,68.04,124.74,333.39,Single-ply,SBD,F,
Girls,100.02,9,Kourtnie Hood,Chico,90.22,122.47,79.38,115.67,317.51,Single-ply,SBD,F,
Girls,100.02,10,Heavan Warner,Bonham,95.48,131.54,63.5,120.2,315.25,Single-ply,SBD,F,
Girls,100.02,11,Dylan Irwin,Millsap,91.67,136.08,52.16,122.47,310.71,Single-ply,SBD,F,
Girls,100.02,DQ,Mekenzie Morley,Collinsville,94.76,140.61,,,,Single-ply,SBD,F,
Girls,117.71,1,Dania Arguello,Bonham,106.96,181.44,113.4,140.61,435.45,Single-ply,SBD,F,
Girls,117.71,2,Damisha Williams,Electra,103.19,176.9,102.06,151.95,430.91,Single-ply,SBD,F,
Girls,117.71,3,Kayle Chapman,Leonard,107.82,170.1,92.99,156.49,419.57,Single-ply,SBD,F,
Girls,117.71,4,Nyla Blankenship,Valley View,114.85,136.08,63.5,117.93,317.51,Single-ply,SBD,F,
Girls,117.71,5,Preslee Scarbro,Peaster,102.92,127.01,77.11,111.13,315.25,Single-ply,SBD,F,
Girls,117.71,6,Caitlyn Cox,Ponder,106.68,117.93,72.57,117.93,308.44,Single-ply,SBD,F,
Girls,117.71,7,Bailey Grant,Archer City,108.5,90.72,61.23,113.4,265.35,Single-ply,SBD,F,
Girls,117.71,8,Brianna Thomas,Paradise,108.27,61.23,56.7,86.18,204.12,Single-ply,SBD,F,
Girls,117.71,DQ,Emma Haynes,Ponder,104.14,117.93,,,,Single-ply,SBD,F,
Girls,117.71+,1,Avery Crossland,Leonard,121.56,215.46,117.93,167.83,501.22,Single-ply,SBD,F,
Girls,117.71+,2,Tamia Thomas,Wichita Falls City View,151.68,181.44,86.18,145.15,412.77,Single-ply,SBD,F,
Girls,117.71+,3,Jessie Nelson,Boyd,127.87,183.7,79.38,145.15,408.23,Single-ply,SBD,F,
Girls,117.71+,4,Andrea Hinkle,Perrin-Whitt,119.75,124.74,61.23,97.52,283.5,Single-ply,SBD,F,
Girls,,NS,Ashlee Bacher,Collinsville,,,,,,Single-ply,SBD,F,
