Name,WeightClassKg,Division,Sex,Best3SquatKg,Best3BenchKg,Best3DeadliftKg,TotalKg,Event,Equipment,Place
J. Thurm,52,Open,M,129.27,65.77,151.95,347,SBD,Single-ply,1
D. Buddemeyer,52,Open,M,104.33,68.04,117.93,290.3,SBD,Single-ply,2
Karen Stringer,52,Open,F,90.72,56.7,120.2,267.62,SBD,Single-ply,3
Judy Gedney,52,Open,F,90.72,58.97,106.59,256.28,SBD,Single-ply,4
Marcy Godsil,52,Open,F,83.91,43.09,127.01,254.01,SBD,Single-ply,5
Fred Hofer,56,Open,M,151.95,97.52,167.83,417.31,SBD,Single-ply,1
P. Anderson,56,Open,M,106.59,88.45,142.88,337.93,SBD,Single-ply,2
N. Hollyfield,56,Open,M,86.18,45.36,113.4,244.94,SBD,Single-ply,3
Vince Williams,60,Open,M,176.9,108.86,195.04,480.81,SBD,Single-ply,1
Melanie Getz,60,Open,F,127.01,68.04,154.22,349.27,SBD,Single-ply,2
Deveritt Glenn,67.5,Open,M,226.8,131.54,208.65,566.99,SBD,Single-ply,1
N. Marino,67.5,Open,M,204.12,117.93,204.12,526.17,SBD,Single-ply,2
Jim Privitor,67.5,Open,M,206.38,108.86,204.12,519.36,SBD,Single-ply,3
B. Bock,67.5,Open,M,154.22,127.01,183.71,464.93,SBD,Single-ply,4
R. Stief,67.5,Open,M,151.95,95.25,208.65,455.86,SBD,Single-ply,5
Jay Rosciglione,75,Open,M,290.3,151.95,244.94,687.19,SBD,Single-ply,1
Mike Cissell,75,Open,M,222.26,147.42,226.8,596.47,SBD,Single-ply,2
Pat Malone,75,Open,M,219.99,115.67,238.14,573.8,SBD,Single-ply,3
Dave Hutchinson,75,Open,M,226.8,127.01,217.72,571.53,SBD,Single-ply,4
Kevin Kinney,75,Open,M,217.72,124.74,217.72,560.19,SBD,Single-ply,5
James Clark,82.5,Open,M,229.06,127.01,265.35,621.42,SBD,Single-ply,1
Tony Marino,82.5,Open,M,217.72,154.22,240.4,612.35,SBD,Single-ply,2
D. Milford,82.5,Open,M,208.65,117.93,215.46,542.04,SBD,Single-ply,3
S. Snook,82.5,Open,M,197.31,115.67,213.19,526.17,SBD,Single-ply,4
J. Elder,82.5,Open,M,201.85,102.06,215.46,519.36,SBD,Single-ply,5
Jack Cribbin,90,Open,M,288.03,163.29,331.12,782.45,SBD,Single-ply,1
Al Slivinski,90,Open,M,267.62,181.44,278.96,728.02,SBD,Single-ply,2
Thomas O'Neil,90,Open,M,260.82,181.44,272.16,714.41,SBD,Single-ply,3
Tony Lanzante,90,Open,M,288.03,163.29,256.28,707.6,SBD,Single-ply,4
Mark Seago,90,Open,M,260.82,163.29,260.82,684.93,SBD,Single-ply,5
Warren Sallade,100,Open,M,328.85,179.17,297.1,805.13,SBD,Single-ply,1
Lee Houston,100,Open,M,272.16,154.22,283.5,709.87,SBD,Single-ply,2
B. Huber,100,Open,M,283.5,165.56,260.82,709.87,SBD,Single-ply,3
G. Ulrich,100,Open,M,260.82,172.37,249.48,682.66,SBD,Single-ply,4
Rick McCart,100,Open,M,263.08,163.29,231.33,657.71,SBD,Single-ply,5
Bill Davis,110,Open,M,362.87,217.72,351.53,932.13,SBD,Single-ply,1
Ed Lewis,110,Open,M,319.78,208.65,288.03,816.47,SBD,Single-ply,2
John Kruszynski,110,Open,M,303.91,181.44,303.91,789.25,SBD,Single-ply,3
T. Summers,110,Open,M,294.84,183.71,274.42,752.96,SBD,Single-ply,4
M. Zimmer,110,Open,M,254.01,176.9,292.57,723.48,SBD,Single-ply,5
Curt Mathes,125,Open,M,349.27,213.19,283.5,845.95,SBD,Single-ply,1
J. Putroff,125,Open,M,310.71,181.44,310.71,802.86,SBD,Single-ply,2
G. Kuelker,125,Open,M,281.23,176.9,281.23,739.36,SBD,Single-ply,3
Leland Mathes,125,Open,M,267.62,188.24,256.28,712.14,SBD,Single-ply,4
M. McKinney,125,Open,M,244.94,158.76,258.55,662.25,SBD,Single-ply,5
J. Prusacki,125+,Open,M,283.5,185.97,322.05,791.52,SBD,Single-ply,1
F. Carleton,125+,Open,M,303.91,183.71,290.3,777.91,SBD,Single-ply,2
Mark Perkins,125+,Open,M,272.16,172.37,294.84,739.36,SBD,Single-ply,3
Robert Morrison,125+,Open,M,272.16,170.1,276.69,718.94,SBD,Single-ply,4
J. Kammerer,125+,Open,M,249.48,145.15,249.48,644.1,SBD,Single-ply,5
A. Titone,52,Novice,M,68.04,43.09,92.99,204.12,SBD,Single-ply,1
Mark Slivinski,67.5,Novice,M,145.15,81.65,170.1,396.89,SBD,Single-ply,1
S. Smith,67.5,Novice,M,158.76,68.04,170.1,396.89,SBD,Single-ply,2
S. Harris,67.5,Novice,M,102.06,68.04,147.42,317.52,SBD,Single-ply,3
Gary Thomas,75,Novice,M,199.58,115.67,213.19,528.44,SBD,Single-ply,1
R. Griggs,75,Novice,M,183.71,136.08,208.65,528.44,SBD,Single-ply,2
J. Moore,75,Novice,M,188.24,129.27,201.85,519.36,SBD,Single-ply,3
E. Follis,75,Novice,M,192.78,102.06,210.92,505.76,SBD,Single-ply,4
Jim Gilmore,75,Novice,M,199.58,111.13,190.51,501.22,SBD,Single-ply,5
D. Sliom,75,Novice,M,174.63,111.13,195.04,480.81,SBD,Single-ply,6
K. Campbell,75,Novice,M,167.83,99.79,185.97,453.59,SBD,Single-ply,7
R. Russel,75,Novice,M,138.35,113.4,201.85,453.59,SBD,Single-ply,8
M. Tunstill,75,Novice,M,102.06,,140.61,,SBD,Single-ply,DQ
R. Conway,75,Novice,M,,77.11,147.42,,SBD,Single-ply,DQ
M. Meddaugh,82.5,Novice,M,174.63,124.74,199.58,498.95,SBD,Single-ply,1
S. Greld,82.5,Novice,M,158.76,106.59,201.85,467.2,SBD,Single-ply,2
M. Johnson,82.5,Novice,M,136.08,74.84,138.35,349.27,SBD,Single-ply,3
B. Moody,90,Novice,M,242.67,147.42,254.01,644.1,SBD,Single-ply,1
F. DeBello,90,Novice,M,242.67,161.03,238.14,641.83,SBD,Single-ply,2
Dan Burns,90,Novice,M,217.72,108.86,272.16,598.74,SBD,Single-ply,3
J. Brown,90,Novice,M,206.38,136.08,185.97,528.44,SBD,Single-ply,5
J. Weissmann,90,Novice,M,206.38,161.03,190.51,557.92,SBD,Single-ply,4
P. Pool,90,Novice,M,174.63,149.69,199.58,523.9,SBD,Single-ply,6
Ron Harris,90,Novice,M,195.04,117.93,208.65,521.63,SBD,Single-ply,7
L. Cazer,90,Novice,M,113.4,79.38,172.37,365.14,SBD,Single-ply,8
Steve Hutkowski,100,Novice,M,215.46,188.24,240.4,644.1,SBD,Single-ply,1
A. Brown,100,Novice,M,226.8,181.44,229.06,637.3,SBD,Single-ply,2
J. Titone,100,Novice,M,215.46,154.22,263.08,632.76,SBD,Single-ply,3
S. Mangin,100,Novice,M,238.14,127.01,249.48,614.62,SBD,Single-ply,4
R. Hall,100,Novice,M,219.99,151.95,240.4,612.35,SBD,Single-ply,5
D. Henderson,100,Novice,M,215.46,167.83,222.26,605.55,SBD,Single-ply,6
J. Smith,100,Novice,M,204.12,136.08,251.74,591.94,SBD,Single-ply,7
J. Parrish,100,Novice,M,217.72,140.61,233.6,591.94,SBD,Single-ply,8
T. McMahon,100,Novice,M,215.46,131.54,226.8,573.8,SBD,Single-ply,9
G. Prusacki,100,Novice,M,147.42,115.67,192.78,455.86,SBD,Single-ply,10
J. Johnson,100,Novice,M,136.08,113.4,204.12,453.59,SBD,Single-ply,11
Bill Brady,110,Novice,M,210.92,129.27,272.16,612.35,SBD,Single-ply,1
J. Angelo,125,Novice,M,226.8,199.58,226.8,653.17,SBD,Single-ply,1
Paul Martin,125+,Novice,M,244.94,142.88,231.33,619.15,SBD,Single-ply,1
W. Campbell,125+,Novice,M,226.8,127.01,238.14,591.94,SBD,Single-ply,2
