Name,Division,BodyweightKg,WeightClassKg,Bench1Kg,Bench2Kg,Bench3Kg,Best3BenchKg,TotalKg,Place,Sex,Event,Equipment,Age,BirthDate
Judith McGauley,F-C-M4,58.3,63,-37.5,37.5,-40.5,37.5,37.5,1,F,B,Raw,,
Nicola Elding,F-C-M2,67.1,72,47.5,55,-57.5,55,55,1,F,B,Raw,,
Kelly Clark #1,F-C-M2,68.6,72,47.5,52.5,-55,52.5,52.5,2,F,B,Raw,,
Julie Rose,F-C-M2,71.6,72,50,-52.5,-55,50,50,3,F,B,Raw,,
Helen Hughes #1,F-C-M1,55.9,57,75,80,-85,80,80,1,F,B,Raw,,
Galit Goldshmid,F-C-M1,61.2,63,75,80,-82.5,80,80,1,F,B,Raw,,
Wendie Kirkland,F-C-M1,70.8,72,67.5,-72.5,75,75,75,1,F,B,Raw,,
Kelly Phasey,F-C-M1,124,84+,95,101,103,103,103,1,F,B,Raw,,
Jacqueline Gough,F-C-M1,151.8,84+,92.5,100.5,102.5,102.5,102.5,2,F,B,Raw,,
Amanda Hughes,F-C-Open,50.8,52,55,60,-62.5,60,60,1,F,B,Raw,,
Ellie Steel,F-C-Open,62,63,87.5,92.5,97.5,97.5,97.5,1,F,B,Raw,,
Faye Jordan,F-C-Open,58,63,-67.5,70,75,75,75,2,F,B,Raw,,
Amina Bux,F-C-Open,61.6,63,62.5,67.5,-72.5,67.5,67.5,3,F,B,Raw,,
Rachael Camp,F-C-Open,60.3,63,50,55,-57.5,55,55,4,F,B,Raw,,
Sophie Hardy,F-C-Open,67.7,72,70,75,77.5,77.5,77.5,1,F,B,Raw,,
Christina Appleby-Phillips,F-C-Open,80,84,100,107.5,112.5,112.5,112.5,1,F,B,Raw,,
Sarah Bouskill,F-C-Open,117.4,84+,95,-100,-100,95,95,1,F,B,Raw,,
Kate Sweatman,F-C-Open,111.3,84+,82.5,87.5,90,90,90,2,F,B,Raw,,
Lydia Forrest,F-C-U23,51.6,52,45,47.5,50,50,50,1,F,B,Raw,,
Amrita Paneasr,F-C-U23,47.8,52,42.5,-47.5,47.5,47.5,47.5,2,F,B,Raw,,
Lucy Hart,F-C-U23,61.1,63,52.5,57.5,-62.5,57.5,57.5,1,F,B,Raw,,
Mariah Connor-Brown,F-C-U18,83.9,84,67.5,72.5,-75,72.5,72.5,1,F,B,Raw,,
Ted Brown,M-C-M5,58.6,59,70,75,77.5,77.5,77.5,1,M,B,Raw,,1930-07-27
Tom Cox,M-C-M4,91.2,93,107.5,112.5,115,115,115,1,M,B,Raw,,
Michael James,M-C-M3,65.5,66,95,100,-102.5,100,100,1,M,B,Raw,,
Bill Taylor,M-C-M3,65.5,66,82.5,87.5,-92.5,87.5,87.5,2,M,B,Raw,,
Bob Baxter,M-C-M3,104,105,125,135,-137.5,135,135,1,M,B,Raw,,
Allan Hulme,M-C-M3,109.1,120,162.5,165,170,170,170,1,M,B,Raw,,
David Horne,M-C-M2,82.6,83,102.5,107.5,-110,107.5,107.5,1,M,B,Raw,,
Andy Rigby,M-C-M2,92.9,93,190,200,-206,200,200,1,M,B,Raw,,
Kevin Barrs,M-C-M2,84.6,93,130,135,140,140,140,2,M,B,Raw,,
Harold Houldershaw,M-C-M2,92.3,93,85,90,95,95,95,3,M,B,Raw,,
Darren Lloyd,M-C-M2,104.1,105,150,157.5,-165,157.5,157.5,1,M,B,Raw,,
Jasvinder Cheema,M-C-M1,82.3,83,145,152.5,155,155,155,1,M,B,Raw,,
Sheridan Wray,M-C-M1,92.9,93,172.5,185,192.5,192.5,192.5,1,M,B,Raw,,
Jason Talbot,M-C-M1,92.7,93,150,157.5,162.5,162.5,162.5,2,M,B,Raw,,
Harbans Bansal,M-C-M1,97.2,105,180,190,195,195,195,1,M,B,Raw,,
Dean Bowring,M-C-M1,104.8,105,172.5,182.5,-190.5,182.5,182.5,2,M,B,Raw,,
Peter Szöke,M-C-M1,107.1,120,160,170,177.5,177.5,177.5,1,M,B,Raw,,
Emmanuel Franklin,M-C-Open,73.4,74,140,152.5,158,158,158,1,M,B,Raw,,
Danny Potter,M-C-Open,73.8,74,147.5,152.5,-158.5,152.5,152.5,2,M,B,Raw,,
Ben Richens,M-C-Open,73.8,74,107.5,112.5,-117.5,112.5,112.5,3,M,B,Raw,,
Christopher Teague,M-C-Open,82.8,83,140,152.5,-160,152.5,152.5,1,M,B,Raw,,
Andy Champ,M-C-Open,92.7,93,162.5,-170,-175,162.5,162.5,1,M,B,Raw,,
Chris Farrow,M-C-Open,118,120,150,160,-170,160,160,1,M,B,Raw,,
Mathieu Brignall,M-C-Open,160.2,120+,190,202.5,210,210,210,1,M,B,Raw,26,
Joe Strike,M-C-U23,64.7,66,92.5,97.5,100,100,100,1,M,B,Raw,,
Rhys Williams,M-C-U23,59.3,66,45,47.5,50,50,50,2,M,B,Raw,,
Bohdan Bon,M-C-U23,83,83,150,162.5,,162.5,162.5,1,M,B,Raw,,
Joey Watson,M-C-U23,93,93,-160,160,170,170,170,1,M,B,Raw,,
Bradley Horne #1,M-C-U23,104.9,105,167.5,177.5,-183.5,177.5,177.5,1,M,B,Raw,,
Michelle Franklin,F-E-M2,55.8,57,72.5,-85.5,-85.5,72.5,72.5,1,F,B,Single-ply,,
Jo Beck,F-E-M2,71.1,72,65,67.5,70,70,70,1,F,B,Single-ply,,
Wendie Kirkland,F-E-M1,70.8,72,92.5,97.5,102.5,102.5,102.5,1,F,B,Single-ply,,
Rebecca Williams,F-E-M1,78.4,84,90,100.5,-105,100.5,100.5,1,F,B,Single-ply,,
Jacqueline Gough,F-E-M1,151.8,84+,-142.5,142.5,-158,142.5,142.5,1,F,B,Single-ply,,
Linzi Waite,F-E-Open,50.9,52,65,70,-75.5,70,70,1,F,B,Single-ply,,
Ellie Steel,F-E-Open,62,63,130,-140,-140,130,130,1,F,B,Single-ply,,
Faye Jordan,F-E-Open,58,63,95,102.5,-125,102.5,102.5,2,F,B,Single-ply,,
Alana Pash,F-E-Open,61.8,63,87.5,92.5,95,95,95,3,F,B,Single-ply,,
Sarah Bouskill,F-E-Open,117.4,84+,142.5,150,-165.5,150,150,1,F,B,Single-ply,,
Lucy Hart,F-E-U23,61.1,63,70,77.5,-82.5,77.5,77.5,1,F,B,Single-ply,,
James McGill,M-E-M4,82.3,83,-92.5,-95,-95,,,DQ,M,B,Single-ply,,
Glyn Belsher,M-E-M3,93,93,-140,140,152.5,152.5,152.5,1,M,B,Single-ply,,
Bob Baxter,M-E-M3,104,105,145,,,145,145,1,M,B,Single-ply,,
Kevin Barrs,M-E-M2,84.6,93,140,-162.5,-170,140,140,1,M,B,Single-ply,,
Stewart Cowan,M-E-M2,112.5,120,-215,-220,-220,,,DQ,M,B,Single-ply,,
Jason Talbot,M-E-M1,92.7,93,190,202.5,207.5,207.5,207.5,1,M,B,Single-ply,,
Dean Bowring,M-E-M1,104.8,105,245,-255,,245,245,1,M,B,Single-ply,,
David Wozniak,M-E-M1,104.1,105,-190,190,200,200,200,2,M,B,Single-ply,,
Peter Szöke,M-E-M1,107.1,120,-190,190,225,225,225,1,M,B,Single-ply,,
Emmanuel Franklin,M-E-Open,73.4,74,190,200,-210,200,200,1,M,B,Single-ply,,
David Murray,M-E-Open,82.1,83,140,150,-160,150,150,1,M,B,Single-ply,,
Andy Champ,M-E-Open,92.7,93,-220,-225,225,225,225,1,M,B,Single-ply,,
Chris Farrow,M-E-Open,118,120,190,200,210,210,210,1,M,B,Single-ply,,
Callum Sidebottom,M-E-Open,117.9,120,190,200,-210,200,200,2,M,B,Single-ply,,
Graham Mellor,M-E-Open,164.8,120+,-260,-320,-320,,,DQ,M,B,Single-ply,,
Kristopher Franklin,M-E-U23,81.9,83,190,205,-215,205,205,1,M,B,Single-ply,,
Jack Johnson,M-E-U23,119.5,120,275,-290,-290,275,275,1,M,B,Single-ply,,
