Division,WeightClassKg,Place,Name,Team,BodyweightKg,Best3SquatKg,Best3BenchKg,Best3DeadliftKg,TotalKg,Equipment,Event,Sex
Boys,51.71,1,Andre Lockett,Anahuac,47.63,77.11,45.36,99.79,222.26,Single-ply,SBD,M
Boys,51.71,DQ,Ivan Espinoza,Cleveland,45.36,,,,,Single-ply,SBD,M
Boys,51.71,DQ,Shawn Warner,Cleveland Tarkington,45.36,,,,,Single-ply,SBD,M
Boys,51.71,DQ,Joseph Traylor,Coldspring-Oakhurst,45.36,,,,,Single-ply,SBD,M
Boys,55.79,1,Logan Rhame,Anahuac,55.34,99.79,65.77,113.4,278.96,Single-ply,SBD,M
Boys,59.87,1,John Kimble,Anahuac,59.87,183.7,102.06,172.37,458.13,Single-ply,SBD,M
Boys,59.87,2,Cole Newton,Anahuac,59.87,102.06,65.77,122.47,290.3,Single-ply,SBD,M
Boys,59.87,3,Bryce Shepherd,Coldspring-Oakhurst,58.51,83.91,52.16,102.06,238.14,Single-ply,SBD,M
Boys,59.87,4,Darrell White #2,Coldspring-Oakhurst,56.93,79.38,61.23,90.72,231.33,Single-ply,SBD,M
Boys,59.87,5,Jd Womack,Anahuac,57.15,65.77,56.7,97.52,219.99,Single-ply,SBD,M
Boys,59.87,6,Aaron Chatman,Coldspring-Oakhurst,58.29,61.23,45.36,83.91,190.51,Single-ply,SBD,M
Boys,67.13,1,Devonte Outerbridge,Anahuac,65.77,183.7,102.06,174.63,460.4,Single-ply,SBD,M
Boys,67.13,2,Cash Newton,Anahuac,63.05,124.74,79.38,131.54,335.66,Single-ply,SBD,M
Boys,67.13,3,John Baker,Anahuac,66.45,108.86,74.84,131.54,315.25,Single-ply,SBD,M
Boys,67.13,4,Tre Cooper,Coldspring-Oakhurst,64.41,115.67,77.11,120.2,312.98,Single-ply,SBD,M
Boys,67.13,5,Josh Hall,Sour Lake Hardin-Jefferson,65.32,136.08,63.5,113.4,312.98,Single-ply,SBD,M
Boys,67.13,6,Jay Trapp,Coldspring-Oakhurst,63.5,115.67,61.23,129.27,306.17,Single-ply,SBD,M
Boys,67.13,7,Porter May,Anahuac,67.13,97.52,72.57,131.54,301.64,Single-ply,SBD,M
Boys,67.13,8,Eric Swearingen,Cleveland,66.45,102.06,77.11,117.93,297.1,Single-ply,SBD,M
Boys,67.13,9,Omar Lopez,Anahuac,66.68,92.99,70.31,124.74,288.03,Single-ply,SBD,M
Boys,67.13,10,Edward Garner,Anahuac,66.68,92.99,61.23,124.74,278.96,Single-ply,SBD,M
Boys,67.13,11,Shannon Grantham,Sour Lake Hardin-Jefferson,64.86,90.72,63.5,113.4,267.62,Single-ply,SBD,M
Boys,74.84,1,James Hvamstad,Anahuac,74.84,149.69,99.79,156.49,405.97,Single-ply,SBD,M
Boys,74.84,2,Daniel Perrigin,Cleveland Tarkington,72.12,145.15,106.59,142.88,394.63,Single-ply,SBD,M
Boys,74.84,3,Dalton Blum,Cleveland Tarkington,71.89,120.2,102.06,151.95,374.21,Single-ply,SBD,M
Boys,74.84,4,Trey Finnex,Anahuac,72.57,124.74,77.11,172.37,374.21,Single-ply,SBD,M
Boys,74.84,5,Trent Holcomb,Coldspring-Oakhurst,72.12,133.81,102.06,136.08,371.95,Single-ply,SBD,M
Boys,74.84,6,Colton Monroe,Coldspring-Oakhurst,70.31,127.01,102.06,124.74,353.8,Single-ply,SBD,M
Boys,74.84,7,Rudi Mundo,Anahuac,68.49,102.06,81.65,158.76,342.46,Single-ply,SBD,M
Boys,74.84,8,Jacob Meadows,Coldspring-Oakhurst,73.48,111.13,97.52,129.27,337.93,Single-ply,SBD,M
Boys,74.84,9,Colby Presswood,Cleveland Tarkington,70.76,120.2,83.91,124.74,328.85,Single-ply,SBD,M
Boys,74.84,10,Trey Traylor,Anahuac,73.03,104.33,72.57,127.01,303.91,Single-ply,SBD,M
Boys,74.84,11,Trevor Christopher,Sour Lake Hardin-Jefferson,72.57,95.25,72.57,124.74,292.57,Single-ply,SBD,M
Boys,74.84,12,John Quiser,Coldspring-Oakhurst,72.12,102.06,68.04,115.67,285.76,Single-ply,SBD,M
Boys,74.84,13,Johnny Lively,Sour Lake Hardin-Jefferson,72.57,79.38,79.38,124.74,283.5,Single-ply,SBD,M
Boys,74.84,14,Taylor Irby,Anahuac,72.57,102.06,61.23,111.13,274.42,Single-ply,SBD,M
Boys,74.84,15,Ty Knupple,Anahuac,68.04,86.18,61.23,124.74,272.16,Single-ply,SBD,M
Boys,74.84,DQ,Hunter Havard,Anahuac,73.03,108.86,,131.54,,Single-ply,SBD,M
Boys,74.84,DQ,Jon Kirchner,Cleveland Tarkington,74.84,136.08,,102.06,,Single-ply,SBD,M
Boys,82.1,1,Jose Moreno,Anahuac,79.38,136.08,111.13,158.76,405.97,Single-ply,SBD,M
Boys,82.1,2,Chris Conn,Coldspring-Oakhurst,78.93,115.67,88.45,151.95,356.07,Single-ply,SBD,M
Boys,82.1,3,Jesus Selvera,Cleveland,80.29,113.4,70.31,154.22,337.93,Single-ply,SBD,M
Boys,82.1,4,Jonathan Giles,Cleveland Tarkington,76.2,133.81,74.84,120.2,328.85,Single-ply,SBD,M
Boys,82.1,5,Colton Laskoskie,Anahuac,82.1,97.52,83.91,136.08,317.51,Single-ply,SBD,M
Boys,82.1,6,Morgan Boyer,Anahuac,82.1,97.52,61.23,140.61,299.37,Single-ply,SBD,M
Boys,82.1,7,Cameron Fontenot,Sour Lake Hardin-Jefferson,77.11,90.72,63.5,124.74,278.96,Single-ply,SBD,M
Boys,82.1,DQ,Caleb Winslow,Anahuac,82.1,,90.72,165.56,,Single-ply,SBD,M
Boys,89.81,1,Jordan Smith,Cleveland Tarkington,83.46,181.44,92.99,183.7,458.13,Single-ply,SBD,M
Boys,89.81,2,Nathan Meyers,Anahuac,89.81,154.22,102.06,158.76,415.04,Single-ply,SBD,M
Boys,89.81,3,Micheal Swearingen,Cleveland,89.81,147.42,108.86,142.88,399.16,Single-ply,SBD,M
Boys,89.81,4,Zeph Beeman,Coldspring-Oakhurst,89.58,142.88,97.52,108.86,349.27,Single-ply,SBD,M
Boys,89.81,5,Dalen Guillory,Sour Lake Hardin-Jefferson,84.82,95.25,72.57,113.4,281.23,Single-ply,SBD,M
Boys,89.81,6,Gonzalo Monroy,Cleveland,88.22,83.91,72.57,124.74,281.23,Single-ply,SBD,M
Boys,89.81,7,Blake Havard,Cleveland Tarkington,83.91,79.38,65.77,122.47,267.62,Single-ply,SBD,M
Boys,89.81,DQ,Colton LaFrance,Cleveland Tarkington,88.9,124.74,,117.93,,Single-ply,SBD,M
Boys,99.79,1,Joe Stover,Coldspring-Oakhurst,96.84,156.49,102.06,165.56,424.11,Single-ply,SBD,M
Boys,99.79,2,Quentin Poindexter,Cleveland,94.12,142.88,97.52,181.44,421.84,Single-ply,SBD,M
Boys,99.79,3,Brandon Franks,Sour Lake Hardin-Jefferson,91.17,136.08,81.65,158.76,376.48,Single-ply,SBD,M
Boys,99.79,4,Randall Richards,Cleveland,98.66,131.54,79.38,163.29,374.21,Single-ply,SBD,M
Boys,99.79,5,Greg Ames,Sour Lake Hardin-Jefferson,94.8,104.33,77.11,136.08,317.51,Single-ply,SBD,M
Boys,99.79,6,David Pingry,Anahuac,97.52,113.4,74.84,115.67,303.91,Single-ply,SBD,M
Boys,99.79,7,Brett Attwood,Cleveland,90.72,113.4,70.31,102.06,285.76,Single-ply,SBD,M
Boys,99.79,8,Shelby Roland,Sour Lake Hardin-Jefferson,97.52,90.72,65.77,113.4,269.89,Single-ply,SBD,M
Boys,99.79,DQ,Cody Carr,Sour Lake Hardin-Jefferson,99.79,,83.91,151.95,,Single-ply,SBD,M
Boys,99.79,DQ,Colton Chapman,Cleveland Tarkington,94.8,165.56,,124.74,,Single-ply,SBD,M
Boys,109.77,1,Blake Speights,Anahuac,104.78,183.7,127.01,190.51,501.22,Single-ply,SBD,M
Boys,109.77,2,Blake Duhon,Anahuac,109.77,183.7,117.93,176.9,478.54,Single-ply,SBD,M
Boys,109.77,3,Cj Duenas,Coldspring-Oakhurst,108.86,183.7,106.59,170.1,460.4,Single-ply,SBD,M
Boys,109.77,4,Brian Morgan,Cleveland,101.15,124.74,95.25,158.76,378.75,Single-ply,SBD,M
Boys,109.77,5,Greg Dunham,Coldspring-Oakhurst,103.87,124.74,97.52,151.95,374.21,Single-ply,SBD,M
Boys,109.77,6,Johnathan Garza,Anahuac,105.23,140.61,83.91,149.69,374.21,Single-ply,SBD,M
Boys,109.77,7,Hunter Bergeron,Anahuac,109.32,142.88,79.38,151.95,374.21,Single-ply,SBD,M
Boys,109.77,8,Cole Turner,Anahuac,109.77,133.81,79.38,145.15,358.34,Single-ply,SBD,M
Boys,109.77,9,Kyle Prentiss,Cleveland,104.33,113.4,83.91,136.08,333.39,Single-ply,SBD,M
Boys,109.77,DQ,Ryan Bell,Tomball Concordia Lutheran,107.95,233.6,,235.87,,Single-ply,SBD,M
Boys,124.74,1,Jake Oler,Anahuac,122.47,170.1,113.4,158.76,442.25,Single-ply,SBD,M
Boys,124.74,2,Donald Klecka,Anahuac,114.31,111.13,92.99,163.29,367.41,Single-ply,SBD,M
Boys,124.74,3,Matthew Moses,Sour Lake Hardin-Jefferson,124.74,113.4,83.91,136.08,333.39,Single-ply,SBD,M
Boys,124.74+,1,Kevin Leach,Coldspring-Oakhurst,141.52,226.8,136.08,208.65,571.53,Single-ply,SBD,M
Boys,124.74+,2,Dontrell Smith,Anahuac,142.88,201.85,120.2,201.85,523.9,Single-ply,SBD,M
Boys,124.74+,3,Leroy Powell,Anahuac,129.27,181.44,102.06,181.44,464.93,Single-ply,SBD,M
Boys,124.74+,4,Dalton Conrad,Coldspring-Oakhurst,125.19,147.42,106.59,138.35,392.36,Single-ply,SBD,M
Boys,124.74+,5,Nolan Walker,Coldspring-Oakhurst,126.1,149.69,58.97,181.44,390.09,Single-ply,SBD,M
Boys,124.74+,6,Blake Goudeau,Anahuac,127.01,122.47,88.45,176.9,387.82,Single-ply,SBD,M
Boys,124.74+,7,Oswaldo Jimenez,Anahuac,126.1,117.93,81.65,156.49,356.07,Single-ply,SBD,M
Boys,124.74+,8,Landon Rowland,Anahuac,129.27,115.67,102.06,102.06,319.78,Single-ply,SBD,M
Boys,124.74+,9,Jesus Varella,Cleveland,127.46,117.93,70.31,124.74,312.98,Single-ply,SBD,M
Boys,124.74+,10,Hector Espinoza,Cleveland,130.18,102.06,61.23,124.74,288.03,Single-ply,SBD,M
