Place,Name,BirthYear,WeightClassKg,BodyweightKg,Country,Best3SquatKg,Best3BenchKg,Best3DeadliftKg,TotalKg,Sex,Division,Event,Equipment
1,Phil Richard,1971,52,52,UK,185,105,180,470,M,Juniors,SBD,Single-ply
2,Thierry Brunat,1967,52,51.9,France,150,95,205,450,M,Juniors,SBD,Single-ply
3,Matti Laatikainen,1972,52,51.9,Finland,147.5,90,172.5,410,M,Juniors,SBD,Single-ply
4,Patrick Constantine,1969,52,45.2,UK,145,70,180,395,M,Juniors,SBD,Single-ply
5,Morten Bergesen,1970,52,51.2,Norway,155,82.5,150,387.5,M,Juniors,SBD,Single-ply
6,Reno Karkuschke,1968,52,50.6,Germany,130,65,150,345,M,Juniors,SBD,Single-ply
1,Magnus Carlsson,1967,56,55.9,Sweden,245,157.5,120,522.5,M,Juniors,SBD,Single-ply
2,Asko Sirviö,1968,56,56,Finland,185,127.5,200,512.5,M,Juniors,SBD,Single-ply
3,Jan Christiansen,1969,56,55.2,Norway,175,120,185,480,M,Juniors,SBD,Single-ply
4,Michel Bourquard,1968,56,55.3,Switzerland,180,97.5,155,432.5,M,Juniors,SBD,Single-ply
5,Josef Limbovsky,1974,56,55.4,Hungary,150,90,160,400,M,Juniors,SBD,Single-ply
1,Max Riviere,1967,60,59.9,France,212.5,125,205,542.5,M,Juniors,SBD,Single-ply
2,Timo Hyvärinen,1968,60,59.7,Finland,187.5,105,207.5,500,M,Juniors,SBD,Single-ply
3,Mikkael Nilsson,1968,60,59.4,Sweden,177.5,100,220,497.5,M,Juniors,SBD,Single-ply
4,Rune Berger,1967,60,59.8,Norway,195,105,197.5,497.5,M,Juniors,SBD,Single-ply
5,Ulf Andersson,1969,60,59.9,Sweden,170,105,195,470,M,Juniors,SBD,Single-ply
1,Per Berglund,1967,67.5,67.4,Sweden,225,155,245,625,M,Juniors,SBD,Single-ply
2,Jussi Huhtanen,1967,67.5,67.1,Finland,247.5,122.5,245,615,M,Juniors,SBD,Single-ply
3,Philippe Hoareau,1968,67.5,66.8,France,250,127.5,227.5,605,M,Juniors,SBD,Single-ply
4,Jonas Bengtssen,1968,67.5,67,Sweden,230,122.5,230,582.5,M,Juniors,SBD,Single-ply
5,Arne Brovold,1970,67.5,67.4,Norway,220,122.5,222.5,565,M,Juniors,SBD,Single-ply
6,Alejand Rodrigues,,67.5,66.6,Spain,207.5,122.5,215,545,M,Juniors,SBD,Single-ply
7,Ste Sichelschmidt,1967,67.5,67.2,Germany,180,125,215,520,M,Juniors,SBD,Single-ply
1,Oivind Björnsen,1970,75,74.3,Norway,245,170,250,665,M,Juniors,SBD,Single-ply
2,Ferdi Pesendörfer,1967,75,74.4,Austria,250,150,257.5,657.5,M,Juniors,SBD,Single-ply
3,Tim Litt,1967,75,74.7,UK,250,130,230,610,M,Juniors,SBD,Single-ply
4,Juha Tuononen,1972,75,74.7,Finland,217.5,155,230,602.5,M,Juniors,SBD,Single-ply
5,Mattias Tysk,1967,75,69.5,Sweden,220,137.5,240,597.5,M,Juniors,SBD,Single-ply
6,Lawrence Mentesh,1967,75,73.2,UK,215,132.5,250,597.5,M,Juniors,SBD,Single-ply
7,David Cretzan,1967,75,74.7,Ireland,212.5,135,242.5,590,M,Juniors,SBD,Single-ply
DQ,Sabino Pisani,1968,75,74.4,Italy,250,,,,M,Juniors,SBD,Single-ply
DQ,Mikael Stroömblad,1967,75,74.6,Sweden,,,,,M,Juniors,SBD,Single-ply
1,Kjell Kaspersen,1968,82.5,81.7,Norway,300,150,270,720,M,Juniors,SBD,Single-ply
2,Jörgen Ljungberg,1967,82.5,82.4,Sweden,260,155,285,700,M,Juniors,SBD,Single-ply
3,Fröde Gundersen #1,1967,82.5,82.5,Norway,260,150,280,690,M,Juniors,SBD,Single-ply
4,Dirk Surma,1967,82.5,82.2,Germany,275,175,237.5,687.5,M,Juniors,SBD,Single-ply
5,Laureat Dewas,1969,82.5,80.7,France,270,140,272.5,682.5,M,Juniors,SBD,Single-ply
6,Juho Tervonen,1967,82.5,81.6,Finland,250,157.5,245,652.5,M,Juniors,SBD,Single-ply
7,Vasgen Edward,1967,82.5,79,UK,235,155,257.5,647.5,M,Juniors,SBD,Single-ply
8,Jonas Åslund,1970,82.5,82.3,Sweden,230,142.5,255,627.5,M,Juniors,SBD,Single-ply
9,Michael Kalter,1972,82.5,81.7,Netherlands,225,110,250,585,M,Juniors,SBD,Single-ply
1,Kimmo Ilmanen,1967,90,89.6,Finland,312.5,205,300,817.5,M,Juniors,SBD,Single-ply
2,Migu Marie-Sainte,1968,90,87.6,France,275,190,265,730,M,Juniors,SBD,Single-ply
3,Jan R. Johansen,1967,90,89.9,Norway,285,145,275,705,M,Juniors,SBD,Single-ply
4,Jörg Schmid,1967,90,88.7,Germany,250,130,305,685,M,Juniors,SBD,Single-ply
5,Christe Magnusson,1967,90,88.8,Sweden,245,155,282.5,682.5,M,Juniors,SBD,Single-ply
6,Jean Zivkovic,1969,90,88.4,Austria,260,150,270,680,M,Juniors,SBD,Single-ply
7,Peter Baumeister,1967,90,88.6,Germany,277.5,140,255,672.5,M,Juniors,SBD,Single-ply
8,Attila Rott,,90,83.7,Hungary,215,150,215,580,M,Juniors,SBD,Single-ply
1,Carl Olav Christoffersen,1968,100,91.7,Norway,315,192.5,290,797.5,M,Juniors,SBD,Single-ply
2,Jarkko Makkonen,1968,100,99.4,Finland,300,185,270,755,M,Juniors,SBD,Single-ply
3,Franc Bottiglieri,1968,100,100,UK,300,170,285,755,M,Juniors,SBD,Single-ply
4,Olaf Nimmerfroh,1971,100,93.8,Germany,320,172.5,260,752.5,M,Juniors,SBD,Single-ply
5,Alexander Schütze,1967,100,95.6,Germany,285,150,252.5,687.5,M,Juniors,SBD,Single-ply
6,Attila Graffi,,100,98.5,Hungary,200,130,250,580,M,Juniors,SBD,Single-ply
1,Sami Kerola,1967,110,109.9,Finland,307.5,182.5,305,795,M,Juniors,SBD,Single-ply
2,Aribert Forster,1967,110,108.9,Germany,280,170,290,740,M,Juniors,SBD,Single-ply
3,Gary Christie,1967,110,108.1,UK,260,160,317.5,737.5,M,Juniors,SBD,Single-ply
4,Arve Rynnekleiv,1967,110,106.3,Norway,280,145,295,720,M,Juniors,SBD,Single-ply
5,Wim Warnsteeker,1969,110,109.5,Netherlands,262.5,140,255,657.5,M,Juniors,SBD,Single-ply
1,Karl Saliger,1969,125,122.3,Austria,352.5,230,320,902.5,M,Juniors,SBD,Single-ply
2,Mika Valve,1967,125,114.6,Finland,280,205,335,820,M,Juniors,SBD,Single-ply
3,Michael Scheig,1968,125,117.6,Germany,285,167.5,285,737.5,M,Juniors,SBD,Single-ply
1,Wulf Kronemann,1967,125+,125.6,Germany,330,210,297.5,837.5,M,Juniors,SBD,Single-ply
2,Jukka Parkkonen,1968,125+,125.5,Finland,315,210,310,835,M,Juniors,SBD,Single-ply
DQ,Lars Klev,1970,125+,126.6,Norway,335,192.5,,,M,Juniors,SBD,Single-ply
