Sex,WeightClassKg,Division,Name,BodyweightKg,Squat1Kg,Squat2Kg,Squat3Kg,Best3SquatKg,Bench1Kg,Bench2Kg,Bench3Kg,Best3BenchKg,Deadlift1Kg,Deadlift2Kg,Deadlift3Kg,Best3DeadliftKg,TotalKg,Place,Event,Equipment
M,56,Masters 2,Franco Giummarra,55.05,165,180,-200,180,70,77.5,-82.5,77.5,180,200,-225,200,457.5,1,SBD,Single-ply
M,60,Open,Ivan Voci,60,150,-165,-165,150,-95,95,-102.5,95,160,175,-190,175,420,1,SBD,Single-ply
M,60,Juniors,Vincenzo Botta,57.8,-115,120,135,135,95,105,-110,105,-160,160,170,170,410,1,SBD,Single-ply
M,60,Sub-Juniors,Leonardo Graziosi,58.35,120,-130,-135,120,-70,70,-72.5,70,130,140,-145,140,330,1,SBD,Single-ply
M,67.5,Open,Giuseppe D'Alessandro,65.7,-175,180,-190,180,120,-127.5,127.5,127.5,195,202.5,210,210,517.5,1,SBD,Single-ply
M,67.5,Open,Marco Guidi,66.85,-190,190,-200,190,100,105,-110,105,190,205,210,210,505,2,SBD,Single-ply
M,67.5,Open,Daniele Pomarico,66.4,140,150,-160,150,115,120,-125,120,165,175,185,185,455,3,SBD,Single-ply
M,67.5,Juniors,Paolo Campli,66,165,-175,-175,165,80,-87.5,87.5,87.5,180,190,200,200,452.5,1,SBD,Single-ply
M,67.5,Masters 1,Paolo Petrongari,62.5,130,-150,150,150,85,102.5,-110,102.5,160,175,180,180,432.5,1,SBD,Single-ply
M,67.5,Open,Matteo Condemi,64.35,155,-170,-170,155,100,-107.5,-107.5,100,155,-170,-170,155,410,4,SBD,Single-ply
M,67.5,Open,Daniele Lattanzio,66.2,-150,-160,-170,,,,,,,,,,,DQ,SBD,Single-ply
M,67.5,Open,Andrea Porcari,66.6,-215,-215,-215,,,,,,,,,,,DQ,SBD,Single-ply
M,67.5,Masters 1,Luigi Danielli,67.5,-200,-200,-200,,,,,,,,,,,DQ,SBD,Single-ply
M,75,Masters 2,Noriano Coppari,74.5,-220,-220,220,220,-140,140,150,150,240,-250,,240,610,1,SBD,Single-ply
M,75,Open,Francisco Palmisano,72.3,200,210,-215,210,120,-130,130,130,215,230,-240,230,570,1,SBD,Single-ply
M,75,Open,Valerio Treviso,75,-190,-190,190,190,120,130,-135,130,225,235,250,250,570,2,SBD,Single-ply
M,75,Open,Andrea Conti,75,180,-190,190,190,130,140,145,145,200,215,-220,215,550,3,SBD,Single-ply
M,75,Masters 3,Sergio Zanetti,74.6,210,-220,-225,210,-120,120,-125,120,200,216,,216,546,1,SBD,Single-ply
M,75,Open,Mario Ronsisvalle,74.4,170,-180,180,180,-110,115,-125,115,190,205,-220,205,500,4,SBD,Single-ply
M,75,Sub-Juniors,Riccardo Marazzini,70.5,160,170,177.5,177.5,-110,110,-115,110,165,175,190,190,477.5,1,SBD,Single-ply
M,75,Juniors,Riccardo Rollo,75,-165,165,-175,165,100,110,-115,110,175,190,200,200,475,1,SBD,Single-ply
M,75,Juniors,Simone Dallastra,75,165,170,175,175,95,100,-107.5,100,-175,185,-200,185,460,2,SBD,Single-ply
M,75,Open,Federico Comoglio,71.8,160,165,-170,165,90,95,-100,95,170,180,190,190,450,5,SBD,Single-ply
M,75,Open,Carlo Colapinto,72.6,-155,155,-170,155,-110,-110,110,110,160,170,-185,170,435,6,SBD,Single-ply
M,75,Juniors,Fabio Falzoi,74,-150,-150,150,150,95,-100,100,100,170,180,-190,180,430,3,SBD,Single-ply
M,75,Open,Lorenzo Asso,74.4,-170,-170,-185,,,,,,,,,,,DQ,SBD,Single-ply
M,75,Masters 1,Massimo Cremonesi,74.7,-180,-185,-185,,,,,,,,,,,DQ,SBD,Single-ply
M,82.5,Open,Simone Sanasi,82.3,250,265,275,275,150,165,170,170,260,-300,-300,260,705,1,SBD,Single-ply
M,82.5,Open,Daniele Ghignoli,80.3,-250,-250,250,250,140,145,-147.5,145,255,-267.5,267.5,267.5,662.5,2,SBD,Single-ply
M,82.5,Open,Riccardo Brambilla,81.5,220,235,245,245,145,155,-160,155,230,-245,245,245,645,3,SBD,Single-ply
M,82.5,Masters 1,Piergiorgio Criscione,81.6,230,-240,240,240,-130,130,140,140,250,260,-265,260,640,1,SBD,Single-ply
M,82.5,Masters 2,Salvatore Venuto,81.3,-210,210,220,220,175,-185,-185,175,210,220,-230,220,615,1,SBD,Single-ply
M,82.5,Open,Damiano Boscarino,76.3,220,-240,-240,220,110,-115,-115,110,190,-200,-200,190,520,4,SBD,Single-ply
M,82.5,Open,Giuseppe Grifoni,81.4,160,-180,-200,160,100,110,-120,110,200,-220,-220,200,470,5,SBD,Single-ply
M,82.5,Juniors,Marco Viglietti,77.6,130,145,160,160,105,-112.5,-112.5,105,150,170,175,175,440,1,SBD,Single-ply
M,82.5,Open,Mimmo Dabusch,82.2,-220,-220,-220,,,,,,,,,,,DQ,SBD,Single-ply
M,90,Open,Stefano Bettati,87.5,260,280,-300,280,-160,160,-190,160,260,280,-300,280,720,1,SBD,Single-ply
M,90,Masters 2,Sandro Rossi,89.5,265,275,280,280,130,135,-140,135,265,270,275,275,690,1,SBD,Single-ply
M,90,Open,Alessio Marazzini,89.7,250,265,272.5,272.5,155,162.5,-172.5,162.5,240,255,-262.5,255,690,2,SBD,Single-ply
M,90,Masters 1,Giorgio Agostinoni,82.6,240,260,270,270,140,-147.5,147.5,147.5,235,250,-267.5,250,667.5,1,SBD,Single-ply
M,90,Open,Walter Bonazza,84.2,-200,200,220,220,165,180,-190,180,250,-260,-265,250,650,3,SBD,Single-ply
M,90,Open,Alessandro Silvas,87.2,210,220,225,225,140,150,-155,150,230,240,250,250,625,4,SBD,Single-ply
M,90,Masters 2,Carlo DeCarli,86.4,-220,-220,220,220,80,85,90,90,230,242.5,252.5,252.5,562.5,2,SBD,Single-ply
M,90,Masters 1,Roberto Bettati,86.7,220,-240,-240,220,130,140,145,145,100,-120,-120,100,465,2,SBD,Single-ply
M,90,Masters 1,Alessandro Favorito,85.7,240,255,-265,255,-180,-180,-180,,,,,,,DQ,SBD,Single-ply
F,48,Masters 1,Manuela Stucchi,47.5,110,120,125,125,52.5,55,57.5,57.5,130,140,146,146,328.5,1,SBD,Single-ply
F,52,Open,Alessia Rodina,51.3,125,135,140,140,55,57.5,60,60,130,-140,140,140,340,1,SBD,Single-ply
F,52,Open,Maria Pia Salemme,50.3,115,122.5,-127.5,122.5,60,-65,-65,60,135,-152.5,-152.5,135,317.5,3,SBD,Single-ply
F,52,Open,Stefania Stucchi,51.1,-100,100,-105,100,55,57.5,60,60,110,115,122.5,122.5,282.5,4,SBD,Single-ply
F,52,Open,Giuliana Tomasello,52,105,-117.5,-117.5,105,50,55,-57.5,55,105,117.5,-125,117.5,277.5,5,SBD,Single-ply
F,52,Open,Daniela Raineri,50.4,70,80,90,90,-45,45,-50,45,95,105,115,115,250,6,SBD,Single-ply
F,52,Open,Itena Cuci,49.5,110,120,130,130,50,57.5,60,60,110,120,130,130,320,2,SBD,Single-ply
F,56,Open,Tatjana Mele,56,95,105,-115,105,60,-65,-65,60,115,125,-135,125,290,1,SBD,Single-ply
F,56,Open,Manuela Masci,54.4,75,82.5,90,90,50,-55,-55,50,90,100,110,110,250,2,SBD,Single-ply
F,56,Open,Sabrina Gaglio,54.8,80,85,90,90,40,45,-50,45,90,100,107.5,107.5,242.5,3,SBD,Single-ply
F,60,Open,Emanuela Cazzaniga,57.4,60,-70,-70,60,65,-70,-70,65,130,-140,140,140,265,1,SBD,Single-ply
F,60,Masters 2,Laura Locatelli,57.3,-160,-160,,,,,,,,,,,,DQ,SBD,Single-ply
F,67.5,Masters 1,Antonietta Orsini,67,190,200,,200,140,-142.5,-142.5,140,200,,,200,540,1,SBD,Single-ply
F,67.5,Masters 1,Donatella Beretta,66.7,130,140,-145,140,55,-62.5,62.5,62.5,155,-165,-165,155,357.5,2,SBD,Single-ply
F,67.5,Open,Alessia Aquili,67.1,105,115,-120,115,55,-62.5,62.5,62.5,110,122.5,-130,122.5,300,1,SBD,Single-ply
F,75,Open,Barbara Galimberti,68.9,140,-150,-150,140,90,95,-97.5,95,140,150,155,155,390,1,SBD,Single-ply
F,75,Open,Elena Sala,70.2,110,120,125,125,-115,-115,-115,,,,,,,DQ,SBD,Single-ply
F,82.5,Masters 1,Maria Pia Moscianese,76.2,140,150,160,160,65,70,75,75,165,175,185,185,420,1,SBD,Single-ply
F,90,Open,Mara Besacchi,82.9,115,125,135,135,60,75,-85,75,125,135,150,150,360,1,SBD,Single-ply
M,100,Open,Claudio D'Ovidio,98.9,320,-340,,320,240,247.5,,247.5,-250,250,-260,250,817.5,1,SBD,Single-ply
M,100,Masters 1,Achille Marrone,94.9,265,-275,-280,265,190,-202.5,-202.5,190,270,285,292.5,292.5,747.5,1,SBD,Single-ply
M,100,Open,Umberto Melani,95.1,250,-260,265,265,160,170,177.5,177.5,270,280,-300,280,722.5,3,SBD,Single-ply
M,100,Masters 1,Enrico Mussi,93.7,220,-240,240,240,130,140,150,150,230,250,260,260,650,2,SBD,Single-ply
M,100,Open,Gino Sanges,97.3,260,280,-300,280,200,210,220,220,280,-300,-300,280,780,2,SBD,Single-ply
M,110,Open,Marco Lazzari,108.1,260,-280,-280,260,200,215,-220,215,290,300,330,330,805,1,SBD,Single-ply
M,110,Open,Omar Ciaburri,109,-270,-270,300,300,170,180,-190,180,280,290,-295,290,770,2,SBD,Single-ply
M,110,Open,Claudio Carini,100.9,250,-265,275,275,160,-170,-170,160,290,305,-310,305,740,3,SBD,Single-ply
M,110,Open,Andrea Bassini,107.4,110,,,110,225,-231,-231,225,135,142.5,220,220,555,4,SBD,Single-ply
M,125,Masters 1,Antonio Russo,112,300,310,320,320,175,182.5,187.5,187.5,320,330,-340,330,837.5,1,SBD,Single-ply
M,125,Open,Gianluca Bellandi,110.1,-310,320,,320,180,190,200,200,270,-285,285,285,805,1,SBD,Single-ply
M,125,Open,Nicola Tacito,117.8,250,-270,-270,250,160,170,180,180,280,300,315,315,745,2,SBD,Single-ply
M,125,Open,Francesco Natalizi,116.4,210,230,-250,230,80,95,-100,95,200,220,-230,220,545,3,SBD,Single-ply
M,125,Masters 2,Massimo Papini,120.3,100,,,100,252.5,255,-260,255,100,,,100,455,1,SBD,Single-ply
M,125,Open,Massimo Sala,116.4,75,,,75,190,-200,200,200,75,,,75,350,4,SBD,Single-ply
M,125+,Open,Francesco Pellizzoni,128,320,-350,-350,320,180,200,-212.5,200,280,300,320,320,840,1,SBD,Single-ply
M,125+,Open,Giuseppe Pellino,125.8,-230,230,-250,230,180,190,-200,190,250,270,280,280,700,2,SBD,Single-ply
