Division,WeightClassKg,Place,Name,Team,BodyweightKg,Best3SquatKg,Best3BenchKg,Best3DeadliftKg,TotalKg,Equipment,Event,Sex
Boys,51.71,1,Santos Rodriguez,Fort Worth North Side,51.26,127.01,77.11,145.15,349.27,Single-ply,SBD,M
Boys,55.79,2,Sean Worlow,Rio Vista,51.8,124.74,63.5,131.54,319.78,Single-ply,SBD,M
Boys,51.71,3,Justin Conley,Alvarado,51.71,115.67,70.31,131.54,317.51,Single-ply,SBD,M
Boys,51.71,4,Guillermo Olvera,Alvarado,50.8,102.06,61.23,138.35,301.64,Single-ply,SBD,M
Boys,55.79,5,Shyrod Anderson,Cleburne,51.89,108.86,52.16,140.61,301.64,Single-ply,SBD,M
Boys,51.71,6,Cody Noller,Rio Vista,50.53,108.86,49.9,117.93,276.69,Single-ply,SBD,M
Boys,51.71,DQ,Grady Rhoden,Alvarado,51.44,,,,,Single-ply,SBD,M
Boys,55.79,1,Ignacio Alvarado,Alvarado,54.43,145.15,72.57,136.08,353.8,Single-ply,SBD,M
Boys,55.79,2,Alex Olmos,Everman,55.16,113.4,86.18,113.4,312.98,Single-ply,SBD,M
Boys,55.79,3,David McGee,Red Oak,55.34,102.06,65.77,140.61,308.44,Single-ply,SBD,M
Boys,55.79,4,Aaron George,Everman,52.62,90.72,49.9,90.72,231.33,Single-ply,SBD,M
Boys,59.87,1,Clarington Lightfoot,Everman,58.6,217.72,102.06,190.51,510.29,Single-ply,SBD,M
Boys,59.87,2,Shon Parker,Dallas Seagoville,59.69,151.95,120.2,199.58,471.74,Single-ply,SBD,M
Boys,67.13,3,Devin Walker,Everman,60.06,179.17,95.25,154.22,428.64,Single-ply,SBD,M
Boys,67.13,4,Charles Crosby,Red Oak,60.06,154.22,79.38,174.63,408.23,Single-ply,SBD,M
Boys,59.87,5,Tyler Hickman,Joshua,59.06,147.42,95.25,154.22,396.89,Single-ply,SBD,M
Boys,59.87,6,Devante Johnson,Keller Fossil Ridge,59.78,149.69,72.57,151.95,374.21,Single-ply,SBD,M
Boys,59.87,7,Juan Guillen,Keller Fossil Ridge,59.69,140.61,86.18,133.81,360.61,Single-ply,SBD,M
Boys,59.87,8,V Lloyd,South Grand Prairie,59.51,136.08,83.91,136.08,356.07,Single-ply,SBD,M
Boys,59.87,9,Dominique Jackson,Everman,58.33,142.88,43.09,151.95,337.93,Single-ply,SBD,M
Boys,67.13,1,Thomas Base,Crowley,67.04,192.78,108.86,199.58,501.22,Single-ply,SBD,M
Boys,67.13,2,Jared Clark,Burleson,65.68,181.44,92.99,179.17,453.59,Single-ply,SBD,M
Boys,67.13,3,Gonzalo Berlingeri,Keller Fossil Ridge,64.86,176.9,106.59,158.76,442.25,Single-ply,SBD,M
Boys,67.13,4,Tyler Barnett,Keller Central,66.59,179.17,95.25,167.83,442.25,Single-ply,SBD,M
Boys,67.13,5,Dylan Stubbe,Justin Northwest,67.13,163.29,88.45,176.9,428.64,Single-ply,SBD,M
Boys,67.13,6,Michael Hernandez,Fort Worth North Side,63.59,136.08,83.91,163.29,383.29,Single-ply,SBD,M
Boys,67.13,7,C. Johns,South Grand Prairie,62.69,136.08,97.52,127.01,360.61,Single-ply,SBD,M
Boys,67.13,DQ,Daniel Butureza,North Crowley,64.59,136.08,,,,Single-ply,SBD,M
Boys,74.84,1,Ruben Fletcher,Everman,74.84,226.8,113.4,235.87,576.06,Single-ply,SBD,M
Boys,74.84,2,Antonio Alba,Fort Worth North Side,71.85,206.38,106.59,219.99,532.97,Single-ply,SBD,M
Boys,74.84,3,Casey Graham,Godley,71.58,217.72,108.86,199.58,526.17,Single-ply,SBD,M
Boys,74.84,4,Austin Mears,Cleburne,73.66,199.58,127.01,195.04,521.63,Single-ply,SBD,M
Boys,74.84,5,David Mann,Mansfield Timberview,74.75,199.58,124.74,197.31,521.63,Single-ply,SBD,M
Boys,74.84,6,Angel Salasar,Fort Worth Polytechnic,74.66,174.63,129.27,204.12,508.02,Single-ply,SBD,M
Boys,82.1,7,Fred Griffin,Everman,74.93,181.44,117.93,192.78,492.15,Single-ply,SBD,M
Boys,74.84,8,Jeremi Lewis,Red Oak,74.57,176.9,108.86,204.12,489.88,Single-ply,SBD,M
Boys,74.84,9,Aj Clay,Everman,70.13,181.44,97.52,208.65,487.61,Single-ply,SBD,M
Boys,74.84,10,Brennan Sooter,Justin Northwest,70.76,165.56,95.25,188.24,449.06,Single-ply,SBD,M
Boys,74.84,11,David Rodriguez,Joshua,72.48,165.56,102.06,181.44,449.06,Single-ply,SBD,M
Boys,74.84,12,Wilber Pressly,South Grand Prairie,70.67,158.76,115.67,163.29,437.72,Single-ply,SBD,M
Boys,74.84,13,Mike Halliburton,South Grand Prairie,74.66,158.76,99.79,163.29,421.84,Single-ply,SBD,M
Boys,74.84,14,Will Adams,North Crowley,70.49,136.08,106.59,161.03,403.7,Single-ply,SBD,M
Boys,74.84,15,Essix Lightfoot,Everman,70.67,142.88,86.18,136.08,365.14,Single-ply,SBD,M
Boys,74.84,16,Reed Puckett,Keller Fossil Ridge,71.3,129.27,83.91,133.81,347,Single-ply,SBD,M
Boys,74.84,DQ,Jibran Ahmad,North Crowley,70.94,,,,,Single-ply,SBD,M
Boys,74.84,DQ,Kwasi Bradford,Everman,69.31,,,,,Single-ply,SBD,M
Boys,82.1,1,Marcelous Singleteary,Mansfield Timberview,82.1,226.8,129.27,233.6,589.67,Single-ply,SBD,M
Boys,82.1,2,Colton Roelofs,Justin Northwest,79.83,219.99,140.61,226.8,587.4,Single-ply,SBD,M
Boys,82.1,3,Jose Ramirez,Fort Worth North Side,80.47,199.58,131.54,238.14,569.26,Single-ply,SBD,M
Boys,82.1,4,Adrian Alcantar,Keller Fossil Ridge,77.47,213.19,129.27,195.04,537.51,Single-ply,SBD,M
Boys,82.1,5,Justin Campos,Fort Worth North Side,79.29,199.58,113.4,199.58,512.56,Single-ply,SBD,M
Boys,89.81,6,Ernest Cosio,Crowley,82.19,213.19,99.79,190.51,503.49,Single-ply,SBD,M
Boys,82.1,7,Q Woods,South Grand Prairie,81.01,204.12,115.67,172.37,492.15,Single-ply,SBD,M
Boys,82.1,8,E. Smith,South Grand Prairie,78.11,181.44,115.67,172.37,469.47,Single-ply,SBD,M
Boys,82.1,9,Jacob Edwards,Crowley,82.01,185.97,122.47,154.22,462.66,Single-ply,SBD,M
Boys,82.1,10,Jesse Parker,Joshua,81.37,176.9,106.59,174.63,458.13,Single-ply,SBD,M
Boys,82.1,11,Erik Williams,Crowley,80.47,172.37,92.99,170.1,435.45,Single-ply,SBD,M
Boys,82.1,12,Gustavo Garcia,Fort Worth Polytechnic,82.1,142.88,108.86,158.76,410.5,Single-ply,SBD,M
Boys,89.81,1,Jeff Stevens,Justin Northwest,89.36,249.48,158.76,256.28,664.51,Single-ply,SBD,M
Boys,89.81,2,Daniel Johnston,Alvarado,88.54,229.06,142.88,233.6,605.55,Single-ply,SBD,M
Boys,99.79,3,Cody Creek,Crowley,89.9,226.8,133.81,231.33,591.94,Single-ply,SBD,M
Boys,89.81,4,Cedric Shaw,Everman,85.73,219.99,97.52,210.92,528.44,Single-ply,SBD,M
Boys,89.81,5,Kody Young,Godley,88.72,181.44,129.27,208.65,519.36,Single-ply,SBD,M
Boys,89.81,6,Aj Castillo,Alvarado,88.99,201.85,129.27,172.37,503.49,Single-ply,SBD,M
Boys,89.81,7,Cody Turner,Joshua,87.63,190.51,106.59,176.9,474,Single-ply,SBD,M
Boys,89.81,8,Rodney Fernandez,Joshua,89.36,188.24,95.25,188.24,471.74,Single-ply,SBD,M
Boys,89.81,9,Chris Navarro,North Crowley,89.54,170.1,97.52,185.97,453.59,Single-ply,SBD,M
Boys,89.81,10,Jose Campos,Fort Worth Polytechnic,86.45,138.35,111.13,158.76,408.23,Single-ply,SBD,M
Boys,89.81,11,Travis Horner,Joshua,85.37,156.49,95.25,154.22,405.97,Single-ply,SBD,M
Boys,89.81,12,Nick Sanchez,Keller Fossil Ridge,83.1,131.54,92.99,154.22,378.75,Single-ply,SBD,M
Boys,89.81,DQ,Jacob Allen,Rio Vista,88.63,204.12,117.93,,,Single-ply,SBD,M
Boys,89.81,DQ,Arturo Padilla,Fort Worth North Side,83.46,145.15,,,,Single-ply,SBD,M
Boys,99.79,DQ,Kylee Hill,Crowley,89.99,,,,,Single-ply,SBD,M
Boys,99.79,1,Trenton Turrentine,Keller Central,94.26,249.48,154.22,224.53,628.23,Single-ply,SBD,M
Boys,99.79,2,Brian Ngwa,Mansfield Timberview,96.89,238.14,145.15,238.14,621.42,Single-ply,SBD,M
Boys,99.79,3,Henry Silva,Keller Fossil Ridge,98.97,258.55,136.08,208.65,603.28,Single-ply,SBD,M
Boys,99.79,4,Shane King,Justin Northwest,96.07,231.33,120.2,233.6,585.13,Single-ply,SBD,M
Boys,99.79,5,Matt Sandjo,Keller Fossil Ridge,96.16,204.12,124.74,226.8,555.65,Single-ply,SBD,M
Boys,99.79,6,Eric Mendes,Keller Central,98.88,217.72,124.74,208.65,551.11,Single-ply,SBD,M
Boys,99.79,7,Michael Ray,Justin Northwest,93.35,213.19,122.47,213.19,548.85,Single-ply,SBD,M
Boys,99.79,8,Ryan Clewis,Godley,91.81,222.26,120.2,201.85,544.31,Single-ply,SBD,M
Boys,99.79,9,L. Evans,South Grand Prairie,99.25,213.19,117.93,199.58,530.7,Single-ply,SBD,M
Boys,99.79,10,Jason Poole,Fort Worth Western Hills,93.62,192.78,108.86,217.72,519.36,Single-ply,SBD,M
Boys,99.79,11,S. Blackwell,South Grand Prairie,91.99,190.51,138.35,183.7,512.56,Single-ply,SBD,M
Boys,99.79,12,Travis Stubblefield,Justin Northwest,98.97,204.12,108.86,183.7,496.68,Single-ply,SBD,M
Boys,99.79,13,Alfonso Castellanos,Keller Central,98.43,183.7,133.81,163.29,480.81,Single-ply,SBD,M
Boys,99.79,14,D. Chandler,South Grand Prairie,95.98,181.44,124.74,158.76,464.93,Single-ply,SBD,M
Boys,99.79,15,AJ Willingham,Fort Worth Western Hills,92.35,165.56,127.01,165.56,458.13,Single-ply,SBD,M
Boys,99.79,16,Collin Elrod,Joshua,91.81,170.1,102.06,172.37,444.52,Single-ply,SBD,M
Boys,99.79,17,Amani Balowa,South Grand Prairie,92.62,181.44,90.72,172.37,444.52,Single-ply,SBD,M
Boys,99.79,18,Dylan Cryer,North Crowley,91.99,163.29,106.59,163.29,433.18,Single-ply,SBD,M
Boys,99.79,DQ,Eric Ray,Red Oak,99.16,233.6,127.01,,,Single-ply,SBD,M
Boys,99.79,DQ,Paul Cox,Everman,98.7,,,,,Single-ply,SBD,M
Boys,109.77,1,Andrew Wiggins,Everman,104.6,226.8,124.74,226.8,578.33,Single-ply,SBD,M
Boys,109.77,2,Clayton Mcgiluray,Justin Northwest,100.52,226.8,117.93,226.8,571.53,Single-ply,SBD,M
Boys,109.77,3,Eissa Eissa,Joshua,103.42,226.8,140.61,197.31,564.72,Single-ply,SBD,M
Boys,109.77,4,Kimball Williams,North Crowley,104.51,226.8,129.27,208.65,564.72,Single-ply,SBD,M
Boys,109.77,5,R. Robertson,South Grand Prairie,103.51,204.12,133.81,181.44,519.36,Single-ply,SBD,M
Boys,109.77,6,Dakota Norton,Justin Northwest,106.68,204.12,120.2,195.04,519.36,Single-ply,SBD,M
Boys,109.77,7,Michael Williams,Joshua,101.15,226.8,117.93,172.37,517.1,Single-ply,SBD,M
Boys,109.77,8,Jesse Armendariz,Fort Worth North Side,107.68,188.24,104.33,183.7,476.27,Single-ply,SBD,M
Boys,109.77,9,Dylan Crow,North Crowley,109.77,161.03,120.2,192.78,474,Single-ply,SBD,M
Boys,109.77,10,Juan Alvarez,Fort Worth Polytechnic,103.6,174.63,99.79,170.1,444.52,Single-ply,SBD,M
Boys,109.77,11,Felipe Aguiniga,Everman,106.59,161.03,104.33,158.76,424.11,Single-ply,SBD,M
Boys,109.77,12,Muhye Abu Hammatta,North Crowley,103.24,142.88,88.45,170.1,401.43,Single-ply,SBD,M
Boys,109.77,DQ,Jacob Goodwin,North Crowley,109.13,165.56,,,,Single-ply,SBD,M
Boys,124.74,1,Fred Gipson,Everman,118.93,226.8,172.37,217.72,616.89,Single-ply,SBD,M
Boys,124.74,2,Jake Glasscock,Alvarado,112.76,254.01,136.08,204.12,594.21,Single-ply,SBD,M
Boys,124.74,3,Landers Sheppard,Mansfield Timberview,124.47,247.21,136.08,206.38,589.67,Single-ply,SBD,M
Boys,124.74,4,Kendrick Robinson,Everman,121.83,217.72,113.4,192.78,523.9,Single-ply,SBD,M
Boys,124.74,5,Jason Cortez,Fort Worth Western Hills,122.02,206.38,115.67,183.7,505.76,Single-ply,SBD,M
Boys,124.74,6,Garrett Smith,Joshua,116.3,204.12,120.2,174.63,498.95,Single-ply,SBD,M
Boys,124.74,7,Kyle Burgess,Alvarado,122.29,204.12,104.33,188.24,496.68,Single-ply,SBD,M
Boys,124.74,8,Diego Mejia,Everman,119.93,215.46,92.99,181.44,489.88,Single-ply,SBD,M
Boys,124.74,9,Anthony Zapata,Everman,117.03,199.58,90.72,185.97,476.27,Single-ply,SBD,M
Boys,124.74+,1,Mark Killion,Keller Fossil Ridge,133.99,281.23,165.56,222.26,669.05,Single-ply,SBD,M
Boys,124.74+,2,Lewis Ray,Justin Northwest,141.34,276.69,129.27,256.28,662.24,Single-ply,SBD,M
Boys,124.74+,3,Jeremy Miller,Mansfield Timberview,146.33,240.4,149.69,192.78,582.87,Single-ply,SBD,M
Boys,124.74+,4,Rogelio Adame,Keller Central,135.44,272.16,113.4,183.7,569.26,Single-ply,SBD,M
Boys,124.74+,5,Orlando Cardona,Mansfield Timberview,152.23,213.19,117.93,222.26,553.38,Single-ply,SBD,M
Boys,124.74+,6,K Isopan,South Grand Prairie,135.26,204.12,99.79,210.92,514.83,Single-ply,SBD,M
Boys,124.74+,DQ,Bobby Lynch,Burleson,139.43,242.67,,,,Single-ply,SBD,M
Boys,124.74+,DQ,Homer Vaughn,Cleburne,140.98,249.48,167.83,,,Single-ply,SBD,M
