Place,Name,Division,Country,BodyweightKg,Squat1Kg,Squat2Kg,Squat3Kg,Best3SquatKg,Bench1Kg,Bench2Kg,Bench3Kg,Best3BenchKg,Deadlift1Kg,Deadlift2Kg,Deadlift3Kg,Best3DeadliftKg,TotalKg,WeightClassKg,Sex,CyrillicName,BirthYear,Equipment,Event
1,Nadine Baker,F_MEM_1_WPC,USA,43,82.5,95,102.5,102.5,25,,,25,125,132.5,135,135,262.5,44,F,,1958,Multi-ply,SBD
1,Leslie Watson,F_OEM_WPC,UK,47.2,85,95,,95,60,62.5,,62.5,100,105,110,110,267.5,48,F,,1948,Multi-ply,SBD
DQ,Christina Phillips,F_TEM_2_WPC,Canada,51.25,70,,82.5,82.5,,,,,,,,,,52,F,,,Multi-ply,SBD
1,Kimberly Summers,F_OEM_WPC,USA,52,182.5,,,182.5,,90,92.5,92.5,147.5,160,,160,435,52,F,,1965,Multi-ply,SBD
2,Loreen Brooks,F_MEM_1_WPC,Canada,51.5,100,,,100,50,,55,55,100,105,110,110,265,52,F,,1959,Multi-ply,SBD
1,Rose-Marie McRae,F_MEM_1_WPC,Canada,51.2,70,,80,80,,40,,40,117.5,125,130,130,250,52,F,,,Multi-ply,SBD
1,Coral Quinell,F_MEM_2_WPC,Australia,52,115,121,122.5,122.5,67.5,70,73,73,140,147.5,,147.5,343,52,F,,,Multi-ply,SBD
1,Lucy Van Rensburg,F_JEM_WPC,South Africa,53.1,180,200,,200,50,55,,55,120,130,,130,385,56,F,,,Multi-ply,SBD
2,Meg Harrison,F_JEM_WPC,Canada,54.75,100,110,120,120,42.5,47.5,,47.5,92.5,100,107.5,107.5,275,56,F,,,Multi-ply,SBD
1,Amy Weisberger,F_OEM_WPC,USA,55.9,,177.5,,177.5,115,,,115,177.5,197.5,,197.5,490,56,F,,1965,Multi-ply,SBD
2,Jayne Thomas,F_OEM_WPC,UK,55.3,147.5,157.5,165,165,70,75,,75,160,170,,170,410,56,F,,1966,Multi-ply,SBD
3,Jacinta Schapel,F_OEM_WPC,Australia,55.9,,120,130,130,60,65,,65,135,145,,145,340,56,F,,,Multi-ply,SBD
4,Priska Kreig,F_OEM_WPC,Canada,54.9,,120,127.5,127.5,62.5,,,62.5,142.5,147.5,,147.5,337.5,56,F,,,Multi-ply,SBD
1,Karin Heindl,F_MEM_1_WPC,Austria,52.1,77.5,,85,85,35,40,,40,82.5,95,102.5,102.5,227.5,56,F,,1957,Multi-ply,SBD
1,Vanessa Ware,F_OEM_WPC,USA,58.8,150,,170,170,92.5,100,,100,170,182.5,192.5,192.5,462.5,60,F,,,Multi-ply,SBD
2,Candi Stuckey,F_OEM_WPC,Canada,58.9,120,,,120,60,65,70,70,120,125,,125,315,60,F,,1975,Multi-ply,SBD
1,Wendy Greig,F_MEM_1_WPC,Canada,57,120,130,145,145,60,65,70,70,150,157.5,,157.5,372.5,60,F,,1956,Multi-ply,SBD
1,Barbara Fruzyna,F_MEM_2_WPC,USA,58,112.5,,,112.5,45,50,,50,105,122.5,,122.5,285,60,F,,1954,Multi-ply,SBD
1,Patricia Dyer,F_MEM_3_WPC,USA,59.5,140,152.5,159,159,85,92.5,97.5,97.5,145,167.5,170,170,426.5,60,F,,1949,Multi-ply,SBD
1,Darcy Dybaylo,F_TEM_3_WPC,Canada,67.5,120,140,152.5,152.5,65,75,82.5,82.5,182.5,197.5,,197.5,432.5,67.5,F,,,Multi-ply,SBD
1,Mariah Liggett,F_OEM_WPC,USA,66.9,200,,,200,122.5,130,132.5,132.5,175,195,200,200,532.5,67.5,F,,1958,Multi-ply,SBD
2,Nancy Dangerfield,F_OEM_WPC,USA,65.9,,,182.5,182.5,92.5,97.5,,97.5,205,227.5,,227.5,507.5,67.5,F,,1956,Multi-ply,SBD
1,Barb Cameron,F_MEM_1_WPC,Canada,66.5,75,80,,80,35,40,47.5,47.5,80,100,110,110,237.5,67.5,F,,,Multi-ply,SBD
1,Patricia Thomas,F_MEM_5_WPC,Canada,65.5,75,,82.5,82.5,,,45,45,110,112.5,115,115,242.5,67.5,F,,1935,Multi-ply,SBD
1,Wanda Korthius,F_SEM_WPC,Canada,63,137.5,,147.5,147.5,85,90,,90,135,145,150,150,387.5,67.5,F,,,Multi-ply,SBD
2,Norma Garcia,F_SEM_WPC,USA,66.2,130,150,165,165,62.5,67.5,,67.5,135,,,135,367.5,67.5,F,,,Multi-ply,SBD
1,Stephanie van de Weghe,F_OEM_WPC,USA,73.9,,,250,250,145,157.5,,157.5,185,200,,200,607.5,75,F,,1961,Multi-ply,SBD
2,Julie Scanlon,F_OEM_WPC,USA,74.3,200,215,,215,127.5,,,127.5,182.5,210,,210,552.5,75,F,,1976,Multi-ply,SBD
3,Maria Ficki,F_OEM_WPC,South Africa,74.4,160,,,160,90,95,100,100,170,180,,180,440,75,F,,,Multi-ply,SBD
1,Kimberly Pfeiffer-Packer,F_MEM_1_WPC,USA,74,142.5,152.5,160,160,60,62.5,65,65,137.5,147.5,152.5,152.5,377.5,75,F,,,Multi-ply,SBD
1,Patricia Damon,F_MEM_2_WPC,USA,73.5,107.5,115,,115,,67.5,,67.5,110,117.5,,117.5,300,75,F,,,Multi-ply,SBD
1,Priscilla Giddings,F_TEM_2_WPC,USA,80.7,112.5,122.5,132.5,132.5,70,,77.5,77.5,150,162.5,170,170,380,82.5,F,,1983,Multi-ply,SBD
1,Sandra Bentham,F_JEM_WPC,UK,81,120,,145,145,70,80,90,90,145,155,165,165,400,82.5,F,,1977,Multi-ply,SBD
1,Blair Coral,F_OEM_WPC,Austria,82.5,,,220,220,110,120,,120,220,240,268,268,608,82.5,F,,1965,Multi-ply,SBD
2,Sharyn Scott,F_OEM_WPC,Australia,78.3,145,155,,155,95,100,,100,175,,185,185,440,82.5,F,,,Multi-ply,SBD
1,Arline Ramsrud,F_MEM_6_WPC,USA,80.9,,93,,93,42.5,,,42.5,60,,,60,195.5,82.5,F,,1930,Multi-ply,SBD
1,Tarja Rantanen,F_OEM_WPC,Finland,86.5,150,170,,170,130,140,,140,190,211,,211,521,90,F,,1957,Multi-ply,SBD
1,Monica Overstreet,F_MEM_1_WPC,USA,85.8,160,,177.5,177.5,95,102.5,107.5,107.5,172.5,187.5,197.5,197.5,482.5,90,F,,1958,Multi-ply,SBD
2,Sharon Brown,F_MEM_1_WPC,Canada,88.4,,,145,145,50,55,60,60,120,135,,135,340,90,F,,,Multi-ply,SBD
1,Billie Yrjola,F_MEM_3_WPC,Canada,89.4,100,110,120,120,65,70,85,85,125,135,145,145,350,90,F,,,Multi-ply,SBD
1,Youlundi Strydom,F_JEM_WPC,South Africa,108,140,,,140,80,90,,90,165,172.5,,172.5,402.5,90+,F,,1977,Multi-ply,SBD
1,Mirinda Van Dyk,F_OEM_WPC,South Africa,91.6,170,185,200,200,90,97.5,,97.5,170,185,195,195,492.5,90+,F,,,Multi-ply,SBD
1,Leslie Miller,F_MEM_3_WPC,Canada,116.3,180,190,200,200,90,105,112.5,112.5,160,170,180,180,492.5,90+,F,,1949,Multi-ply,SBD
1,Laura Khodzhamkulova,F_SEM_WPC,Russia,125,200,,,200,110,117.5,122.5,122.5,,200,210,210,532.5,90+,F,Лаура Ходжамкулова,1961,Multi-ply,SBD
2,Monica Johnson,F_SEM_WPC,USA,93.6,,240,,240,112.5,,,112.5,60,67.5,102.5,102.5,455,90+,F,,1963,Multi-ply,SBD
3,Eva Vit,F_SEM_WPC,Austria,93.9,62.5,,,62.5,85,92.5,95,95,130,155,,155,312.5,90+,F,,1965,Multi-ply,SBD
1,Jess McRae,F_TEM_1_WPC,Canada,40.5,,60,65,65,32.5,35,,35,75,85,90,90,190,44,F,,,Multi-ply,SBD
2,Adrienne Plester,F_TEM_1_WPC,Canada,42.5,,60,65,65,25,,,25,75,85,95,95,185,44,F,,,Multi-ply,SBD
1,Mike McDermott,M_OEM_WPC,UK,52,100,120,,120,55,,62.5,62.5,140,160,,160,342.5,52,M,,1972,Multi-ply,SBD
1,Kulraj Dhan,M_TEM_1_WPC,USA,53,25,30,,30,25,30,,30,35,50,,50,110,56,M,,,Multi-ply,SBD
1,Ray Miskell,M_JEM_WPC,USA,55.4,,72.5,90,90,67.5,82.5,87.5,87.5,100,,155,155,332.5,56,M,,,Multi-ply,SBD
1,August Clark Jr,M_OEM_WPC,USA,55.2,182.5,,,182.5,,147.5,,147.5,182.5,192.5,205,205,535,56,M,,1962,Multi-ply,SBD
2,Joey Mitchell,M_OEM_WPC,UK,54.9,120,140,150,150,75,85,90,90,120,140,160,160,400,56,M,,1965,Multi-ply,SBD
1,Gavin Cronjie,M_TEM_1_WPC,South Africa,58.25,125,,135,135,,60,,60,110,120,140,140,335,60,M,,,Multi-ply,SBD
2,Sascha Gundacker,M_TEM_1_WPC,Austria,59.75,110,,125,125,50,55,,55,120,127.5,137.5,137.5,317.5,60,M,,1984,Multi-ply,SBD
1,Mushvig Gadjiyev,M_JEM_WPC,Azerbaijan,60,180,215,225,225,120,140,145,145,170,200,,200,570,60,M,,1978,Multi-ply,SBD
1,Gary Simes,M_OEM_WPC,UK,59.2,220,,230,230,130,137.5,142.5,142.5,220,227.5,,227.5,600,60,M,,1963,Multi-ply,SBD
1,Heikki Hager,M_MEM_1_WPC,Finland,58.8,100,130,152.5,152.5,60,80,152.5,152.5,150,210,,210,515,60,M,,,Multi-ply,SBD
DQ,Shane Dishman,M_JEM_WPC,USA,67,,,,,,,,,,,,,,67.5,M,,,Multi-ply,SBD
1,Sakari Selkäinaho,M_OEM_WPC,Finland,67.4,255,,272.5,272.5,160,167.5,,167.5,240,260,,260,700,67.5,M,,1962,Multi-ply,SBD
2,Tim Judge,M_OEM_WPC,USA,67.2,217.5,,,217.5,147.5,,160,160,210,220,225,225,602.5,67.5,M,,1959,Multi-ply,SBD
3,Steve Grey,M_OEM_WPC,UK,62.8,110,120,130,130,85,95,100,100,120,125,,125,355,67.5,M,,1968,Multi-ply,SBD
DQ,Conan Ries,M_OEM_WPC,South Africa,66.6,,,,,,,,,,,,,,67.5,M,,1970,Multi-ply,SBD
1,Robert Charles,M_MEM_3_WPC,USA,66.2,205,215,,215,110,115,,115,205,215,,215,545,67.5,M,,1948,Multi-ply,SBD
1,Martin Heindl,M_MEM_1_WPC,Austria,66.3,170,187.5,,187.5,120,130,132.5,132.5,210,230,,230,550,67.5,M,,1955,Multi-ply,SBD
1,Budgie Mullan,M_MEM_3_WPC,UK,66.8,170,177.5,180.5,180.5,105.5,110,112.5,112.5,170,185,195.5,195.5,488.5,67.5,M,,,Multi-ply,SBD
1,Surrinder Dhah,M_MEM_4_WPC,USA,67.5,120,132.5,140,140,80,,87.5,87.5,150,172.5,,172.5,400,67.5,M,,,Multi-ply,SBD
1,Roy Harper,M_SEM_WPC,Canada,66.5,125,,130,130,122.5,,,122.5,200,230,,230,482.5,67.5,M,,,Multi-ply,SBD
1,Michael Walters,M_TEM_3_WPC,Canada,74,210,225,,225,65,75,80,80,185,197.5,205,205,510,75,M,,,Multi-ply,SBD
1,Andries Randall,M_JEM_WPC,South Africa,74.5,220,240,,240,115,120,130,130,250,260,270,270,640,75,M,,1975,Multi-ply,SBD
1,Angelo Berardinelli,M_OEM_WPC,USA,74.6,,,305,305,190,,,190,227.5,257.5,,257.5,752.5,75,M,,1965,Multi-ply,SBD
2,Steve Cook,M_OEM_WPC,UK,73.6,,210,,210,110,,,110,,225,235,235,555,75,M,,1972,Multi-ply,SBD
1,Benjamine Rodriguez,M_MEM_1_WPC,USA,71.4,162.5,180,,180,90,105,107.5,107.5,182.5,,,182.5,470,75,M,,,Multi-ply,SBD
1,William Brown,M_MEM_2_WPC,South Africa,72.8,230,240,,240,130,,,130,225,235,,235,605,75,M,,,Multi-ply,SBD
2,Jawanda Avtar Singh,M_MEM_2_WPC,UK,74.2,,180,220,220,107.5,115,120,120,200,220,225,225,565,75,M,,1951,Multi-ply,SBD
1,Roland Lopez,M_MEM_3_WPC,USA,73.3,90,120,137.5,137.5,90,115,,115,150,182.5,,182.5,435,75,M,,,Multi-ply,SBD
1,James Capehart,M_MEM_4_WPC,USA,74,,142.5,152.5,152.5,110,117.5,120,120,160,170,,170,442.5,75,M,,1942,Multi-ply,SBD
2,Herb Glossbrenner,M_MEM_4_WPC,USA,74.3,,120,130,130,102.5,107.5,110,110,130,150,,150,390,75,M,,1942,Multi-ply,SBD
1,Ricky Posey,M_MEM_5_WPC,USA,74,195,,,195,115,130,,130,205,220,,220,545,75,M,,,Multi-ply,SBD
1,Vince Graham,M_SEM_WPC,Canada,75,235,240,,240,165,,,165,242.5,255,,255,660,75,M,,1964,Multi-ply,SBD
2,Vince Tanabe,M_SEM_WPC,USA,68,200,210,217.5,217.5,,120,,120,210,215,222.5,222.5,560,75,M,,,Multi-ply,SBD
1,Chris Brown,M_TEM_2_WPC,Canada,79.5,115,132.5,142.5,142.5,65,70,72.5,72.5,145,152.5,157.5,157.5,372.5,82.5,M,,,Multi-ply,SBD
1,Akbar Farajov,M_TEM_3_WPC,Azerbaijan,81.75,250,265,,265,140,165,,165,220,250,265,265,695,82.5,M,,,Multi-ply,SBD
2,Rob Brown,M_TEM_3_WPC,Canada,82.3,,,200,200,70,77.5,82.5,82.5,150,160,167.5,167.5,450,82.5,M,,1981,Multi-ply,SBD
1,Adam Schumaker,M_JEM_WPC,USA,82.5,215,250,,250,125,142.5,,142.5,215,,237.5,237.5,630,82.5,M,,,Multi-ply,SBD
1,Neville Primich,M_OEM_WPC,South Africa,82,330,350,,350,212.5,,,212.5,270,280,300,300,862.5,82.5,M,,1967,Multi-ply,SBD
2,Michael Cartinian,M_OEM_WPC,USA,81.8,,,347.5,347.5,,210,,210,267.5,275,,275,832.5,82.5,M,,1976,Multi-ply,SBD
3,Eric Athias,M_OEM_WPC,France,82.1,297.5,315,320,320,175,185,,185,270,285,,285,790,82.5,M,,1971,Multi-ply,SBD
4,Joe Dougherty,M_OEM_WPC,USA,81.3,277.5,,,277.5,,,212.5,212.5,262.5,280,,280,770,82.5,M,,1965,Multi-ply,SBD
5,Pete Foster,M_OEM_WPC,Canada,82.5,260,275,285,285,147.5,155,,155,265,272.5,,272.5,712.5,82.5,M,,,Multi-ply,SBD
6,Harald Greiner,M_OEM_WPC,Austria,81,250,275,285,285,145,150,155,155,250,260,,260,700,82.5,M,,1968,Multi-ply,SBD
7,Markus Mader,M_OEM_WPC,Austria,82.5,230,245,,245,177.5,,,177.5,230,250,,250,672.5,82.5,M,,1969,Multi-ply,SBD
1,Morley Flood,M_MEM_1_WPC,Canada,81.8,272.5,,,272.5,170,175,,175,272.5,,,272.5,720,82.5,M,,,Multi-ply,SBD
3,Benjamin Stockner,M_MEM_1_WPC,Austria,82.5,160,175,,175,100,112.5,117.5,117.5,180,205,,205,497.5,82.5,M,,1955,Multi-ply,SBD
1,Ross Phillips,M_MEM_2_WPC,USA,78.5,170,180,195,195,100,110,,110,205,227.5,240.5,240.5,545.5,82.5,M,,,Multi-ply,SBD
2,Anton Mikysek,M_MEM_2_WPC,Austria,78.7,160,190,205,205,95,102.5,,102.5,205,225,232.5,232.5,540,82.5,M,,1950,Multi-ply,SBD
1,Fabian Wambsgans,M_MEM_3_WPC,USA,80.6,265,277.5,292.5,292.5,120,,,120,,252.5,,252.5,665,82.5,M,,1946,Multi-ply,SBD
2,Doug Petersen,M_MEM_1_WPC,USA,81.3,237.5,255,,255,137.5,147.5,152.5,152.5,237.5,255,,255,662.5,82.5,M,,1955,Multi-ply,SBD
1,Robyn Brown,M_MEM_4_WPC,UK,81.2,240,260,,260,142.5,150,157.5,157.5,240,,,240,657.5,82.5,M,,1943,Multi-ply,SBD
1,LB Baker,M_MEM_5_WPC,USA,81.9,,182.5,,182.5,120,145,,145,182.5,215,,215,542.5,82.5,M,,1937,Multi-ply,SBD
1,Bill Ramsrud,M_MEM_7_WPC,USA,82,60,,,60,85,,,85,190,220.5,227.5,227.5,372.5,82.5,M,,1928,Multi-ply,SBD
1,Pierre Pothee,M_MEM_8_WPC,France,79,,,115,115,57.5,65,,65,150,155,157.5,157.5,337.5,82.5,M,,1924,Multi-ply,SBD
DQ,Brian Johnston,M_SEM_WPC,Canada,80.5,,,220,220,,,,,,,,,,82.5,M,,1964,Multi-ply,SBD
1,Stanley Du Plessis,M_TEM_1_WPC,South Africa,90,280,,,280,110,140,150,150,250,260,270,270,700,90,M,,1984,Multi-ply,SBD
1,Horace Karnes,M_TEM_2_WPC,Canada,83.5,165,,,165,92.5,97.5,100,100,205,220,230,230,495,90,M,,1982,Multi-ply,SBD
2,Christian Oberschlick,M_TEM_3_WPC,Austria,88,225,,245,245,130,,,130,240,,,240,615,90,M,,1981,Multi-ply,SBD
DQ,Phil Davi,M_TEM_3_WPC,USA,89,,,,,,165,,165,250,260,,260,,90,M,,,Multi-ply,SBD
1,Ernie Mil-Homens,M_JEM_WPC,Canada,87.5,,272.5,,272.5,182.5,187.5,,187.5,272.5,,,272.5,732.5,90,M,,,Multi-ply,SBD
2,Sean Thorpe,M_JEM_WPC,UK,88,217.5,227.5,232.5,232.5,150,157.5,160,160,217.5,227.5,,227.5,620,90,M,,,Multi-ply,SBD
1,Jesse Kellum,M_OEM_WPC,USA,89.5,372.5,390,,390,260,265,270,270,287.5,297.5,310,310,970,90,M,,1965,Multi-ply,SBD
2,Matt Zweng,M_OEM_WPC,USA,89.9,,350,,350,235,,242.5,242.5,282.5,297.5,,297.5,890,90,M,,1972,Multi-ply,SBD
3,Edward Downing,M_OEM_WPC,South Africa,89,350,,,350,230,,,230,260,270,290,290,870,90,M,,1969,Multi-ply,SBD
4,Frédéric Danielou,M_OEM_WPC,France,89.2,305,,325,325,185,192.5,,192.5,305,325,,325,842.5,90,M,,1966,Multi-ply,SBD
5,Zander Laubsher,M_OEM_WPC,South Africa,89.3,280,290,,290,150,,,150,280,290,,290,730,90,M,,,Multi-ply,SBD
6,Georg Schober,M_OEM_WPC,Austria,86.2,265,282.5,,282.5,165,172.5,,172.5,250,265,,265,720,90,M,,1965,Multi-ply,SBD
7,Emanuel Koestinger,M_OEM_WPC,Austria,88.8,250,,,250,180,190,,190,240,,,240,680,90,M,,1967,Multi-ply,SBD
8,Brendan Jaynes,M_OEM_WPC,UK,89.8,245,,,245,140,,,140,260,275,,275,660,90,M,,,Multi-ply,SBD
DQ,Bronson Brown,M_OEM_WPC,South Africa,87.4,,,,,,,,,,,,,,90,M,,,Multi-ply,SBD
1,Heinz Buhl,M_MEM_1_WPC,Austria,88.3,270,285,300,300,170,180,,180,240,260,,260,740,90,M,,1956,Multi-ply,SBD
DQ,Mike Higgins,M_MEM_1_WPC,USA,87.1,,,,,,,,,,,,,,90,M,,,Multi-ply,SBD
DQ,Erich Zeller,M_MEM_1_WPC,Austria,88.6,240,265,275,275,,155.5,160,160,,,,,,90,M,,1955,Multi-ply,SBD
2,Leonard Lense,M_MEM_2_WPC,USA,88.9,250,,,250,127.5,,137.5,137.5,235,,,235,622.5,90,M,,,Multi-ply,SBD
1,Ian Morris,M_MEM_5_WPC,South Africa,84.5,170,190,200,200,100,110,,110,170,190,,190,500,90,M,,1939,Multi-ply,SBD
1,Jamail Birring Singh,M_MEM_3_WPC,UK,89,230,245,255,255,160,172.5,177.5,177.5,200,220,,220,652.5,90,M,,1949,Multi-ply,SBD
2,Scott Velliquette,M_MEM_3_WPC,USA,85.8,187.5,195,,195,132.5,,140,140,170,177.5,,177.5,512.5,90,M,,,Multi-ply,SBD
3,Jim McKenzie,M_MEM_3_WPC,Canada,86.8,,,180,180,105,,,105,210,,220,220,505,90,M,,,Multi-ply,SBD
1,Ernie Frantz,M_MEM_6_WPC,USA,89.5,250,,,250,92.5,,,92.5,205,230,,230,572.5,90,M,,1934,Multi-ply,SBD
2,Jimnay Kearns,M_MEM_6_WPC,South Africa,87.5,110,130,,130,80,95,110,110,185,200,,200,440,90,M,,,Multi-ply,SBD
1,Darwin Miller,M_MEM_8_WPC,Canada,86.8,,,120,120,,,60,60,120,130,145,145,325,90,M,,1923,Multi-ply,SBD
1,Terry Kay,M_SEM_WPC,Canada,87.5,275,290,,290,200,,,200,240,260,280,280,770,90,M,,,Multi-ply,SBD
3,Darryl Vannieker,M_SEM_WPC,South Africa,88,227.5,250,,250,,165,,165,,265,,265,680,90,M,,,Multi-ply,SBD
2,James Kegrice,M_SEM_WPC,USA,90,250,,,250,132.5,,,132.5,272.5,292.5,,292.5,675,90,M,,1965,Multi-ply,SBD
DQ,Randy Etsell,M_SEM_WPC,Canada,89,,,220,220,,,,,,,,,,90,M,,1963,Multi-ply,SBD
1,Martin Dopper,M_TEM_3_WPC,Austria,94.6,190,225,,225,125,140,145,145,215,,,215,585,100,M,,1981,Multi-ply,SBD
2,Carl Rogers,M_TEM_3_WPC,UK,99,205,220,,220,110,,,110,210,225,,225,555,100,M,,1980,Multi-ply,SBD
1,Bernhard Schwab,M_JEM_WPC,Austria,99,310,330,,330,190,200,205,205,290,310,320,320,855,100,M,,1979,Multi-ply,SBD
2,Eric Patterson,M_JEM_WPC,USA,95.5,277.5,300,320,320,202.5,,,202.5,260,280,295,295,817.5,100,M,,,Multi-ply,SBD
3,Markus Feichter,M_JEM_WPC,Austria,98.5,250,,265,265,140,150,157.5,157.5,250,277.5,,277.5,700,100,M,,1979,Multi-ply,SBD
4,Brad Cydeyko,M_JEM_WPC,Canada,96.4,,190,,190,145,,,145,170,185,,185,520,100,M,,,Multi-ply,SBD
1,Kevin Hammerton,M_OEM_WPC,UK,99,,,375,375,220,227.5,,227.5,320,330,340,340,942.5,100,M,,1966,Multi-ply,SBD
2,Andrew Dexter,M_OEM_WPC,Canada,98.4,285,,305,305,215,222.5,227.5,227.5,295,315,325,325,857.5,100,M,,1975,Multi-ply,SBD
3,Jukka Aalto,M_OEM_WPC,Finland,98.6,300,,,300,,210,,210,310,320,,320,830,100,M,,1986,Multi-ply,SBD
4,Kari Pöntinen,M_OEM_WPC,Finland,98.6,280,,,280,190,,,190,280,,,280,750,100,M,,1973,Multi-ply,SBD
5,Hervé Herbulot,M_OEM_WPC,France,97.9,255,,270,270,160,172.5,,172.5,280,295,,295,737.5,100,M,,1964,Multi-ply,SBD
6,Clifford Peters,M_OEM_WPC,South Africa,100,250,,,250,,160,,160,310,,,310,720,100,M,,,Multi-ply,SBD
7,Peter Schwarz,M_OEM_WPC,Austria,90.1,240,,,240,137.5,,,137.5,240,,,240,617.5,100,M,,1962,Multi-ply,SBD
8,Shane Hogg,M_OEM_WPC,Canada,97.8,227.5,,,227.5,160,165,170,170,220,,,220,617.5,100,M,,,Multi-ply,SBD
DQ,Calvin Staudinger,M_OEM_WPC,Canada,97.1,,,,,,,,,,,,,,100,M,,,Multi-ply,SBD
DQ,Riaan Van der Berg,M_OEM_WPC,South Africa,98.5,,,,,,,,,,,,,,100,M,,,Multi-ply,SBD
DQ,Gerhard Depner,M_OEM_WPC,Austria,98.6,,,,,,,,,,,,,,100,M,,1958,Multi-ply,SBD
DQ,Charles Maxwell,M_OEM_WPC,USA,98.9,,,,,,,,,,,,,,100,M,,,Multi-ply,SBD
DQ,Mike Meza,M_OEM_WPC,USA,100,365,,,365,,227.5,,227.5,,,,,,100,M,,,Multi-ply,SBD
1,George Peskell,M_MEM_1_WPC,USA,99.4,,277.5,285,285,195,200,,200,277.5,292.5,305,305,790,100,M,,,Multi-ply,SBD
2,Rudolf Sterkl,M_MEM_1_WPC,Austria,99.5,260,277.5,285,285,175,,,175,240,260,265,265,725,100,M,,1956,Multi-ply,SBD
3,Robbie Van Leeuwen,M_MEM_1_WPC,South Africa,97.4,250,270,280,280,150,165,167.5,167.5,240,265,270,270,717.5,100,M,,,Multi-ply,SBD
4,Christian Mikysek,M_MEM_1_WPC,Austria,93.2,230,260,,260,140,,,140,260,287.5,,287.5,687.5,100,M,,1957,Multi-ply,SBD
5,Ruben Arredondo,M_MEM_1_WPC,USA,96.9,195,205,212.5,212.5,140,,,140,197.5,205,220,220,572.5,100,M,,1954,Multi-ply,SBD
1,George Irvine,M_MEM_2_WPC,Canada,94.8,,200,,200,137.5,147.5,,147.5,200,220,,220,567.5,100,M,,,Multi-ply,SBD
1,Jon Wolbers,M_MEM_3_WPC,Canada,93.5,192.5,202.5,,202.5,147.5,157.5,165,165,230,245,252.5,252.5,620,100,M,,1948,Multi-ply,SBD
2,Bob Evans #1,M_MEM_3_WPC,USA,98,200,,217.5,217.5,150,160,,160,200,215,222.5,222.5,600,100,M,,1946,Multi-ply,SBD
3,John Burgard,M_MEM_3_WPC,USA,98.2,,220,,220,110,,,110,190,220,,220,550,100,M,,1948,Multi-ply,SBD
1,Dan Hamblet,M_MEM_4_WPC,USA,97.7,227.5,245,,245,152.5,157.5,162.5,162.5,260,282.5,,282.5,690,100,M,,1943,Multi-ply,SBD
1,Bob Bassman,M_MEM_5_WPC,USA,93.4,190,,205,205,135,142.5,,142.5,195,210,,210,557.5,100,M,,1938,Multi-ply,SBD
1,John Bortnak,M_MEM_6_WPC,Canada,98,,60,,60,60,,70,70,80,100,120,120,250,100,M,,,Multi-ply,SBD
1,John Hall,M_SEM_WPC,South Africa,99.8,300,320,330,330,170,180,200,200,260,285,,285,815,100,M,,1961,Multi-ply,SBD
2,George Rada,M_SEM_WPC,USA,97.2,192.5,,212.5,212.5,185,,,185,220,232.5,242.5,242.5,640,100,M,,,Multi-ply,SBD
3,Joe Avigliano,M_SEM_WPC,USA,97,232.5,237.5,,237.5,147.5,152.5,,152.5,220,232.5,242.5,242.5,632.5,100,M,,1959,Multi-ply,SBD
DQ,Dale Fuller,M_SEM_WPC,Canada,93.4,,,,,,,,,,,,,,100,M,,1961,Multi-ply,SBD
DQ,Clifford Peters,M_SEM_WPC,South Africa,99.2,,,,,,,,,,,,,,100,M,,,Multi-ply,SBD
1,Tony Correia,M_JEM_WPC,South Africa,107.6,290,315,325,325,200,215,225,225,280,300,,300,850,110,M,,1978,Multi-ply,SBD
2,Hannes Winkler,M_JEM_WPC,Austria,109,290,320,330,330,145,155,162.5,162.5,250,270,285,285,777.5,110,M,,1976,Multi-ply,SBD
DQ,Vugar Zeynalov,M_JEM_WPC,Azerbaijan,100.5,,,,,,,,,,,,,,110,M,,1977,Multi-ply,SBD
1,Paul Urchick,M_OEM_WPC,USA,107.4,390,,,390,230,237.5,,237.5,320,332.5,340,340,967.5,110,M,,1959,Multi-ply,SBD
2,Dennis Muratori,M_OEM_WPC,USA,109,370,,,370,215,227.5,,227.5,300,317.5,,317.5,915,110,M,,,Multi-ply,SBD
3,Harri Hiissa,M_OEM_WPC,Finland,107,300,,330,330,220,,230,230,320,,337.5,337.5,897.5,110,M,,1962,Multi-ply,SBD
4,Brian Kevin Green,M_OEM_WPC,South Africa,106.7,320,,,320,200,,,200,300,,310,310,830,110,M,,1972,Multi-ply,SBD
5,Marc Oliver Kopp,M_OEM_WPC,Germany,109.4,280,300,315,315,205,220,227.5,227.5,270,285,,285,827.5,110,M,,1972,Multi-ply,SBD
6,Hannes Sommer,M_OEM_WPC,Austria,100.1,280,295,305,305,162.5,172.5,177.5,177.5,285,297.5,,297.5,780,110,M,,1971,Multi-ply,SBD
7,Jacques Schlebush,M_OEM_WPC,South Africa,108.5,,,320,320,170,,,170,250,,,250,740,110,M,,,Multi-ply,SBD
1,Duane Fuss,M_MEM_1_WPC,Canada,107.3,290,305,317.5,317.5,192.5,202.5,,202.5,272.5,,287.5,287.5,807.5,110,M,,1957,Multi-ply,SBD
2,John Mazmanian,M_MEM_1_WPC,USA,107.2,255,267.5,272.5,272.5,,,190,190,272.5,295,,295,757.5,110,M,,,Multi-ply,SBD
3,Walt Kracknell,M_MEM_1_WPC,USA,107,240,260,267.5,267.5,150,,165,165,242.5,260,267.5,267.5,700,110,M,,,Multi-ply,SBD
4,Henry Fourie,M_MEM_1_WPC,South Africa,100.2,220,230,,230,115,,125,125,215,,225,225,580,110,M,,1958,Multi-ply,SBD
1,Doug Williams,M_MEM_2_WPC,UK,107.5,,290,,290,185,195,,195,300,310,,310,795,110,M,,1954,Multi-ply,SBD
2,Josef Pollendorfer,M_MEM_2_WPC,Austria,107.3,280,290,,290,150,160,165,165,250,265,280,280,735,110,M,,1951,Multi-ply,SBD
1,Larry Sandberg,M_MEM_4_WPC,USA,106,262.5,272.5,,272.5,170,182.5,,182.5,275,285,295,295,750,110,M,,1940,Multi-ply,SBD
2,Doug Schumaker,M_MEM_3_WPC,USA,106.6,222.5,,,222.5,182.5,190,,190,240,250,,250,662.5,110,M,,1948,Multi-ply,SBD
4,Vern Turner,M_MEM_3_WPC,Canada,107,,280,,280,140,,,140,200,220,240,240,660,110,M,,,Multi-ply,SBD
3,Christian Chmela,M_MEM_3_WPC,Austria,100.5,220,,235,235,,,115,115,230,245,255,255,605,110,M,,,Multi-ply,SBD
1,Bill West #1,M_MEM_3_WPC,UK,105,350,380,,380,185,195,,195,300,325,,325,900,110,M,,1946,Multi-ply,SBD
1,Robert Spaulding,M_MEM_5_WPC,USA,102.5,215,,,215,,97.5,,97.5,170,182.5,,182.5,495,110,M,,,Multi-ply,SBD
1,Ernie Anderson,M_MEM_6_WPC,USA,108,77.5,,,77.5,,,197.5,197.5,77.5,125,150,150,425,110,M,,1933,Multi-ply,SBD
1,Jean-Marc Chenin,M_SEM_WPC,France,108,350,,,350,,230,240,240,270,282.5,,282.5,872.5,110,M,,1964,Multi-ply,SBD
2,Frank Schütze,M_SEM_WPC,Germany,104.5,,,300,300,230,240,250,250,260,280,290,290,840,110,M,,1963,Multi-ply,SBD
DQ,Allan Sprague,M_SEM_WPC,Canada,102.5,,,,,,182.5,192.5,192.5,205,225,250,250,,110,M,,,Multi-ply,SBD
1,Kylie Manske,M_TEM_3_WPC,Canada,118.3,120,142.5,160,160,,75,,75,140,155,,155,390,125,M,,,Multi-ply,SBD
1,Mark Heylen,M_JEM_WPC,South Africa,113.1,260,,280,280,,215,225,225,270,300,315,315,820,125,M,,,Multi-ply,SBD
2,Christian Urbanc,M_JEM_WPC,Austria,120.4,270,290,300,300,140,155,,155,290,295,,295,750,125,M,,1978,Multi-ply,SBD
3,Oan Basson,M_JEM_WPC,Israel,119.8,250,270,,270,205,212.5,217.5,217.5,220,240,260,260,747.5,125,M,,1977,Multi-ply,SBD
4,Brad Boechler,M_JEM_WPC,Canada,117.2,260,,277.5,277.5,175,182.5,190,190,260,,,260,727.5,125,M,,,Multi-ply,SBD
DQ,Lee Thomas,M_JEM_WPC,UK,121.5,,200,220,220,142.5,150,155,155,,,,,,125,M,,1977,Multi-ply,SBD
DQ,Joseph Lowder,M_JEM_WPC,USA,124,,,,,,,,,,,,,,125,M,,,Multi-ply,SBD
1,Ano Turtiainen,M_OEM_WPC,Finland,122.3,380,400,407.5,407.5,240,,260,260,340,370,,370,1037.5,125,M,,1967,Multi-ply,SBD
2,Shelby Robbins,M_OEM_WPC,USA,125,345,,382.5,382.5,225,,245,245,285,305,,305,932.5,125,M,,,Multi-ply,SBD
3,Steffen Hayn,M_OEM_WPC,Germany,119.2,300,325,335,335,,195,,195,290,,,290,820,125,M,,1976,Multi-ply,SBD
4,Dave Chouinard,M_OEM_WPC,Canada,112.4,290,310,,310,160,175,,175,245,265,280,280,765,125,M,,1971,Multi-ply,SBD
DQ,Mikko Hamalainen,M_OEM_WPC,Finland,116.2,260,285,300,300,,,,,,,,,,125,M,,1977,Multi-ply,SBD
DQ,Jon Grove,M_OEM_WPC,USA,122.5,340,,,340,,,,,,,,,,125,M,,1974,Multi-ply,SBD
1,Lee Marshall,M_MEM_1_WPC,UK,118.2,360,380,390.5,390.5,180,190,200,200,320,340,350,350,940.5,125,M,,1959,Multi-ply,SBD
2,Peter Pacas,M_MEM_1_WPC,Austria,118.5,,315,325,325,162.5,170,172.5,172.5,300,317.5,325,325,822.5,125,M,,1957,Multi-ply,SBD
3,Tom Brooks,M_MEM_1_WPC,Canada,116.1,260,300,320,320,,170,,170,280,300,,300,790,125,M,,1959,Multi-ply,SBD
4,Pekka Rantanen,M_MEM_1_WPC,Finland,124,290,,300,300,,215,,215,270,,,270,785,125,M,,1957,Multi-ply,SBD
5,Ted Stewart,M_MEM_1_WPC,USA,118.5,240,265,277.5,277.5,150,,,150,260,275,,275,702.5,125,M,,1956,Multi-ply,SBD
1,Ian Visser,M_MEM_2_WPC,South Africa,121,270,295,305,305,180,200,,200,220,242.5,250,250,755,125,M,,1953,Multi-ply,SBD
2,Rex Thomas,M_MEM_2_WPC,UK,123.3,220,240,250,250,120,135,145,145,270,280,282.5,282.5,677.5,125,M,,1951,Multi-ply,SBD
3,Delmar Brown,M_MEM_2_WPC,USA,117,,237.5,272.5,272.5,162.5,,,162.5,205,227.5,240,240,675,125,M,,1953,Multi-ply,SBD
1,Brian Meek,M_MEM_3_WPC,USA,124.9,332.5,,,332.5,232.5,,,232.5,295,307.5,,307.5,872.5,125,M,,1946,Multi-ply,SBD
2,Jerry O'Conner,M_MEM_3_WPC,Canada,114.6,230,245,255,255,140,,,140,230,,,230,625,125,M,,1947,Multi-ply,SBD
4,Mark Phillips,M_SEM_WPC,USA,119,,380,,380,185,,,185,275,282.5,,282.5,847.5,125,M,,,Multi-ply,SBD
2,Alex Cloete,M_SEM_WPC,South Africa,117.5,,300,,300,180,200,,200,320,330,,330,830,125,M,,,Multi-ply,SBD
1,Agnar Adalsteinsson,M_SEM_WPC,USA,121.5,,275,292.5,292.5,197.5,,205,205,302.5,312.5,,312.5,810,125,M,,,Multi-ply,SBD
3,Matt Hrycha,M_SEM_WPC,Canada,119.4,,260,,260,160,175,182.5,182.5,250,295,310,310,752.5,125,M,,1961,Multi-ply,SBD
DQ,Steven Peters,M_SEM_WPC,South Africa,116.4,,,,,,,,,,,,,,125,M,,,Multi-ply,SBD
1,Scott Warman,M_OEM_WPC,USA,125.2,410,,432.5,432.5,,,217.5,217.5,350,,372.5,372.5,1022.5,140,M,,1956,Multi-ply,SBD
2,Holger Kuttroff,M_OEM_WPC,Germany,137.6,370,400,410,410,250,265,,265,290,310,325,325,1000,140,M,,1969,Multi-ply,SBD
3,Art LaBare,M_OEM_WPC,USA,128.6,350,,390,390,250,,,250,312.5,337.5,,337.5,977.5,140,M,,1978,Multi-ply,SBD
4,Allan Mehan,M_OEM_WPC,Canada,130.8,387.5,,417.5,417.5,,,225,225,300,317.5,,317.5,960,140,M,,1972,Multi-ply,SBD
1,Pat Mallough,M_MEM_1_WPC,Canada,132.2,260,,300,300,200,,210,210,300,315,325,325,835,140,M,,,Multi-ply,SBD
2,Jan van de Weghe,M_MEM_1_WPC,USA,134,275,,,275,195,,212.5,212.5,282.5,310,,310,797.5,140,M,,1955,Multi-ply,SBD
3,Matt Israelson,M_MEM_1_WPC,USA,131.5,275,320,,320,185,192.5,200,200,250,,,250,770,140,M,,1957,Multi-ply,SBD
1,Bruce Greig,M_MEM_2_WPC,Canada,130,350,360,,360,192,,,192,355,366.5,,366.5,918.5,140,M,,1952,Multi-ply,SBD
1,George Brink,M_MEM_3_WPC,USA,137,282.5,315,,315,170,185,,185,327.5,347.5,355,355,855,140,M,,1949,Multi-ply,SBD
2,Tim Bentley,M_MEM_3_WPC,USA,125.5,312.5,322.5,,322.5,202.5,,,202.5,272.5,,,272.5,797.5,140,M,,1948,Multi-ply,SBD
1,Charles Clonce,M_MEM_4_WPC,USA,129.3,242.5,,277.5,277.5,,,140.5,140.5,200,,222.5,222.5,640.5,140,M,,1943,Multi-ply,SBD
1,Hubert Dörer,M_SEM_WPC,Austria,126,382.5,420,430,430,200,212.5,,212.5,320,335,,335,977.5,140,M,,1966,Multi-ply,SBD
2,Johan Smith,M_SEM_WPC,South Africa,133.5,260,285,,285,170,,200,200,270,290,,290,775,140,M,,,Multi-ply,SBD
1,Aaron Ross,M_JEM_WPC,USA,150.5,362.5,390,,390,250,,,250,310,325,337.5,337.5,977.5,140+,M,,1977,Multi-ply,SBD
2,Mags Shultz,M_JEM_WPC,Canada,165,305,330,,330,200,,,200,285,300,,300,830,140+,M,,,Multi-ply,SBD
1,Garry Frank #1,M_OEM_WPC,USA,170,382.5,,,382.5,,300,,300,385,,,385,1067.5,140+,M,,1964,Multi-ply,SBD
2,James Voronin,M_OEM_WPC,USA,171,,,400,400,277.5,,295,295,320,337.5,,337.5,1032.5,140+,M,,1964,Multi-ply,SBD
6,Josef Newrkla,M_OEM_WPC,Austria,157.5,350,380,390,390,240,250,,250,270,300,312.5,312.5,952.5,140+,M,,1961,Multi-ply,SBD
3,Thomas Wegscheider,M_OEM_WPC,Austria,170,320,325,350,350,220,240,245,245,320,340,,340,935,140+,M,,1974,Multi-ply,SBD
4,Dereck Renberg,M_OEM_WPC,Canada,152.5,307.5,322.5,332.5,332.5,182.5,192.5,202.5,202.5,292.5,302.5,,302.5,837.5,140+,M,,,Multi-ply,SBD
5,Tyler Spearin,M_OEM_WPC,Canada,152.5,,,325,325,225,,,225,230,250,260,260,810,140+,M,,,Multi-ply,SBD
1,Phil Niemandt,M_MEM_2_WPC,South Africa,153,300,330,345,345,160,,,160,270,285,300,300,805,140+,M,,1952,Multi-ply,SBD
1,Lee Pestka,M_MEM_3_WPC,USA,142.7,125,207.5,227.5,227.5,105,125,135,135,212.5,252.5,265,265,627.5,140+,M,,1949,Multi-ply,SBD
1,Brent Mikesell,M_OEM_WPC,USA,147.2,302.5,337.5,,337.5,235,245,250,250,305,,342.5,342.5,930,140+,M,,,Multi-ply,SBD
2,Gary Baum,M_SEM_WPC,USA,183.2,300,310,320,320,100,142.5,160,160,275,305,,305,785,140+,M,,1964,Multi-ply,SBD
3,Leonard Desjarlais,M_SEM_WPC,Canada,146.5,272.5,285,295,295,170,185,,185,240,280,,280,760,140+,M,,1965,Multi-ply,SBD
1,Leslie Watson,F_OEM_WPC,UK,47.5,,,,,60,,,60,,,,,60,48,F,,1948,Multi-ply,B
1,Karin Heindl,F_OEM_WPC,Austria,51,,,,,35,40,,40,,,,,40,52,F,,1957,Multi-ply,B
1,Lucy Van Rensburg,F_TEM_1_WPC,South Africa,55.5,,,,,45,50,55,55,,,,,55,56,F,,,Multi-ply,B
1,Tina Rinehart,F_OEM_WPC,USA,59,,,,,137.5,142.5,145,145,,,,,145,60,F,,1968,Multi-ply,B
1,Hermine Krivanek,F_MEM_5_WPC,Austria,56.75,,,,,37.5,42.5,45.5,45.5,,,,,45.5,60,F,,1935,Multi-ply,B
1,Jean Wayne,F_MEM_3_WPC,USA,62.75,,,,,47.5,52.5,,52.5,,,,,52.5,67.5,F,,1947,Multi-ply,B
1,Paula Suzuki,F_OEM_WPC,USA,73.25,,,,,155,170,,170,,,,,170,75,F,,1967,Multi-ply,B
2,Maria Ficki,F_OEM_WPC,South Africa,75,,,,,,,97.5,97.5,,,,,97.5,75,F,,,Multi-ply,B
1,Catherine Phandin,F_OEM_WPC,France,82.5,,,,,115,122.55,,122.55,,,,,122.55,82.5,F,,1966,Multi-ply,B
2,Andrea Sterns,F_OEM_WPC,Australia,80.5,,,,,95,100,105,105,,,,,105,82.5,F,,1962,Multi-ply,B
1,Tarja Rantanen,F_OEM_WPC,Finland,86.5,,,,,,140,145,145,,,,,145,90,F,,1957,Multi-ply,B
1,Youlundi Strydom,F_JEM_WPC,South Africa,109.5,,,,,80,90,,90,,,,,90,90+,F,,1977,Multi-ply,B
1,Mirinda Van Dyk,F_OEM_WPC,South Africa,95,,,,,90,97.5,100,100,,,,,100,90+,F,,,Multi-ply,B
2,Eva Vit,F_OEM_WPC,Australia,93,,,,,85,92.5,,92.5,,,,,92.5,90+,F,,1965,Multi-ply,B
1,Laura Khodzhamkulova,F_SEM_WPC,Russia,126,,,,,105,115,117.5,117.5,,,,,117.5,90+,F,Лаура Ходжамкулова,1961,Multi-ply,B
DQ,Monica Johnson,F_SEM_WPC,USA,92,,,,,,,,,,,,,,90+,F,,1963,Multi-ply,B
1,Joey Mitchell,M_SEM_WPC,UK,54.5,,,,,70,80,85,85,,,,,85,56,M,,1965,Multi-ply,B
1,Gavin Cronjie,M_TEM_1_WPC,USA,59.5,,,,,55,,60,60,,,,,60,60,M,,,Multi-ply,B
1,Del Olson,M_SEM_WPC,USA,59.5,,,,,107.5,112.5,,112.5,,,,,112.5,60,M,,,Multi-ply,B
1,Steven Grey,M_SEM_WPC,UK,60,,,,,85,95,,95,,,,,95,60,M,,,Multi-ply,B
1,Martin Heindl,M_MEM_1_WPC,Austria,66.3,,,,,120,130,132.5,132.5,,,,,132.5,67.5,M,,1955,Multi-ply,B
1,Budgie Mullan,M_MEM_4_WPC,UK,66.1,,,,,105,110,112.5,112.5,,,,,112.5,67.5,M,,1943,Multi-ply,B
1,Philippe Baudoin,M_SEM_WPC,France,65.8,,,,,142.5,150,,150,,,,,150,67.5,M,,,Multi-ply,B
1,Roland Lopez,M_MEM_1_WPC,USA,74.3,,,,,100,115,,115,,,,,115,75,M,,,Multi-ply,B
1,Jawanda Avtar Singh,M_MEM_2_WPC,UK,75,,,,,100,,,100,,,,,100,75,M,,1951,Multi-ply,B
1,Herb Glossbrenner,M_MEM_4_WPC,USA,73.4,,,,,102.5,,,102.5,,,,,102.5,75,M,,1942,Multi-ply,B
1,Ed Freeman,M_MEM_5_WPC,USA,74.6,,,,,155,,,155,,,,,155,75,M,,,Multi-ply,B
1,Ludovic Favre,M_SEM_WPC,France,73,,,,,140,150,152.5,152.5,,,,,152.5,75,M,,,Multi-ply,B
1,Jeremy Hecre,M_TEM_3_WPC,France,82.1,,,,,162.5,170,,170,,,,,170,82.5,M,,1981,Multi-ply,B
1,Christian Bull,M_JEM_WPC,Austria,80,,,,,130,135,,135,,,,,135,82.5,M,,,Multi-ply,B
2,Andries Randall,M_JEM_WPC,South Africa,77,,,,,,,125,125,,,,,125,82.5,M,,1975,Multi-ply,B
1,Risto Leskenmaa,M_MEM_2_WPC,Finland,82.2,,,,,220.5,230,235,235,,,,,235,82.5,M,,1951,Multi-ply,B
1,Mario Auer,M_OEM_WPC,Austria,82.5,,,,,,180,,180,,,,,180,82.5,M,,1972,Multi-ply,B
1,Bob Powell,M_MEM_5_WPC,Canada,81.3,,,,,90,100,,100,,,,,100,82.5,M,,,Multi-ply,B
1,Roy Bernot,M_SEM_WPC,Germany,82,,,,,,210,220,220,,,,,220,82.5,M,,,Multi-ply,B
2,Sean Thorpe,M_TEM_3_WPC,UK,88,,,,,145,152.5,157.5,157.5,,,,,157.5,90,M,,,Multi-ply,B
1,Tyson Orwall,M_TEM_3_WPC,USA,89.5,,,,,132.5,140,150,150,,,,,150,90,M,,1981,Multi-ply,B
1,Matt Mangum,M_JEM_WPC,USA,89.6,,,,,195,,,195,,,,,195,90,M,,,Multi-ply,B
1,Stephen Webb,M_OEM_WPC,USA,88,,,,,210,217.5,,217.5,,,,,217.5,90,M,,1974,Multi-ply,B
2,Ernst Spielbichler,M_OEM_WPC,Austria,89.1,,,,,195,205,,205,,,,,205,90,M,,1962,Multi-ply,B
3,Roy Holappa,M_OEM_WPC,Finland,89.8,,,,,,200,,200,,,,,200,90,M,,,Multi-ply,B
4,Emanuel Koestinger,M_OEM_WPC,Austria,88.8,,,,,185,195,,195,,,,,195,90,M,,1967,Multi-ply,B
5,Thomas Jäger,M_OEM_WPC,Germany,88.2,,,,,150,160,170,170,,,,,170,90,M,,1975,Multi-ply,B
1,Heinz Buhl,M_MEM_1_WPC,Austria,88.8,,,,,170,180,185,185,,,,,185,90,M,,1956,Multi-ply,B
2,Tracy Frein,M_MEM_1_WPC,USA,88.7,,,,,152.5,162.5,170,170,,,,,170,90,M,,1958,Multi-ply,B
3,Erich Zeller,M_MEM_1_WPC,Austria,88.6,,,,,140,157.5,162.5,162.5,,,,,162.5,90,M,,1955,Multi-ply,B
1,Franz Topf,M_MEM_2_WPC,Austria,89.5,,,,,175,185,,185,,,,,185,90,M,,1954,Multi-ply,B
1,Ian Morris,M_MEM_5_WPC,Ireland,83.8,,,,,100,,,100,,,,,100,90,M,,1939,Multi-ply,B
1,Jarnail Birning,M_MEM_6_WPC,UK,89.9,,,,,160,167.5,175,175,,,,,175,90,M,,,Multi-ply,B
1,Stanley Du Plessis,M_TEM_1_WPC,Russia,93.2,,,,,120,,,120,,,,,120,100,M,,1984,Multi-ply,B
DQ,Michael Roberts,M_JEM_WPC,USA,100,,,,,,,,,,,,,,100,M,,,Multi-ply,B
1,JM Blakley,M_OEM_WPC,USA,109.8,,,,,,282.5,,282.5,,,,,282.5,110,M,,1965,Multi-ply,B
3,John Zemmin,M_OEM_WPC,USA,109.5,,,,,272.5,,,272.5,,,,,272.5,110,M,,1969,Multi-ply,B
2,Janne Kymäläinen,M_OEM_WPC,Finland,110,,,,,270,,,270,,,,,270,110,M,,,Multi-ply,B
1,Harri Laukka,M_OEM_WPC,Finland,98,,,,,,230,,230,,,,,230,100,M,,,Multi-ply,B
DQ,Bill Carpenter,M_OEM_WPC,USA,98.9,,,,,,,,,,,,,,100,M,,1973,Multi-ply,B
1,Rudolf Sterkl,M_MEM_1_WPC,Austria,99,,,,,170,,197.5,197.5,,,,,197.5,100,M,,1956,Multi-ply,B
2,Eduard Kesaev,M_MEM_1_WPC,Russia,97.5,,,,,-195,195,,195,,,,,195,100,M,Эдуард Кесаев,1958,Multi-ply,B
3,Robbie Van Leeuwen,M_MEM_1_WPC,South Africa,99,,,,,140,,165,165,,,,,165,100,M,,,Multi-ply,B
1,Orville Moorehouse,M_MEM_2_WPC,Canada,97.8,,,,,127.5,137.5,,137.5,,,,,137.5,100,M,,1954,Multi-ply,B
1,Jon Wolbers,M_MEM_3_WPC,Canada,93.8,,,,,147.5,157.5,162.5,162.5,,,,,162.5,100,M,,1948,Multi-ply,B
1,Marc LeBolay,M_MEM_5_WPC,France,98,,,,,175,182.5,190,190,,,,,190,100,M,,1938,Multi-ply,B
DQ,Franz Krivanek,M_MEM_5_WPC,Austria,91.5,,,,,,,,,,,,,,100,M,,,Multi-ply,B
1,Dorcey Asplund,M_MEM_6_WPC,Canada,100,,,,,155,,,155,,,,,155,100,M,,1934,Multi-ply,B
1,Byron Gregory,M_SEM_WPC,USA,100,,,,,225,,,225,,,,,225,100,M,,,Multi-ply,B
2,Robert Brasseur,M_SEM_WPC,France,99.5,,,,,210,220,,220,,,,,220,100,M,,1961,Multi-ply,B
3,John Hall,M_SEM_WPC,South Africa,99.9,,,,,170,180,200,200,,,,,200,100,M,,1961,Multi-ply,B
1,Tony Correia,M_JEM_WPC,South Africa,109,,,,,200,212.5,220,220,,,,,220,110,M,,1978,Multi-ply,B
1,Volumar Schliessge,M_MEM_1_WPC,Germany,109.8,,,,,,,220,220,,,,,220,110,M,,,Multi-ply,B
2,Gerald Kuslolek,M_MEM_1_WPC,USA,108.7,,,,,187.5,195,,195,,,,,195,110,M,,,Multi-ply,B
1,Jean Chenin,M_SEM_WPC,France,108.3,,,,,220,230,237.5,237.5,,,,,237.5,110,M,,,Multi-ply,B
1,Frank Schütze,M_SEM_WPC,Germany,104.5,,,,,220,230,,230,,,,,230,110,M,,1963,Multi-ply,B
1,Mikko Hamalainen,M_JEM_WPC,Finland,119.6,,,,,,240,250,250,,,,,250,125,M,,1977,Multi-ply,B
2,Oan Basson,M_JEM_WPC,Israel,117.5,,,,,,205,217.5,217.5,,,,,217.5,125,M,,1977,Multi-ply,B
1,Aaron Gausvik,M_OEM_WPC,Canada,125,,,,,207.5,,,207.5,,,,,207.5,125,M,,,Multi-ply,B
1,Pekka Rantanen,M_MEM_1_WPC,Finland,123.1,,,,,,210,220,220,,,,,220,125,M,,1957,Multi-ply,B
3,John Walker #5,M_MEM_1_WPC,UK,117.2,,,,,190,200,212.5,212.5,,,,,212.5,125,M,,1955,Multi-ply,B
2,Noble Cozine,M_MEM_1_WPC,USA,116.5,,,,,180,195,,195,,,,,195,125,M,,1956,Multi-ply,B
4,Jerry Vest,M_MEM_1_WPC,USA,120,,,,,115,,,115,,,,,115,125,M,,,Multi-ply,B
1,Bennie Dooley,M_MEM_2_WPC,USA,114.5,,,,,,227.5,,227.5,,,,,227.5,125,M,,,Multi-ply,B
2,Meinhardt Schroeder,M_MEM_2_WPC,Germany,120.5,,,,,205,215,220,220,,,,,220,125,M,,1951,Multi-ply,B
3,Ian Visser,M_MEM_2_WPC,South Africa,120.4,,,,,180,200,,200,,,,,200,125,M,,1953,Multi-ply,B
1,Jean-Marie Cavelier,M_MEM_5_WPC,France,122.5,,,,,180,,190,190,,,,,190,125,M,,1939,Multi-ply,B
1,Alex Cloete,M_SEM_WPC,South Africa,118.5,,,,,180,,,180,,,,,180,125,M,,,Multi-ply,B
2,Stephen Peterse,M_SEM_WPC,South Africa,116.5,,,,,170,,,170,,,,,170,125,M,,,Multi-ply,B
1,Jari Sioman,M_OEM_WPC,Finland,127,,,,,,300.5,,300.5,,,,,300.5,140,M,,1965,Multi-ply,B
2,Hubert Dörer,M_OEM_WPC,Austria,126,,,,,190,210,222.5,222.5,,,,,222.5,140,M,,1966,Multi-ply,B
1,Johan Smith,M_SEM_WPC,South Africa,136.5,,,,,170,,,170,,,,,170,140,M,,,Multi-ply,B
1,Thomas Wegscheider,M_OEM_WPC,Austria,140.1,,,,,220,240,,240,,,,,240,140+,M,,1974,Multi-ply,B
1,Michael Cain,M_MEM_1_WPC,USA,146.6,,,,,227.5,245,260,260,,,,,260,140+,M,,1957,Multi-ply,B
1,Phil Niemandt,M_MEM_2_WPC,South Africa,151.2,,,,,155,170,180,180,,,,,180,140+,M,,1952,Multi-ply,B
DQ,Jeff Telljohn,M_MEM_5_WPC,USA,144.6,,,,,,,,,,,,,,140+,M,,,Multi-ply,B
