Division,WeightClassKg,Place,Name,Team,BodyweightKg,Best3SquatKg,Best3BenchKg,Best3DeadliftKg,TotalKg,Equipment,Event,Sex
Boys,51.71,1,Chris Polo,Bishop Lynch,51.26,108.86,45.36,129.27,283.5,Single-ply,SBD,M
Boys,51.71,2,Jason Nguyen,Oakridge School,49.49,97.52,56.7,124.74,278.96,Single-ply,SBD,M
Boys,55.79,3,Alejandro Cosio,Fort Worth North Side,51.89,104.33,52.16,120.2,276.69,Single-ply,SBD,M
Boys,51.71,4,Michael Brown,Lancaster,51.53,92.99,58.97,117.93,269.89,Single-ply,SBD,M
Boys,51.71,5,Sahir Alibhai,Oakridge School,45.86,83.91,56.7,97.52,238.14,Single-ply,SBD,M
Boys,51.71,6,Paul Clark,Joshua,47.94,72.57,61.23,83.91,217.72,Single-ply,SBD,M
Boys,51.71,7,Bruce Bivens,Joshua,50.17,79.38,49.9,83.91,213.19,Single-ply,SBD,M
Boys,55.79,1,Sager Patel,Oakridge School,54.16,90.72,68.04,147.42,306.17,Single-ply,SBD,M
Boys,55.79,2,Theo Serrano,Quinlan Ford,55.29,95.25,52.16,133.81,281.23,Single-ply,SBD,M
Boys,55.79,3,Joe Brockman,Bishop Lynch,55.34,90.72,49.9,97.52,238.14,Single-ply,SBD,M
Boys,67.13,1,Gashia Moua,Quinlan Ford,60.01,158.76,83.91,183.7,426.38,Single-ply,SBD,M
Boys,59.87,2,Rafael Sandoval,Plano John Paul II,59.1,140.61,92.99,174.63,408.23,Single-ply,SBD,M
Boys,59.87,3,Issac Montemayor,Ennis,59.56,149.69,72.57,154.22,376.48,Single-ply,SBD,M
Boys,59.87,4,Trey Sowell,Oakridge School,59.65,117.93,70.31,149.69,337.93,Single-ply,SBD,M
Boys,59.87,5,Keaston Willis,Cedar Hill,59.06,83.91,70.31,120.2,274.42,Single-ply,SBD,M
Boys,59.87,DQ,Edgar Carrera,Ennis,57.79,,74.84,131.54,,Single-ply,SBD,M
Boys,67.13,1,Taylor Clark,Joshua,65.59,165.56,108.86,179.17,453.59,Single-ply,SBD,M
Boys,67.13,2,Tommie Martinez,Midlothian,65.86,172.37,111.13,170.1,453.59,Single-ply,SBD,M
Boys,67.13,3,Jeffery Gage,Keller Timber Creek,64.41,151.95,97.52,165.56,415.04,Single-ply,SBD,M
Boys,67.13,4,Dylan Hooper,Oakridge School,66.59,158.76,81.65,161.03,401.43,Single-ply,SBD,M
Boys,67.13,5,Brandon Jackson,Cedar Hill,67.09,147.42,88.45,163.29,399.16,Single-ply,SBD,M
Boys,67.13,6,Blake Echols,Oakridge School,66.41,140.61,79.38,176.9,396.89,Single-ply,SBD,M
Boys,67.13,7,Gerardo Lara,Venus,64.68,158.76,68.04,140.61,367.41,Single-ply,SBD,M
Boys,67.13,8,Reston Peck,Bishop Lynch,65.95,138.35,79.38,142.88,360.61,Single-ply,SBD,M
Boys,74.84,9,Percy Carr,Lancaster,67.36,127.01,92.99,136.08,356.07,Single-ply,SBD,M
Boys,67.13,10,Rico Castro,Bishop Lynch,63.87,122.47,81.65,142.88,347,Single-ply,SBD,M
Boys,67.13,11,Mark Vasquez,Ennis,66.36,115.67,79.38,131.54,326.59,Single-ply,SBD,M
Boys,67.13,12,Garrett Mowles,Venus,60.55,120.2,68.04,127.01,315.25,Single-ply,SBD,M
Boys,67.13,13,Emanual England,Lancaster,61.42,104.33,70.31,136.08,310.71,Single-ply,SBD,M
Boys,67.13,14,Fernando Rodriguez,Fort Worth North Side,63.19,102.06,58.97,129.27,290.3,Single-ply,SBD,M
Boys,67.13,15,Marion Smith,Cedar Hill,63.91,113.4,52.16,113.4,278.96,Single-ply,SBD,M
Boys,67.13,DQ,Daylon Ivey,Cedar Hill,61.92,83.91,,113.4,,Single-ply,SBD,M
Boys,74.84,1,John Wrenn,Bishop Lynch,70.62,249.48,145.15,229.06,623.69,Single-ply,SBD,M
Boys,74.84,2,Kyle Kiser,Quinlan Ford,74.16,226.8,154.22,226.8,607.81,Single-ply,SBD,M
Boys,74.84,3,Rene Rivas,Venus,72.48,226.8,124.74,219.99,571.53,Single-ply,SBD,M
Boys,74.84,4,Eddie Morgan,Venus,74.21,195.04,111.13,226.8,532.97,Single-ply,SBD,M
Boys,74.84,5,Chanse Alexander,Oakridge School,74.43,204.12,104.33,222.26,530.7,Single-ply,SBD,M
Boys,74.84,6,Payton Stewart,Waxahachie,72.48,172.37,120.2,195.04,487.61,Single-ply,SBD,M
Boys,74.84,7,Chris Vega,Fort Worth North Side,70.26,165.56,120.2,190.51,476.27,Single-ply,SBD,M
Boys,74.84,8,Cshamari Reed,Ennis,73.21,172.37,106.59,195.04,474,Single-ply,SBD,M
Boys,74.84,9,Jason Washburn,Ennis,69.67,174.63,102.06,188.24,464.93,Single-ply,SBD,M
Boys,74.84,10,Rueben Gonzalez,Ennis,68.58,165.56,104.33,192.78,462.66,Single-ply,SBD,M
Boys,74.84,11,Collin Radford,Joshua,74.53,154.22,120.2,183.7,458.13,Single-ply,SBD,M
Boys,82.1,12,Josue Hernandz,Fort Worth North Side,74.93,167.83,95.25,195.04,458.13,Single-ply,SBD,M
Boys,74.84,13,Connor Malone,Midlothian,69.63,170.1,104.33,172.37,446.79,Single-ply,SBD,M
Boys,74.84,14,Mason Walker,Midlothian,74.75,167.83,102.06,167.83,437.72,Single-ply,SBD,M
Boys,74.84,15,Trey Willis,Oakridge School,72.03,140.61,92.99,165.56,399.16,Single-ply,SBD,M
Boys,74.84,16,Grant Fudge,Keller Timber Creek,70.62,151.95,90.72,154.22,396.89,Single-ply,SBD,M
Boys,74.84,17,Alexx Desmuke,Lancaster,73.94,147.42,92.99,154.22,394.63,Single-ply,SBD,M
Boys,74.84,18,Xavier Hall,Cedar Hill,73.3,113.4,61.23,113.4,288.03,Single-ply,SBD,M
Boys,74.84,DQ,Xavier Caffee,Lancaster,70.49,,83.91,136.08,,Single-ply,SBD,M
Boys,82.1,1,Mason Pierce,Plano John Paul II,80.2,210.92,140.61,235.87,587.4,Single-ply,SBD,M
Boys,82.1,2,Ace Clear,Bishop Lynch,76.48,242.67,113.4,229.06,585.13,Single-ply,SBD,M
Boys,82.1,3,Lucas D'Agostino,Oakridge School,81.19,226.8,127.01,222.26,576.06,Single-ply,SBD,M
Boys,82.1,4,James Silkey,Quinlan Ford,81.33,226.8,142.88,204.12,573.79,Single-ply,SBD,M
Boys,82.1,5,Landon Emmert,Ennis,78.15,210.92,111.13,210.92,532.97,Single-ply,SBD,M
Boys,82.1,6,Bryce Barrett,Waxahachie,81.15,199.58,124.74,204.12,528.44,Single-ply,SBD,M
Boys,82.1,7,Jake Mears,Joshua,78.02,188.24,113.4,213.19,514.83,Single-ply,SBD,M
Boys,82.1,8,Eric Montemayor,Ennis,81.24,195.04,113.4,206.38,514.83,Single-ply,SBD,M
Boys,82.1,9,Jesus Padilla,Fort Worth North Side,77.66,185.97,113.4,199.58,498.95,Single-ply,SBD,M
Boys,82.1,10,Manuel Murillo,Venus,81.37,199.58,113.4,174.63,487.61,Single-ply,SBD,M
Boys,82.1,11,Aaron Schroder,Midlothian,79.42,163.29,108.86,181.44,453.59,Single-ply,SBD,M
Boys,82.1,12,Dalton Hoelscher,Bishop Lynch,80.69,192.78,90.72,170.1,453.59,Single-ply,SBD,M
Boys,82.1,13,Logan Humphrey,Keller Timber Creek,77.2,136.08,92.99,149.69,378.75,Single-ply,SBD,M
Boys,82.1,14,Austin Schaffer,Oakridge School,79.2,124.74,70.31,165.56,360.61,Single-ply,SBD,M
Boys,82.1,15,Dee Falana,Cedar Hill,77.02,113.4,83.91,142.88,340.19,Single-ply,SBD,M
Boys,82.1,DQ,Alex Greene,Plano John Paul II,80.33,140.61,70.31,,,Single-ply,SBD,M
Boys,89.81,1,Craig Renfro,Waxahachie,85.82,272.16,140.61,260.82,673.58,Single-ply,SBD,M
Boys,89.81,2,KJ Evans,Joshua,87.5,256.28,158.76,235.87,650.91,Single-ply,SBD,M
Boys,89.81,3,Denzel Lewis,Lancaster,85.87,190.51,122.47,226.8,539.77,Single-ply,SBD,M
Boys,89.81,4,Najee Mustafaa,Midlothian,88.41,204.12,117.93,210.92,532.97,Single-ply,SBD,M
Boys,89.81,5,Chase McDonald,Quinlan Ford,88.59,222.26,111.13,197.31,530.7,Single-ply,SBD,M
Boys,89.81,6,Chase Wingo,Midlothian,87.59,204.12,115.67,204.12,523.9,Single-ply,SBD,M
Boys,89.81,7,Leo Zavala,Waxahachie,89.63,199.58,97.52,213.19,510.29,Single-ply,SBD,M
Boys,89.81,8,Nathan Rutherford,Joshua,86.73,181.44,102.06,190.51,474,Single-ply,SBD,M
Boys,89.81,9,Jerry McNeil,Quinlan Ford,88.5,174.63,115.67,176.9,467.2,Single-ply,SBD,M
Boys,89.81,10,Gabriel Harrison,Lancaster,85.5,181.44,106.59,176.9,464.93,Single-ply,SBD,M
Boys,89.81,11,Ryan Steinkirchner,Plano John Paul II,84.5,147.42,108.86,197.31,453.59,Single-ply,SBD,M
Boys,89.81,12,Chandler Schwing,Quinlan Ford,83.78,172.37,86.18,179.17,437.72,Single-ply,SBD,M
Boys,89.81,13,Barron Wortham,Oakridge School,87.72,163.29,77.11,192.78,433.18,Single-ply,SBD,M
Boys,89.81,14,Trevor Goree,Keller Timber Creek,86.73,151.95,106.59,151.95,410.5,Single-ply,SBD,M
Boys,89.81,15,Jack Peabody,Plano John Paul II,84.23,108.86,111.13,185.97,405.97,Single-ply,SBD,M
Boys,89.81,16,Jaylin Penton,Cedar Hill,88.45,140.61,74.84,154.22,369.68,Single-ply,SBD,M
Boys,89.81,DQ,Peyton Williams,Joshua,85.5,197.31,115.67,,,Single-ply,SBD,M
Boys,99.79,DQ,Caleb Shaw,Midlothian,90.04,204.12,,213.19,,Single-ply,SBD,M
Boys,99.79,1,Gage Shorter,Dallas Highland Park,98.61,231.33,154.22,242.67,628.23,Single-ply,SBD,M
Boys,99.79,2,Steven Prater,Venus,96.25,226.8,147.42,244.94,619.15,Single-ply,SBD,M
Boys,99.79,3,Michael Clift,Venus,96.52,222.26,136.08,204.12,562.45,Single-ply,SBD,M
Boys,99.79,4,Adam Arredondo,Waxahachie,97.61,238.14,113.4,208.65,560.19,Single-ply,SBD,M
Boys,99.79,5,Eric Martinez,Venus,91.76,201.85,131.54,222.26,555.65,Single-ply,SBD,M
Boys,99.79,6,Brett Bicknell,Oakridge School,94.17,210.92,124.74,199.58,535.24,Single-ply,SBD,M
Boys,99.79,7,Darious Jones,Lancaster,98.47,215.46,108.86,190.51,514.83,Single-ply,SBD,M
Boys,99.79,8,Andrew Young #3,Joshua,95.84,204.12,108.86,181.44,494.42,Single-ply,SBD,M
Boys,99.79,9,Austin Adams,Midlothian,97.61,181.44,120.2,183.7,485.34,Single-ply,SBD,M
Boys,99.79,10,Thomas Munoz,Quinlan Ford,96.75,181.44,120.2,165.56,467.2,Single-ply,SBD,M
Boys,99.79,11,Arnie Perez,Bishop Lynch,99.74,181.44,102.06,181.44,464.93,Single-ply,SBD,M
Boys,99.79,12,Riley Hyslop,Plano John Paul II,91.04,136.08,104.33,213.19,453.59,Single-ply,SBD,M
Boys,99.79,13,Rickey Nelson,Lancaster,96.62,181.44,90.72,181.44,453.59,Single-ply,SBD,M
Boys,99.79,14,Thomas O'Toole-Halverson,Plano John Paul II,94.35,174.63,81.65,154.22,410.5,Single-ply,SBD,M
Boys,99.79,15,Andrew Cass,Plano John Paul II,98.11,136.08,72.57,179.17,387.82,Single-ply,SBD,M
Boys,99.79,16,Mark Jolas,Dallas Highland Park,96.62,147.42,77.11,145.15,369.68,Single-ply,SBD,M
Boys,99.79,17,Jonathan Casillas,Keller Timber Creek,93.08,142.88,95.25,124.74,362.87,Single-ply,SBD,M
Boys,99.79,18,Lee Longino,Dallas Highland Park,94.17,140.61,74.84,142.88,358.34,Single-ply,SBD,M
Boys,109.77,1,Cruz Marquez,Joshua,105.91,251.74,136.08,238.14,625.96,Single-ply,SBD,M
Boys,109.77,2,Victor Mejia,Waxahachie,109.63,219.99,147.42,231.33,598.74,Single-ply,SBD,M
Boys,109.77,3,Jon Molina,Bishop Lynch,104.96,242.67,136.08,217.72,596.47,Single-ply,SBD,M
Boys,109.77,4,Jack Ceverha,Dallas Highland Park,104.1,226.8,124.74,217.72,569.26,Single-ply,SBD,M
Boys,109.77,5,Adrian Zavala,Waxahachie,107.46,188.24,133.81,235.87,557.92,Single-ply,SBD,M
Boys,109.77,6,Hayden Mahone,Ennis,104.1,226.8,113.4,197.31,537.51,Single-ply,SBD,M
Boys,109.77,7,Lawton Anderson,Midlothian,104.78,199.58,136.08,170.1,505.76,Single-ply,SBD,M
Boys,109.77,8,Chris Garcia,Quinlan Ford,109.18,206.38,120.2,165.56,492.15,Single-ply,SBD,M
Boys,109.77,9,Sean Hargrove,Venus,106.41,195.04,102.06,163.29,460.4,Single-ply,SBD,M
Boys,109.77,10,Chase Dennis,Keller Timber Creek,101.38,170.1,120.2,165.56,455.86,Single-ply,SBD,M
Boys,109.77,11,Sonny Kemp,Midlothian,106.73,165.56,111.13,163.29,439.98,Single-ply,SBD,M
Boys,109.77,12,Abraham Franks,Cedar Hill,108.5,142.88,74.84,136.08,353.8,Single-ply,SBD,M
Boys,109.77,13,Rees LeMay,Dallas Highland Park,108.09,90.72,86.18,147.42,324.32,Single-ply,SBD,M
Boys,109.77,DQ,DAston Davis,Cedar Hill,109.72,113.4,74.84,,,Single-ply,SBD,M
Boys,124.74,1,James Lockhart,Ennis,113.94,247.21,145.15,249.48,641.83,Single-ply,SBD,M
Boys,124.74,2,Christian Milliorn,Waxahachie,112.76,199.58,145.15,244.94,589.67,Single-ply,SBD,M
Boys,124.74,3,David Allen,Quinlan Ford,117.34,238.14,122.47,229.06,589.67,Single-ply,SBD,M
Boys,124.74,4,Nick Salvala,Bishop Lynch,120.47,240.4,127.01,181.44,548.85,Single-ply,SBD,M
Boys,124.74,5,Brandon North,Midlothian,121.74,208.65,115.67,199.58,523.9,Single-ply,SBD,M
Boys,124.74,6,Joseph Lamott,Cedar Hill,114.94,142.88,104.33,170.1,417.3,Single-ply,SBD,M
Boys,124.74,7,Josh Leachman,Dallas Highland Park,115.26,158.76,81.65,161.03,401.43,Single-ply,SBD,M
Boys,124.74,DQ,Emmanuel Williams,Venus,111.18,,,,,Single-ply,SBD,M
Boys,124.74,DQ,Isaiah Santos,Ennis,123.33,204.12,104.33,,,Single-ply,SBD,M
Boys,124.74+,1,Vincent Wurst,Bishop Lynch,140.25,301.64,170.1,249.48,721.21,Single-ply,SBD,M
Boys,124.74+,2,Gennard Johnson,Waxahachie,150.14,274.42,145.15,292.57,712.14,Single-ply,SBD,M
Boys,124.74+,3,Montrel Newson,Ennis,169.46,272.16,142.88,226.8,641.83,Single-ply,SBD,M
Boys,124.74+,4,Caleb Riley,Joshua,132.49,238.14,151.95,231.33,621.42,Single-ply,SBD,M
Boys,124.74+,5,Dakota Larson,Venus,131,235.87,167.83,188.24,591.94,Single-ply,SBD,M
Boys,124.74+,6,Shawn Baker,Quinlan Ford,129.95,215.46,117.93,192.78,526.17,Single-ply,SBD,M
Boys,124.74+,7,Merkel Garner,Lancaster,132.72,190.51,124.74,190.51,505.76,Single-ply,SBD,M
Boys,124.74+,8,John Johnson,Lancaster,139.39,151.95,111.13,156.49,419.57,Single-ply,SBD,M
Boys,124.74+,9,Austin Webb,Dallas Highland Park,133.13,136.08,74.84,145.15,356.07,Single-ply,SBD,M
Boys,,NS,Antonio Heggar,Cedar Hill,,,,,,Single-ply,SBD,M
Boys,,NS,David Garrett,Waxahachie,,,,,,Single-ply,SBD,M
Boys,,NS,Austin Holly,Waxahachie,,,,,,Single-ply,SBD,M
Boys,,NS,Ralph Mendiola,Plano John Paul II,,,,,,Single-ply,SBD,M
Boys,,NS,Robin Agir,Oakridge School,,,,,,Single-ply,SBD,M
Boys,,NS,Tyler Woolsey,Oakridge School,,,,,,Single-ply,SBD,M
Boys,,NS,Wyatt Jones,Oakridge School,,,,,,Single-ply,SBD,M
Boys,,NS,Kenny DeLeon,Venus,,,,,,Single-ply,SBD,M
Boys,,NS,Eduardo Cruz Rubio,Venus,,,,,,Single-ply,SBD,M
Boys,,NS,Payton Phillips,Dallas Highland Park,,,,,,Single-ply,SBD,M
Boys,,NS,Clayton Woods,Dallas Highland Park,,,,,,Single-ply,SBD,M
Boys,,NS,Bruce Tekell,Ennis,,,,,,Single-ply,SBD,M
Boys,,NS,Drake Powell,Ennis,,,,,,Single-ply,SBD,M
Boys,,NS,Peter Gaston,Lancaster,,,,,,Single-ply,SBD,M
Boys,,NS,J Merrit,Lancaster,,,,,,Single-ply,SBD,M
