Division,WeightClassKg,Place,Name,Team,BodyweightKg,Best3SquatKg,Best3BenchKg,Best3DeadliftKg,TotalKg,Equipment,Event,Sex,BirthDate
Boys,51.71,1,Chasmon Davis,Everman,51.17,170.1,92.99,181.44,444.52,Single-ply,SBD,M,
Boys,51.71,2,Kenaj Washington,Kennedale,51.17,147.42,79.38,156.49,383.29,Single-ply,SBD,M,
Boys,55.79,1,Noah Jones,Hillsboro,55.7,149.69,88.45,147.42,385.55,Single-ply,SBD,M,
Boys,55.79,2,Dylan Martinez,Castleberry,55.16,106.59,49.9,122.47,278.96,Single-ply,SBD,M,
Boys,59.87,1,Ever Barron,Everman,58.42,181.44,122.47,192.78,496.68,Single-ply,SBD,M,
Boys,59.87,2,Hunter Burton,Millsap,58.6,181.44,99.79,151.95,433.18,Single-ply,SBD,M,
Boys,59.87,3,Leonardo Lopez,Hillsboro,58.51,163.29,83.91,170.1,417.3,Single-ply,SBD,M,
Boys,59.87,4,Adrian Perez,Castleberry,57.79,142.88,97.52,151.95,392.36,Single-ply,SBD,M,
Boys,59.87,5,Douglas Bruner-Dukes,Everman,58.24,113.4,72.57,142.88,328.85,Single-ply,SBD,M,
Boys,59.87,6,Dylan Cortez,Castleberry,55.97,106.59,74.84,120.2,301.64,Single-ply,SBD,M,
Boys,59.87,7,Clay Graves,Jacksboro,57.33,95.25,58.97,120.2,274.42,Single-ply,SBD,M,
Boys,67.13,1,Joe Cullum,Kennedale,66.13,208.65,142.88,195.04,546.58,Single-ply,SBD,M,
Boys,67.13,2,Aaron Ambriz,Everman,65.5,204.12,115.67,204.12,523.9,Single-ply,SBD,M,
Boys,67.13,3,Ethan Barboza,Castleberry,65.95,174.63,117.93,174.63,467.2,Single-ply,SBD,M,
Boys,67.13,4,Saul Bazan,Castleberry,63.78,172.37,115.67,174.63,462.66,Single-ply,SBD,M,
Boys,67.13,5,Mike Martinez,Jacksboro,64.5,163.29,102.06,151.95,417.3,Single-ply,SBD,M,
Boys,67.13,6,Travis Neyhart,Kennedale,66.22,167.83,90.72,158.76,417.3,Single-ply,SBD,M,
Boys,67.13,7,Justin Lewis,Lucas Lovejoy,64.86,161.03,83.91,161.03,405.97,Single-ply,SBD,M,
Boys,67.13,8,Spicer Roof,Kennedale,65.32,149.69,72.57,158.76,381.02,Single-ply,SBD,M,
Boys,67.13,9,Shane Hull,Kennedale,66.68,136.08,92.99,138.35,367.41,Single-ply,SBD,M,
Boys,67.13,10,Gharron Sheffield,Lucas Lovejoy,66.04,136.08,72.57,151.95,360.61,Single-ply,SBD,M,
Boys,67.13,11,Manny Gomez,Maypearl,60.6,117.93,74.84,138.35,331.12,Single-ply,SBD,M,
Boys,67.13,12,Brayden Weathers,Millsap,66.5,124.74,68.04,124.74,317.51,Single-ply,SBD,M,
Boys,67.13,13,Jeremy Berstler,Burleson Centennial,65.41,111.13,68.04,133.81,312.98,Single-ply,SBD,M,
Boys,67.13,14,Oscar Landaverde,Perrin-Whitt,60.78,90.72,61.23,117.93,269.89,Single-ply,SBD,M,
Boys,67.13,NS,Erick Torres,Venus,,,,,,Single-ply,SBD,M,
Boys,67.13,NS,Alejandro Mejia,Venus,,158.76,,,,Single-ply,SBD,M,
Boys,67.13,NS,Zerek Waters,Forney,,151.95,102.06,,,Single-ply,SBD,M,
Boys,74.84,1,Cameron Hynson,Kennedale,71.03,219.99,138.35,238.14,596.47,Single-ply,SBD,M,
Boys,74.84,2,Micah Conner,Kennedale,71.49,249.48,117.93,224.53,591.94,Single-ply,SBD,M,
Boys,74.84,3,Kevin Jarvis,Everman,73.75,215.46,111.13,204.12,530.7,Single-ply,SBD,M,
Boys,74.84,4,Tyler Smith,Lucas Lovejoy,72.94,199.58,111.13,195.04,505.76,Single-ply,SBD,M,
Boys,74.84,5,Brendene Ramos,Castleberry,74.48,183.7,133.81,183.7,501.22,Single-ply,SBD,M,
Boys,74.84,6,Jose Licerio,Castleberry,73.03,176.9,131.54,176.9,485.34,Single-ply,SBD,M,
Boys,74.84,7,Caden DeVries,Hillsboro,74.84,170.1,120.2,183.7,474,Single-ply,SBD,M,
Boys,74.84,8,Basey Mitchell,Millsap,69.4,190.51,92.99,181.44,464.93,Single-ply,SBD,M,
Boys,74.84,9,Jon Richard Washington,Forney,71.03,158.76,97.52,199.58,455.86,Single-ply,SBD,M,
Boys,74.84,10,Ricardo Martinez #2,Hillsboro,70.03,167.83,102.06,183.7,453.59,Single-ply,SBD,M,
Boys,74.84,11,Michael Brown,Burleson Centennial,67.4,163.29,97.52,188.24,449.06,Single-ply,SBD,M,
Boys,74.84,12,Kadyn Putty,Venus,74.12,154.22,97.52,195.04,446.79,Single-ply,SBD,M,
Boys,74.84,13,Aaron Mount,Forney,73.94,167.83,102.06,174.63,444.52,Single-ply,SBD,M,
Boys,74.84,14,Humberto Castaneda,Castleberry,72.39,158.76,108.86,165.56,433.18,Single-ply,SBD,M,
Boys,74.84,15,Tyler Pruitt,Forney,67.95,174.63,92.99,163.29,430.91,Single-ply,SBD,M,
Boys,74.84,16,Marcus Gonzales,Hillsboro,72.76,154.22,92.99,181.44,428.64,Single-ply,SBD,M,
Boys,74.84,17,Jacob Grimes,Crandall,74.12,156.49,120.2,142.88,419.57,Single-ply,SBD,M,
Boys,74.84,18,Elijah West,Castleberry,72.17,149.69,92.99,172.37,415.04,Single-ply,SBD,M,
Boys,74.84,19,Juan Hernandez,Castleberry,72.21,151.95,111.13,151.95,415.04,Single-ply,SBD,M,
Boys,74.84,20,CJ Navarro,Millsap,73.94,165.56,86.18,154.22,405.97,Single-ply,SBD,M,
Boys,74.84,21,Ethan Watson,Crandall,67.22,147.42,99.79,133.81,381.02,Single-ply,SBD,M,
Boys,74.84,22,Mason Wallace,Lucas Lovejoy,68.86,142.88,86.18,142.88,371.95,Single-ply,SBD,M,
Boys,74.84,23,Brian Fisher,Maypearl,74.66,131.54,81.65,142.88,356.07,Single-ply,SBD,M,
Boys,74.84,24,Brayden McMichael,Millsap,71.21,117.93,70.31,124.74,312.98,Single-ply,SBD,M,
Boys,74.84,25,Brock Adair,Perrin-Whitt,68.22,90.72,72.57,111.13,274.42,Single-ply,SBD,M,
Boys,74.84,26,Besmir Salihou,Fort Worth Western Hills,71.3,104.33,61.23,102.06,267.62,Single-ply,SBD,M,
Boys,74.84,DQ,Ashton Buxkemper,Hillsboro,69.22,154.22,,,,Single-ply,SBD,M,
Boys,82.1,1,Diego Cortez,Everman,81.74,260.82,122.47,240.4,623.69,Single-ply,SBD,M,
Boys,82.1,2,Randal Hamilton,Jacksboro,78.93,229.06,127.01,195.04,551.11,Single-ply,SBD,M,
Boys,82.1,3,Blake Slaughter,Lucas Lovejoy,81.1,208.65,145.15,181.44,535.24,Single-ply,SBD,M,
Boys,82.1,4,John Boston,Hillsboro,77.75,208.65,117.93,190.51,517.1,Single-ply,SBD,M,
Boys,82.1,5,Jake Holmes,Perrin-Whitt,80.01,170.1,120.2,215.46,505.76,Single-ply,SBD,M,
Boys,82.1,6,Jorge Soria,Hillsboro,81.28,181.44,102.06,181.44,464.93,Single-ply,SBD,M,
Boys,82.1,7,Braden Waters,Kennedale,79.56,174.63,99.79,185.97,460.4,Single-ply,SBD,M,
Boys,82.1,8,Tanner Howland,Forney,79.02,172.37,113.4,172.37,458.13,Single-ply,SBD,M,
Boys,82.1,9,Auston McBroom,Millsap,76.75,174.63,102.06,176.9,453.59,Single-ply,SBD,M,
Boys,82.1,10,Juble Stevens,Millsap,79.2,172.37,95.25,181.44,449.06,Single-ply,SBD,M,
Boys,82.1,11,Antoine Martin,Kennedale,80.29,158.76,88.45,176.9,424.11,Single-ply,SBD,M,
Boys,82.1,12,Zach Lewis,Crandall,78.29,111.13,106.59,151.95,369.68,Single-ply,SBD,M,
Boys,82.1,13,Aiden Poe,Kennedale,79.56,117.93,77.11,145.15,340.19,Single-ply,SBD,M,
Boys,82.1,14,Parker Handcock,Burleson Centennial,82.01,111.13,90.72,136.08,337.93,Single-ply,SBD,M,
Boys,82.1,15,Lakota Landeros,Cleburne,80.29,124.74,74.84,136.08,335.66,Single-ply,SBD,M,
Boys,82.1,NS,Jonah Delgado,Fort Worth Diamond Hill-Jarvis,,,,,,Single-ply,SBD,M,
Boys,82.1,DQ,Alonzo Abreu,Castleberry,79.92,165.56,,,,Single-ply,SBD,M,
Boys,89.81,1,Kenny Long,Burleson Centennial,88.18,272.16,163.29,244.94,680.39,Single-ply,SBD,M,
Boys,89.81,2,Sphend Beqiri,Fort Worth Western Hills,88.63,213.19,138.35,204.12,555.65,Single-ply,SBD,M,
Boys,89.81,3,Andres Galaviz,Fort Worth Western Hills,89.09,201.85,120.2,197.31,519.36,Single-ply,SBD,M,
Boys,89.81,4,Aldo Calvillo,Millsap,88.09,222.26,90.72,185.97,498.95,Single-ply,SBD,M,
Boys,89.81,5,Gabriel Serna,Burleson Centennial,88.99,163.29,124.74,176.9,464.93,Single-ply,SBD,M,
Boys,89.81,6,Christian Hudson,Burleson Centennial,88.9,181.44,111.13,170.1,462.66,Single-ply,SBD,M,
Boys,89.81,7,Homero Arizpe,Maypearl,84.73,151.95,102.06,158.76,412.77,Single-ply,SBD,M,
Boys,89.81,8,Dylan Peek,Maypearl,84.19,149.69,90.72,154.22,394.63,Single-ply,SBD,M,
Boys,89.81,9,Anthony Miles,Kennedale,87.91,147.42,86.18,124.74,358.34,Single-ply,SBD,M,
Boys,89.81,10,Noah Gardner,Lucas Lovejoy,86.82,113.4,83.91,129.27,326.59,Single-ply,SBD,M,
Boys,89.81,11,Jair Leija,Crandall,86.27,131.54,81.65,97.52,310.71,Single-ply,SBD,M,
Boys,89.81,12,Clay Jones,Millsap,84.55,102.06,54.43,117.93,274.42,Single-ply,SBD,M,
Boys,89.81,NS,Austin Guthirie,Jacksboro,,,,,,Single-ply,SBD,M,
Boys,89.81,DQ,Phiromhathai Dimanh,Venus,86,208.65,,,,Single-ply,SBD,M,
Boys,89.81,DQ,Timmy Gracey,Maypearl,88.45,172.37,,,,Single-ply,SBD,M,
Boys,89.81,DQ,Philip Jost,Lucas Lovejoy,89.72,165.56,,,,Single-ply,SBD,M,
Boys,89.81,DQ,Copeland Hayes,Kennedale,88.45,,,,,Single-ply,SBD,M,
Boys,89.81,DQ,Edgar Rivera,Fort Worth Diamond Hill-Jarvis,88.45,183.7,92.99,,,Single-ply,SBD,M,
Boys,99.79,1,Izaiha Olalde,Everman,99.79,260.82,154.22,204.12,619.15,Single-ply,SBD,M,
Boys,99.79,2,Michael Flores,Hillsboro,92.9,254.01,151.95,192.78,598.74,Single-ply,SBD,M,
Boys,99.79,3,Christopher Washington,Kennedale,97.7,199.58,133.81,215.46,548.85,Single-ply,SBD,M,
Boys,99.79,4,Moises Ibanez,Kennedale,98.25,204.12,129.27,197.31,530.7,Single-ply,SBD,M,
Boys,99.79,5,Caiden Vasquez,Jacksboro,90.17,215.46,111.13,192.78,519.36,Single-ply,SBD,M,
Boys,99.79,6,Drelyn Shamon-Mcknight,Everman,94.53,204.12,136.08,158.76,498.95,Single-ply,SBD,M,
Boys,99.79,7,Josue Arellanes,Castleberry,92.9,185.97,111.13,188.24,485.34,Single-ply,SBD,M,
Boys,99.79,8,Robert Gomez,Maypearl,91.08,181.44,106.59,181.44,469.47,Single-ply,SBD,M,
Boys,99.79,9,Jesse Taylor,Maypearl,98.97,167.83,97.52,181.44,446.79,Single-ply,SBD,M,
Boys,99.79,10,Gage Hodges,Perrin-Whitt,98.7,149.69,108.86,181.44,439.98,Single-ply,SBD,M,
Boys,99.79,11,Damien Snell,Millsap,98.88,172.37,92.99,174.63,439.98,Single-ply,SBD,M,
Boys,99.79,12,Tanner Nelson,Maypearl,96.43,161.03,97.52,174.63,433.18,Single-ply,SBD,M,
Boys,99.79,13,Kenton Johnson,Fort Worth Western Hills,97.52,127.01,83.91,147.42,358.34,Single-ply,SBD,M,
Boys,99.79,14,Peston Shields,Millsap,95.98,124.74,70.31,111.13,306.17,Single-ply,SBD,M,
Boys,109.77,1,Matthew Diaz,Forney,106.78,188.24,120.2,201.85,510.29,Single-ply,SBD,M,
Boys,109.77,2,Stephen Thrasher,Forney,102.24,179.17,111.13,179.17,469.47,Single-ply,SBD,M,
Boys,109.77,3,Andrew Olivarez,Jacksboro,104.6,172.37,90.72,158.76,421.84,Single-ply,SBD,M,
Boys,109.77,4,Seth Hogan,Fort Worth Western Hills,108.23,158.76,74.84,161.03,394.63,Single-ply,SBD,M,
Boys,109.77,5,Jackson Long,Cleburne,109.77,129.27,81.65,136.08,347,Single-ply,SBD,M,
Boys,109.77,6,Hunter Hunt,Kennedale,100.33,113.4,79.38,124.74,317.51,Single-ply,SBD,M,
Boys,124.74,1,Jalan Henderson,Everman,124.28,249.48,174.63,249.48,673.58,Single-ply,SBD,M,
Boys,124.74,2,Junior Seay,Kennedale,114.58,265.35,170.1,233.6,669.05,Single-ply,SBD,M,
Boys,124.74,3,Seth Martin,Everman,122.56,260.82,136.08,249.48,646.37,Single-ply,SBD,M,
Boys,124.74,4,Adrian Anderson,Everman,115.03,260.82,158.76,181.44,601.01,Single-ply,SBD,M,
Boys,124.74,5,Charles Sanders,Castleberry,115.85,235.87,136.08,229.06,601.01,Single-ply,SBD,M,
Boys,124.74,6,Ismael Lopez,Hillsboro,111.86,240.4,158.76,165.56,564.72,Single-ply,SBD,M,
Boys,124.74,7,Colby Bacon,Lucas Lovejoy,111.31,204.12,120.2,213.19,537.51,Single-ply,SBD,M,
Boys,124.74,8,Griffith Peatrousky,Burleson Centennial,123.74,192.78,122.47,201.85,517.1,Single-ply,SBD,M,
Boys,124.74,9,Nick Johnson,Fort Worth Western Hills,114.58,138.35,79.38,142.88,360.61,Single-ply,SBD,M,
Boys,124.74,10,Sebastian Uribe,Cleburne,111.58,136.08,83.91,136.08,356.07,Single-ply,SBD,M,
Boys,124.74,NS,Jahaziel Compean,Hillsboro,,240.4,,,,Single-ply,SBD,M,
Boys,124.74+,1,Victor Garcia,Kennedale,124.83,326.59,183.7,235.87,746.16,Single-ply,SBD,M,
Boys,124.74+,2,Cade Crawford,Forney,141.61,301.64,158.76,215.46,675.85,Single-ply,SBD,M,
Boys,124.74+,3,Brody Nors,Burleson Centennial,141.7,254.01,181.44,240.4,675.85,Single-ply,SBD,M,
Boys,124.74+,4,Brian Jobes,Lucas Lovejoy,143.15,263.08,170.1,226.8,659.98,Single-ply,SBD,M,
Boys,124.74+,5,Jacorie Williams,Fort Worth Western Hills,141.52,254.01,136.08,210.92,601.01,Single-ply,SBD,M,
Boys,124.74+,6,Alex Ramirez,Forney,128.73,219.99,138.35,204.12,562.45,Single-ply,SBD,M,
Boys,124.74+,7,Trent Tidwell,Hillsboro,131.72,215.46,154.22,192.78,562.45,Single-ply,SBD,M,
Boys,124.74+,8,Colby Henry,Kennedale,166.38,226.8,124.74,181.44,532.97,Single-ply,SBD,M,
Boys,124.74+,9,Brantley Smith,Cleburne,135.08,213.19,117.93,188.24,519.36,Single-ply,SBD,M,
Boys,124.74+,10,Joseph Dunn,Jacksboro,139.71,154.22,77.11,108.86,340.19,Single-ply,SBD,M,
Boys,124.74+,NS,Cameron Reeves,Jacksboro,,,,,,Single-ply,SBD,M,
Boys,124.74+,NS,Aaron Mecado,Burleson Centennial,,,,,,Single-ply,SBD,M,
