Place,WeightClassKg,Event,Equipment,Name,Sex,Division,Country,Age,BodyweightKg,Squat1Kg,Squat2Kg,Squat3Kg,Squat4Kg,Best3SquatKg,Bench1Kg,Bench2Kg,Bench3Kg,Bench4Kg,Best3BenchKg,Deadlift1Kg,Deadlift2Kg,Deadlift3Kg,Deadlift4Kg,Best3DeadliftKg,TotalKg
1,50.5,S,Raw,Lyndsey Hallam,F,F-O,UK,27,49.3,85,90,92.5,,92.5,,,,,,,,,,,92.5
2,50.5,S,Raw,Frances Arthur,F,F-M1,Ireland,40,49.5,77.5,82.5,-85,,82.5,,,,,,,,,,,82.5
1,53,S,Raw,Derina Kelliher,F,F-JR,Ireland,21,52.2,77.5,82.5,87.5,,87.5,,,,,,,,,,,87.5
1,55.5,S,Raw,Wendy Evans,F,F-M2,UK,49,54.5,105,-113,113,115,113,,,,,,,,,,,113
2,55.5,S,Raw,Alexandra Fritschy,F,F-O,Switzerland,30,55,95,105,110,,110,,,,,,,,,,,110
3,55.5,S,Raw,Savanna Hughes,F,F-JR,UK,22,55.4,90,95,-100,,95,,,,,,,,,,,95
4,55.5,S,Raw,Melanie Aranda,F,F-O,Ireland,28,54.8,82.5,87.5,90,,90,,,,,,,,,,,90
5,55.5,S,Raw,Elisabeth Street,F,F-M3,UK,52,54.8,80,87.5,95,,95,,,,,,,,,,,95
6,55.5,S,Raw,Deborah MacDonald,F,F-M2,UK,45,53.2,70,,,,70,,,,,,,,,,,70
1,63,S,Raw,Helen Wuyts,F,F-O,Belgium,25,62.4,120,126,130,,130,,,,,,,,,,,130
2,63,S,Raw,Danielle O'Sullivan,F,F-O,Ireland,36,62.3,122.5,-127.5,127.5,,127.5,,,,,,,,,,,127.5
3,63,S,Raw,Geina McGrath,F,F-O,Ireland,26,60.1,105,110,115,,115,,,,,,,,,,,115
4,63,S,Raw,Simona Lapustea,F,F-O,Italy,39,61.6,115,-120,-120,,115,,,,,,,,,,,115
5,63,S,Raw,Angelica Toia,F,F-JR,Italy,23,61,80,90,-100,,90,,,,,,,,,,,90
1,70,S,Raw,Sophie Estel,F,F-M3,France,51,68.7,120,125,-130.5,,125,,,,,,,,,,,125
2,70,S,Raw,Mollie Wagstaff,F,F-O,UK,28,67.6,-115,120,-127.5,,120,,,,,,,,,,,120
3,70,S,Raw,Edyta Piechowicz,F,F-O,Ireland,31,64.6,100,-105,-105,,100,,,,,,,,,,,100
4,70,S,Raw,Katrin Dreyer Gibney,F,F-M4,Ireland,56,64.9,-95,-95,95,,95,,,,,,,,,,,95
5,70,S,Raw,Patricia Fahy,F,F-M3,Ireland,51,67.8,-80,80,-85,,80,,,,,,,,,,,80
1,80,S,Raw,Emma Wright,F,F-M1,UK,41,79.9,110,115,120,,120,,,,,,,,,,,120
2,80,S,Raw,Lacy Mcgrath,F,F-O,Germany,27,71.9,100,-107.5,-107.5,,100,,,,,,,,,,,100
3,80,S,Raw,Tatiana Filimonova,F,F-M2,Russia,49,74.9,95,100,-105,,100,,,,,,,,,,,100
4,80,S,Raw,Eleonora Toia,F,F-T2,Italy,17,73.7,72.5,80,90,,90,,,,,,,,,,,90
DQ,80,S,Raw,Siobhan Jacob,F,F-M1,Ireland,42,77.1,-107.5,-107.5,-107.5,,,,,,,,,,,,,
1,90+,S,Raw,Ruth Gardner,F,F-M1,UK,42,115.5,135,-142.5,-142.5,,135,,,,,,,,,,,135
1,56,S,Raw,Domenico Catricala,M,M-M9,Italy,80,54.1,80,85,90,92.5,90,,,,,,,,,,,90
1,60,S,Raw,Ben Hampson,M,M-O,UK,27,59.6,150,155,160,,160,,,,,,,,,,,160
2,60,S,Raw,Adrian Strechi,M,M-T3,Moldova,18,59.2,125,132.5,-140,,132.5,,,,,,,,,,,132.5
1,67.5,S,Raw,David Watts,M,M-O,UK,26,66,172.5,180,-185,,180,,,,,,,,,,,180
2,67.5,S,Raw,Tim van den Abbeele,M,M-O,Belgium,29,64.9,150,160,-170,,160,,,,,,,,,,,160
3,67.5,S,Raw,Jordan Holland,M,M-T2,Ireland,16,65.6,130,142.5,148.5,150,148.5,,,,,,,,,,,148.5
4,67.5,S,Raw,Thomas Quelet,M,M-T2,France,17,66.2,135,142.5,149,-151,149,,,,,,,,,,,149
DD,67.5,S,Raw,Leonid Balaban,M,M-O,Moldova,25,66.7,175,185,-191.5,,185,,,,,,,,,,,
1,75,S,Raw,Indra Sudarminto,M,M-O,Belgium,26,73.4,242.5,252.5,-262.5,,252.5,,,,,,,,,,,252.5
2,75,S,Raw,Serghei Teliucov,M,M-O,Moldova,31,74,180,185,-190,,185,,,,,,,,,,,185
3,75,S,Raw,Andrej Roller,M,M-O,Germany,24,72.2,175,182.5,-187.5,,182.5,,,,,,,,,,,182.5
4,75,S,Raw,Patrick Metayer,M,M-M3,France,52,74.5,140,145,147.5,,147.5,,,,,,,,,,,147.5
DQ,75,S,Raw,Pavel Meshkov,M,M-O,Russia,24,67.6,-162.5,-162.5,-162.5,,,,,,,,,,,,,
1,82.5,S,Raw,Lorenzo Dore,M,M-M3,Italy,51,81.4,175,185,192.5,,192.5,,,,,,,,,,,192.5
2,82.5,S,Raw,Stephen Charters,M,M-M4,UK,55,79.9,160,170,180,,180,,,,,,,,,,,180
3,82.5,S,Raw,Régis Aubry,M,M-M2,France,45,81.6,160,167.5,172.5,,172.5,,,,,,,,,,,172.5
4,82.5,S,Raw,Maxime Hellec-Marche,M,M-JR,France,23,81,157.5,165,170,,170,,,,,,,,,,,170
5,82.5,S,Raw,José Fleury,M,M-M4,Switzerland,58,80.6,145,150,155,,155,,,,,,,,,,,155
6,82.5,S,Raw,Francis Spiteri,M,M-M6,Malaysia,68,81.5,140,151,153,,153,,,,,,,,,,,153
7,82.5,S,Raw,Viktor Schlinger,M,M-M6,Germany,65,79.4,145,-152.5,-152.5,,145,,,,,,,,,,,145
1,90,S,Raw,Mark Jackson,M,M-O,UK,27,87.4,235,250,263,,263,,,,,,,,,,,263
2,90,S,Raw,Sean Smithson,M,M-M1,UK,40,88.8,210,220,-230,,220,,,,,,,,,,,220
3,90,S,Raw,Markus Eberl,M,M-O,Germany,34,85.8,195,200,-207.5,,200,,,,,,,,,,,200
4,90,S,Raw,Patrick Valfrey,M,M-M3,France,52,88.7,175,190,-200,,190,,,,,,,,,,,190
5,90,S,Raw,Logue Connor,M,M-JR,Ireland,21,84.8,167.5,180,-185,,180,,,,,,,,,,,180
6,90,S,Raw,Jonny Piotrowski,M,M-M4,France,55,86.7,160,-170,-170,,160,,,,,,,,,,,160
7,90,S,Raw,Vladimir Meleca,M,M-M5,Moldova,61,88.3,157.5,-167.5,-170.5,,157.5,,,,,,,,,,,157.5
8,90,S,Raw,Paolo Stefanelli,M,M-M4,Italy,57,87.1,155,-170,-170,,155,,,,,,,,,,,155
DQ,90,S,Raw,Bertrand Saugy,M,M-O,Switzerland,28,88.1,-185,-185,-185,,,,,,,,,,,,,
1,100,S,Raw,Victor Gogu,M,M-O,Moldova,27,98,260,-271.5,271.5,-275,271.5,,,,,,,,,,,271.5
2,100,S,Raw,François Kalic,M,M-M3,France,51,97.8,187.5,200,213,218,213,,,,,,,,,,,213
3,100,S,Raw,Serge Bustreel,M,M-M7,France,71,96.8,185,195,202.5,205,202.5,,,,,,,,,,,202.5
4,100,S,Raw,Timo Jakobi,M,M-T2,Germany,17,95.4,193,198,200,203,200,,,,,,,,,,,200
1,110,S,Raw,Dylan Callus,M,M-JR,Malaysia,21,108.6,231,240,-245,,240,,,,,,,,,,,240
2,110,S,Raw,Anatolii Crucerescu,M,M-O,Moldova,26,108.3,205,215,-222.5,,215,,,,,,,,,,,215
3,110,S,Raw,Kevin Webb,M,M-O,UK,36,108.2,210,-220,-220,,210,,,,,,,,,,,210
4,110,S,Raw,Raphael Hastenrath,M,M-T2,Germany,17,105.7,185,190,195,200,195,,,,,,,,,,,195
5,110,S,Raw,James Collins,M,M-M2,Ireland,47,110,180,-185,,,180,,,,,,,,,,,180
6,110,S,Raw,John West,M,M-M8,Ireland,75,108,140,-150,,,140,,,,,,,,,,,140
1,125,S,Raw,Roman Scorici,M,M-O,Moldova,33,116.4,275,285,-293,,285,,,,,,,,,,,285
2,125,S,Raw,Ion Catana,M,M-O,Moldova,32,118,235,242.5,250,,250,,,,,,,,,,,250
3,125,S,Raw,Uwe Berends,M,M-M3,Germany,50,120.7,-215,-215,215,,215,,,,,,,,,,,215
4,125,S,Raw,Francesco Sudano,M,M-O,Italy,37,115.5,-207.5,207.5,-220,,207.5,,,,,,,,,,,207.5
1,145,S,Raw,Morgan Evans,M,M-T2,UK,17,130.4,172.5,-182.5,185,-190,185,,,,,,,,,,,185
1,145+,S,Raw,Serghei Bîrsanu,M,M-M1,Moldova,40,145.8,272.5,282.5,287.5,290,287.5,,,,,,,,,,,287.5
2,145+,S,Raw,Yaşar Küçük,M,M-M1,Germany,43,156.2,260,280,285,-288,285,,,,,,,,,,,285
1,55.5,S,Single-ply,Alexandra Fritschy,F,F-O,Switzerland,30,55,95,105,-115,,105,,,,,,,,,,,105
2,55.5,S,Single-ply,Deborah MacDonald,F,F-M2,UK,45,53.2,75,-85,90,96,90,,,,,,,,,,,90
1,63,S,Single-ply,Helen Wuyts,F,F-O,Belgium,25,62.4,160,167.5,,,167.5,,,,,,,,,,,167.5
1,90,S,Single-ply,Paulina Coleman,F,F-O,Ireland,39,84.1,150,160,-170,,160,,,,,,,,,,,160
1,67.5,S,Single-ply,Alessio Santi,M,M-O,Italy,29,65.8,185,-195,197.5,,197.5,,,,,,,,,,,197.5
2,67.5,S,Single-ply,Tim van den Abbeele,M,M-O,Belgium,29,64.9,175,185,-195,,185,,,,,,,,,,,185
1,75,S,Single-ply,Serghei Teliucov,M,M-O,Moldova,31,74,190,205,210,,210,,,,,,,,,,,210
2,75,S,Single-ply,Gheorghe Dolința,M,M-JR,Moldova,23,74.5,187.5,200,-207.5,,200,,,,,,,,,,,200
3,75,S,Single-ply,Liviu Porumbescu,M,M-T2,Moldova,16,72.9,160,170,-180,,170,,,,,,,,,,,170
1,82.5,S,Single-ply,Serge Beldjord,M,M-M3,France,52,82,170,180,-200,,180,,,,,,,,,,,180
2,82.5,S,Single-ply,José Fleury,M,M-M4,Switzerland,58,80.6,155,160.5,172.5,,172.5,,,,,,,,,,,172.5
1,90,S,Single-ply,Patrick Valfrey,M,M-M3,France,52,88.7,190,202.5,215,,215,,,,,,,,,,,215
1,100,S,Single-ply,Gianni Vermote,M,M-M1,Belgium,44,99.2,245,-265,265,-280,265,,,,,,,,,,,265
1,125,S,Single-ply,Francesco Pellizzoni,M,M-O,Italy,39,123,320,-340,,,320,,,,,,,,,,,320
2,125,S,Single-ply,Loren Schäfer,M,M-JR,Germany,23,113.8,291,305,-310,,305,,,,,,,,,,,305
1,145,S,Single-ply,Andre Du Plessis,M,M-M3,Ireland,52,142,300,315,-325,,315,,,,,,,,,,,315
2,145,S,Single-ply,Maxim Tikhonov,M,M-M2,Russia,49,133.8,305,-320,-325,,305,,,,,,,,,,,305
1,44,B,Raw,Nicole Debail,F,F-M4,France,56,43.3,,,,,,50,55,-58,,55,,,,,,55
1,50.5,B,Raw,Jen Cassar,F,F-O,UK,24,49.1,,,,,,55,60,62.5,,62.5,,,,,,62.5
2,50.5,B,Raw,Lucy Anderson,F,F-O,UK,39,48,,,,,,57.5,-60,-62.5,,57.5,,,,,,57.5
3,50.5,B,Raw,Frances Arthur,F,F-M1,Ireland,40,50.5,,,,,,47.5,50,-52.5,,50,,,,,,50
4,50.5,B,Raw,Shauna Madden,F,F-T1,Ireland,14,49.6,,,,,,37.5,40,-43,,40,,,,,,40
1,53,B,Raw,Derina Kelliher,F,F-JR,Ireland,21,52.1,,,,,,50,-52.5,-52.5,,50,,,,,,50
1,55.5,B,Raw,Elisabeth Street,F,F-M3,UK,52,54.6,,,,,,50,53,55,60,55,,,,,,55
2,55.5,B,Raw,Deborah MacDonald,F,F-M2,UK,45,53.3,,,,,,47.5,50,52.5,,52.5,,,,,,52.5
3,55.5,B,Raw,Alexandra Fritschy,F,F-O,Switzerland,30,55.4,,,,,,47.5,50,-55,,50,,,,,,50
4,55.5,B,Raw,Aileen Flynn,F,F-M3,Belgium,51,53.8,,,,,,40,45,-53,,45,,,,,,45
5,55.5,B,Raw,Sally Trueman,F,F-M3,UK,50,54.5,,,,,,42.5,-45,-45,,42.5,,,,,,42.5
DQ,55.5,B,Raw,Wendy Evans,F,F-M2,UK,49,54.3,,,,,,-60,-60,-60,,,,,,,,
1,58.5,B,Raw,Fatiha Chettibi,F,F-O,France,26,55.6,,,,,,75,80,85,,85,,,,,,85
2,58.5,B,Raw,Sophie Hebert,F,F-O,France,27,57.9,,,,,,65,70,72.5,,72.5,,,,,,72.5
3,58.5,B,Raw,Reinhilde Loger,F,F-O,Belgium,26,58.5,,,,,,60,65,67.5,,67.5,,,,,,67.5
4,58.5,B,Raw,Alice Gibbons,F,F-O,UK,26,57.2,,,,,,65,-70,-70,,65,,,,,,65
5,58.5,B,Raw,Geraldine Cronnelly,F,F-O,Ireland,35,57.6,,,,,,57.5,60,62.5,,62.5,,,,,,62.5
6,58.5,B,Raw,Orla O'Driscoll,F,F-O,Ireland,30,57.8,,,,,,47.5,-50,-50,,47.5,,,,,,47.5
7,58.5,B,Raw,Savanna Hughes,F,F-JR,UK,22,56.1,,,,,,37.5,40,-42.5,,40,,,,,,40
1,63,B,Raw,Helen Wuyts,F,F-O,Belgium,25,61.8,,,,,,65,70,-72.5,,70,,,,,,70
2,63,B,Raw,Geina McGrath,F,F-O,Ireland,26,60.3,,,,,,62.5,67.5,-70,,67.5,,,,,,67.5
3,63,B,Raw,Georgina Mann,F,F-O,UK,24,61.3,,,,,,57.5,62.5,65,,65,,,,,,65
4,63,B,Raw,Danielle O'Sullivan,F,F-O,Ireland,36,62,,,,,,62.5,-65,-65,,62.5,,,,,,62.5
5,63,B,Raw,Diana Horgan,F,F-M1,Ireland,41,59.6,,,,,,57.5,60,-62.5,,60,,,,,,60
6,63,B,Raw,Angelica Toia,F,F-JR,Italy,23,60.8,,,,,,55,-60,-60,,55,,,,,,55
7,63,B,Raw,Elena Medvedeva,F,F-M3,Russia,54,60.8,,,,,,47.5,50,-52.5,,50,,,,,,50
1,70,B,Raw,Kathryn Holley,F,F-O,UK,35,68.6,,,,,,-85,85,90,,90,,,,,,90
2,70,B,Raw,Sheridan Lucas,F,F-O,UK,31,66.2,,,,,,75,-80,80,,80,,,,,,80
3,70,B,Raw,Kat Court,F,F-O,UK,34,65.5,,,,,,70,72.5,75,,75,,,,,,75
4,70,B,Raw,Edyta Piechowicz,F,F-O,Ireland,31,64.1,,,,,,60,65,-70,,65,,,,,,65
5,70,B,Raw,Michela Saraf Gianello,F,F-JR,Italy,20,68.3,,,,,,57.5,60,62.5,,62.5,,,,,,62.5
6,70,B,Raw,Heide Hegner,F,F-M5,Germany,60,65.5,,,,,,55,57.5,-60,,57.5,,,,,,57.5
7,70,B,Raw,Elizabeth Dingley,F,F-M4,UK,56,67.6,,,,,,52.5,55,57.5,-58.5,57.5,,,,,,57.5
8,70,B,Raw,Gibneykatrin Dreyer,F,F-M4,Ireland,56,66,,,,,,42.5,-45,-45,,42.5,,,,,,42.5
1,80,B,Raw,Charlotte Kennedy,F,F-O,Ireland,29,76.9,,,,,,60,62.5,65,,65,,,,,,65
2,80,B,Raw,Siobhan Jacob,F,F-M1,Ireland,42,77.5,,,,,,57.5,60,65,,65,,,,,,65
3,80,B,Raw,Tatiana Filimonova,F,F-M2,Russia,49,75,,,,,,60,62.5,-65,,62.5,,,,,,62.5
4,80,B,Raw,Eleonora Toia,F,F-T2,Italy,17,73.6,,,,,,55,60,-65,,60,,,,,,60
5,80,B,Raw,Elizabeth Merrick,F,F-M3,UK,54,75.1,,,,,,50,-52.5,-52.5,,50,,,,,,50
1,90,B,Raw,Paulina Coleman,F,F-O,Ireland,39,84.4,,,,,,-75,75,80,,80,,,,,,80
2,90,B,Raw,Kim Jones,F,F-O,UK,28,80.9,,,,,,65,-67.5,67.5,,67.5,,,,,,67.5
1,90+,B,Raw,Froukje Koeckhoven,F,F-M2,Belgium,47,90.3,,,,,,87.5,90,92.5,-95,92.5,,,,,,92.5
2,90+,B,Raw,Andrea Neumann,F,F-M1,UK,44,111.7,,,,,,70,77.5,-83,,77.5,,,,,,77.5
3,90+,B,Raw,Ruth Gardner,F,F-M1,UK,42,115.8,,,,,,65,-67.5,-67.5,,65,,,,,,65
1,52,B,Raw,Ryan Anderson,M,M-T3,UK,18,49.4,,,,,,67.5,70,75,,75,,,,,,75
DD,56,B,Raw,Marco Feggi,M,M-M1,Italy,40,52.7,,,,,,85,87.5,-90,,87.5,,,,,,
1,60,B,Raw,Lucas Rouland,M,M-JR,France,21,59.9,,,,,,112.5,117.5,122.5,-128,122.5,,,,,,122.5
2,60,B,Raw,Mark Anderson,M,M-M3,UK,50,58,,,,,,100,110,-115,,110,,,,,,110
3,60,B,Raw,Ben Hampson,M,M-O,UK,27,59.5,,,,,,110,-115,-115,,110,,,,,,110
4,60,B,Raw,Sébatien Brito,M,M-O,France,31,59.5,,,,,,102.5,107.5,-112.5,,107.5,,,,,,107.5
5,60,B,Raw,Adrian Strechi,M,M-T3,Moldova,18,59.2,,,,,,100,-110,-110,,100,,,,,,100
6,60,B,Raw,Giampaolo Serra,M,M-M6,Italy,69,57.9,,,,,,85,90,95,,95,,,,,,95
7,60,B,Raw,Dumitru Chiochiu,M,M-T2,Moldova,17,59.4,,,,,,90,95,-100,,95,,,,,,95
8,60,B,Raw,Jean-Michel Moreiro,M,M-M5,France,64,59.3,,,,,,80,85,87.5,,87.5,,,,,,87.5
1,67.5,B,Raw,Alexandr Semerenco,M,M-JR,Moldova,21,64.1,,,,,,133.5,137.5,,,137.5,,,,,,137.5
2,67.5,B,Raw,Frédéric Saunois,M,M-M3,France,52,66.3,,,,,,130,-134.5,-134.5,,130,,,,,,130
3,67.5,B,Raw,Christian Faidherbe,M,M-O,France,33,66.1,,,,,,127.5,-132.5,-132.5,,127.5,,,,,,127.5
4,67.5,B,Raw,Tim van den Abbeele,M,M-O,Belgium,29,65.7,,,,,,112.5,120,-125,,120,,,,,,120
5,67.5,B,Raw,Cristian Verejan,M,M-T2,Moldova,17,66.2,,,,,,105,112.5,117.5,,117.5,,,,,,117.5
6,67.5,B,Raw,Paul Bechthold,M,M-M4,Germany,57,66.5,,,,,,110,115,-120.5,,115,,,,,,115
DD,67.5,B,Raw,Leonid Balaban,M,M-O,Moldova,25,66.8,,,,,,115,-120,-122.5,,115,,,,,,
1,75,B,Raw,Eric Ribeiro,M,M-O,France,27,71.3,,,,,,150,155,-160,,155,,,,,,155
2,75,B,Raw,Mathieu Coudriaud,M,M-O,France,30,73.2,,,,,,140,-145,145,,145,,,,,,145
3,75,B,Raw,Maxwell Heard,M,M-O,UK,33,74.5,,,,,,140,145,-150,,145,,,,,,145
4,75,B,Raw,Michael Applegate,M,M-O,UK,31,71,,,,,,135,-140,-140,,135,,,,,,135
5,75,B,Raw,Rosario Russo,M,M-O,Italy,36,72.8,,,,,,135,-140,-140,,135,,,,,,135
6,75,B,Raw,Gheorghe Dolința,M,M-JR,Moldova,23,74.6,,,,,,135,-140,-140,,135,,,,,,135
7,75,B,Raw,Victor Schipani,M,M-M4,France,56,72.8,,,,,,120,127.5,132.5,,132.5,,,,,,132.5
8,75,B,Raw,Friedhelm Schröter,M,M-M4,Germany,55,73.4,,,,,,125,130,132.5,,132.5,,,,,,132.5
9,75,B,Raw,Valerio Russo,M,M-O,Italy,31,72.7,,,,,,125,130,-135,,130,,,,,,130
10,75,B,Raw,Jonas D'Halluin,M,M-JR,Belgium,22,74.4,,,,,,125,130,-135,,130,,,,,,130
11,75,B,Raw,Pascal Costa,M,M-M3,France,50,74.4,,,,,,120,125,-127.5,,125,,,,,,125
12,75,B,Raw,Dirk Waroux,M,M-O,Belgium,36,74.1,,,,,,120,122.5,-125,,122.5,,,,,,122.5
13,75,B,Raw,Eric Buron,M,M-M3,France,54,73.3,,,,,,112.5,120,-125,,120,,,,,,120
14,75,B,Raw,Jan Walraevens,M,M-JR,Belgium,22,73.6,,,,,,115,-120,120,,120,,,,,,120
15,75,B,Raw,Pascal Bizon,M,M-M4,France,59,73.6,,,,,,110,115,-117.5,,115,,,,,,115
16,75,B,Raw,Cyrille Cusumano,M,M-M2,France,46,74.4,,,,,,110,115,-120,,115,,,,,,115
17,75,B,Raw,Didier Debail,M,M-M5,France,60,68.2,,,,,,107.5,112.5,-115,,112.5,,,,,,112.5
18,75,B,Raw,Daniel Delaporte,M,M-M6,France,69,73.4,,,,,,95,100,-105,,100,,,,,,100
DQ,75,B,Raw,Dumitru Bort,M,M-T1,Moldova,14,68.4,,,,,,-80,-80,-80,,,,,,,,
DQ,75,B,Raw,Pavel Meshkov,M,M-O,Russia,24,69.2,,,,,,-120,,,,,,,,,,
DQ,75,B,Raw,Ben Richens,M,M-O,UK,35,74.4,,,,,,-120,-120,,,,,,,,,
1,82.5,B,Raw,Wilfried Couchy,M,M-O,France,37,81,,,,,,157.5,165,172.5,,172.5,,,,,,172.5
2,82.5,B,Raw,Yuriy Klymenko,M,M-O,Ukraine,35,80.2,,,,,,160,167.5,-172.5,,167.5,,,,,,167.5
3,82.5,B,Raw,Claude Patout,M,M-M4,France,55,79.2,,,,,,153.5,160.5,163,165,163,,,,,,163
4,82.5,B,Raw,Rémi Babielle,M,M-O,France,24,79.7,,,,,,150,-155,-155,,150,,,,,,150
5,82.5,B,Raw,Maxime Hellec-Marche,M,M-JR,France,23,80.3,,,,,,135,140,142.5,,142.5,,,,,,142.5
6,82.5,B,Raw,Joaquim DaSilva,M,M-M3,France,52,81.4,,,,,,140,-145,-145,,140,,,,,,140
7,82.5,B,Raw,Martin O'Connell,M,M-O,Ireland,34,80.4,,,,,,127.5,137.5,-145,,137.5,,,,,,137.5
8,82.5,B,Raw,Ashley Sinclair,M,M-M6,UK,66,80.7,,,,,,125,130,-141,,130,,,,,,130
9,82.5,B,Raw,Régis Aubry,M,M-M2,France,45,81.6,,,,,,125,130,-132.2,,130,,,,,,130
10,82.5,B,Raw,Alex Grass,M,M-M1,Germany,44,78.4,,,,,,120,125,127.5,,127.5,,,,,,127.5
11,82.5,B,Raw,Stephen Rigley,M,M-M1,Ireland,40,77.6,,,,,,125,-130,-130,,125,,,,,,125
12,82.5,B,Raw,Lorenzo Dore,M,M-M3,Italy,51,81.6,,,,,,122.5,125,-130,,125,,,,,,125
13,82.5,B,Raw,Michel Sorenzo,M,M-M4,France,59,81.7,,,,,,120,122.5,-125,,122.5,,,,,,122.5
14,82.5,B,Raw,Ilio Polese,M,M-M8,Italy,75,76,,,,,,100,107.5,112.5,115,112.5,,,,,,112.5
15,82.5,B,Raw,José Fleury,M,M-M4,Switzerland,58,80.1,,,,,,-102.5,102.5,107.5,,107.5,,,,,,107.5
16,82.5,B,Raw,Silvio Caneparo,M,M-M4,Italy,56,77.8,,,,,,105,-110,-110,,105,,,,,,105
17,82.5,B,Raw,Alain Schall,M,M-M6,France,66,78.2,,,,,,92.5,100,102.5,,102.5,,,,,,102.5
18,82.5,B,Raw,Noël Vanglabeke,M,M-M6,Belgium,68,81.7,,,,,,-92.5,95,-100,,95,,,,,,95
19,82.5,B,Raw,Heinrich Haft,M,M-M7,Germany,73,79.4,,,,,,80,85,90,,90,,,,,,90
DQ,82.5,B,Raw,Daniel Bulai,M,M-T2,Moldova,16,78.8,,,,,,-92.5,-92.5,-92.5,,,,,,,,
DQ,82.5,B,Raw,Jean-Michel Maire,M,M-O,France,27,78.7,,,,,,-155,-155,-155,,,,,,,,
DQ,82.5,B,Raw,Emiliano Criecesi,M,M-M1,Italy,41,76,,,,,,-120,-120,-120,,,,,,,,
1,90,B,Raw,Yurii Totskyi,M,M-M1,Ukraine,40,87.7,,,,,,195,202.5,-207.5,,202.5,,,,,,202.5
2,90,B,Raw,Johan van de Casteele,M,M-M3,Belgium,53,87.5,,,,,,155,160,162.5,,162.5,,,,,,162.5
3,90,B,Raw,Xavier Craffe,M,M-O,France,36,87.5,,,,,,150,155,160,,160,,,,,,160
4,90,B,Raw,Steeve Wattebled,M,M-M2,France,45,85.3,,,,,,152.5,157.5,-160,,157.5,,,,,,157.5
5,90,B,Raw,Jerome Prevot,M,M-M1,France,42,88.2,,,,,,152.5,157.5,-162.5,,157.5,,,,,,157.5
6,90,B,Raw,Gennadii Vitriakov,M,M-M3,Ukraine,53,89.6,,,,,,150,-157.5,157.5,,157.5,,,,,,157.5
7,90,B,Raw,Markus Eberl,M,M-O,Germany,34,85.5,,,,,,150,155,-157.5,,155,,,,,,155
8,90,B,Raw,Rémi Denecker,M,M-O,France,30,86.3,,,,,,145,150,155,,155,,,,,,155
9,90,B,Raw,Edouard Estorez,M,M-O,France,36,88.8,,,,,,155,-160,-160,,155,,,,,,155
10,90,B,Raw,Patrick Haley,M,M-M3,USA,51,88.6,,,,,,147.5,-157.5,,,147.5,,,,,,147.5
11,90,B,Raw,Justin Carroll,M,M-O,Ireland,36,89.5,,,,,,147.5,-155,-155,,147.5,,,,,,147.5
12,90,B,Raw,Logue Connor,M,M-JR,Ireland,21,84.3,,,,,,130,140,145,,145,,,,,,145
13,90,B,Raw,Philippe Roussel,M,M-M4,France,55,88.7,,,,,,142.5,145,-150,,145,,,,,,145
14,90,B,Raw,Gennadii Sorokin,M,M-M4,Russia,57,88.8,,,,,,140,-145,145,,145,,,,,,145
15,90,B,Raw,Tim Below,M,M-O,Germany,26,88.4,,,,,,135,140,-142.5,,140,,,,,,140
16,90,B,Raw,Wouter Verstraeten,M,M-M1,Belgium,40,88.5,,,,,,-140,140,-145,,140,,,,,,140
17,90,B,Raw,Sean Smithson,M,M-M1,UK,40,89.1,,,,,,135,140,-142.5,,140,,,,,,140
18,90,B,Raw,Bertrand Saugy,M,M-O,Switzerland,28,88.4,,,,,,127.5,132.5,-137.5,,132.5,,,,,,132.5
19,90,B,Raw,Patrick Valfrey,M,M-M3,France,52,89.2,,,,,,120,127.5,132.5,,132.5,,,,,,132.5
20,90,B,Raw,Oleg Beloborrodov,M,M-M4,Moldova,57,82.8,,,,,,-125,125,-130,,125,,,,,,125
21,90,B,Raw,Kevin Canard,M,M-T3,France,18,87.2,,,,,,115,-125,-125,,115,,,,,,115
22,90,B,Raw,Thierry Mathieu,M,M-M4,France,56,84.6,,,,,,110,,,,110,,,,,,110
23,90,B,Raw,Gerry Cronnelly Sr,M,M-M9,Ireland,80,87.7,,,,,,72.5,75,-77.5,,75,,,,,,75
DQ,90,B,Raw,Vladimir Meleca,M,M-M5,Moldova,61,88.1,,,,,,-105,,,,,,,,,,
1,100,B,Raw,Harbans Bansal,M,M-O,UK,39,96.8,,,,,,190,200,205,,205,,,,,,205
2,100,B,Raw,Adrian Mihalache,M,M-O,Ireland,27,96.8,,,,,,190,200,-205,,200,,,,,,200
3,100,B,Raw,Lionel Chatelain,M,M-O,Switzerland,26,96.8,,,,,,190,195,200,,200,,,,,,200
4,100,B,Raw,Roland Gongarad,M,M-M1,Switzerland,42,99,,,,,,200,-206.5,-206.5,,200,,,,,,200
5,100,B,Raw,Victor Gogu,M,M-O,Moldova,27,98.8,,,,,,185,192.5,-197.5,,192.5,,,,,,192.5
6,100,B,Raw,Konstantin Berdinskikh,M,M-M2,Russia,46,99.6,,,,,,170,180,-185,,180,,,,,,180
7,100,B,Raw,Szymon Czernikiewicz,M,M-O,Belgium,26,97.4,,,,,,165,170,-175,,170,,,,,,170
8,100,B,Raw,Andreas Kling,M,M-M3,Germany,50,95.3,,,,,,140,155,160,,160,,,,,,160
9,100,B,Raw,François Kalic,M,M-M3,France,51,97.8,,,,,,145,152.5,-162.5,,152.5,,,,,,152.5
10,100,B,Raw,Ringo Dequidt,M,M-O,Belgium,32,93.4,,,,,,137.5,145,150,,150,,,,,,150
11,100,B,Raw,Egor Martiniuc,M,M-O,Moldova,33,96.7,,,,,,150,-157.5,-157.5,,150,,,,,,150
12,100,B,Raw,Philippe Belloncle,M,M-M4,France,57,97.3,,,,,,140,147.5,150,,150,,,,,,150
13,100,B,Raw,Martin Ladewig,M,M-O,Germany,37,96.9,,,,,,140,-145,-145,,140,,,,,,140
14,100,B,Raw,Pascal LeBlanc,M,M-M3,France,54,99,,,,,,137.5,140,-142.5,,140,,,,,,140
15,100,B,Raw,Jacky Secke,M,M-M6,Belgium,65,99.3,,,,,,-135,-135,137.5,-143,137.5,,,,,,137.5
16,100,B,Raw,Maximilian Kranz,M,M-JR,Germany,20,93.7,,,,,,130,-135,135,,135,,,,,,135
17,100,B,Raw,Vladimir Li,M,M-M6,Russia,65,94.6,,,,,,-135,-135,135,-143,135,,,,,,135
18,100,B,Raw,Danilo Ceirani,M,M-M3,Italy,53,91.9,,,,,,120,130,-135,,130,,,,,,130
19,100,B,Raw,Pierre Vallais,M,M-M7,France,70,97.9,,,,,,122.5,127.5,130,,130,,,,,,130
20,100,B,Raw,Reg Byrne,M,M-M2,Ireland,46,93.2,,,,,,-125,125,-127.5,,125,,,,,,125
21,100,B,Raw,Stewart James,M,M-M7,UK,70,98.7,,,,,,120,-125,-135,,120,,,,,,120
1,110,B,Raw,Steve Haswell,M,M-O,UK,36,107.9,,,,,,190,195,200,,200,,,,,,200
2,110,B,Raw,Neil Thomas,M,M-M2,UK,45,109.7,,,,,,175,185,-190,,185,,,,,,185
3,110,B,Raw,David Dufour,M,M-M1,France,43,106.2,,,,,,170,-177.5,-177.5,,170,,,,,,170
4,110,B,Raw,Anatolii Crucerescu,M,M-O,Moldova,26,107.6,,,,,,165,170,-175,,170,,,,,,170
5,110,B,Raw,Dylan Callus,M,M-JR,Malaysia,21,109.1,,,,,,155,160,-165,,160,,,,,,160
6,110,B,Raw,Philip Salter,M,M-O,UK,28,109.3,,,,,,150,157.5,-162.5,,157.5,,,,,,157.5
7,110,B,Raw,Igor Kurotchenko,M,M-M4,Russia,55,108.9,,,,,,140,150,152.5,,152.5,,,,,,152.5
8,110,B,Raw,Colin Kennard,M,M-M2,Ireland,45,107,,,,,,135,140,145,,145,,,,,,145
9,110,B,Raw,John West,M,M-M8,Ireland,75,107.6,,,,,,125,-130,-130,,125,,,,,,125
10,110,B,Raw,Jeanpaul Delapierre,M,M-M6,France,68,105.3,,,,,,117.5,120,122.5,,122.5,,,,,,122.5
11,110,B,Raw,John Gavin Walker,M,M-M8,UK,77,100.1,,,,,,90,95,100,,100,,,,,,100
1,125,B,Raw,Simon Lythgoe,M,M-M1,UK,43,117.4,,,,,,210,222.5,228.5,,228.5,,,,,,228.5
2,125,B,Raw,Ion Catana,M,M-O,Moldova,32,117.6,,,,,,190,195,200,,200,,,,,,200
3,125,B,Raw,Pavel Perov,M,M-M3,Russia,50,116.1,,,,,,-190,190,-205,,190,,,,,,190
4,125,B,Raw,Maik Hollander,M,M-M2,Germany,49,113.4,,,,,,167.5,177.5,187.5,,187.5,,,,,,187.5
5,125,B,Raw,Cédric Colange,M,M-O,France,34,116.1,,,,,,170,-172.5,175,,175,,,,,,175
6,125,B,Raw,Anthony Mahieux,M,M-O,France,27,124.2,,,,,,170,-175,-175,,170,,,,,,170
7,125,B,Raw,Francesco Sudano,M,M-O,Italy,37,114.7,,,,,,150,-160,-170,,150,,,,,,150
8,125,B,Raw,James Collins,M,M-M2,Ireland,47,112.7,,,,,,140,145,-150,,145,,,,,,145
9,125,B,Raw,Orson Harms,M,M-M1,Belgium,42,116.4,,,,,,142.5,,,,142.5,,,,,,142.5
10,125,B,Raw,Oscar Vlaeminck,M,M-M5,Belgium,60,113.3,,,,,,115,-117.5,-117.5,,115,,,,,,115
DQ,125,B,Raw,Stanislav Nigruța,M,M-O,Moldova,34,120.3,,,,,,-190,-190,-190,,,,,,,,
1,145,B,Raw,David Hernandez,M,M-O,France,35,138.1,,,,,,207.5,215,-222.5,,215,,,,,,215
2,145,B,Raw,Valeriy Shapovalov,M,M-O,Germany,37,132.8,,,,,,170,,,,170,,,,,,170
3,145,B,Raw,Bradley Lovejoy,M,M-M4,USA,59,125.9,,,,,,152.5,160,,,160,,,,,,160
1,145+,B,Raw,Yaşar Küçük,M,M-M1,Germany,43,155.8,,,,,,190,-197.5,-197.5,,190,,,,,,190
1,55.5,B,Single-ply,Deborah MacDonald,F,F-M2,UK,45,53.3,,,,,,50,-56,-56,,50,,,,,,50
1,63,B,Single-ply,Helen Wuyts,F,F-O,Belgium,25,61.8,,,,,,75,80,-82.5,,80,,,,,,80
1,60,B,Single-ply,Giampaolo Serra,M,M-M6,Italy,69,57.9,,,,,,90,100,106.5,-108,106.5,,,,,,106.5
2,60,B,Single-ply,Jean-Michel Moreiro,M,M-M5,France,64,59.3,,,,,,90,95,97.5,,97.5,,,,,,97.5
1,67.5,B,Single-ply,Alessio Santi,M,M-O,Italy,29,65.6,,,,,,145,150,-155,,150,,,,,,150
2,67.5,B,Single-ply,Frédéric Saunois,M,M-M3,France,52,66.3,,,,,,142.5,-147.5,-147.5,,142.5,,,,,,142.5
3,67.5,B,Single-ply,Tim van den Abbeele,M,M-O,Belgium,29,65.7,,,,,,140,-150,-152.5,,140,,,,,,140
4,67.5,B,Single-ply,Darren Boland,M,M-M1,Belgium,42,65.5,,,,,,125,-136,-136,,125,,,,,,125
1,75,B,Single-ply,Mathieu Coudriaud,M,M-O,France,30,73.2,,,,,,155,165,-175,,165,,,,,,165
2,75,B,Single-ply,Pascal Costa,M,M-M3,France,50,74.4,,,,,,160,165,-170,,165,,,,,,165
3,75,B,Single-ply,Pascal Gourdin,M,M-M4,France,55,74,,,,,,125,130,-135,,130,,,,,,130
4,75,B,Single-ply,Liviu Porumbescu,M,M-T2,Moldova,16,73.8,,,,,,-117.5,120,125,,125,,,,,,125
5,75,B,Single-ply,Patrick Tellier,M,M-M5,France,61,74.5,,,,,,102.5,110,115,,115,,,,,,115
1,82.5,B,Single-ply,Phillip Tempest,M,M-M2,UK,46,79.2,,,,,,175,-180,-186,,175,,,,,,175
2,82.5,B,Single-ply,Alexei Grigorov,M,M-O,Moldova,30,80.8,,,,,,140,142.5,-160,,142.5,,,,,,142.5
3,82.5,B,Single-ply,Michel Sorenzo,M,M-M4,France,59,81.7,,,,,,135,142.5,-150,,142.5,,,,,,142.5
4,82.5,B,Single-ply,Stephen Rigley,M,M-M1,Ireland,40,77.6,,,,,,135,140,-147.5,,140,,,,,,140
5,82.5,B,Single-ply,Patrick Phelippe,M,M-M6,France,65,81.2,,,,,,117.5,122.5,-125,,122.5,,,,,,122.5
6,82.5,B,Single-ply,Herve Kerwyn,M,M-M7,Belgium,73,80.7,,,,,,-102.5,102.5,107.5,,107.5,,,,,,107.5
1,90,B,Single-ply,Gary Lovett,M,M-M1,UK,43,87,,,,,,145,-160,160,,160,,,,,,160
2,90,B,Single-ply,Patrick Valfrey,M,M-M3,France,52,89.2,,,,,,150,160,-165,,160,,,,,,160
1,100,B,Single-ply,Mikhail Bugaev,M,M-M3,Russia,54,95.3,,,,,,180,-187.5,-190,,180,,,,,,180
2,100,B,Single-ply,Vladimir Li,M,M-M6,Russia,65,94.6,,,,,,-150.5,150.5,155,-160,155,,,,,,155
1,110,B,Single-ply,Neil Thomas,M,M-M2,UK,45,109.7,,,,,,227.5,-235,-235,,227.5,,,,,,227.5
2,110,B,Single-ply,Bryan Lefranc,M,M-JR,Belgium,21,107.4,,,,,,205,-215,-215,,205,,,,,,205
3,110,B,Single-ply,Michael Coleman #2,M,M-M1,Ireland,41,107,,,,,,170,182.5,190,,190,,,,,,190
1,125,B,Single-ply,Francesco Pellizzoni,M,M-O,Italy,39,123.4,,,,,,210,220,-230,,220,,,,,,220
2,125,B,Single-ply,Ouahem Boudjadja,M,M-M2,France,45,118.6,,,,,,190,210,213,-230,213,,,,,,213
3,125,B,Single-ply,Cyril Gosteli,M,M-M3,Switzerland,51,121.9,,,,,,195,-205,-215.5,,195,,,,,,195
4,125,B,Single-ply,Orson Harms,M,M-M1,Belgium,42,116.4,,,,,,180,-185,-185,,180,,,,,,180
1,145,B,Single-ply,Maxim Tikhonov,M,M-M2,Russia,49,133.4,,,,,,-225,-232.5,232.5,,232.5,,,,,,232.5
2,145,B,Single-ply,Andre Du Plessis,M,M-M3,Ireland,52,141.7,,,,,,-195,-195,195,,195,,,,,,195
3,145,B,Single-ply,Bradley Lovejoy,M,M-M4,USA,59,125.9,,,,,,-173,173,177.5,,177.5,,,,,,177.5
1,50.5,D,Raw,Shauna Madden,F,F-T1,Ireland,14,49.8,,,,,,,,,,,87.5,-92.5,-92.5,,87.5,87.5
DQ,50.5,D,Raw,Frances Arthur,F,F-M1,Ireland,40,48.4,,,,,,,,,,,-105,-105,-105,,,
1,53,D,Raw,Sue Bethell,F,F-M4,UK,57,51.8,,,,,,,,,,,137.5,151,-155,,151,151
2,53,D,Raw,Shinann Buckley O'Sullivan,F,F-O,Ireland,26,52,,,,,,,,,,,105,107.5,-112.5,,107.5,107.5
3,53,D,Raw,Derina Kelliher,F,F-JR,Ireland,21,52.4,,,,,,,,,,,-107.5,-107.5,107.5,,107.5,107.5
1,55.5,D,Raw,Sally Trueman,F,F-M3,UK,50,54.2,,,,,,,,,,,120,125,130,136,130,130
2,55.5,D,Raw,Wendy Evans,F,F-M2,UK,49,55,,,,,,,,,,,-120,120,127.5,,127.5,127.5
3,55.5,D,Raw,Deborah MacDonald,F,F-M2,UK,45,53.3,,,,,,,,,,,117.5,125,-130,,125,125
4,55.5,D,Raw,Joanna Barwell,F,F-O,UK,27,54.3,,,,,,,,,,,125,-135,-135,,125,125
5,55.5,D,Raw,Alexandra Fritschy,F,F-O,Switzerland,30,55.4,,,,,,,,,,,105,110,120,,120,120
6,55.5,D,Raw,Elisabeth Street,F,F-M3,UK,52,55.2,,,,,,,,,,,100,105,-110,,105,105
7,55.5,D,Raw,Aileen Flynn,F,F-M3,Belgium,51,53.9,,,,,,,,,,,100,-120,-130,,100,100
DQ,55.5,D,Raw,Melanie Aranda,F,F-O,Ireland,28,54.7,,,,,,,,,,,-105,-105,-105,,,
1,58.5,D,Raw,Maria McShane,F,F-O,Ireland,29,57.4,,,,,,,,,,,140,147.5,152.5,,152.5,152.5
2,58.5,D,Raw,Alice Gibbons,F,F-O,UK,26,57.7,,,,,,,,,,,142.5,150,-152.5,,150,150
3,58.5,D,Raw,Geraldine Cronnelly,F,F-O,Ireland,35,57.9,,,,,,,,,,,110,115,117.5,,117.5,117.5
4,58.5,D,Raw,Orla O'Driscoll,F,F-O,Ireland,30,57.9,,,,,,,,,,,102.5,105,110,,110,110
5,58.5,D,Raw,Savanna Hughes,F,F-JR,UK,22,55.8,,,,,,,,,,,105,-112.5,-112.5,,105,105
6,58.5,D,Raw,Morgan Thomas,F,F-T1,UK,15,55.8,,,,,,,,,,,80,90,97.5,,97.5,97.5
1,63,D,Raw,Helen Wuyts,F,F-O,Belgium,25,61.1,,,,,,,,,,,160,171,-175,,171,171
2,63,D,Raw,Ann Thomas,F,F-O,UK,38,60.5,,,,,,,,,,,140,150,157.5,,157.5,157.5
3,63,D,Raw,Geina McGrath,F,F-O,Ireland,26,60.7,,,,,,,,,,,150,157.5,-162.5,,157.5,157.5
4,63,D,Raw,Danielle O'Sullivan,F,F-O,Ireland,36,62.3,,,,,,,,,,,145,-155,-155,,145,145
5,63,D,Raw,Simona Lapustea,F,F-M1,Italy,40,61.7,,,,,,,,,,,127.5,132.5,137.5,,137.5,137.5
6,63,D,Raw,Angelica Toia,F,F-JR,Italy,23,61.5,,,,,,,,,,,100,-110,-110,,100,100
7,63,D,Raw,Fiona Graham-Spicer,F,F-M4,UK,57,61.9,,,,,,,,,,,80,90,95,,95,95
1,70,D,Raw,Rose Ryan,F,F-M1,Ireland,42,68.8,,,,,,,,,,,160,170.5,175,-181,175,175
2,70,D,Raw,Edyta Piechowicz,F,F-O,Ireland,31,64.6,,,,,,,,,,,140,150,-155,,150,150
3,70,D,Raw,Sheridan Lucas,F,F-O,UK,31,66,,,,,,,,,,,150,-160,-160,,150,150
4,70,D,Raw,Sophie Estel,F,F-M3,France,51,69.1,,,,,,,,,,,150,-157.5,-160.5,,150,150
5,70,D,Raw,Aurore Compagnon,F,F-JR,France,20,66,,,,,,,,,,,125,132.5,140,,140,140
6,70,D,Raw,Sinead McCafferty,F,F-O,Ireland,27,66,,,,,,,,,,,-140,140,-152.5,,140,140
7,70,D,Raw,Elizabeth Dingley,F,F-M4,UK,56,68.6,,,,,,,,,,,120,130,135,-138,135,135
8,70,D,Raw,Gibneykatrin Dreyer,F,F-M4,Ireland,56,65.5,,,,,,,,,,,125,132.5,-137.5,,132.5,132.5
1,80,D,Raw,Siobhan Jacob,F,F-M1,Ireland,42,77.6,,,,,,,,,,,140,150,-152.5,,150,150
2,80,D,Raw,Emma Wright,F,F-M1,UK,41,79.3,,,,,,,,,,,130,-140,140,,140,140
3,80,D,Raw,Tatiana Filimonova,F,F-M2,Russia,49,74.7,,,,,,,,,,,110,120,127.5,,127.5,127.5
4,80,D,Raw,Birgit Kinkel,F,F-M3,Germany,53,71.5,,,,,,,,,,,105,110,115,-118,115,115
5,80,D,Raw,Eleonora Toia,F,F-T2,Italy,17,73.8,,,,,,,,,,,90,100,110,,110,110
1,90,D,Raw,Paulina Coleman,F,F-O,Ireland,39,85.2,,,,,,,,,,,160,170,-185,,170,170
2,90,D,Raw,Kim Jones,F,F-O,UK,28,80.9,,,,,,,,,,,135,140,,,140,140
3,90,D,Raw,Catherine West,F,F-M2,UK,48,87.6,,,,,,,,,,,115,125,-135,,125,125
1,90+,D,Raw,Ruth Gardner,F,F-M1,UK,42,116.4,,,,,,,,,,,145,152.5,160.5,,160.5,160.5
2,90+,D,Raw,Froukje Koeckhoven,F,F-M2,Belgium,47,90.9,,,,,,,,,,,125,130,135,,135,135
1,56,D,Raw,Charles Maheust,M,M-T2,France,17,53.6,,,,,,,,,,,150,-160,-160,,150,150
2,56,D,Raw,Domenico Catricala,M,M-M9,Italy,80,54.6,,,,,,,,,,,120,130,-140,,130,130
1,60,D,Raw,Antonio Garau,M,M-O,Italy,31,60,,,,,,,,,,,-215,215,-217.5,,215,215
2,60,D,Raw,Ben Hampson,M,M-O,UK,27,59.7,,,,,,,,,,,185,-190,190,,190,190
3,60,D,Raw,Adrian Strechi,M,M-T3,Moldova,18,60,,,,,,,,,,,170,-182.5,-188,,170,170
4,60,D,Raw,Michael Grünberg,M,M-M3,Germany,51,58.2,,,,,,,,,,,135,145,-150,,145,145
5,60,D,Raw,Gareth Walsh,M,M-M2,Ireland,45,59,,,,,,,,,,,145,-160,-160,,145,145
6,60,D,Raw,Richard Gould,M,M-M4,UK,57,57.9,,,,,,,,,,,-120,125,132.5,135,132.5,132.5
1,67.5,D,Raw,David Watts,M,M-O,UK,26,66.5,,,,,,,,,,,232.5,242.5,250.5,252.5,250.5,250.5
2,67.5,D,Raw,Liam Dierckx,M,M-JR,Belgium,22,66,,,,,,,,,,,192.5,200,-207.5,,200,200
3,67.5,D,Raw,Thomas Stanzel,M,M-M2,Germany,47,66.9,,,,,,,,,,,160,190,195,,195,195
4,67.5,D,Raw,Darren Boland,M,M-M1,Belgium,42,66,,,,,,,,,,,190,-205,-205,,190,190
5,67.5,D,Raw,Tim van den Abbeele,M,M-O,Belgium,29,66.3,,,,,,,,,,,180,190,-205,,190,190
6,67.5,D,Raw,Kenny Van Haverbeke,M,M-O,Belgium,33,67.3,,,,,,,,,,,165,175,185,,185,185
7,67.5,D,Raw,Thomas Quelet,M,M-T2,France,17,66.4,,,,,,,,,,,160,170,180,,180,180
8,67.5,D,Raw,Jordan Holland,M,M-T2,Ireland,16,66.2,,,,,,,,,,,155,170,-182.5,,170,170
9,67.5,D,Raw,Michael De Paus,M,M-O,Belgium,25,66.2,,,,,,,,,,,165,167.5,-170,,167.5,167.5
10,67.5,D,Raw,Michael Cronnolly,M,M-T1,Ireland,14,64.8,,,,,,,,,,,140,145,150,,150,150
DD,67.5,D,Raw,Leonid Balaban,M,M-O,Moldova,25,67.4,,,,,,,,,,,180,190,-197.5,,190,
1,75,D,Raw,Nathaniel Lucas,M,M-O,UK,28,73.8,,,,,,,,,,,230,-240,-242.5,,230,230
2,75,D,Raw,Sam Fowler #2,M,M-O,UK,29,74.2,,,,,,,,,,,215,-230,-230,,215,215
3,75,D,Raw,Liviu Porumbescu,M,M-T2,Moldova,16,74.2,,,,,,,,,,,210,-222.5,-222.5,,210,210
4,75,D,Raw,Patrick Metayer,M,M-M3,France,52,74.7,,,,,,,,,,,190,202.5,-210,,202.5,202.5
5,75,D,Raw,Romain Gilles,M,M-JR,France,20,71.3,,,,,,,,,,,200,-210,-210,,200,200
6,75,D,Raw,Alexandre Welter,M,M-JR,France,23,74.9,,,,,,,,,,,200,-212.5,-212.5,,200,200
7,75,D,Raw,Marc Vincent,M,M-M4,France,57,72.1,,,,,,,,,,,180,195,-205,,195,195
8,75,D,Raw,Alenxandre Gossilin,M,M-JR,France,22,70.2,,,,,,,,,,,170,182.5,192.5,,192.5,192.5
9,75,D,Raw,Jan Walraevens,M,M-JR,Belgium,22,73.6,,,,,,,,,,,-180,-180,180,,180,180
1,82.5,D,Raw,Mark Fulton,M,M-O,UK,30,81.8,,,,,,,,,,,240,250,257.5,,257.5,257.5
2,82.5,D,Raw,David Heath,M,M-O,UK,37,81,,,,,,,,,,,230,245,-255,,245,245
3,82.5,D,Raw,Romuald Huelin,M,M-O,France,28,81.5,,,,,,,,,,,220,230,240,,240,240
4,82.5,D,Raw,Paul Cunningham,M,M-O,Ireland,37,79.3,,,,,,,,,,,225,-240,-240,,225,225
5,82.5,D,Raw,Benjamin Cannessant,M,M-O,France,29,82,,,,,,,,,,,220,-235,-235,,220,220
6,82.5,D,Raw,Mathieu Planquois,M,M-JR,France,23,78.5,,,,,,,,,,,200,210,215,,215,215
7,82.5,D,Raw,Mark Pepper,M,M-O,Ireland,31,78.8,,,,,,,,,,,195,210,-220,,210,210
8,82.5,D,Raw,Gordon Leisker,M,M-M1,Germany,44,79.6,,,,,,,,,,,185,195,200,,200,200
9,82.5,D,Raw,Stephen Charters,M,M-M4,UK,55,79.9,,,,,,,,,,,-185,200,-220,,200,200
10,82.5,D,Raw,Bram Declercq,M,M-JR,Belgium,21,80.5,,,,,,,,,,,185,200,-212.5,,200,200
11,82.5,D,Raw,Maxime Hellec-Marche,M,M-JR,France,23,81,,,,,,,,,,,190,200,-205,,200,200
12,82.5,D,Raw,Lorenzo Dore,M,M-M3,Italy,51,81.1,,,,,,,,,,,200,-210,-210,,200,200
13,82.5,D,Raw,Thomas Bold,M,M-M4,Germany,55,81.2,,,,,,,,,,,170,190,200,,200,200
14,82.5,D,Raw,Régis Aubry,M,M-M2,France,45,81.9,,,,,,,,,,,200,-210,-215,,200,200
15,82.5,D,Raw,Jean-Claude Peter,M,M-M6,France,66,81,,,,,,,,,,,180,187.5,190.5,,190.5,190.5
16,82.5,D,Raw,José Fleury,M,M-M4,Switzerland,58,80.1,,,,,,,,,,,165,175,180,,180,180
17,82.5,D,Raw,Francis Spiteri,M,M-M6,Malaysia,68,81.9,,,,,,,,,,,160,175,-185,,175,175
18,82.5,D,Raw,Felix McAlinden,M,M-M2,Ireland,48,81.7,,,,,,,,,,,-172.5,172.5,-180,,172.5,172.5
19,82.5,D,Raw,Daniel Bulai,M,M-T2,Moldova,16,77.8,,,,,,,,,,,150,-157.5,-157.5,,150,150
20,82.5,D,Raw,Georgiy Lazaridi,M,M-M9,Russia,83,80.8,,,,,,,,,,,-130,130,140,,140,140
DQ,82.5,D,Raw,Nick Brughmans,M,M-O,Belgium,24,81,,,,,,,,,,,-192.5,-192.5,-192.5,,,
1,90,D,Raw,Mark Jackson,M,M-O,UK,27,88.4,,,,,,,,,,,270,285,-295,,285,285
2,90,D,Raw,Igor Fușcaliuc,M,M-O,Moldova,30,87.8,,,,,,,,,,,255,265,275,,275,275
3,90,D,Raw,Sean Smithson,M,M-M1,UK,40,89.5,,,,,,,,,,,242.5,252.5,262.5,,262.5,262.5
4,90,D,Raw,Smimthartin Mcgrane,M,M-T3,Ireland,19,86.3,,,,,,,,,,,230,240,250,,250,250
5,90,D,Raw,David Doran,M,M-O,Ireland,28,88.6,,,,,,,,,,,225,235,240,,240,240
6,90,D,Raw,Bertrand Saugy,M,M-O,Switzerland,28,88,,,,,,,,,,,220,230,235,,235,235
7,90,D,Raw,Logue Connor,M,M-JR,Ireland,21,83.9,,,,,,,,,,,220,230,-240,,230,230
8,90,D,Raw,Patrick Valfrey,M,M-M3,France,52,89.2,,,,,,,,,,,210,230,,,230,230
9,90,D,Raw,Matthias Ugolini,M,M-O,Switzerland,24,88,,,,,,,,,,,205,-210,-210,,205,205
10,90,D,Raw,George Neilson,M,M-T3,UK,18,85.6,,,,,,,,,,,200,-225,-225,,200,200
11,90,D,Raw,Vladimir Meleca,M,M-M5,Moldova,61,88.8,,,,,,,,,,,180,190,-200,,190,190
12,90,D,Raw,Valentin Pons,M,M-T2,France,17,88.7,,,,,,,,,,,-185,185,-205,,185,185
13,90,D,Raw,Jason Haugh,M,M-T2,Ireland,17,86.6,,,,,,,,,,,160,167.5,175,,175,175
DD,90,D,Raw,Cyrille Petain,M,M-M1,France,44,89.1,,,,,,,,,,,230,245,-260,,245,
1,100,D,Raw,Marc Vandewiele,M,M-M1,Belgium,42,96.6,,,,,,,,,,,245,265,270,,270,270
2,100,D,Raw,Matthieu Lambert,M,M-O,France,39,98.3,,,,,,,,,,,240,250,260,,260,260
3,100,D,Raw,Ryan Daly,M,M-JR,Ireland,21,97.1,,,,,,,,,,,230,240,-255,,240,240
4,100,D,Raw,Julien Duflon,M,M-O,Switzerland,25,92.5,,,,,,,,,,,-232.5,232.5,-240,,232.5,232.5
5,100,D,Raw,Serge Bustreel,M,M-M7,France,71,96.7,,,,,,,,,,,220,230,-235,,230,230
6,100,D,Raw,Kirill Emelianov,M,M-O,Russia,31,92.5,,,,,,,,,,,217.5,-230,-230,,217.5,217.5
7,100,D,Raw,Paul Shields,M,M-O,Ireland,31,93.6,,,,,,,,,,,217.5,-227.5,-227.5,,217.5,217.5
8,100,D,Raw,John Michoud,M,M-M2,Switzerland,48,97.3,,,,,,,,,,,197.5,202.5,207.5,,207.5,207.5
9,100,D,Raw,Maximilian Kranz,M,M-JR,Germany,20,92.8,,,,,,,,,,,195,200,-205,,200,200
10,100,D,Raw,Roger Piron,M,M-M4,Germany,56,95.2,,,,,,,,,,,180,,,,180,180
1,110,D,Raw,Bogdan Vaipan,M,M-O,Romania,33,109.1,,,,,,,,,,,321,330,340,,340,340
2,110,D,Raw,Declan Counihan,M,M-M3,Ireland,53,103.5,,,,,,,,,,,245,265,275,-285,275,275
3,110,D,Raw,Anatolii Crucerescu,M,M-O,Moldova,26,107.7,,,,,,,,,,,245,255,-260,,255,255
4,110,D,Raw,Philip Salter,M,M-O,UK,28,109.2,,,,,,,,,,,250,-265,-265,,250,250
5,110,D,Raw,Joshua Lancaster,M,M-O,UK,26,107.3,,,,,,,,,,,225,247.5,-255,,247.5,247.5
6,110,D,Raw,Colin Kennard,M,M-M2,Ireland,45,106.7,,,,,,,,,,,205,215,220,,220,220
7,110,D,Raw,John West,M,M-M8,Ireland,75,108.2,,,,,,,,,,,190,210,,,210,210
8,110,D,Raw,John Gavin Walker,M,M-M8,UK,77,100.8,,,,,,,,,,,170,180,190,,190,190
1,125,D,Raw,Dumitru Sacaliuc,M,M-O,Moldova,29,120.6,,,,,,,,,,,300,312.5,317.5,,317.5,317.5
2,125,D,Raw,Roman Scorici,M,M-O,Moldova,33,115.3,,,,,,,,,,,310,-315,-315,,310,310
3,125,D,Raw,Jerome Boitelle,M,M-O,Germany,39,123.5,,,,,,,,,,,280,300,305,,305,305
4,125,D,Raw,Dylan Callus,M,M-JR,Malaysia,21,110.2,,,,,,,,,,,285,300,-315,,300,300
5,125,D,Raw,Alessandro Binfarè,M,M-O,Italy,28,112.9,,,,,,,,,,,260,280,300,,300,300
6,125,D,Raw,Kevin Colgan,M,M-JR,Ireland,23,117.7,,,,,,,,,,,245,255,260,,260,260
7,125,D,Raw,James Collins,M,M-M2,Ireland,47,113.3,,,,,,,,,,,-210,210,-215,,210,210
1,145,D,Raw,Patrick Ruch,M,M-M3,France,54,130.7,,,,,,,,,,,252.5,265,-275,,265,265
2,145,D,Raw,Heiner Hansen,M,M-M4,Germany,55,135.2,,,,,,,,,,,-225,250,-260,,250,250
3,145,D,Raw,Morgan Evans,M,M-T2,UK,17,130.6,,,,,,,,,,,190,200,205,-210,205,205
1,145+,D,Raw,Serghei Bîrsanu,M,M-M1,Moldova,40,145.5,,,,,,,,,,,-282.5,-282.5,290,-315,290,290
2,145+,D,Raw,Yaşar Küçük,M,M-M1,Germany,43,157.2,,,,,,,,,,,260,280,-283,,280,280
1,55.5,D,Single-ply,Deborah MacDonald,F,F-M2,UK,45,53.3,,,,,,,,,,,125,130,136,-140,136,136
1,58.5,D,Single-ply,Morgan Thomas,F,F-T1,UK,15,55.8,,,,,,,,,,,85,95,100,-105,100,100
1,63,D,Single-ply,Helen Wuyts,F,F-O,Belgium,25,61.1,,,,,,,,,,,175,185,,,185,185
2,63,D,Single-ply,Ann Thomas,F,F-O,UK,38,60.5,,,,,,,,,,,140,150,-162.5,,150,150
1,60,D,Single-ply,Antonio Garau,M,M-O,Italy,31,60,,,,,,,,,,,218,220,222.5,-225,222.5,222.5
2,60,D,Single-ply,Barry Smith,M,M-O,Ireland,30,58.7,,,,,,,,,,,190,-210,-220.5,,190,190
1,67.5,D,Single-ply,Darren Boland,M,M-M1,Belgium,42,66,,,,,,,,,,,190,200,-210,,200,200
2,67.5,D,Single-ply,Tim van den Abbeele,M,M-O,Belgium,29,66.3,,,,,,,,,,,185,195,-200,,195,195
3,67.5,D,Single-ply,Vincenzo Tidona,M,M-M10,France,86,60.3,,,,,,,,,,,125,132.5,,,132.5,132.5
1,82.5,D,Single-ply,Gerry Cronnolly,M,M-M2,Ireland,46,79.9,,,,,,,,,,,227.5,242.5,252.5,,252.5,252.5
2,82.5,D,Single-ply,Michael Phillips,M,M-M5,UK,62,80.6,,,,,,,,,,,200,-210,,,200,200
3,82.5,D,Single-ply,Alexei Grigorov,M,M-O,Moldova,30,82.2,,,,,,,,,,,202.5,-212.5,-212.5,,202.5,202.5
1,90,D,Single-ply,Glenn Branch,M,M-O,UK,34,87.3,,,,,,,,,,,270,285,295,,295,295
2,90,D,Single-ply,Beny Verbeke,M,M-M3,Belgium,51,89.1,,,,,,,,,,,280,-295.5,-295.5,,280,280
3,90,D,Single-ply,Massimo Carpo,M,M-O,Italy,39,86.6,,,,,,,,,,,260,-270,-285,,260,260
4,90,D,Single-ply,Patrick Valfrey,M,M-M3,France,52,89.2,,,,,,,,,,,210,222.5,232.5,,232.5,232.5
1,100,D,Single-ply,Gianni Vermote,M,M-M1,Belgium,44,100,,,,,,,,,,,220,235,-250,,235,235
2,100,D,Single-ply,Roger Piron,M,M-M4,Germany,56,95.2,,,,,,,,,,,190,200,-207.5,,200,200
1,110,D,Single-ply,Lexander Geitner,M,M-O,Germany,39,107.7,,,,,,,,,,,280,300,-322.5,,300,300
2,110,D,Single-ply,Bryan Lefranc,M,M-JR,Belgium,21,107.8,,,,,,,,,,,280,-290,-290,,280,280
3,110,D,Single-ply,Chris Pilling,M,M-M3,UK,53,108.1,,,,,,,,,,,217.5,237.5,245,,245,245
1,125,D,Single-ply,Francesco Pellizzoni,M,M-O,Italy,39,123.4,,,,,,,,,,,290,302.5,307.5,,307.5,307.5
2,125,D,Single-ply,Loren Schäfer,M,M-JR,Germany,23,115.4,,,,,,,,,,,-280,280,-290,,280,280
3,125,D,Single-ply,Karlheinz Winkler,M,M-M3,Germany,52,123,,,,,,,,,,,-210,210,220,,220,220
1,145,D,Single-ply,Andre Du Plessis,M,M-M3,Ireland,52,142.2,,,,,,,,,,,270,290,-293,,290,290
2,145,D,Single-ply,Joel Evangelista,M,M-JR,Ireland,23,127.5,,,,,,,,,,,230,255,275,-280,275,275
