Division,WeightClassKg,Place,Name,Team,BodyweightKg,Best3SquatKg,Best3BenchKg,Best3DeadliftKg,TotalKg,Equipment,Event,Sex
Junior Varsity,59.87,1,Jimmy Gonzales,Port Lavaca Calhoun,59.78,154.22,79.38,140.61,374.21,Single-ply,SBD,M
Junior Varsity,59.87,2,Sam Day,Rockport-Fulton,58.51,106.59,61.23,102.06,269.89,Single-ply,SBD,M
Junior Varsity,59.87,3,Colin Moore,Rockport-Fulton,57.29,83.91,65.77,111.13,260.82,Single-ply,SBD,M
Junior Varsity,59.87,4,Alex Rodriguez,Corpus Christi Calallen,59.87,95.25,47.63,111.13,254.01,Single-ply,SBD,M
Junior Varsity,67.13,1,Victora Ta,Port Lavaca Calhoun,67.09,174.63,86.18,174.63,435.45,Single-ply,SBD,M
Junior Varsity,67.13,2,Jared Garcia,Corpus Christi Calallen,66.32,142.88,70.31,127.01,340.19,Single-ply,SBD,M
Junior Varsity,67.13,3,Conner Holladay,Port Lavaca Calhoun,66.27,117.93,74.84,136.08,328.85,Single-ply,SBD,M
Junior Varsity,67.13,4,Alex Fahrethold,Rockport-Fulton,66.32,111.13,65.77,127.01,303.91,Single-ply,SBD,M
Junior Varsity,74.84,1,Drew Ortiz,Port Lavaca Calhoun,74.34,154.22,97.52,181.44,433.18,Single-ply,SBD,M
Junior Varsity,74.84,2,Nathan Sanchez #3,Corpus Christi Calallen,69.04,161.03,86.18,158.76,405.97,Single-ply,SBD,M
Junior Varsity,74.84,3,Michael Boudreaux,Port Lavaca Calhoun,71.94,142.88,92.99,136.08,371.95,Single-ply,SBD,M
Junior Varsity,74.84,4,Gabriel Casarez,Port Lavaca Calhoun,74.84,154.22,77.11,136.08,367.41,Single-ply,SBD,M
Junior Varsity,74.84,5,Mathew Kimberling,Rockport-Fulton,71.49,92.99,74.84,108.86,276.69,Single-ply,SBD,M
Junior Varsity,82.1,1,Estaben Morales,Port Lavaca Calhoun,81.42,156.49,74.84,136.08,367.41,Single-ply,SBD,M
Junior Varsity,82.1,DQ,Justin Cole,Rockport-Fulton,79.56,120.2,,,,Single-ply,SBD,M
Junior Varsity,89.81,1,Zach Collings,Corpus Christi Calallen,89.81,136.08,86.18,145.15,367.41,Single-ply,SBD,M
Junior Varsity,99.79,1,Ryan Arriaga,Port Lavaca Calhoun,91.53,188.24,111.13,142.88,442.25,Single-ply,SBD,M
Junior Varsity,99.79,2,Jerimiah Reyes,Corpus Christi Calallen,99.79,154.22,102.06,167.83,424.11,Single-ply,SBD,M
Junior Varsity,99.79,3,David Silva,Corpus Christi Calallen,98.97,147.42,83.91,163.29,394.63,Single-ply,SBD,M
Junior Varsity,99.79,DQ,Jody Stratman,Port Lavaca Calhoun,99.79,181.44,,,,Single-ply,SBD,M
Junior Varsity,124.74+,1,Sergio Garcia,Corpus Christi Calallen,135.99,204.12,108.86,199.58,512.56,Single-ply,SBD,M
Varsity,51.71,1,Richie Villa,Bloomington,51.07,113.4,83.91,142.88,340.19,Single-ply,SBD,M
Varsity,51.71,2,Mauro Garcia,Port Lavaca Calhoun,50.62,113.4,70.31,133.81,317.51,Single-ply,SBD,M
Varsity,51.71,3,Josh Cantu,Bloomington,42.64,99.79,52.16,113.4,265.35,Single-ply,SBD,M
Varsity,51.71,4,Tyler Hessler,Victoria East,47.45,92.99,54.43,111.13,258.55,Single-ply,SBD,M
Varsity,55.79,1,Thomas Soto,Corpus Christi Calallen,52.8,167.83,88.45,197.31,453.59,Single-ply,SBD,M
Varsity,55.79,2,Marcos Crespin,Victoria West,55.79,106.59,56.7,122.47,285.76,Single-ply,SBD,M
Varsity,55.79,DQ,Rickey Hinojosa,Port Lavaca Calhoun,55.47,142.88,,,,Single-ply,SBD,M
Varsity,59.87,1,Josue Gonzalez,Corpus Christi Calallen,59.87,142.88,83.91,149.69,376.48,Single-ply,SBD,M
Varsity,59.87,2,Ben Heard,Corpus Christi Calallen,57.15,124.74,77.11,154.22,356.07,Single-ply,SBD,M
Varsity,59.87,3,Cole Weaver,Port Lavaca Calhoun,59.47,127.01,79.38,120.2,326.59,Single-ply,SBD,M
Varsity,59.87,4,Cameron Schultz,Victoria East,57.06,106.59,72.57,120.2,299.37,Single-ply,SBD,M
Varsity,59.87,5,Marcos Hernandez,Victoria West,58.06,111.13,63.5,122.47,297.1,Single-ply,SBD,M
Varsity,67.13,1,Martin Armenta,Victoria West,66.86,181.44,102.06,181.44,464.93,Single-ply,SBD,M
Varsity,67.13,2,Jared Reilley,Corpus Christi Calallen,66.59,167.83,99.79,195.04,462.66,Single-ply,SBD,M
Varsity,67.13,3,David Ledbetter,Victoria West,63.96,120.2,97.52,142.88,360.61,Single-ply,SBD,M
Varsity,67.13,4,Trent Marler,Victoria West,64.32,138.35,74.84,142.88,356.07,Single-ply,SBD,M
Varsity,74.84,1,Marcus Klamm,Port Lavaca Calhoun,74.84,188.24,115.67,197.31,501.22,Single-ply,SBD,M
Varsity,74.84,2,Chirstian Stiles,Corpus Christi Calallen,74.84,172.37,95.25,204.12,471.74,Single-ply,SBD,M
Varsity,74.84,3,Jose Guzman,Bloomington,73.3,154.22,90.72,192.78,437.72,Single-ply,SBD,M
Varsity,74.84,4,Austin Castillo,Corpus Christi Calallen,70.31,142.88,95.25,179.17,417.3,Single-ply,SBD,M
Varsity,74.84,5,Justin Sanchez,Victoria West,70.94,133.81,97.52,158.76,390.09,Single-ply,SBD,M
Varsity,74.84,DQ,Logan Moon,Victoria East,74.84,,,,,Single-ply,SBD,M
Varsity,82.1,1,Terry Ramey,Victoria West,77.11,190.51,108.86,183.7,483.08,Single-ply,SBD,M
Varsity,82.1,2,Luke Arrequin,Victoria West,81.28,142.88,102.06,161.03,405.97,Single-ply,SBD,M
Varsity,82.1,3,Devon Pinon,Bloomington,78.93,156.49,86.18,124.74,367.41,Single-ply,SBD,M
Varsity,89.81,1,Alex Tanguma,Corpus Christi Calallen,88.9,233.6,149.69,240.4,623.69,Single-ply,SBD,M
Varsity,89.81,2,Enrique Olachia,Port Lavaca Calhoun,89.77,226.8,131.54,217.72,576.06,Single-ply,SBD,M
Varsity,89.81,3,Andrew Reyes,Rockport-Fulton,83.01,199.58,131.54,204.12,535.24,Single-ply,SBD,M
Varsity,89.81,4,Matt Hartman,Victoria West,88.54,179.17,106.59,217.72,503.49,Single-ply,SBD,M
Varsity,89.81,5,Chris Cabrara,Bloomington,85.18,163.29,97.52,158.76,419.57,Single-ply,SBD,M
Varsity,89.81,6,John Resendez,Victoria West,89.81,111.13,74.84,136.08,322.05,Single-ply,SBD,M
Varsity,89.81,DQ,Branden Cady,Victoria West,87.09,183.7,,,,Single-ply,SBD,M
Varsity,99.79,1,Jonathan Chavana,Port Lavaca Calhoun,95.93,192.78,136.08,185.97,514.83,Single-ply,SBD,M
Varsity,99.79,2,Max Abuayo,Bloomington,92.08,158.76,83.91,129.27,371.95,Single-ply,SBD,M
Varsity,124.74,1,Kohlton Tegeler,Victoria East,109.95,272.16,165.56,233.6,671.32,Single-ply,SBD,M
Varsity,109.77,2,Danny Ovalle,Port Lavaca Calhoun,109.45,233.6,142.88,195.04,571.53,Single-ply,SBD,M
Varsity,109.77,3,Jaime Gutierrez,Port Lavaca Calhoun,105.05,229.06,136.08,204.12,569.26,Single-ply,SBD,M
Varsity,109.77,4,Michael Wiser,Corpus Christi Calallen,107.59,219.99,120.2,235.87,576.06,Single-ply,SBD,M
Varsity,109.77,5,Truman Jenkins,Rockport-Fulton,104.78,181.44,111.13,181.44,474,Single-ply,SBD,M
Varsity,124.74,1,Josh Morgan,Victoria West,124.74,229.06,147.42,206.38,582.87,Single-ply,SBD,M
Varsity,124.74,2,JR Perez,Port Lavaca Calhoun,121.65,219.99,136.08,181.44,537.51,Single-ply,SBD,M
Varsity,124.74,3,Morgan Molina,Port Lavaca Calhoun,123.97,213.19,120.2,181.44,514.83,Single-ply,SBD,M
Varsity,124.74,4,Ryan Gutierrez,Rockport-Fulton,124.56,215.46,111.13,158.76,485.34,Single-ply,SBD,M
Varsity,124.74+,1,Dylan Strickland,Corpus Christi Calallen,133.27,238.14,151.95,226.8,616.89,Single-ply,SBD,M
Varsity,124.74+,2,Steven Rodriguez,Corpus Christi Calallen,133.63,260.82,136.08,210.92,607.81,Single-ply,SBD,M
Varsity,124.74+,3,Bryan Tschatchula,Port Lavaca Calhoun,140.25,233.6,149.69,192.78,576.06,Single-ply,SBD,M
Varsity,124.74+,4,Skyler Ballard,Victoria West,155.04,165.56,117.93,142.88,426.38,Single-ply,SBD,M
Varsity,124.74+,DQ,TaMarcus Jackson,Victoria East,136.08,,,,,Single-ply,SBD,M
