Division,WeightClassKg,Place,Name,Team,BodyweightKg,Best3SquatKg,Best3BenchKg,Best3DeadliftKg,TotalKg,Equipment,Event,Sex
Boys,51.71,1,Preston Fox,Lampasas,50.8,133.81,83.91,147.42,365.14,Single-ply,SBD,M
Boys,51.71,2,Benjamin Galindo,Brady,50.8,117.93,61.23,131.54,310.71,Single-ply,SBD,M
Boys,51.71,3,Kyle Arriola,Lampasas,50.35,104.33,68.04,113.4,285.76,Single-ply,SBD,M
Boys,51.71,4,Marshall Schmitz,Brownwood,44.91,106.59,49.9,117.93,274.42,Single-ply,SBD,M
Boys,51.71,5,Caleb Petty,Lampasas,49.44,77.11,43.09,86.18,206.38,Single-ply,SBD,M
Boys,51.71,6,Bryce Denson,Early,36.29,52.16,24.95,74.84,151.95,Single-ply,SBD,M
Boys,55.79,1,Noe Martinez,Burnet,54.43,133.81,70.31,138.35,342.46,Single-ply,SBD,M
Boys,55.79,2,Quincy Larson,Hamilton,54.43,117.93,61.23,142.88,322.05,Single-ply,SBD,M
Boys,55.79,3,Zach Kelley,Early,53.52,106.59,81.65,122.47,310.71,Single-ply,SBD,M
Boys,55.79,4,Caleb Galindo,Brady,53.98,117.93,68.04,122.47,308.44,Single-ply,SBD,M
Boys,55.79,5,Gabe Brown,Lampasas,55.34,108.86,61.23,127.01,297.1,Single-ply,SBD,M
Boys,55.79,6,Jon Gutierrez,Ballinger,53.52,104.33,58.97,97.52,260.82,Single-ply,SBD,M
Boys,55.79,DQ,Leo Amao,San Saba,53.98,99.79,,,,Single-ply,SBD,M
Boys,59.87,1,Ty'rus Jones,Brownwood,57.61,154.22,86.18,163.29,403.7,Single-ply,SBD,M
Boys,59.87,2,Quint Pincelli,Llano,59.42,136.08,97.52,165.56,399.16,Single-ply,SBD,M
Boys,59.87,3,Brian Elliston,Brady,57.15,142.88,74.84,161.03,378.75,Single-ply,SBD,M
Boys,59.87,4,Jon Binder,Ballinger,58.51,145.15,65.77,136.08,347,Single-ply,SBD,M
Boys,59.87,5,Dylan Wilson #2,Burnet,59.87,127.01,72.57,136.08,335.66,Single-ply,SBD,M
Boys,59.87,6,Ben Anderson,Marble Falls,59.42,65.77,61.23,90.72,217.72,Single-ply,SBD,M
Boys,59.87,DQ,Adrian Canekola,Marble Falls,56.7,,,,,Single-ply,SBD,M
Boys,59.87,DQ,David McKinnon,Ballinger,58.51,,,,,Single-ply,SBD,M
Boys,59.87,DQ,Marvin Perez,Brownwood,57.61,158.76,,,,Single-ply,SBD,M
Boys,67.13,1,Ethan Oakes,Lampasas,65.32,174.63,108.86,181.44,464.93,Single-ply,SBD,M
Boys,67.13,2,Daniel Kelso,Lago Vista,65.32,163.29,92.99,181.44,437.72,Single-ply,SBD,M
Boys,67.13,3,Elroy Castillo,Brownwood,66.68,151.95,88.45,183.7,424.11,Single-ply,SBD,M
Boys,67.13,4,Ryan Jackson,Burnet,64.41,151.95,106.59,161.03,419.57,Single-ply,SBD,M
Boys,67.13,5,Daniel Rosales,San Saba,64.41,156.49,102.06,158.76,417.3,Single-ply,SBD,M
Boys,67.13,6,Chayton Gray,Brady,63.5,131.54,79.38,163.29,374.21,Single-ply,SBD,M
Boys,67.13,7,Logan Evans,Lometa,65.32,142.88,77.11,149.69,369.68,Single-ply,SBD,M
Boys,67.13,8,Elijah Tijerina,Brady,63.05,131.54,79.38,154.22,365.14,Single-ply,SBD,M
Boys,67.13,9,Sakima Herrera,San Saba,67.13,127.01,86.18,140.61,353.8,Single-ply,SBD,M
Boys,67.13,10,Jake Burkhalter,Burnet,65.77,117.93,90.72,136.08,344.73,Single-ply,SBD,M
Boys,67.13,11,Gavin Aniceto,Marble Falls,63.05,113.4,61.23,113.4,288.03,Single-ply,SBD,M
Boys,67.13,DQ,Cruz Castillo,Marble Falls,64.86,113.4,,,,Single-ply,SBD,M
Boys,67.13,DQ,David Delgado,Sonora,63.05,104.33,,,,Single-ply,SBD,M
Boys,67.13,DQ,Henry Ramos,Sonora,63.96,,,,,Single-ply,SBD,M
Boys,67.13,DQ,Josh Sauceda,Ballinger,61.23,113.4,,,,Single-ply,SBD,M
Boys,74.84,1,Adrian Pena,Ballinger,73.94,188.24,115.67,204.12,508.02,Single-ply,SBD,M
Boys,74.84,2,Jim Fowler,Early,73.03,195.04,111.13,185.97,492.15,Single-ply,SBD,M
Boys,74.84,3,Jacob Delafuente,Brady,69.4,181.44,111.13,195.04,487.61,Single-ply,SBD,M
Boys,74.84,4,Brent Greenwood,Llano,69.4,183.7,120.2,179.17,483.08,Single-ply,SBD,M
Boys,74.84,5,Nolan Keller,Llano,73.94,181.44,111.13,183.7,476.27,Single-ply,SBD,M
Boys,74.84,6,Ryan Decker,Brady,73.48,170.1,115.67,185.97,471.74,Single-ply,SBD,M
Boys,74.84,7,Michael Cornish,Lampasas,73.03,172.37,97.52,170.1,439.98,Single-ply,SBD,M
Boys,74.84,8,Bailey Jones #1,Early,74.84,167.83,104.33,167.83,439.98,Single-ply,SBD,M
Boys,74.84,9,Hayden McAfee,Brownwood,70.31,167.83,88.45,176.9,433.18,Single-ply,SBD,M
Boys,74.84,10,Stuart Cortez,Hamilton,73.48,158.76,102.06,165.56,426.38,Single-ply,SBD,M
Boys,74.84,11,Vincent Leon,Lampasas,72.57,165.56,90.72,165.56,421.84,Single-ply,SBD,M
Boys,74.84,12,Aaron Brown,Llano,70.31,161.03,83.91,138.35,383.29,Single-ply,SBD,M
Boys,74.84,13,Trenton Gwaltney,Comfort,68.95,136.08,83.91,161.03,381.02,Single-ply,SBD,M
Boys,74.84,14,James Young,Hamilton,73.94,142.88,88.45,149.69,381.02,Single-ply,SBD,M
Boys,74.84,15,Eddie Jaimes,Lometa,73.48,129.27,79.38,165.56,374.21,Single-ply,SBD,M
Boys,74.84,16,Ryan Beineman,Hamilton,70.31,136.08,81.65,154.22,371.95,Single-ply,SBD,M
Boys,74.84,17,Andy Montoya,San Saba,68.04,145.15,77.11,142.88,365.14,Single-ply,SBD,M
Boys,74.84,18,Latham Nakhleh,Marble Falls,71.67,140.61,92.99,113.4,347,Single-ply,SBD,M
Boys,74.84,19,Levi Garret,Sonora,72.57,102.06,65.77,108.86,276.69,Single-ply,SBD,M
Boys,74.84,DQ,Jason Faulkner,Comfort,74.84,197.31,,,,Single-ply,SBD,M
Boys,74.84,DQ,Joseph Delgado,Sonora,73.03,,,,,Single-ply,SBD,M
Boys,74.84,DQ,Martin Najera,Hamilton,74.39,183.7,102.06,,,Single-ply,SBD,M
Boys,74.84,DQ,Carter Turner,San Saba,71.21,,,,,Single-ply,SBD,M
Boys,74.84,DQ,Erik Argote,San Saba,68.04,129.27,88.45,,,Single-ply,SBD,M
Boys,74.84,DQ,Brian Morales,Cross Plains,73.48,,,,,Single-ply,SBD,M
Boys,74.84,DQ,Austin Rosales,Coleman,73.48,136.08,97.52,,,Single-ply,SBD,M
Boys,74.84,DQ,Xavier Armenta,Brownwood,73.94,151.95,,,,Single-ply,SBD,M
Boys,82.1,1,Michael Nguyen,Lampasas,81.65,213.19,131.54,242.67,587.4,Single-ply,SBD,M
Boys,82.1,2,Mason Greenwood,Llano,78.02,222.26,138.35,224.53,585.13,Single-ply,SBD,M
Boys,82.1,3,Logan Thomas,Early,77.56,190.51,131.54,190.51,512.56,Single-ply,SBD,M
Boys,82.1,4,Moe Bryson,Lago Vista,75.75,199.58,90.72,210.92,501.22,Single-ply,SBD,M
Boys,82.1,5,John Esparza,Lampasas,78.47,165.56,133.81,201.85,501.22,Single-ply,SBD,M
Boys,82.1,6,Ryder Ross,Brady,78.47,170.1,102.06,170.1,442.25,Single-ply,SBD,M
Boys,82.1,7,Juan Baez,Sonora,78.93,158.76,92.99,158.76,410.5,Single-ply,SBD,M
Boys,82.1,8,Brandon Gilbreath,Coleman,79.38,156.49,92.99,151.95,401.43,Single-ply,SBD,M
Boys,82.1,9,Caleb Ornales,Ballinger,80.74,156.49,74.84,142.88,374.21,Single-ply,SBD,M
Boys,82.1,10,Ethan Murphy,Marble Falls,78.02,127.01,65.77,158.76,351.53,Single-ply,SBD,M
Boys,82.1,11,Cutter Daniels,San Saba,75.3,122.47,68.04,145.15,335.66,Single-ply,SBD,M
Boys,82.1,12,Ethan Adams,Sonora,78.02,83.91,52.16,83.91,219.99,Single-ply,SBD,M
Boys,82.1,DQ,Dylan Hines,Lago Vista,76.66,213.19,113.4,,,Single-ply,SBD,M
Boys,89.81,1,Ben Walling,Llano,86.64,197.31,115.67,213.19,526.17,Single-ply,SBD,M
Boys,89.81,2,Gavin Jefferson,Brownwood,89.36,206.38,106.59,208.65,521.63,Single-ply,SBD,M
Boys,89.81,3,Aubrey Bucholz,Brady,83.91,190.51,127.01,197.31,514.83,Single-ply,SBD,M
Boys,89.81,4,Laken Behrens,Burnet,83.46,151.95,83.91,192.78,428.64,Single-ply,SBD,M
Boys,89.81,5,Chandler Walsh,Marble Falls,83.91,158.76,90.72,158.76,408.23,Single-ply,SBD,M
Boys,89.81,6,Colby Henry,Lometa,82.55,142.88,95.25,165.56,403.7,Single-ply,SBD,M
Boys,89.81,7,Javier Felan,Lometa,83.91,142.88,83.91,167.83,394.63,Single-ply,SBD,M
Boys,89.81,8,Jacob King,Hamilton,87.54,131.54,81.65,181.44,394.63,Single-ply,SBD,M
Boys,89.81,9,Jaden Lehde,Early,82.55,136.08,81.65,136.08,353.8,Single-ply,SBD,M
Boys,89.81,10,Jansen Morris,Sonora,85.73,113.4,68.04,111.13,292.57,Single-ply,SBD,M
Boys,89.81,DQ,Ty Perez,Sonora,83.46,129.27,,,,Single-ply,SBD,M
Boys,89.81,DQ,Jordan Law,Comfort,88.45,147.42,,,,Single-ply,SBD,M
Boys,89.81,DQ,Jace Hankins,Lampasas,85.28,224.53,,,,Single-ply,SBD,M
Boys,89.81,DQ,Joe Torres,Brady,84.37,217.72,,,,Single-ply,SBD,M
Boys,89.81,DQ,Taylor Smith,Llano,87.09,140.61,,,,Single-ply,SBD,M
Boys,89.81,DQ,Glenn Thomas,Marble Falls,88.45,167.83,72.57,,,Single-ply,SBD,M
Boys,99.79,1,Miguel Elizondo,Early,94.35,258.55,149.69,215.46,623.69,Single-ply,SBD,M
Boys,99.79,2,Zach Menkin,Lago Vista,92.99,233.6,142.88,219.99,596.47,Single-ply,SBD,M
Boys,99.79,3,Roger Craig,Burnet,99.34,204.12,147.42,219.99,571.53,Single-ply,SBD,M
Boys,99.79,4,Bass Myers,Brady,91.17,190.51,140.61,210.92,542.04,Single-ply,SBD,M
Boys,99.79,5,Luis Banda,Marble Falls,91.17,215.46,124.74,181.44,521.63,Single-ply,SBD,M
Boys,99.79,6,Brandon Lancaster,Ballinger,92.53,201.85,102.06,215.46,519.36,Single-ply,SBD,M
Boys,99.79,7,Hunter Wheeler,Ballinger,99.34,192.78,97.52,201.85,492.15,Single-ply,SBD,M
Boys,99.79,8,Jeremy Rodgers,Lampasas,97.52,181.44,99.79,208.65,489.88,Single-ply,SBD,M
Boys,99.79,9,Christian Ramon,Sonora,96.62,204.12,113.4,147.42,464.93,Single-ply,SBD,M
Boys,99.79,10,Rudy Esparza,Lampasas,96.62,158.76,108.86,181.44,449.06,Single-ply,SBD,M
Boys,99.79,11,Jaiden Cochran,Early,91.63,142.88,108.86,161.03,412.77,Single-ply,SBD,M
Boys,99.79,12,Logan McDonald,Sonora,94.8,124.74,88.45,142.88,356.07,Single-ply,SBD,M
Boys,99.79,13,Daniel Trevino,Marble Falls,92.53,90.72,65.77,142.88,299.37,Single-ply,SBD,M
Boys,99.79,DQ,Conner Sharp,Comfort,94.35,226.8,,,,Single-ply,SBD,M
Boys,99.79,DQ,Frankie Gutierrez,Burnet,94.35,199.58,99.79,,,Single-ply,SBD,M
Boys,99.79,DQ,Liam McCraw,Brownwood,98.43,,,,,Single-ply,SBD,M
Boys,99.79,DQ,Clayton Pierce,San Saba,99.79,190.51,,,,Single-ply,SBD,M
Boys,109.77,1,Ray Dixon,Llano,102.97,222.26,145.15,222.26,589.67,Single-ply,SBD,M
Boys,109.77,2,Jaxon Tucker,Brady,104.33,219.99,136.08,222.26,578.33,Single-ply,SBD,M
Boys,109.77,3,Eric Yescas,Lampasas,108.41,226.8,140.61,204.12,571.53,Single-ply,SBD,M
Boys,109.77,4,Gernaro Hernandez,Comfort,103.87,190.51,115.67,190.51,496.68,Single-ply,SBD,M
Boys,109.77,5,Adolph Medina,Ballinger,102.97,172.37,111.13,197.31,480.81,Single-ply,SBD,M
Boys,109.77,6,Cameron Johnson,Burnet,102.06,181.44,102.06,181.44,464.93,Single-ply,SBD,M
Boys,109.77,7,Ernesto Castaneda,Marble Falls,108.86,170.1,95.25,158.76,424.11,Single-ply,SBD,M
Boys,109.77,8,Dominique Solis,Sonora,106.59,142.88,104.33,147.42,394.63,Single-ply,SBD,M
Boys,109.77,9,Jose Moreno,Lometa,101.6,127.01,74.84,142.88,344.73,Single-ply,SBD,M
Boys,109.77,DQ,Will Bridgwater,Hamilton,107.5,,,,,Single-ply,SBD,M
Boys,109.77,DQ,Allen Martinez,San Saba,104.33,188.24,,,,Single-ply,SBD,M
Boys,124.74,1,Dakoda Trull,Llano,111.58,308.44,167.83,251.74,728.02,Single-ply,SBD,M
Boys,124.74,2,Bryndon Robles,Sonora,122.47,229.06,172.37,192.78,594.21,Single-ply,SBD,M
Boys,124.74,3,Divad Briones,Ballinger,115.21,235.87,154.22,199.58,589.67,Single-ply,SBD,M
Boys,124.74,4,Julian Guerra,Sonora,120.2,215.46,161.03,199.58,576.06,Single-ply,SBD,M
Boys,124.74,5,Santana Espinoza,Brownwood,123.38,208.65,131.54,226.8,566.99,Single-ply,SBD,M
Boys,124.74,6,Colby Rogers,Burnet,122.47,204.12,124.74,213.19,542.04,Single-ply,SBD,M
Boys,124.74,7,Zac Hudgins,Burnet,111.58,204.12,124.74,208.65,537.51,Single-ply,SBD,M
Boys,124.74,8,Logan Sotello,Comfort,120.66,165.56,115.67,165.56,446.79,Single-ply,SBD,M
Boys,124.74,9,Luke Williams,Llano,121.56,120.2,124.74,124.74,369.68,Single-ply,SBD,M
Boys,124.74,10,Jaden Hostetter,Ballinger,117.03,127.01,79.38,138.35,344.73,Single-ply,SBD,M
Boys,124.74,DQ,Breaten Weyel,Comfort,122.02,197.31,,,,Single-ply,SBD,M
Boys,124.74,DQ,Chevaz McHenry,Marble Falls,112.94,136.08,92.99,,,Single-ply,SBD,M
Boys,124.74+,1,Brandon Webb,Lago Vista,125.65,274.42,124.74,215.46,614.62,Single-ply,SBD,M
Boys,124.74+,2,Diesel Ceresini,Hamilton,134.72,247.21,131.54,226.8,605.55,Single-ply,SBD,M
Boys,124.74+,3,Chris Nix,Lampasas,132.45,208.65,156.49,235.87,601.01,Single-ply,SBD,M
Boys,124.74+,4,Brody Adams,Junction,133.36,204.12,111.13,188.24,503.49,Single-ply,SBD,M
