Sex,WeightClassKg,Name,BodyweightKg,Squat1Kg,Squat2Kg,Squat3Kg,Best3SquatKg,Bench1Kg,Bench2Kg,Bench3Kg,Best3BenchKg,Deadlift1Kg,Deadlift2Kg,Deadlift3Kg,Best3DeadliftKg,Division,TotalKg,Place,Event,Equipment
M,56,Daniele Tarchi,56,-155,155,162.5,162.5,95,100,-105,100,180,190,195,195,Open,457.5,1,SBD,Single-ply
M,60,Dario Dellaquila,57,175,-190,190,190,-100,100,110,110,185,200,-207.5,200,Open,500,1,SBD,Single-ply
M,60,Franco Giummarra,57.2,175,190,195,195,65,70,75,75,190,205,-210,205,Master II,475,1,SBD,Single-ply
M,60,Angelo Di Franco,60,60,-75,,60,140,145,150,150,90,105,130,130,Junior,340,1,SBD,Single-ply
M,60,Paolo Imbalzano,57.6,-140,-140,-140,,130,135,-140,135,150,160,-170,160,Open,,DQ,SBD,Single-ply
M,67.5,Cristiano Morresi,66.8,210,220,-225,220,120,-130,130,130,215,225,-232.5,225,Open,575,1,SBD,Single-ply
M,67.5,Sikhwinder Kumar,65.7,185,195,200,200,140,-147.5,147.5,147.5,185,-202.5,-210,185,Open,532.5,2,SBD,Single-ply
M,67.5,Valerio Romano,67,180,190,-200,190,95,-100,,95,180,190,-200,190,Open,475,3,SBD,Single-ply
M,67.5,Paolo Petrongari,64.5,100,,,100,80,85,90,90,150,-162.5,,150,Master I,340,1,SBD,Single-ply
M,67.5,Giuseppe D'Alessandro,66.7,-210,-210,-210,,,,,,,,,,Open,,DQ,SBD,Single-ply
M,75,Leonardo Corsi,74.2,250,-270,-270,250,170,-175,-175,170,220,-240,-240,220,Open,640,1,SBD,Single-ply
M,75,Stefano Zampa,73.1,190,205,-215,205,145,156,160,160,210,225,235,235,Junior,600,1,SBD,Single-ply
M,75,Noriano Coppari,74.8,-220,220,-230,220,-145,145,150,150,220,230,-232.5,230,Master II,600,1,SBD,Single-ply
M,75,Francisco Palmisano,74,210,-220,220,220,135,140,-145,140,230,-240,-240,230,Open,590,2,SBD,Single-ply
M,75,Riccardo Marazzini,74.6,195,210,-222.5,210,135,-145,-145,135,220,235,-242.5,235,Junior,580,2,SBD,Single-ply
M,75,Sergio Zanetti,74.7,200,210,-225,210,115,-120,,115,205,215,-220,215,Master III,540,1,SBD,Single-ply
M,75,Mario Ronsisvalle,74.3,-190,-190,190,190,-125,-125,125,125,205,215,-225,215,Open,530,3,SBD,Single-ply
M,75,Marcello Facciponte,75,80,,,80,-192.5,192.5,-200,192.5,120,140,170,170,Open,442.5,4,SBD,Single-ply
M,75,Andrea Porcari,71.6,,,,,,,,,,,,,Open,,DQ,SBD,Single-ply
M,82.5,Piergiorgio Criscione,82.5,235,245,250,250,135,140,,140,265,275,281,281,Master I,671,1,SBD,Single-ply
M,82.5,Giorgio Agostinoni,81.6,-255,260,-265,260,-142.5,142.5,145,145,250,260,265,265,Master II,670,1,SBD,Single-ply
M,82.5,Salvatore Venuto,82,220,-235,240,240,170,180.5,190,190,210,225,-237.5,225,Master II,655,2,SBD,Single-ply
M,82.5,Alan Bertolini,77.4,230,-245,-245,230,-120,-120,120,120,245,260,-270,260,Open,610,1,SBD,Single-ply
M,82.5,Riccardo Rollo,81.2,220,-235,-235,220,-135,135,-150,135,230,240,-250,240,Junior,595,1,SBD,Single-ply
M,82.5,Piero Andreatta,80.7,235,252.5,-262.5,252.5,80,87.5,,87.5,232.5,-252.5,-252.5,232.5,Master II,572.5,3,SBD,Single-ply
M,82.5,Antonio Mastrogiovanni,80.4,200,210,-220,210,140,-145,,140,210,-220,,210,Open,560,2,SBD,Single-ply
M,82.5,Fabio Formicola,82.5,170,190,200,200,-195,195,200,200,100,130,150,150,Master I,550,2,SBD,Single-ply
M,82.5,Gianlica Pomarico,79,140,150,160,160,100,-110,110,110,-185,200,210,210,Junior,480,2,SBD,Single-ply
M,82.5,Davide Dealbi,80.9,130,145,-160,145,100,105,110,110,160,180,200,200,Open,455,3,SBD,Single-ply
M,82.5,Antonio Campaner,81.8,-150,-150,150,150,100,-105,-105,100,190,200,-210,200,Sub-Junior,450,1,SBD,Single-ply
M,82.5,Rudy Agus,81.7,-255,255,270,270,-155,-155,-155,,300,-320,,300,Open,,DQ,SBD,Single-ply
M,82.5,Daniele Ghignoli,82.2,-260,260,-265,260,-140,-140,-145,,,,,,Open,,DQ,SBD,Single-ply
M,90,Daniele Ghirardi,89.2,300,320,,320,220,,,220,320,,,320,Master I,860,1,SBD,Single-ply
M,90,Stefano Bettati,85.5,280,,,280,160,170,,170,280,300,,300,Master I,750,2,SBD,Single-ply
M,90,Carlo DeCarli,86.9,210,-222.5,-230,210,100,105,110,110,230,242.5,252.5,252.5,Master II,572.5,1,SBD,Single-ply
M,90,Claudio Barozzi,87.8,195,210,-225,210,-140,145,-152.5,145,195,205,217.5,217.5,Master I,572.5,3,SBD,Single-ply
M,90,Andrea Mondo,88.2,180,190,200,200,105,-110,110,110,215,225,235,235,Open,545,1,SBD,Single-ply
M,90,Gianpiero Accardo,88.2,190,205,-220,205,75,80,-87.5,80,225,235,245,245,Sub-Junior,530,1,SBD,Single-ply
M,90,Marco Rigoni,88.3,-175,175,190,190,85,-92.5,92.5,92.5,210,220,230,230,Junior,512.5,1,SBD,Single-ply
M,90,Fabiano Cadin,82.8,-205,205,-210,205,-130,-130,-130,,-230,230,240,240,Open,,DQ,SBD,Single-ply
M,90,Mohamed Barjaoui,85.9,-180,-190,-190,,-140,145,-155,145,-220,-220,-220,,Master I,,DQ,SBD,Single-ply
M,90,Alessandro Silvas,87.9,252.5,260,270,270,-182.5,-182.5,-182.5,,270,-275,275,275,Open,,DQ,SBD,Single-ply
M,90,Sandro Rossi,88.8,,,,,,,,,,,,,Master II,,DQ,SBD,Single-ply
M,90,Gabriele Frassinetti,89.9,195,-210,210,210,-135,-135,-135,,,,,,Open,,DQ,SBD,Single-ply
M,90,Alessandro Favorito,90,290,-305,,290,-180,-180,,,,,,,Master I,,DQ,SBD,Single-ply
M,100,Claudio D'Ovidio,100,320,340,352.5,352.5,235,-248,-248,235,255,-262.5,-262.5,255,Master I,842.5,1,SBD,Single-ply
M,100,Cristian Voso,98,300,320,330,330,210,220,225,225,280,-297.5,-297.5,280,Open,835,1,SBD,Single-ply
M,100,Roberto Bettati,91.3,230,250,,250,150,160,-170,160,220,240,,240,Master I,650,2,SBD,Single-ply
M,100,Fabiano Fulvi,92,190,200,210,210,145,-150,150,150,230,250,-260,250,Master I,610,3,SBD,Single-ply
M,100,Antonio Frassinetti,97.9,-220,-230,230,230,-140,140,-150,140,220,-232.5,-247.5,220,Open,590,2,SBD,Single-ply
M,110,Silvio Crisafi,108.9,-310,310,-330,310,280,-290,290,290,290,300,-310,300,Open,900,1,SBD,Single-ply
M,110,Enrico Bomboletti,107,300,310,-320,310,160,170,180,180,280,290,-300,290,Open,780,2,SBD,Single-ply
M,110,Piero Liuzzi,103.1,205,220,-230,220,155,165,-175,165,230,250,-260,250,Junior,635,1,SBD,Single-ply
M,110,Luigi Brivio,102.9,200,210,220,220,140,-150,-150,140,200,215,225,225,Open,585,3,SBD,Single-ply
M,110,Carlo Bottazzi,104,-250,-250,-250,,,,,,,,,,Open,,DQ,SBD,Single-ply
M,110,Giuseppe Zangari,104,210,230,-250,230,-165,-170,-175,,230,-250,-250,230,Master II,,DQ,SBD,Single-ply
M,125,Maikel Saidek,123.8,300,320,340,340,190,200,-210,200,250,270,-290,270,Open,,DQ,SBD,Single-ply
M,125,Giuseppe Pellino,121.4,280,-300,300,300,190,-200,-200,190,280,300,,300,Open,790,1,SBD,Single-ply
M,125,Marco Monti,118.8,-220,220,-240,220,180,195,-200,195,210,225,240,240,Open,655,2,SBD,Single-ply
M,125,Andrea Bassini,120.8,125,,,125,-270,-275,-280,,,,,,Open,,DQ,SBD,Single-ply
M,125+,Francesco Pellizzoni,132.1,360,390,400,400,-200,200,-240,200,300,325,-330,325,Open,925,1,SBD,Single-ply
F,52,Alessia Rodina,51.4,135,-145,145,145,65,67.5,-70,67.5,135,145,-150,145,Open,357.5,1,SBD,Single-ply
F,52,Maria Pia Salemme,51.2,130,-135,137.5,137.5,62.5,-65,-65,62.5,140,-150,-150,140,Open,340,2,SBD,Single-ply
F,52,Stefania Saddi,51.6,115,120,-125,120,-67.5,-67.5,67.5,67.5,125,130,-135,130,Open,317.5,3,SBD,Single-ply
F,56,Manuela Stucchi,52.3,130,-137.5,137.5,137.5,65,67.5,70,70,140,150,155,155,Master I,362.5,1,SBD,Single-ply
F,56,Manuela Masci,55.8,95,102.5,-107.5,102.5,55,60,-62.5,60,110,120,127.5,127.5,Open,290,1,SBD,Single-ply
F,56,Veronica Pazzaglia,52.1,-105,105,-115,105,57.5,-62.5,62.5,62.5,110,120,-125,120,Open,287.5,2,SBD,Single-ply
F,56,Daniela Raineri,52.2,90,-100,-100,90,45,-50,50,50,115,125,-130,125,Open,265,3,SBD,Single-ply
F,60,Laura Locatelli,58.6,115,130,140,140,65,70,72.5,72.5,150,170,-185,170,Master II,382.5,1,SBD,Single-ply
F,60,Emanuela Cazzaniga,58.5,110,120,-125,120,65,-67.5,-67.5,65,145,-155,-155,145,Open,330,1,SBD,Single-ply
F,67.5,Antonietta Orsini,66.6,200,,,200,140,-147.5,,140,190,200,,200,Master I,540,1,SBD,Single-ply
F,67.5,Alessia Aquili,65.7,130,140,145,145,55,60,-65,60,140,150,,150,Open,355,1,SBD,Single-ply
F,75,Barbara Galimberti,70,150,160,-170,160,95,100,105,105,150,-160,-160,150,Open,415,1,SBD,Single-ply
F,82.5,Maria Pia Moscianese,76.6,145,150,160,160,70,75,80,80,160,175,190,190,Master I,430,1,SBD,Single-ply
