Division,WeightClassKg,Place,Name,Team,BodyweightKg,Best3SquatKg,Best3BenchKg,Best3DeadliftKg,TotalKg,Equipment,Event,Sex
Boys,55.79,1,Callum Hurst,Coahoma,55.34,165.56,92.99,183.7,442.25,Single-ply,SBD,M
Boys,55.79,2,Timothy Ortiz,Odessa,55.16,142.88,77.11,172.37,392.36,Single-ply,SBD,M
Boys,55.79,3,Seth Barton,Midland Greenwood,53.34,131.54,77.11,145.15,353.8,Single-ply,SBD,M
Boys,55.79,4,Jetli Hobdey,Roscoe Collegiate,54.61,90.72,56.7,106.59,254.01,Single-ply,SBD,M
Boys,55.79,5,Bryson Ovalle,Big Spring,52.25,92.99,52.16,106.59,251.74,Single-ply,SBD,M
Boys,55.79,6,Aaron Blackshear,Big Spring,55.79,83.91,54.43,106.59,244.94,Single-ply,SBD,M
Boys,55.79,7,Aaron Caroll,Big Spring,52.25,90.72,43.09,106.59,240.4,Single-ply,SBD,M
Boys,55.79,8,Josue Gutierrez,Garden City,53.25,79.38,52.16,108.86,240.4,Single-ply,SBD,M
Boys,59.87,1,Justin Ormsby,Big Spring,59.87,167.83,81.65,163.29,412.77,Single-ply,SBD,M
Boys,59.87,2,Daniel Sánchez,Midland Greenwood,59.15,147.42,88.45,163.29,399.16,Single-ply,SBD,M
Boys,59.87,3,Luke Krueger,Snyder,58.79,154.22,72.57,158.76,385.55,Single-ply,SBD,M
Boys,59.87,4,Zach Fuentes,Coahoma,57.79,142.88,92.99,142.88,378.75,Single-ply,SBD,M
Boys,59.87,5,Isaiah Jennings,Colorado City Colorado,58.97,106.59,79.38,129.27,315.25,Single-ply,SBD,M
Boys,59.87,6,Nathaniel Duarte,Odessa,59.6,108.86,74.84,129.27,312.98,Single-ply,SBD,M
Boys,59.87,7,Ali Mata,Snyder,58.88,102.06,70.31,133.81,306.17,Single-ply,SBD,M
Boys,67.13,1,Andrew Martinez,Coahoma,64.41,185.97,106.59,185.97,478.54,Single-ply,SBD,M
Boys,67.13,2,Johnathan Rankin,Colorado City Colorado,66.22,158.76,92.99,170.1,421.84,Single-ply,SBD,M
Boys,67.13,3,Zach Holmes,Coahoma,61.05,147.42,97.52,163.29,408.23,Single-ply,SBD,M
Boys,67.13,4,Josh Urias,Midland Greenwood,65.14,161.03,88.45,151.95,401.43,Single-ply,SBD,M
Boys,67.13,5,Lane Gonzales,Midland Greenwood,65.5,129.27,97.52,151.95,378.75,Single-ply,SBD,M
Boys,67.13,6,George Barker,Lamesa Klondike,61.42,113.4,72.57,149.69,335.66,Single-ply,SBD,M
Boys,67.13,7,Raul Almazan,Garden City,63.5,115.67,72.57,129.27,317.51,Single-ply,SBD,M
Boys,67.13,8,Tyler McFall,Coahoma,59.96,117.93,61.23,129.27,308.44,Single-ply,SBD,M
Boys,74.84,1,Matthew Ramirez,Roby,73.03,185.97,136.08,197.31,519.36,Single-ply,SBD,M
Boys,74.84,2,Brian Ramos,Midland Greenwood,74.3,165.56,99.79,161.03,426.38,Single-ply,SBD,M
Boys,74.84,3,Zach Luera,Colorado City Colorado,71.85,133.81,106.59,154.22,394.63,Single-ply,SBD,M
Boys,74.84,4,Regan Lowery,Garden City,71.4,129.27,77.11,136.08,342.46,Single-ply,SBD,M
Boys,74.84,5,Levi Garland,Roby,72.12,127.01,54.43,147.42,328.85,Single-ply,SBD,M
Boys,74.84,6,Matthew Wiebe,Lamesa Klondike,73.94,104.33,74.84,147.42,326.59,Single-ply,SBD,M
Boys,74.84,7,Moieses Leanos,Colorado City Colorado,69.22,120.2,65.77,129.27,315.25,Single-ply,SBD,M
Boys,74.84,8,Jordan Lawson,Colorado City Colorado,68.76,92.99,65.77,124.74,283.5,Single-ply,SBD,M
Boys,82.1,1,Jose Juarez #4,Snyder,81.47,215.46,115.67,226.8,557.92,Single-ply,SBD,M
Boys,82.1,2,Enrique Barron,Snyder,79.83,204.12,111.13,204.12,519.36,Single-ply,SBD,M
Boys,82.1,3,Michael Key,Lamesa Klondike,77.56,190.51,97.52,206.38,494.42,Single-ply,SBD,M
Boys,82.1,4,Ashton Voight,Forsan,79.56,154.22,115.67,163.29,433.18,Single-ply,SBD,M
Boys,82.1,5,Jimetre Post,Big Spring,81.83,147.42,92.99,185.97,426.38,Single-ply,SBD,M
Boys,82.1,6,Braden Latham,Midland Greenwood,80.92,158.76,108.86,154.22,421.84,Single-ply,SBD,M
Boys,82.1,7,Albert Arroyo,Odessa,76.02,142.88,88.45,154.22,385.55,Single-ply,SBD,M
Boys,82.1,8,Marcus Gutierrez,Colorado City Colorado,78.93,136.08,83.91,147.42,367.41,Single-ply,SBD,M
Boys,82.1,9,Tristan Sage,Midland Greenwood,78.65,129.27,83.91,147.42,360.61,Single-ply,SBD,M
Boys,82.1,10,Brent Glasco,Forsan,78.74,142.88,61.23,149.69,353.8,Single-ply,SBD,M
Boys,82.1,11,Austin Lara,Roscoe Collegiate,81.1,136.08,70.31,102.06,308.44,Single-ply,SBD,M
Boys,82.1,12,Bryan Fernandez,Garden City,81.65,106.59,65.77,113.4,285.76,Single-ply,SBD,M
Boys,89.81,1,Caleb Thomas,Snyder,83.91,204.12,113.4,215.46,532.97,Single-ply,SBD,M
Boys,89.81,2,Hugo Almazan,Garden City,85.91,185.97,120.2,208.65,514.83,Single-ply,SBD,M
Boys,89.81,3,Dalton Richardson,Midland Greenwood,86.64,201.85,99.79,197.31,498.95,Single-ply,SBD,M
Boys,89.81,4,Jesse Cervantes,Forsan,89.54,154.22,79.38,181.44,415.04,Single-ply,SBD,M
Boys,89.81,5,Cade Barkowsy,Lamesa Klondike,89.72,142.88,97.52,163.29,403.7,Single-ply,SBD,M
Boys,89.81,6,Jacob Redwine,Odessa,88.18,136.08,111.13,154.22,401.43,Single-ply,SBD,M
Boys,89.81,7,Luke Smith,Lamesa Klondike,84.82,142.88,86.18,154.22,383.29,Single-ply,SBD,M
Boys,89.81,8,Mason Shipp,Roby,83.91,145.15,70.31,163.29,378.75,Single-ply,SBD,M
Boys,89.81,9,RJ Galan,Big Spring,89.45,106.59,88.45,136.08,331.12,Single-ply,SBD,M
Boys,89.81,DQ,Colin Sutton,Big Spring,89.81,156.49,,172.37,,Single-ply,SBD,M
Boys,99.79,1,Paul Mata,Snyder,98.25,208.65,147.42,195.04,551.11,Single-ply,SBD,M
Boys,99.79,2,Damian Loya,Odessa,90.54,181.44,102.06,181.44,464.93,Single-ply,SBD,M
Boys,99.79,3,Jessy Villagomez,Roby,96.98,179.17,97.52,176.9,453.59,Single-ply,SBD,M
Boys,99.79,4,Oden Yanez,Big Spring,99.61,174.63,104.33,158.76,437.72,Single-ply,SBD,M
Boys,99.79,5,Channing Miller,Big Spring,99.74,156.49,83.91,181.44,421.84,Single-ply,SBD,M
Boys,99.79,6,Jonathan Denmond,Odessa,97.34,149.69,111.13,158.76,419.57,Single-ply,SBD,M
Boys,99.79,7,Christian Alvarez,Odessa,99.79,136.08,108.86,172.37,417.3,Single-ply,SBD,M
Boys,99.79,8,Adrian Wilbert,Big Spring,92.44,156.49,86.18,161.03,403.7,Single-ply,SBD,M
Boys,99.79,9,Brison Smith,Odessa,94.08,149.69,108.86,140.61,399.16,Single-ply,SBD,M
Boys,99.79,10,Dylan Treadway,Big Spring,94.53,147.42,77.11,158.76,383.29,Single-ply,SBD,M
Boys,99.79,11,Paul Pantoja,Roscoe Collegiate,94.71,136.08,102.06,142.88,381.02,Single-ply,SBD,M
Boys,99.79,12,Omar Carillo,Colorado City Colorado,97.7,142.88,77.11,131.54,351.53,Single-ply,SBD,M
Boys,99.79,DQ,Jose Vasquez,Big Spring,92.9,115.67,,176.9,,Single-ply,SBD,M
Boys,109.77,1,Levi Molina,Big Spring,106.96,226.8,136.08,208.65,571.53,Single-ply,SBD,M
Boys,109.77,2,Matt Buckley,Roscoe Collegiate,103.6,181.44,122.47,179.17,483.08,Single-ply,SBD,M
Boys,109.77,3,Caleb Smith,Roby,105.32,170.1,115.67,195.04,480.81,Single-ply,SBD,M
Boys,109.77,4,Caden Williams,Forsan,105.23,147.42,90.72,151.95,390.09,Single-ply,SBD,M
Boys,109.77,5,Jack Johnson,Colorado City Colorado,104.69,136.08,81.65,163.29,381.02,Single-ply,SBD,M
Boys,109.77,6,Eutimio Ortega,Forsan,106.78,127.01,81.65,145.15,353.8,Single-ply,SBD,M
Boys,124.74,1,Jesus Rodriguez,Midland Greenwood,122.47,263.08,158.76,238.14,659.98,Single-ply,SBD,M
Boys,124.74,2,Sean Humphrey,Snyder,122.47,260.82,163.29,217.72,641.83,Single-ply,SBD,M
Boys,124.74,3,Nathan Schneider,Big Spring,111.31,263.08,136.08,226.8,625.96,Single-ply,SBD,M
Boys,124.74,4,Zane Sorrells,Snyder,117.84,249.48,142.88,229.06,621.42,Single-ply,SBD,M
Boys,124.74,5,Isaias Aguilar,Roscoe Collegiate,120.38,238.14,131.54,195.04,564.72,Single-ply,SBD,M
Boys,124.74,6,Brycson Pineda,Forsan,123.29,215.46,120.2,204.12,539.77,Single-ply,SBD,M
Boys,124.74,7,Justin Trawick,Colorado City Colorado,122.29,215.46,136.08,163.29,514.83,Single-ply,SBD,M
Boys,124.74,8,Jonas Turnbough,Coahoma,112.04,195.04,104.33,181.44,480.81,Single-ply,SBD,M
Boys,124.74,9,Jordan Dunn,Big Spring,116.57,183.7,113.4,181.44,478.54,Single-ply,SBD,M
Boys,124.74,10,Bailey Perez,Odessa,115.67,151.95,113.4,181.44,446.79,Single-ply,SBD,M
Boys,124.74,11,Jared Rose,Midland Greenwood,112.85,163.29,106.59,172.37,442.25,Single-ply,SBD,M
Boys,124.74,12,David Ornelas,Colorado City Colorado,112.04,158.76,102.06,149.69,410.5,Single-ply,SBD,M
Boys,124.74,13,Steven Davis,Forsan,116.57,127.01,90.72,158.76,376.48,Single-ply,SBD,M
Boys,124.74,14,Aaron Juarez,Big Spring,112.22,129.27,70.31,127.01,326.59,Single-ply,SBD,M
Boys,124.74+,1,Derek Gusman,Big Spring,156.58,242.67,129.27,213.19,585.13,Single-ply,SBD,M
Boys,124.74+,2,Val Presas,Big Spring,135.71,242.67,117.93,206.38,566.99,Single-ply,SBD,M
Boys,124.74+,3,Price Cooper,Lamesa Klondike,139.71,197.31,120.2,206.38,523.9,Single-ply,SBD,M
Boys,124.74+,4,Jonathon Castillo,Roscoe Collegiate,126.1,192.78,99.79,181.44,474,Single-ply,SBD,M
Boys,124.74+,5,Ted Rich,Colorado City Colorado,130.09,165.56,92.99,142.88,401.43,Single-ply,SBD,M
Boys,,NS,Kelby O'Brien,Lamesa Klondike,,,,,,Single-ply,SBD,M
Boys,,NS,Isaac Gonzales,Coahoma,,,,,,Single-ply,SBD,M
Boys,,NS,Joe Manning,Coahoma,,,,,,Single-ply,SBD,M
