Division,WeightClassKg,Place,Name,Team,BodyweightKg,Best3SquatKg,Best3BenchKg,Best3DeadliftKg,TotalKg,Equipment,Event,Sex
Boys,51.71,1,Miguel Contreras,Robinson,51.17,124.74,63.5,124.74,312.98,Single-ply,SBD,M
Boys,51.71,2,Jhovanny Gutierrez,Hearne,50.35,104.33,56.7,129.27,290.3,Single-ply,SBD,M
Boys,51.71,3,Jacob Lewis,Stephenville,49.71,106.59,56.7,113.4,276.69,Single-ply,SBD,M
Boys,51.71,4,Juan Rodriguez,Hearne,45.72,77.11,31.75,95.25,204.12,Single-ply,SBD,M
Boys,51.71,5,Cody Clarkin,Whitney,45.18,77.11,38.56,83.91,199.58,Single-ply,SBD,M
Boys,51.71,6,Isaac Villafano,McGregor,35.2,36.29,29.48,24.95,90.72,Single-ply,SBD,M
Boys,55.79,1,Jesus Tonche,Waco Connally,54.25,136.08,70.31,142.88,349.27,Single-ply,SBD,M
Boys,59.87,2,Grady Rhoden,Alvarado,55.97,136.08,65.77,136.08,337.93,Single-ply,SBD,M
Boys,59.87,3,Spencer Brown #4,Waco Reicher Catholic,56.02,90.72,56.7,111.13,258.55,Single-ply,SBD,M
Boys,55.79,4,Dylan Greene,Whitney,55.43,86.18,56.7,104.33,247.21,Single-ply,SBD,M
Boys,55.79,5,Joseph Bravo,Waco Reicher Catholic,54.07,88.45,52.16,104.33,244.94,Single-ply,SBD,M
Boys,55.79,DQ,Jeremy Neagle,Stephenville,55.07,,,,,Single-ply,SBD,M
Boys,59.87,1,Adrian Rodriguez,Lorena,58.97,151.95,72.57,158.76,383.29,Single-ply,SBD,M
Boys,59.87,2,Manuel Rodriguez #4,Robinson,58.24,151.95,74.84,147.42,374.21,Single-ply,SBD,M
Boys,59.87,3,Roy Ward,Waco Reicher Catholic,59.69,156.49,65.77,136.08,358.34,Single-ply,SBD,M
Boys,67.13,4,Freddy Hernandez,Hearne,59.96,117.93,70.31,158.76,347,Single-ply,SBD,M
Boys,59.87,5,Kyle Jacobs,McGregor,58.06,104.33,90.72,136.08,331.12,Single-ply,SBD,M
Boys,59.87,6,Nelson Musgrave,Waco Connally,56.15,124.74,70.31,124.74,319.78,Single-ply,SBD,M
Boys,59.87,7,Dakotah Martinez,Stephenville,58.24,106.59,65.77,138.35,310.71,Single-ply,SBD,M
Boys,59.87,8,Harley Eldridge,Waco Connally,58.88,113.4,65.77,124.74,303.91,Single-ply,SBD,M
Boys,67.13,1,Hunter Work,Robinson,62.41,165.56,117.93,172.37,455.86,Single-ply,SBD,M
Boys,67.13,2,Sean Gibson,Whitney,62.32,158.76,102.06,183.7,444.52,Single-ply,SBD,M
Boys,67.13,3,Lane Fikes,Robinson,66.59,158.76,95.25,181.44,435.45,Single-ply,SBD,M
Boys,67.13,4,Jacob Mitchell,Robinson,67.04,165.56,90.72,158.76,415.04,Single-ply,SBD,M
Boys,67.13,5,Kory Kyei,McGregor,67.13,158.76,81.65,154.22,394.63,Single-ply,SBD,M
Boys,67.13,6,Jordan Smith,Valley Mills,61.23,156.49,92.99,138.35,387.82,Single-ply,SBD,M
Boys,67.13,7,Colton Reeves,Valley Mills,66.13,147.42,86.18,151.95,385.55,Single-ply,SBD,M
Boys,67.13,8,Jacob Fischer,Robinson,66.41,151.95,92.99,138.35,383.29,Single-ply,SBD,M
Boys,67.13,9,Chandler Gordon,Hillsboro,66.59,142.88,83.91,147.42,374.21,Single-ply,SBD,M
Boys,67.13,10,William Tolliver,Hearne,63.96,111.13,83.91,165.56,360.61,Single-ply,SBD,M
Boys,67.13,11,Reed Kilpatrick,Lorena,63.14,136.08,74.84,136.08,347,Single-ply,SBD,M
Boys,67.13,12,Jackson Krall,Lorena,64.68,136.08,81.65,124.74,342.46,Single-ply,SBD,M
Boys,67.13,13,Hunter Solano,Waco Reicher Catholic,61.96,140.61,63.5,133.81,337.93,Single-ply,SBD,M
Boys,67.13,14,Keegan Robinson,Lorena,63.05,92.99,56.7,113.4,263.08,Single-ply,SBD,M
Boys,67.13,DQ,Joey Leavelle,Robinson,65.59,145.15,,,,Single-ply,SBD,M
Boys,67.13,DQ,Brandon Pack,Robinson,64.95,102.06,,,,Single-ply,SBD,M
Boys,67.13,DQ,Noah Contella,Waco Reicher Catholic,64.23,,,,,Single-ply,SBD,M
Boys,74.84,1,Alex Leos,Robinson,70.76,226.8,136.08,229.06,591.94,Single-ply,SBD,M
Boys,74.84,2,Brandon Fortune,Alvarado,73.3,170.1,104.33,208.65,483.08,Single-ply,SBD,M
Boys,82.1,3,Juan Lince,Hillsboro,75.02,176.9,108.86,183.7,469.47,Single-ply,SBD,M
Boys,74.84,4,Stephen Mitchell,Robinson,71.76,181.44,95.25,190.51,467.2,Single-ply,SBD,M
Boys,74.84,5,Brett Boles,McGregor,71.85,181.44,86.18,195.04,462.66,Single-ply,SBD,M
Boys,74.84,6,Jimmie Joiner,Lorena,72.76,176.9,92.99,188.24,458.13,Single-ply,SBD,M
Boys,74.84,7,Kyle Castilleja,Hearne,68.76,147.42,92.99,213.19,453.59,Single-ply,SBD,M
Boys,74.84,8,Garrett Salas,McGregor,72.12,163.29,95.25,181.44,439.98,Single-ply,SBD,M
Boys,74.84,9,Marco Castro,Waco Reicher Catholic,71.89,172.37,88.45,158.76,419.57,Single-ply,SBD,M
Boys,74.84,10,Gage Meadows,Lorena,73.94,138.35,108.86,151.95,399.16,Single-ply,SBD,M
Boys,74.84,11,Ty Mooney,McGregor,70.85,181.44,70.31,136.08,387.82,Single-ply,SBD,M
Boys,74.84,12,Josh Gillespie,Stephenville,68.4,145.15,79.38,156.49,381.02,Single-ply,SBD,M
Boys,74.84,13,Dawson Lochridge,Whitney,70.76,133.81,88.45,158.76,381.02,Single-ply,SBD,M
Boys,74.84,14,Cameron Terrell,Waco Connally,70.94,179.17,104.33,,283.5,Single-ply,SB,M
Boys,82.1,DQ,Gage Hodges,Valley Mills,75.02,,,,,Single-ply,SB,M
Boys,74.84,DQ,Chris Sosebee,Whitney,68.58,190.51,,,,Single-ply,SB,M
Boys,74.84,DQ,Peter McCoy,Waco Reicher Catholic,74.21,,,,,Single-ply,SB,M
Boys,82.1,1,Alex O'Neill,Waco Reicher Catholic,82.1,192.78,120.2,204.12,517.1,Single-ply,SBD,M
Boys,82.1,2,Darian Robinson,Waco Connally,82.1,192.78,115.67,192.78,501.22,Single-ply,SBD,M
Boys,82.1,3,Aaron Dulus,Waco Connally,81.47,190.51,124.74,183.7,498.95,Single-ply,SBD,M
Boys,82.1,4,Victor Mendoza,Hearne,80.83,176.9,117.93,197.31,492.15,Single-ply,SBD,M
Boys,82.1,5,Taylor Fox,McGregor,82.1,181.44,120.2,158.76,460.4,Single-ply,SBD,M
Boys,82.1,6,Ricky Thompson,Robinson,77.47,176.9,86.18,185.97,449.06,Single-ply,SBD,M
Boys,89.81,7,Kenneth Collins,Valley Mills,82.28,174.63,92.99,172.37,439.98,Single-ply,SBD,M
Boys,82.1,8,Manny Garcia,Waco La Vega,78.2,167.83,99.79,163.29,430.91,Single-ply,SBD,M
Boys,82.1,9,Zach Rogers,Valley Mills,76.66,145.15,90.72,158.76,394.63,Single-ply,SBD,M
Boys,82.1,10,Chris Dingrando,Whitney,79.02,145.15,102.06,145.15,392.36,Single-ply,SBD,M
Boys,82.1,11,Robert Branham,Waco Reicher Catholic,76.48,131.54,81.65,127.01,340.19,Single-ply,SBD,M
Boys,82.1,12,Waggoner Nors,Hillsboro,77.93,111.13,68.04,124.74,303.91,Single-ply,SBD,M
Boys,89.81,1,Gerald Horne II,Waco La Vega,88.36,208.65,140.61,219.99,569.26,Single-ply,SBD,M
Boys,89.81,2,Kenny Adams,Alvarado,89.72,195.04,124.74,215.46,535.24,Single-ply,SBD,M
Boys,89.81,3,Sean McGrew,Hearne,82.64,199.58,113.4,215.46,528.44,Single-ply,SBD,M
Boys,89.81,4,Wayne Onderdonck,Alvarado,85.09,172.37,122.47,219.99,514.83,Single-ply,SBD,M
Boys,89.81,5,Randy Gober,Waco La Vega,83.19,188.24,136.08,185.97,510.29,Single-ply,SBD,M
Boys,89.81,6,Nick Johnson,Hearne,86.55,179.17,113.4,217.72,510.29,Single-ply,SBD,M
Boys,89.81,7,Jarred Goedeke,Robinson,83.55,176.9,104.33,208.65,489.88,Single-ply,SBD,M
Boys,89.81,8,Garrett Tanner,Stephenville,82.92,165.56,111.13,181.44,458.13,Single-ply,SBD,M
Boys,89.81,9,Eduardo Cruz Rubio,Hillsboro,84.55,185.97,97.52,165.56,449.06,Single-ply,SBD,M
Boys,89.81,10,Rowdy Goff,Alvarado,83.64,149.69,102.06,170.1,421.84,Single-ply,SBD,M
Boys,89.81,11,Robert Perez,Waco Reicher Catholic,84.73,149.69,95.25,142.88,387.82,Single-ply,SBD,M
Boys,89.81,12,Kyle Perlowski,Lorena,87.09,149.69,97.52,140.61,387.82,Single-ply,SBD,M
Boys,89.81,13,Patrick Hovin,McGregor,84.91,136.08,99.79,136.08,371.95,Single-ply,SBD,M
Boys,89.81,14,Taylor Robinson,McGregor,86,90.72,90.72,124.74,306.17,Single-ply,SBD,M
Boys,89.81,15,Patrick Cresson,Lorena,88.36,117.93,74.84,106.59,299.37,Single-ply,SBD,M
Boys,89.81,DQ,Kendall Wimberly,Whitney,82.55,136.08,,,,Single-ply,SBD,M
Boys,89.81,DQ,Toby Amerson,Whitney,85.05,,,,,Single-ply,SBD,M
Boys,89.81,DQ,Gerald Horne III,Waco La Vega,88.81,,,,,Single-ply,SBD,M
Boys,89.81,DQ,Noah Perez,Stephenville,84.64,127.01,,,,Single-ply,SBD,M
Boys,99.79,1,Omar Cardoso,Waco Reicher Catholic,98.52,258.55,124.74,244.94,628.23,Single-ply,SBD,M
Boys,99.79,2,Shaq Walker,Waco La Vega,98.7,260.82,129.27,238.14,628.23,Single-ply,SBD,M
Boys,99.79,3,Chris Robinson #5,Waco Connally,93.53,231.33,129.27,226.8,587.4,Single-ply,SBD,M
Boys,109.77,4,Guadalupe Munoz,Waco La Vega,99.97,224.53,138.35,183.7,546.58,Single-ply,SBD,M
Boys,99.79,5,Nick Maddox,Waco Reicher Catholic,96.16,188.24,106.59,217.72,512.56,Single-ply,SBD,M
Boys,99.79,6,Jacob Martin,Stephenville,92.26,154.22,95.25,149.69,399.16,Single-ply,SBD,M
Boys,99.79,7,Drew Zacharias,McGregor,97.07,124.74,70.31,136.08,331.12,Single-ply,SBD,M
Boys,109.77,1,Luis Ramírez,Waco Reicher Catholic,109.77,278.96,176.9,242.67,698.53,Single-ply,SBD,M
Boys,109.77,2,Riley Hubert,McGregor,104.24,260.82,136.08,231.33,628.23,Single-ply,SBD,M
Boys,109.77,3,Josh Carroll,Waco La Vega,105.37,235.87,138.35,242.67,616.89,Single-ply,SBD,M
Boys,109.77,4,Ryan de la Garza,Waco Connally,105.69,272.16,131.54,213.19,616.89,Single-ply,SBD,M
Boys,109.77,5,Alfredo Librado,Hillsboro,109.13,219.99,147.42,188.24,555.65,Single-ply,SBD,M
Boys,124.74,6,Eric Zavala,Hillsboro,109.86,206.38,115.67,201.85,523.9,Single-ply,SBD,M
Boys,109.77,7,Edgar Mendietta,Hillsboro,107.5,199.58,115.67,185.97,501.22,Single-ply,SBD,M
Boys,109.77,8,Arthur Kelley,Whitney,104.24,183.7,99.79,188.24,471.74,Single-ply,SBD,M
Boys,109.77,9,Luis Montoya,Whitney,109.77,147.42,77.11,136.08,360.61,Single-ply,SBD,M
Boys,124.74,1,Dwight Holder,Waco La Vega,120.2,263.08,140.61,229.06,632.76,Single-ply,SBD,M
Boys,124.74+,2,Augie Hinojosa,Whitney,124.92,258.55,142.88,226.8,628.23,Single-ply,SBD,M
Boys,124.74,3,Andy McNew,Robinson,116.66,238.14,138.35,217.72,594.21,Single-ply,SBD,M
Boys,124.74,4,Matt Diaz,Stephenville,115.94,204.12,149.69,181.44,535.24,Single-ply,SBD,M
Boys,124.74,5,Tyler Ferguson,Stephenville,111.77,192.78,142.88,192.78,528.44,Single-ply,SBD,M
Boys,124.74,6,Manuel Hernandez,Waco Reicher Catholic,111.58,199.58,129.27,172.37,501.22,Single-ply,SBD,M
Boys,124.74,7,Lucas Morales,Waco Reicher Catholic,122.92,181.44,104.33,199.58,485.34,Single-ply,SBD,M
Boys,124.74,8,Austin Allsup,Lorena,113.13,192.78,102.06,172.37,467.2,Single-ply,SBD,M
Boys,124.74,9,Juan DeLuna,Hillsboro,114.31,145.15,97.52,167.83,410.5,Single-ply,SBD,M
Boys,124.74,10,David Garcia,Hillsboro,115.3,158.76,88.45,151.95,399.16,Single-ply,SBD,M
Boys,124.74,11,Travis Tanner,Waco Reicher Catholic,120.29,151.95,81.65,151.95,385.55,Single-ply,SBD,M
Boys,124.74,12,Abram Villescaz,Waco Reicher Catholic,113.76,124.74,74.84,149.69,349.27,Single-ply,SBD,M
Boys,124.74+,1,Allen Hodge,Hillsboro,137.8,281.23,197.31,231.33,709.87,Single-ply,SBD,M
Boys,124.74+,2,Pedro Salvador,Hillsboro,125.28,235.87,156.49,208.65,601.01,Single-ply,SBD,M
Boys,124.74+,3,Edgar Salvador,Hillsboro,143.61,226.8,145.15,206.38,578.33,Single-ply,SBD,M
Boys,124.74+,4,Jordan Kilcrease,Stephenville,133.36,233.6,149.69,188.24,571.53,Single-ply,SBD,M
Boys,124.74+,5,Trevor Beard,Lorena,126.19,226.8,131.54,204.12,562.45,Single-ply,SBD,M
Boys,124.74+,6,Bryan Manley,Stephenville,131.72,206.38,120.2,206.38,532.97,Single-ply,SBD,M
Boys,124.74+,7,Brandon Cross,Alvarado,126.55,172.37,102.06,158.76,433.18,Single-ply,SBD,M
Boys,124.74+,8,Narciso Molina,Waco Connally,125.46,174.63,92.99,156.49,424.11,Single-ply,SBD,M
Boys,124.74+,DQ,Jessie Wilson,Whitney,138.35,272.16,190.51,,,Single-ply,SBD,M
Boys,124.74+,DQ,Shane Murphy,Robinson,161.39,,,,,Single-ply,SBD,M
