Division,WeightClassKg,Place,Name,Team,BodyweightKg,Best3SquatKg,Best3BenchKg,Best3DeadliftKg,TotalKg,Equipment,Event,Sex
Boys,55.79,1,Cody Antilley,Pineland West Sabine,54.43,122.47,56.7,142.88,322.05,Single-ply,SBD,M
Boys,59.87,1,Cayle Bickham,Jasper,59.87,102.06,63.5,136.08,301.64,Single-ply,SBD,M
Boys,59.87,DQ,Casey Cox,Hemphill,59.87,95.25,,,,Single-ply,SBD,M
Boys,67.13,1,Mike Lewis,Newton,67.13,142.88,95.25,151.95,390.09,Single-ply,SBD,M
Boys,67.13,2,Sam McFarland,Jasper,61.23,113.4,92.99,142.88,349.27,Single-ply,SBD,M
Boys,67.13,3,Chance Mays,Jasper,61.23,115.67,74.84,154.22,344.73,Single-ply,SBD,M
Boys,67.13,DQ,Blake Hardwick,Hemphill,67.13,,,,,Single-ply,SBD,M
Boys,74.84,1,Jordan Jones,Pineland West Sabine,74.84,197.31,147.42,204.12,548.85,Single-ply,SBD,M
Boys,74.84,2,Sedric Williams,Newton,73.03,165.56,108.86,192.78,467.2,Single-ply,SBD,M
Boys,74.84,3,Stephon Johnson,Newton,71.21,158.76,111.13,190.51,460.4,Single-ply,SBD,M
Boys,74.84,4,Jesse Cann,Pineland West Sabine,74.84,136.08,104.33,192.78,433.18,Single-ply,SBD,M
Boys,74.84,5,Mack Wagner,Newton,68.95,122.47,99.79,149.69,371.95,Single-ply,SBD,M
Boys,74.84,6,Austin Mcanally,Hemphill,68.49,102.06,104.33,145.15,351.53,Single-ply,SBD,M
Boys,74.84,7,Clint Ellis,Jasper,74.84,106.59,63.5,142.88,312.98,Single-ply,SBD,M
Boys,82.1,1,Matt Glenn,Newton,81.65,201.85,147.42,235.87,585.13,Single-ply,SBD,M
Boys,82.1,2,Matthew Thomas,Hemphill,81.65,174.63,111.13,208.65,494.42,Single-ply,SBD,M
Boys,82.1,3,Kevin Clark,Newton,78.02,163.29,90.72,195.04,449.06,Single-ply,SBD,M
Boys,82.1,4,Dillon LeBlanc,Hemphill,81.65,102.06,86.18,151.95,340.19,Single-ply,SBD,M
Boys,82.1,DQ,Aj Cupps,Jasper,81.65,,,,,Single-ply,SBD,M
Boys,89.81,1,Robert Irving,Hemphill,88,158.76,151.95,210.92,521.63,Single-ply,SBD,M
Boys,89.81,2,Jamar Hunter,Newton,84.82,183.7,120.2,199.58,503.49,Single-ply,SBD,M
Boys,89.81,3,Chris Pegues,Newton,85.28,174.63,104.33,208.65,487.61,Single-ply,SBD,M
Boys,89.81,4,Michael Moore #7,Hemphill,88,124.74,104.33,185.97,415.04,Single-ply,SBD,M
Boys,89.81,5,Arron Smith,Pineland West Sabine,83.91,124.74,92.99,158.76,376.48,Single-ply,SBD,M
Boys,99.79,1,Blake Edminson,Pineland West Sabine,97.52,183.7,122.47,208.65,514.83,Single-ply,SBD,M
Boys,99.79,2,Daniel Benjamin,Newton,97.52,174.63,117.93,183.7,476.27,Single-ply,SBD,M
Boys,99.79,3,Brady Duffy,Pineland West Sabine,90.72,142.88,92.99,156.49,392.36,Single-ply,SBD,M
Boys,99.79,4,Bryce Edwards,Jasper,96.62,129.27,102.06,161.03,392.36,Single-ply,SBD,M
Boys,99.79,DQ,Zack Bronson,Jasper,90.72,154.22,,,,Single-ply,SBD,M
Boys,99.79,DQ,Jonathan Verdin,Pineland West Sabine,92.99,,,,,Single-ply,SBD,M
Boys,109.77,1,Dillon Bryer,Jasper,102.51,183.7,120.2,206.38,510.29,Single-ply,SBD,M
Boys,109.77,2,Anthony Grisby,Hemphill,104.33,174.63,113.4,204.12,492.15,Single-ply,SBD,M
Boys,109.77,3,Devante Green,Newton,101.6,165.56,106.59,167.83,439.98,Single-ply,SBD,M
Boys,109.77,4,Kevin Diggles,Newton,105.23,183.7,99.79,156.49,439.98,Single-ply,SBD,M
Boys,109.77,5,Anthony Wade,Jasper,105.69,161.03,102.06,151.95,415.04,Single-ply,SBD,M
Boys,109.77,DQ,Andrew Morgan,Hemphill,108.86,115.67,,,,Single-ply,SBD,M
Boys,124.74,1,Krishon Seastrunk,Newton,116.12,297.1,129.27,272.16,698.53,Single-ply,SBD,M
Boys,124.74,2,Garrett Bellomy,Jasper,112.49,206.38,122.47,210.92,539.77,Single-ply,SBD,M
Boys,124.74,3,Brett Childs,Newton,124.28,190.51,111.13,188.24,489.88,Single-ply,SBD,M
Boys,124.74,4,Keegan Preston,Jasper,117.03,133.81,83.91,165.56,383.29,Single-ply,SBD,M
Boys,124.74+,1,Jarvis Adams,Jasper,147.42,170.1,131.54,226.8,528.44,Single-ply,SBD,M
Boys,124.74+,2,Redrick Adams,Newton,129.27,206.38,102.06,197.31,505.76,Single-ply,SBD,M
Boys,124.74+,3,Matthew Dark,Hemphill,141.97,92.99,74.84,120.2,288.03,Single-ply,SBD,M
